<?xml version="1.0" encoding="utf-8" standalone="no"?>
<!DOCTYPE svg PUBLIC "-//W3C//DTD SVG 1.1//EN"
  "http://www.w3.org/Graphics/SVG/1.1/DTD/svg11.dtd">
<svg xmlns:xlink="http://www.w3.org/1999/xlink" width="460.8pt" height="345.6pt" viewBox="0 0 460.8 345.6" xmlns="http://www.w3.org/2000/svg" version="1.1">
 <metadata>
  <rdf:RDF xmlns:dc="http://purl.org/dc/elements/1.1/" xmlns:cc="http://creativecommons.org/ns#" xmlns:rdf="http://www.w3.org/1999/02/22-rdf-syntax-ns#">
   <cc:Work>
    <dc:type rdf:resource="http://purl.org/dc/dcmitype/StillImage"/>
    <dc:date>2022-05-16T19:33:19.711080</dc:date>
    <dc:format>image/svg+xml</dc:format>
    <dc:creator>
     <cc:Agent>
      <dc:title>Matplotlib v3.5.1, https://matplotlib.org/</dc:title>
     </cc:Agent>
    </dc:creator>
   </cc:Work>
  </rdf:RDF>
 </metadata>
 <defs>
  <style type="text/css">*{stroke-linejoin: round; stroke-linecap: butt}</style>
 </defs>
 <g id="figure_1">
  <g id="patch_1">
   <path d="M 0 345.6 
L 460.8 345.6 
L 460.8 0 
L 0 0 
z
" style="fill: #ffffff"/>
  </g>
  <g id="axes_1">
   <g id="patch_2">
    <path d="M 57.6 345.6 
L 403.2 345.6 
L 403.2 0 
L 57.6 0 
z
" style="fill: #ffffff"/>
   </g>
   <g id="matplotlib.axis_1"/>
   <g id="matplotlib.axis_2"/>
   <g id="line2d_1">
    <path d="M 186.092308 117.415385 
L 285.784615 117.415385 
" clip-path="url(#p63dba739d7)" style="fill: none; stroke: #0000ff; stroke-linecap: square"/>
   </g>
   <g id="patch_3">
    <path d="M 175.015385 117.415385 
Q 175.015385 228.184615 274.707692 228.184615 
" clip-path="url(#p63dba739d7)" style="fill: none; stroke: #0000ff; stroke-linejoin: miter"/>
   </g>
   <g id="line2d_2">
    <path d="M 274.707692 228.184615 
L 274.707692 228.184615 
" clip-path="url(#p63dba739d7)" style="fill: none; stroke: #0000ff; stroke-linecap: square"/>
   </g>
   <g id="patch_4">
    <path d="M 163.938462 117.415385 
Q 64.246154 117.415385 64.246154 228.184615 
" clip-path="url(#p63dba739d7)" style="fill: none; stroke: #0000ff; stroke-linejoin: miter"/>
   </g>
   <g id="line2d_3">
    <path d="M 64.246154 228.184615 
L 64.246154 228.184615 
" clip-path="url(#p63dba739d7)" style="fill: none; stroke: #0000ff; stroke-linecap: square"/>
   </g>
   <g id="patch_5">
    <path d="M 64.246154 228.184615 
Q 64.246154 338.953846 175.015385 338.953846 
" clip-path="url(#p63dba739d7)" style="fill: none; stroke: #0000ff; stroke-linejoin: miter"/>
   </g>
   <g id="line2d_4">
    <path d="M 175.015385 338.953846 
L 175.015385 338.953846 
" clip-path="url(#p63dba739d7)" style="fill: none; stroke: #0000ff; stroke-linecap: square"/>
   </g>
   <g id="patch_6">
    <path d="M 175.015385 338.953846 
Q 285.784615 338.953846 285.784615 228.184615 
" clip-path="url(#p63dba739d7)" style="fill: none; stroke: #0000ff; stroke-linejoin: miter"/>
   </g>
   <g id="line2d_5">
    <path d="M 285.784615 228.184615 
L 285.784615 228.184615 
" clip-path="url(#p63dba739d7)" style="fill: none; stroke: #0000ff; stroke-linecap: square"/>
   </g>
   <g id="patch_7">
    <path d="M 175.015385 117.415385 
C 175.015385 6.646154 285.784615 6.646154 285.784615 106.338462 
" clip-path="url(#p63dba739d7)" style="fill: none; stroke: #0000ff; stroke-linejoin: miter"/>
   </g>
   <g id="line2d_6">
    <path d="M 285.784615 106.338462 
L 285.784615 106.338462 
" clip-path="url(#p63dba739d7)" style="fill: none; stroke: #0000ff; stroke-linecap: square"/>
   </g>
   <g id="line2d_7">
    <path d="M 285.784615 128.492308 
L 285.784615 228.184615 
" clip-path="url(#p63dba739d7)" style="fill: none; stroke: #0000ff; stroke-linecap: square"/>
   </g>
   <g id="patch_8">
    <path d="M 285.784615 117.415385 
C 396.553846 117.415385 396.553846 228.184615 296.861538 228.184615 
" clip-path="url(#p63dba739d7)" style="fill: none; stroke: #0000ff; stroke-linejoin: miter"/>
   </g>
   <g id="line2d_8">
    <path d="M 296.861538 228.184615 
L 296.861538 228.184615 
" clip-path="url(#p63dba739d7)" style="fill: none; stroke: #0000ff; stroke-linecap: square"/>
   </g>
  </g>
 </g>
 <defs>
  <clipPath id="p63dba739d7">
   <rect x="57.6" y="0" width="345.6" height="345.6"/>
  </clipPath>
 </defs>
</svg>
