<?xml version="1.0" encoding="utf-8" standalone="no"?>
<!DOCTYPE svg PUBLIC "-//W3C//DTD SVG 1.1//EN"
  "http://www.w3.org/Graphics/SVG/1.1/DTD/svg11.dtd">
<svg xmlns:xlink="http://www.w3.org/1999/xlink" width="460.8pt" height="345.6pt" viewBox="0 0 460.8 345.6" xmlns="http://www.w3.org/2000/svg" version="1.1">
 <metadata>
  <rdf:RDF xmlns:dc="http://purl.org/dc/elements/1.1/" xmlns:cc="http://creativecommons.org/ns#" xmlns:rdf="http://www.w3.org/1999/02/22-rdf-syntax-ns#">
   <cc:Work>
    <dc:type rdf:resource="http://purl.org/dc/dcmitype/StillImage"/>
    <dc:date>2022-05-16T19:33:20.797220</dc:date>
    <dc:format>image/svg+xml</dc:format>
    <dc:creator>
     <cc:Agent>
      <dc:title>Matplotlib v3.5.1, https://matplotlib.org/</dc:title>
     </cc:Agent>
    </dc:creator>
   </cc:Work>
  </rdf:RDF>
 </metadata>
 <defs>
  <style type="text/css">*{stroke-linejoin: round; stroke-linecap: butt}</style>
 </defs>
 <g id="figure_1">
  <g id="patch_1">
   <path d="M 0 345.6 
L 460.8 345.6 
L 460.8 0 
L 0 0 
z
" style="fill: #ffffff"/>
  </g>
  <g id="axes_1">
   <g id="patch_2">
    <path d="M 57.6 345.6 
L 403.2 345.6 
L 403.2 0 
L 57.6 0 
z
" style="fill: #ffffff"/>
   </g>
   <g id="matplotlib.axis_1"/>
   <g id="matplotlib.axis_2"/>
   <g id="patch_3">
    <path d="M 238.707692 89.723077 
Q 313.476923 89.723077 313.476923 172.8 
" clip-path="url(#pf888793240)" style="fill: none; stroke: #0000ff; stroke-linejoin: miter"/>
   </g>
   <g id="line2d_1">
    <path d="M 313.476923 172.8 
L 313.476923 172.8 
" clip-path="url(#pf888793240)" style="fill: none; stroke: #0000ff; stroke-linecap: square"/>
   </g>
   <g id="line2d_2">
    <path d="M 230.4 89.723077 
L 230.4 164.492308 
" clip-path="url(#pf888793240)" style="fill: none; stroke: #0000ff; stroke-linecap: square"/>
   </g>
   <g id="patch_4">
    <path d="M 222.092308 89.723077 
C 147.323077 89.723077 147.323077 172.8 222.092308 172.8 
" clip-path="url(#pf888793240)" style="fill: none; stroke: #0000ff; stroke-linejoin: miter"/>
   </g>
   <g id="line2d_3">
    <path d="M 222.092308 172.8 
L 230.4 172.8 
" clip-path="url(#pf888793240)" style="fill: none; stroke: #0000ff; stroke-linecap: square"/>
   </g>
   <g id="patch_5">
    <path d="M 230.4 89.723077 
Q 230.4 6.646154 147.323077 6.646154 
" clip-path="url(#pf888793240)" style="fill: none; stroke: #0000ff; stroke-linejoin: miter"/>
   </g>
   <g id="line2d_4">
    <path d="M 147.323077 6.646154 
L 147.323077 6.646154 
" clip-path="url(#pf888793240)" style="fill: none; stroke: #0000ff; stroke-linecap: square"/>
   </g>
   <g id="patch_6">
    <path d="M 147.323077 6.646154 
Q 64.246154 6.646154 64.246154 89.723077 
" clip-path="url(#pf888793240)" style="fill: none; stroke: #0000ff; stroke-linejoin: miter"/>
   </g>
   <g id="line2d_5">
    <path d="M 64.246154 89.723077 
L 64.246154 172.8 
" clip-path="url(#pf888793240)" style="fill: none; stroke: #0000ff; stroke-linecap: square"/>
   </g>
   <g id="patch_7">
    <path d="M 64.246154 172.8 
Q 64.246154 255.876923 147.323077 255.876923 
" clip-path="url(#pf888793240)" style="fill: none; stroke: #0000ff; stroke-linejoin: miter"/>
   </g>
   <g id="line2d_6">
    <path d="M 147.323077 255.876923 
L 222.092308 255.876923 
" clip-path="url(#pf888793240)" style="fill: none; stroke: #0000ff; stroke-linecap: square"/>
   </g>
   <g id="line2d_7">
    <path d="M 305.169231 172.8 
L 230.4 172.8 
" clip-path="url(#pf888793240)" style="fill: none; stroke: #0000ff; stroke-linecap: square"/>
   </g>
   <g id="patch_8">
    <path d="M 321.784615 172.8 
Q 396.553846 172.8 396.553846 255.876923 
" clip-path="url(#pf888793240)" style="fill: none; stroke: #0000ff; stroke-linejoin: miter"/>
   </g>
   <g id="line2d_8">
    <path d="M 396.553846 255.876923 
L 396.553846 255.876923 
" clip-path="url(#pf888793240)" style="fill: none; stroke: #0000ff; stroke-linecap: square"/>
   </g>
   <g id="patch_9">
    <path d="M 396.553846 255.876923 
Q 396.553846 338.953846 313.476923 338.953846 
" clip-path="url(#pf888793240)" style="fill: none; stroke: #0000ff; stroke-linejoin: miter"/>
   </g>
   <g id="line2d_9">
    <path d="M 313.476923 338.953846 
L 313.476923 338.953846 
" clip-path="url(#pf888793240)" style="fill: none; stroke: #0000ff; stroke-linecap: square"/>
   </g>
   <g id="patch_10">
    <path d="M 313.476923 338.953846 
Q 230.4 338.953846 230.4 255.876923 
" clip-path="url(#pf888793240)" style="fill: none; stroke: #0000ff; stroke-linejoin: miter"/>
   </g>
   <g id="line2d_10">
    <path d="M 230.4 255.876923 
L 230.4 255.876923 
" clip-path="url(#pf888793240)" style="fill: none; stroke: #0000ff; stroke-linecap: square"/>
   </g>
   <g id="patch_11">
    <path d="M 313.476923 172.8 
Q 313.476923 255.876923 238.707692 255.876923 
" clip-path="url(#pf888793240)" style="fill: none; stroke: #0000ff; stroke-linejoin: miter"/>
   </g>
   <g id="line2d_11">
    <path d="M 238.707692 255.876923 
L 238.707692 255.876923 
" clip-path="url(#pf888793240)" style="fill: none; stroke: #0000ff; stroke-linecap: square"/>
   </g>
   <g id="line2d_12">
    <path d="M 230.4 181.107692 
L 230.4 255.876923 
" clip-path="url(#pf888793240)" style="fill: none; stroke: #0000ff; stroke-linecap: square"/>
   </g>
  </g>
 </g>
 <defs>
  <clipPath id="pf888793240">
   <rect x="57.6" y="0" width="345.6" height="345.6"/>
  </clipPath>
 </defs>
</svg>
