<?xml version="1.0" encoding="utf-8" standalone="no"?>
<!DOCTYPE svg PUBLIC "-//W3C//DTD SVG 1.1//EN"
  "http://www.w3.org/Graphics/SVG/1.1/DTD/svg11.dtd">
<svg xmlns:xlink="http://www.w3.org/1999/xlink" width="460.8pt" height="345.6pt" viewBox="0 0 460.8 345.6" xmlns="http://www.w3.org/2000/svg" version="1.1">
 <metadata>
  <rdf:RDF xmlns:dc="http://purl.org/dc/elements/1.1/" xmlns:cc="http://creativecommons.org/ns#" xmlns:rdf="http://www.w3.org/1999/02/22-rdf-syntax-ns#">
   <cc:Work>
    <dc:type rdf:resource="http://purl.org/dc/dcmitype/StillImage"/>
    <dc:date>2022-05-16T19:30:37.749801</dc:date>
    <dc:format>image/svg+xml</dc:format>
    <dc:creator>
     <cc:Agent>
      <dc:title>Matplotlib v3.5.1, https://matplotlib.org/</dc:title>
     </cc:Agent>
    </dc:creator>
   </cc:Work>
  </rdf:RDF>
 </metadata>
 <defs>
  <style type="text/css">*{stroke-linejoin: round; stroke-linecap: butt}</style>
 </defs>
 <g id="figure_1">
  <g id="patch_1">
   <path d="M 0 345.6 
L 460.8 345.6 
L 460.8 0 
L 0 0 
z
" style="fill: #ffffff"/>
  </g>
  <g id="axes_1">
   <g id="patch_2">
    <path d="M 57.6 345.6 
L 403.2 345.6 
L 403.2 0 
L 57.6 0 
z
" style="fill: #ffffff"/>
   </g>
   <g id="patch_3">
    <path d="M 230.4 6.646154 
L 396.553846 6.646154 
L 64.246154 338.953846 
z
" clip-path="url(#pbbd29ed41b)" style="fill: #ccffcc"/>
   </g>
   <g id="patch_4">
    <path d="M 396.553846 172.8 
L 396.553846 6.646154 
L 64.246154 338.953846 
z
" clip-path="url(#pbbd29ed41b)" style="fill: #ccffcc"/>
   </g>
   <g id="line2d_1">
    <path d="M 396.553846 6.646154 
L 64.246154 338.953846 
" clip-path="url(#pbbd29ed41b)" style="fill: none; stroke: #00ff00; stroke-linecap: square"/>
   </g>
   <g id="line2d_2">
    <path d="M 230.4 6.646154 
L 396.553846 6.646154 
" clip-path="url(#pbbd29ed41b)" style="fill: none; stroke: #0000ff; stroke-linecap: square"/>
   </g>
   <g id="line2d_3">
    <path d="M 230.4 6.646154 
L 64.246154 338.953846 
" clip-path="url(#pbbd29ed41b)" style="fill: none; stroke: #0000ff; stroke-linecap: square"/>
   </g>
   <g id="line2d_4">
    <path d="M 396.553846 172.8 
L 396.553846 6.646154 
" clip-path="url(#pbbd29ed41b)" style="fill: none; stroke: #0000ff; stroke-linecap: square"/>
   </g>
   <g id="line2d_5">
    <path d="M 396.553846 172.8 
L 64.246154 338.953846 
" clip-path="url(#pbbd29ed41b)" style="fill: none; stroke: #0000ff; stroke-linecap: square"/>
   </g>
   <g id="matplotlib.axis_1"/>
   <g id="matplotlib.axis_2"/>
   <g id="PathCollection_1">
    <path d="M 230.4 174.381139 
C 230.819323 174.381139 231.221528 174.21454 231.518034 173.918034 
C 231.81454 173.621528 231.981139 173.219323 231.981139 172.8 
C 231.981139 172.380677 231.81454 171.978472 231.518034 171.681966 
C 231.221528 171.38546 230.819323 171.218861 230.4 171.218861 
C 229.980677 171.218861 229.578472 171.38546 229.281966 171.681966 
C 228.98546 171.978472 228.818861 172.380677 228.818861 172.8 
C 228.818861 173.219323 228.98546 173.621528 229.281966 173.918034 
C 229.578472 174.21454 229.980677 174.381139 230.4 174.381139 
z
" clip-path="url(#pbbd29ed41b)" style="fill: #0000ff"/>
   </g>
   <g id="PathCollection_2">
    <path d="M 230.4 8.227293 
C 230.819323 8.227293 231.221528 8.060694 231.518034 7.764188 
C 231.81454 7.467682 231.981139 7.065477 231.981139 6.646154 
C 231.981139 6.226831 231.81454 5.824626 231.518034 5.52812 
C 231.221528 5.231614 230.819323 5.065015 230.4 5.065015 
C 229.980677 5.065015 229.578472 5.231614 229.281966 5.52812 
C 228.98546 5.824626 228.818861 6.226831 228.818861 6.646154 
C 228.818861 7.065477 228.98546 7.467682 229.281966 7.764188 
C 229.578472 8.060694 229.980677 8.227293 230.4 8.227293 
z
" clip-path="url(#pbbd29ed41b)" style="fill: #0000ff"/>
   </g>
   <g id="PathCollection_3">
    <path d="M 396.553846 174.381139 
C 396.973169 174.381139 397.375374 174.21454 397.67188 173.918034 
C 397.968386 173.621528 398.134985 173.219323 398.134985 172.8 
C 398.134985 172.380677 397.968386 171.978472 397.67188 171.681966 
C 397.375374 171.38546 396.973169 171.218861 396.553846 171.218861 
C 396.134523 171.218861 395.732318 171.38546 395.435812 171.681966 
C 395.139306 171.978472 394.972707 172.380677 394.972707 172.8 
C 394.972707 173.219323 395.139306 173.621528 395.435812 173.918034 
C 395.732318 174.21454 396.134523 174.381139 396.553846 174.381139 
z
" clip-path="url(#pbbd29ed41b)" style="fill: #0000ff"/>
   </g>
   <g id="PathCollection_4">
    <path d="M 396.553846 8.227293 
C 396.973169 8.227293 397.375374 8.060694 397.67188 7.764188 
C 397.968386 7.467682 398.134985 7.065477 398.134985 6.646154 
C 398.134985 6.226831 397.968386 5.824626 397.67188 5.52812 
C 397.375374 5.231614 396.973169 5.065015 396.553846 5.065015 
C 396.134523 5.065015 395.732318 5.231614 395.435812 5.52812 
C 395.139306 5.824626 394.972707 6.226831 394.972707 6.646154 
C 394.972707 7.065477 395.139306 7.467682 395.435812 7.764188 
C 395.732318 8.060694 396.134523 8.227293 396.553846 8.227293 
z
" clip-path="url(#pbbd29ed41b)" style="fill: #0000ff"/>
   </g>
   <g id="PathCollection_5">
    <path d="M 64.246154 340.534985 
C 64.665477 340.534985 65.067682 340.368386 65.364188 340.07188 
C 65.660694 339.775374 65.827293 339.373169 65.827293 338.953846 
C 65.827293 338.534523 65.660694 338.132318 65.364188 337.835812 
C 65.067682 337.539306 64.665477 337.372707 64.246154 337.372707 
C 63.826831 337.372707 63.424626 337.539306 63.12812 337.835812 
C 62.831614 338.132318 62.665015 338.534523 62.665015 338.953846 
C 62.665015 339.373169 62.831614 339.775374 63.12812 340.07188 
C 63.424626 340.368386 63.826831 340.534985 64.246154 340.534985 
z
" clip-path="url(#pbbd29ed41b)" style="fill: #0000ff"/>
   </g>
  </g>
 </g>
 <defs>
  <clipPath id="pbbd29ed41b">
   <rect x="57.6" y="0" width="345.6" height="345.6"/>
  </clipPath>
 </defs>
</svg>
