<?xml version="1.0" encoding="utf-8" standalone="no"?>
<!DOCTYPE svg PUBLIC "-//W3C//DTD SVG 1.1//EN"
  "http://www.w3.org/Graphics/SVG/1.1/DTD/svg11.dtd">
<svg xmlns:xlink="http://www.w3.org/1999/xlink" width="460.8pt" height="345.6pt" viewBox="0 0 460.8 345.6" xmlns="http://www.w3.org/2000/svg" version="1.1">
 <metadata>
  <rdf:RDF xmlns:dc="http://purl.org/dc/elements/1.1/" xmlns:cc="http://creativecommons.org/ns#" xmlns:rdf="http://www.w3.org/1999/02/22-rdf-syntax-ns#">
   <cc:Work>
    <dc:type rdf:resource="http://purl.org/dc/dcmitype/StillImage"/>
    <dc:date>2022-05-16T19:35:04.299180</dc:date>
    <dc:format>image/svg+xml</dc:format>
    <dc:creator>
     <cc:Agent>
      <dc:title>Matplotlib v3.5.1, https://matplotlib.org/</dc:title>
     </cc:Agent>
    </dc:creator>
   </cc:Work>
  </rdf:RDF>
 </metadata>
 <defs>
  <style type="text/css">*{stroke-linejoin: round; stroke-linecap: butt}</style>
 </defs>
 <g id="figure_1">
  <g id="patch_1">
   <path d="M 0 345.6 
L 460.8 345.6 
L 460.8 0 
L 0 0 
z
" style="fill: #ffffff"/>
  </g>
  <g id="axes_1">
   <g id="patch_2">
    <path d="M 168.724407 345.6 
L 292.075593 345.6 
L 292.075593 0 
L 168.724407 0 
z
" style="fill: #ffffff"/>
   </g>
   <g id="patch_3">
    <path d="M 215.59713 240.314478 
Q 220.416371 288.66264 188.033684 321.826482 
" clip-path="url(#p0153a5f7a1)" style="fill: none; stroke: #000000; stroke-width: 2; stroke-linecap: round"/>
    <path d="M 198.597401 318.164803 
L 188.033684 321.826482 
L 191.442571 311.178501 
L 198.597401 318.164803 
z
" clip-path="url(#p0153a5f7a1)" style="stroke: #000000; stroke-width: 2; stroke-linecap: round"/>
   </g>
   <g id="patch_4">
    <path d="M 206.813601 239.383707 
Q 174.430915 272.547549 179.250156 320.895711 
" clip-path="url(#p0153a5f7a1)" style="fill: none; stroke: #000000; stroke-width: 2; stroke-linecap: round"/>
    <path d="M 196.249885 243.045386 
L 206.813601 239.383707 
L 203.404714 250.031687 
L 196.249885 243.045386 
z
" clip-path="url(#p0153a5f7a1)" style="stroke: #000000; stroke-width: 2; stroke-linecap: round"/>
   </g>
   <g id="matplotlib.axis_1"/>
   <g id="matplotlib.axis_2"/>
   <g id="patch_5">
    <path d="M 222.250921 226.317593 
Q 247.675713 209.516689 271.234956 193.948555 
" clip-path="url(#p0153a5f7a1)" style="fill: none; stroke: #000000; stroke-width: 2; stroke-linecap: round"/>
    <path d="M 260.135404 195.290175 
L 271.234956 193.948555 
L 265.64852 203.633169 
L 260.135404 195.290175 
z
" clip-path="url(#p0153a5f7a1)" style="stroke: #000000; stroke-width: 2; stroke-linecap: round"/>
   </g>
   <g id="patch_6">
    <path d="M 216.445328 222.426334 
Q 225.3855 176.949531 233.894346 133.666802 
" clip-path="url(#p0153a5f7a1)" style="fill: none; stroke: #000000; stroke-width: 2; stroke-linecap: round"/>
    <path d="M 227.059294 142.514517 
L 233.894346 133.666802 
L 236.871487 144.443472 
L 227.059294 142.514517 
z
" clip-path="url(#p0153a5f7a1)" style="stroke: #000000; stroke-width: 2; stroke-linecap: round"/>
   </g>
   <g id="patch_7">
    <path d="M 274.276782 178.411024 
Q 258.361857 155.158494 241.183975 130.060716 
" clip-path="url(#p0153a5f7a1)" style="fill: none; stroke: #000000; stroke-width: 2; stroke-linecap: round"/>
    <path d="M 272.75476 167.334768 
L 274.276782 178.411024 
L 264.502564 172.982888 
L 272.75476 167.334768 
z
" clip-path="url(#p0153a5f7a1)" style="stroke: #000000; stroke-width: 2; stroke-linecap: round"/>
   </g>
   <g id="patch_8">
    <path d="M 236.943303 113.58202 
Q 241.242679 69.144437 245.326718 26.932529 
" clip-path="url(#p0153a5f7a1)" style="fill: none; stroke: #000000; stroke-width: 2; stroke-linecap: round"/>
    <path d="M 239.386945 36.404546 
L 245.326718 26.932529 
L 249.340467 37.367558 
L 239.386945 36.404546 
z
" clip-path="url(#p0153a5f7a1)" style="stroke: #000000; stroke-width: 2; stroke-linecap: round"/>
   </g>
   <g id="patch_9">
    <path d="M 214.699356 240.359111 
C 217.099811 240.359111 219.402273 239.4054 221.099652 237.708022 
C 222.79703 236.010644 223.750741 233.708182 223.750741 231.307727 
C 223.750741 228.907272 222.79703 226.60481 221.099652 224.907432 
C 219.402273 223.210053 217.099811 222.256343 214.699356 222.256343 
C 212.298901 222.256343 209.996439 223.210053 208.299061 224.907432 
C 206.601683 226.60481 205.647972 228.907272 205.647972 231.307727 
C 205.647972 233.708182 206.601683 236.010644 208.299061 237.708022 
C 209.996439 239.4054 212.298901 240.359111 214.699356 240.359111 
z
" style="fill: #fec7b8; stroke: #000000; stroke-linejoin: miter"/>
   </g>
   <g id="patch_10">
    <path d="M 280.652071 196.777036 
C 283.052526 196.777036 285.354988 195.823325 287.052366 194.125947 
C 288.749744 192.428569 289.703455 190.126107 289.703455 187.725652 
C 289.703455 185.325196 288.749744 183.022734 287.052366 181.325356 
C 285.354988 179.627978 283.052526 178.674267 280.652071 178.674267 
C 278.251615 178.674267 275.949153 179.627978 274.251775 181.325356 
C 272.554397 183.022734 271.600686 185.325196 271.600686 187.725652 
C 271.600686 190.126107 272.554397 192.428569 274.251775 194.125947 
C 275.949153 195.823325 278.251615 196.777036 280.652071 196.777036 
z
" style="fill: #fec7b8; stroke: #000000; stroke-linejoin: miter"/>
   </g>
   <g id="patch_11">
    <path d="M 236.071644 131.64272 
C 238.472099 131.64272 240.774561 130.689009 242.471939 128.991631 
C 244.169318 127.294253 245.123029 124.991791 245.123029 122.591336 
C 245.123029 120.19088 244.169318 117.888418 242.471939 116.19104 
C 240.774561 114.493662 238.472099 113.539951 236.071644 113.539951 
C 233.671189 113.539951 231.368727 114.493662 229.671349 116.19104 
C 227.973971 117.888418 227.02026 120.19088 227.02026 122.591336 
C 227.02026 124.991791 227.973971 127.294253 229.671349 128.991631 
C 231.368727 130.689009 233.671189 131.64272 236.071644 131.64272 
z
" style="fill: #fec7b8; stroke: #000000; stroke-linejoin: miter"/>
   </g>
   <g id="patch_12">
    <path d="M 180.147929 338.953846 
C 182.548385 338.953846 184.850847 338.000135 186.548225 336.302757 
C 188.245603 334.605379 189.199314 332.302917 189.199314 329.902462 
C 189.199314 327.502007 188.245603 325.199545 186.548225 323.502166 
C 184.850847 321.804788 182.548385 320.851077 180.147929 320.851077 
C 177.747474 320.851077 175.445012 321.804788 173.747634 323.502166 
C 172.050256 325.199545 171.096545 327.502007 171.096545 329.902462 
C 171.096545 332.302917 172.050256 334.605379 173.747634 336.302757 
C 175.445012 338.000135 177.747474 338.953846 180.147929 338.953846 
z
" style="fill: #fec7b8; stroke: #000000; stroke-linejoin: miter"/>
   </g>
   <g id="patch_13">
    <path d="M 246.413713 24.748923 
C 248.814169 24.748923 251.11663 23.795212 252.814009 22.097834 
C 254.511387 20.400455 255.465098 18.097993 255.465098 15.697538 
C 255.465098 13.297083 254.511387 10.994621 252.814009 9.297243 
C 251.11663 7.599865 248.814169 6.646154 246.413713 6.646154 
C 244.013258 6.646154 241.710796 7.599865 240.013418 9.297243 
C 238.31604 10.994621 237.362329 13.297083 237.362329 15.697538 
C 237.362329 18.097993 238.31604 20.400455 240.013418 22.097834 
C 241.710796 23.795212 244.013258 24.748923 246.413713 24.748923 
z
" style="fill: #fec7b8; stroke: #000000; stroke-linejoin: miter"/>
   </g>
   <g id="text_1">
    <!-- 0 -->
    <g transform="translate(211.518106 234.067102)scale(0.1 -0.1)">
     <defs>
      <path id="DejaVuSans-30" d="M 2034 4250 
Q 1547 4250 1301 3770 
Q 1056 3291 1056 2328 
Q 1056 1369 1301 889 
Q 1547 409 2034 409 
Q 2525 409 2770 889 
Q 3016 1369 3016 2328 
Q 3016 3291 2770 3770 
Q 2525 4250 2034 4250 
z
M 2034 4750 
Q 2819 4750 3233 4129 
Q 3647 3509 3647 2328 
Q 3647 1150 3233 529 
Q 2819 -91 2034 -91 
Q 1250 -91 836 529 
Q 422 1150 422 2328 
Q 422 3509 836 4129 
Q 1250 4750 2034 4750 
z
" transform="scale(0.015625)"/>
     </defs>
     <use xlink:href="#DejaVuSans-30"/>
    </g>
   </g>
   <g id="text_2">
    <!-- 1 -->
    <g transform="translate(277.470821 190.485027)scale(0.1 -0.1)">
     <defs>
      <path id="DejaVuSans-31" d="M 794 531 
L 1825 531 
L 1825 4091 
L 703 3866 
L 703 4441 
L 1819 4666 
L 2450 4666 
L 2450 531 
L 3481 531 
L 3481 0 
L 794 0 
L 794 531 
z
" transform="scale(0.015625)"/>
     </defs>
     <use xlink:href="#DejaVuSans-31"/>
    </g>
   </g>
   <g id="text_3">
    <!-- 2 -->
    <g transform="translate(232.890394 125.350711)scale(0.1 -0.1)">
     <defs>
      <path id="DejaVuSans-32" d="M 1228 531 
L 3431 531 
L 3431 0 
L 469 0 
L 469 531 
Q 828 903 1448 1529 
Q 2069 2156 2228 2338 
Q 2531 2678 2651 2914 
Q 2772 3150 2772 3378 
Q 2772 3750 2511 3984 
Q 2250 4219 1831 4219 
Q 1534 4219 1204 4116 
Q 875 4013 500 3803 
L 500 4441 
Q 881 4594 1212 4672 
Q 1544 4750 1819 4750 
Q 2544 4750 2975 4387 
Q 3406 4025 3406 3419 
Q 3406 3131 3298 2873 
Q 3191 2616 2906 2266 
Q 2828 2175 2409 1742 
Q 1991 1309 1228 531 
z
" transform="scale(0.015625)"/>
     </defs>
     <use xlink:href="#DejaVuSans-32"/>
    </g>
   </g>
   <g id="text_4">
    <!-- 3 -->
    <g transform="translate(176.966679 332.661837)scale(0.1 -0.1)">
     <defs>
      <path id="DejaVuSans-33" d="M 2597 2516 
Q 3050 2419 3304 2112 
Q 3559 1806 3559 1356 
Q 3559 666 3084 287 
Q 2609 -91 1734 -91 
Q 1441 -91 1130 -33 
Q 819 25 488 141 
L 488 750 
Q 750 597 1062 519 
Q 1375 441 1716 441 
Q 2309 441 2620 675 
Q 2931 909 2931 1356 
Q 2931 1769 2642 2001 
Q 2353 2234 1838 2234 
L 1294 2234 
L 1294 2753 
L 1863 2753 
Q 2328 2753 2575 2939 
Q 2822 3125 2822 3475 
Q 2822 3834 2567 4026 
Q 2313 4219 1838 4219 
Q 1578 4219 1281 4162 
Q 984 4106 628 3988 
L 628 4550 
Q 988 4650 1302 4700 
Q 1616 4750 1894 4750 
Q 2613 4750 3031 4423 
Q 3450 4097 3450 3541 
Q 3450 3153 3228 2886 
Q 3006 2619 2597 2516 
z
" transform="scale(0.015625)"/>
     </defs>
     <use xlink:href="#DejaVuSans-33"/>
    </g>
   </g>
   <g id="text_5">
    <!-- 4 -->
    <g transform="translate(243.232463 18.456913)scale(0.1 -0.1)">
     <defs>
      <path id="DejaVuSans-34" d="M 2419 4116 
L 825 1625 
L 2419 1625 
L 2419 4116 
z
M 2253 4666 
L 3047 4666 
L 3047 1625 
L 3713 1625 
L 3713 1100 
L 3047 1100 
L 3047 0 
L 2419 0 
L 2419 1100 
L 313 1100 
L 313 1709 
L 2253 4666 
z
" transform="scale(0.015625)"/>
     </defs>
     <use xlink:href="#DejaVuSans-34"/>
    </g>
   </g>
  </g>
 </g>
 <defs>
  <clipPath id="p0153a5f7a1">
   <rect x="168.724407" y="0" width="123.351186" height="345.6"/>
  </clipPath>
 </defs>
</svg>
