<?xml version="1.0" encoding="utf-8" standalone="no"?>
<!DOCTYPE svg PUBLIC "-//W3C//DTD SVG 1.1//EN"
  "http://www.w3.org/Graphics/SVG/1.1/DTD/svg11.dtd">
<svg xmlns:xlink="http://www.w3.org/1999/xlink" width="460.8pt" height="345.6pt" viewBox="0 0 460.8 345.6" xmlns="http://www.w3.org/2000/svg" version="1.1">
 <metadata>
  <rdf:RDF xmlns:dc="http://purl.org/dc/elements/1.1/" xmlns:cc="http://creativecommons.org/ns#" xmlns:rdf="http://www.w3.org/1999/02/22-rdf-syntax-ns#">
   <cc:Work>
    <dc:type rdf:resource="http://purl.org/dc/dcmitype/StillImage"/>
    <dc:date>2022-05-16T19:35:05.361081</dc:date>
    <dc:format>image/svg+xml</dc:format>
    <dc:creator>
     <cc:Agent>
      <dc:title>Matplotlib v3.5.1, https://matplotlib.org/</dc:title>
     </cc:Agent>
    </dc:creator>
   </cc:Work>
  </rdf:RDF>
 </metadata>
 <defs>
  <style type="text/css">*{stroke-linejoin: round; stroke-linecap: butt}</style>
 </defs>
 <g id="figure_1">
  <g id="patch_1">
   <path d="M 0 345.6 
L 460.8 345.6 
L 460.8 0 
L 0 0 
z
" style="fill: #ffffff"/>
  </g>
  <g id="axes_1">
   <g id="patch_2">
    <path d="M 91.500628 345.6 
L 369.299372 345.6 
L 369.299372 0 
L 91.500628 0 
z
" style="fill: #ffffff"/>
   </g>
   <g id="patch_3">
    <path d="M 123.657656 293.335458 
Q 198.69781 242.827365 233.341522 161.695504 
" clip-path="url(#pc0d1063316)" style="fill: none; stroke: #7fff00; stroke-width: 2; stroke-linecap: round"/>
    <path d="M 224.816173 168.928652 
L 233.341522 161.695504 
L 234.012832 172.855671 
L 224.816173 168.928652 
z
" clip-path="url(#pc0d1063316)" style="fill: #7fff00; stroke: #7fff00; stroke-width: 2; stroke-linecap: round"/>
   </g>
   <g id="patch_4">
    <path d="M 120.478201 290.706166 
Q 156.00002 207.51787 229.185163 158.258349 
" clip-path="url(#pc0d1063316)" style="fill: none; stroke: #7fff00; stroke-width: 2; stroke-linecap: round"/>
    <path d="M 218.097408 159.694204 
L 229.185163 158.258349 
L 223.681194 167.990066 
L 218.097408 159.694204 
z
" clip-path="url(#pc0d1063316)" style="fill: #7fff00; stroke: #7fff00; stroke-width: 2; stroke-linecap: round"/>
   </g>
   <g id="patch_5">
    <path d="M 124.466732 294.93147 
Q 220.046705 260.482112 235.589385 162.342661 
" clip-path="url(#pc0d1063316)" style="fill: none; stroke: #00ff3f; stroke-width: 2; stroke-linecap: round"/>
    <path d="M 229.086697 171.437442 
L 235.589385 162.342661 
L 238.963597 173.001681 
L 229.086697 171.437442 
z
" clip-path="url(#pc0d1063316)" style="fill: #00ff3f; stroke: #00ff3f; stroke-width: 2; stroke-linecap: round"/>
   </g>
   <g id="patch_6">
    <path d="M 118.758671 290.211115 
Q 134.651125 189.863123 228.127496 156.171954 
" clip-path="url(#pc0d1063316)" style="fill: none; stroke: #00ffff; stroke-width: 2; stroke-linecap: round"/>
    <path d="M 217.02453 154.858883 
L 228.127496 156.171954 
L 220.415259 164.266484 
L 217.02453 154.858883 
z
" clip-path="url(#pc0d1063316)" style="fill: #00ffff; stroke: #00ffff; stroke-width: 2; stroke-linecap: round"/>
   </g>
   <g id="matplotlib.axis_1"/>
   <g id="matplotlib.axis_2"/>
   <g id="patch_7">
    <path d="M 243.079084 145.564349 
Q 293.591525 83.43493 345.514557 19.570508 
" clip-path="url(#pc0d1063316)" style="fill: none; stroke: #7f00ff; stroke-width: 2; stroke-linecap: round"/>
    <path d="M 253.267022 140.959361 
L 243.079084 145.564349 
L 245.507856 134.651006 
L 253.267022 140.959361 
z
" clip-path="url(#pc0d1063316)" style="fill: #7f00ff; stroke: #7f00ff; stroke-width: 2; stroke-linecap: round"/>
   </g>
   <g id="patch_8">
    <path d="M 122.258154 291.790783 
Q 177.348915 225.172617 231.01467 160.277633 
" clip-path="url(#pc0d1063316)" style="fill: none; stroke: #003fff; stroke-width: 2; stroke-linecap: round"/>
    <path d="M 220.788692 164.797521 
L 231.01467 160.277633 
L 228.494994 171.170347 
L 220.788692 164.797521 
z
" clip-path="url(#pc0d1063316)" style="fill: #003fff; stroke: #003fff; stroke-width: 2; stroke-linecap: round"/>
   </g>
   <g id="text_1">
    <g id="patch_9">
     <path d="M 110.446067 333.941326 
L 124.794505 333.941326 
L 124.794505 316.263201 
L 110.446067 316.263201 
z
" style="fill: #ffffff; stroke: #ffffff; stroke-linejoin: miter"/>
    </g>
    <!-- b -->
    <g style="fill: #0000ff" transform="translate(114.446067 327.861638)scale(0.1 -0.1)">
     <defs>
      <path id="DejaVuSans-62" d="M 3116 1747 
Q 3116 2381 2855 2742 
Q 2594 3103 2138 3103 
Q 1681 3103 1420 2742 
Q 1159 2381 1159 1747 
Q 1159 1113 1420 752 
Q 1681 391 2138 391 
Q 2594 391 2855 752 
Q 3116 1113 3116 1747 
z
M 1159 2969 
Q 1341 3281 1617 3432 
Q 1894 3584 2278 3584 
Q 2916 3584 3314 3078 
Q 3713 2572 3713 1747 
Q 3713 922 3314 415 
Q 2916 -91 2278 -91 
Q 1894 -91 1617 61 
Q 1341 213 1159 525 
L 1159 0 
L 581 0 
L 581 4863 
L 1159 4863 
L 1159 2969 
z
" transform="scale(0.015625)"/>
     </defs>
     <use xlink:href="#DejaVuSans-62"/>
    </g>
   </g>
   <g id="text_2">
    <g id="patch_10">
     <path d="M 110.556224 347.792909 
L 124.684349 347.792909 
L 124.684349 330.114784 
L 110.556224 330.114784 
z
" style="fill: #ffffff; stroke: #ffffff; stroke-linejoin: miter"/>
    </g>
    <!-- a -->
    <g style="fill: #0000ff" transform="translate(114.556224 341.713221)scale(0.1 -0.1)">
     <defs>
      <path id="DejaVuSans-61" d="M 2194 1759 
Q 1497 1759 1228 1600 
Q 959 1441 959 1056 
Q 959 750 1161 570 
Q 1363 391 1709 391 
Q 2188 391 2477 730 
Q 2766 1069 2766 1631 
L 2766 1759 
L 2194 1759 
z
M 3341 1997 
L 3341 0 
L 2766 0 
L 2766 531 
Q 2569 213 2275 61 
Q 1981 -91 1556 -91 
Q 1019 -91 701 211 
Q 384 513 384 1019 
Q 384 1609 779 1909 
Q 1175 2209 1959 2209 
L 2766 2209 
L 2766 2266 
Q 2766 2663 2505 2880 
Q 2244 3097 1772 3097 
Q 1472 3097 1187 3025 
Q 903 2953 641 2809 
L 641 3341 
Q 956 3463 1253 3523 
Q 1550 3584 1831 3584 
Q 2591 3584 2966 3190 
Q 3341 2797 3341 1997 
z
" transform="scale(0.015625)"/>
     </defs>
     <use xlink:href="#DejaVuSans-61"/>
    </g>
   </g>
   <g id="text_3">
    <g id="patch_11">
     <path d="M 182.263207 242.839053 
L 193.783519 242.839053 
L 193.783519 225.160928 
L 182.263207 225.160928 
z
" style="fill: #ffffff; stroke: #ffffff; stroke-linejoin: miter"/>
    </g>
    <!-- f -->
    <g style="fill: #0000ff" transform="translate(186.263207 236.759366)scale(0.1 -0.1)">
     <defs>
      <path id="DejaVuSans-66" d="M 2375 4863 
L 2375 4384 
L 1825 4384 
Q 1516 4384 1395 4259 
Q 1275 4134 1275 3809 
L 1275 3500 
L 2222 3500 
L 2222 3053 
L 1275 3053 
L 1275 0 
L 697 0 
L 697 3053 
L 147 3053 
L 147 3500 
L 697 3500 
L 697 3744 
Q 697 4328 969 4595 
Q 1241 4863 1831 4863 
L 2375 4863 
z
" transform="scale(0.015625)"/>
     </defs>
     <use xlink:href="#DejaVuSans-66"/>
    </g>
   </g>
   <g id="text_4">
    <g id="patch_12">
     <path d="M 160.914312 225.184306 
L 172.434624 225.184306 
L 172.434624 207.506181 
L 160.914312 207.506181 
z
" style="fill: #ffffff; stroke: #ffffff; stroke-linejoin: miter"/>
    </g>
    <!-- f -->
    <g style="fill: #0000ff" transform="translate(164.914312 219.104619)scale(0.1 -0.1)">
     <use xlink:href="#DejaVuSans-66"/>
    </g>
   </g>
   <g id="text_5">
    <g id="patch_13">
     <path d="M 191.621248 251.666427 
L 205.774373 251.666427 
L 205.774373 233.988302 
L 191.621248 233.988302 
z
" style="fill: #ffffff; stroke: #ffffff; stroke-linejoin: miter"/>
    </g>
    <!-- e -->
    <g style="fill: #0000ff" transform="translate(195.621248 245.58674)scale(0.1 -0.1)">
     <defs>
      <path id="DejaVuSans-65" d="M 3597 1894 
L 3597 1613 
L 953 1613 
Q 991 1019 1311 708 
Q 1631 397 2203 397 
Q 2534 397 2845 478 
Q 3156 559 3463 722 
L 3463 178 
Q 3153 47 2828 -22 
Q 2503 -91 2169 -91 
Q 1331 -91 842 396 
Q 353 884 353 1716 
Q 353 2575 817 3079 
Q 1281 3584 2069 3584 
Q 2775 3584 3186 3129 
Q 3597 2675 3597 1894 
z
M 3022 2063 
Q 3016 2534 2758 2815 
Q 2500 3097 2075 3097 
Q 1594 3097 1305 2825 
Q 1016 2553 972 2059 
L 3022 2063 
z
" transform="scale(0.015625)"/>
     </defs>
     <use xlink:href="#DejaVuSans-65"/>
    </g>
   </g>
   <g id="text_6">
    <g id="patch_14">
     <path d="M 148.825802 216.356933 
L 163.174239 216.356933 
L 163.174239 198.678808 
L 148.825802 198.678808 
z
" style="fill: #ffffff; stroke: #ffffff; stroke-linejoin: miter"/>
    </g>
    <!-- d -->
    <g style="fill: #0000ff" transform="translate(152.825802 210.277245)scale(0.1 -0.1)">
     <defs>
      <path id="DejaVuSans-64" d="M 2906 2969 
L 2906 4863 
L 3481 4863 
L 3481 0 
L 2906 0 
L 2906 525 
Q 2725 213 2448 61 
Q 2172 -91 1784 -91 
Q 1150 -91 751 415 
Q 353 922 353 1747 
Q 353 2572 751 3078 
Q 1150 3584 1784 3584 
Q 2172 3584 2448 3432 
Q 2725 3281 2906 2969 
z
M 947 1747 
Q 947 1113 1208 752 
Q 1469 391 1925 391 
Q 2381 391 2643 752 
Q 2906 1113 2906 1747 
Q 2906 2381 2643 2742 
Q 2381 3103 1925 3103 
Q 1469 3103 1208 2742 
Q 947 2381 947 1747 
z
" transform="scale(0.015625)"/>
     </defs>
     <use xlink:href="#DejaVuSans-64"/>
    </g>
   </g>
   <g id="text_7">
    <g id="patch_15">
     <path d="M 342.936755 50.465951 
L 357.274255 50.465951 
L 357.274255 32.787826 
L 342.936755 32.787826 
z
" style="fill: #ffffff; stroke: #ffffff; stroke-linejoin: miter"/>
    </g>
    <!-- h -->
    <g style="fill: #0000ff" transform="translate(346.936755 44.386263)scale(0.1 -0.1)">
     <defs>
      <path id="DejaVuSans-68" d="M 3513 2113 
L 3513 0 
L 2938 0 
L 2938 2094 
Q 2938 2591 2744 2837 
Q 2550 3084 2163 3084 
Q 1697 3084 1428 2787 
Q 1159 2491 1159 1978 
L 1159 0 
L 581 0 
L 581 4863 
L 1159 4863 
L 1159 2956 
Q 1366 3272 1645 3428 
Q 1925 3584 2291 3584 
Q 2894 3584 3203 3211 
Q 3513 2838 3513 2113 
z
" transform="scale(0.015625)"/>
     </defs>
     <use xlink:href="#DejaVuSans-68"/>
    </g>
   </g>
   <g id="text_8">
    <g id="patch_16">
     <path d="M 286.417306 92.273992 
L 300.765744 92.273992 
L 300.765744 74.595867 
L 286.417306 74.595867 
z
" style="fill: #ffffff; stroke: #ffffff; stroke-linejoin: miter"/>
    </g>
    <!-- g -->
    <g style="fill: #0000ff" transform="translate(290.417306 86.194305)scale(0.1 -0.1)">
     <defs>
      <path id="DejaVuSans-67" d="M 2906 1791 
Q 2906 2416 2648 2759 
Q 2391 3103 1925 3103 
Q 1463 3103 1205 2759 
Q 947 2416 947 1791 
Q 947 1169 1205 825 
Q 1463 481 1925 481 
Q 2391 481 2648 825 
Q 2906 1169 2906 1791 
z
M 3481 434 
Q 3481 -459 3084 -895 
Q 2688 -1331 1869 -1331 
Q 1566 -1331 1297 -1286 
Q 1028 -1241 775 -1147 
L 775 -588 
Q 1028 -725 1275 -790 
Q 1522 -856 1778 -856 
Q 2344 -856 2625 -561 
Q 2906 -266 2906 331 
L 2906 616 
Q 2728 306 2450 153 
Q 2172 0 1784 0 
Q 1141 0 747 490 
Q 353 981 353 1791 
Q 353 2603 747 3093 
Q 1141 3584 1784 3584 
Q 2172 3584 2450 3431 
Q 2728 3278 2906 2969 
L 2906 3500 
L 3481 3500 
L 3481 434 
z
" transform="scale(0.015625)"/>
     </defs>
     <use xlink:href="#DejaVuSans-67"/>
    </g>
   </g>
   <g id="text_9">
    <g id="patch_17">
     <path d="M 170.599697 234.01168 
L 184.098134 234.01168 
L 184.098134 216.333555 
L 170.599697 216.333555 
z
" style="fill: #ffffff; stroke: #ffffff; stroke-linejoin: miter"/>
    </g>
    <!-- c -->
    <g style="fill: #0000ff" transform="translate(174.599697 227.931992)scale(0.1 -0.1)">
     <defs>
      <path id="DejaVuSans-63" d="M 3122 3366 
L 3122 2828 
Q 2878 2963 2633 3030 
Q 2388 3097 2138 3097 
Q 1578 3097 1268 2742 
Q 959 2388 959 1747 
Q 959 1106 1268 751 
Q 1578 397 2138 397 
Q 2388 397 2633 464 
Q 2878 531 3122 666 
L 3122 134 
Q 2881 22 2623 -34 
Q 2366 -91 2075 -91 
Q 1284 -91 818 406 
Q 353 903 353 1747 
Q 353 2603 823 3093 
Q 1294 3584 2113 3584 
Q 2378 3584 2631 3529 
Q 2884 3475 3122 3366 
z
" transform="scale(0.015625)"/>
     </defs>
     <use xlink:href="#DejaVuSans-63"/>
    </g>
   </g>
   <g id="patch_18">
    <path d="M 117.620286 304.676665 
C 119.55032 304.676665 121.401564 303.909855 122.766304 302.545115 
C 124.131044 301.180375 124.897854 299.32913 124.897854 297.399097 
C 124.897854 295.469063 124.131044 293.617819 122.766304 292.253079 
C 121.401564 290.888339 119.55032 290.121529 117.620286 290.121529 
C 115.690252 290.121529 113.839008 290.888339 112.474268 292.253079 
C 111.109528 293.617819 110.342718 295.469063 110.342718 297.399097 
C 110.342718 299.32913 111.109528 301.180375 112.474268 302.545115 
C 113.839008 303.909855 115.690252 304.676665 117.620286 304.676665 
z
" style="fill: #fec7b8; stroke: #000000; stroke-linejoin: miter"/>
   </g>
   <g id="patch_19">
    <path d="M 237.077545 160.223706 
C 239.007578 160.223706 240.858823 159.456896 242.223563 158.092156 
C 243.588302 156.727416 244.355113 154.876171 244.355113 152.946138 
C 244.355113 151.016104 243.588302 149.16486 242.223563 147.80012 
C 240.858823 146.43538 239.007578 145.66857 237.077545 145.66857 
C 235.147511 145.66857 233.296267 146.43538 231.931527 147.80012 
C 230.566787 149.16486 229.799977 151.016104 229.799977 152.946138 
C 229.799977 154.876171 230.566787 156.727416 231.931527 158.092156 
C 233.296267 159.456896 235.147511 160.223706 237.077545 160.223706 
z
" style="fill: #fec7b8; stroke: #000000; stroke-linejoin: miter"/>
   </g>
   <g id="patch_20">
    <path d="M 350.105505 21.20129 
C 352.035539 21.20129 353.886783 20.43448 355.251523 19.06974 
C 356.616263 17.705 357.383074 15.853756 357.383074 13.923722 
C 357.383074 11.993688 356.616263 10.142444 355.251523 8.777704 
C 353.886783 7.412964 352.035539 6.646154 350.105505 6.646154 
C 348.175472 6.646154 346.324228 7.412964 344.959488 8.777704 
C 343.594748 10.142444 342.827937 11.993688 342.827937 13.923722 
C 342.827937 15.853756 343.594748 17.705 344.959488 19.06974 
C 346.324228 20.43448 348.175472 21.20129 350.105505 21.20129 
z
" style="fill: #fec7b8; stroke: #000000; stroke-linejoin: miter"/>
   </g>
   <g id="patch_21">
    <path d="M 117.620286 325.102263 
C 121.293769 325.102263 124.81729 323.642773 127.414834 321.045228 
C 130.012379 318.447684 131.471869 314.924163 131.471869 311.25068 
C 131.471869 307.577197 130.012379 304.053676 127.414834 301.456132 
C 124.81729 298.858587 121.293769 297.399097 117.620286 297.399097 
C 113.946803 297.399097 110.423282 298.858587 107.825738 301.456132 
C 105.228193 304.053676 103.768703 307.577197 103.768703 311.25068 
C 103.768703 314.924163 105.228193 318.447684 107.825738 321.045228 
C 110.423282 323.642773 113.946803 325.102263 117.620286 325.102263 
L 117.620286 325.102263 
z
" clip-path="url(#pc0d1063316)" style="fill: none; stroke: #ff0000; stroke-linejoin: miter"/>
   </g>
   <g id="patch_22">
    <path d="M 117.620286 338.953846 
C 123.13051 338.953846 128.415792 336.764611 132.312109 332.868294 
C 136.208425 328.971977 138.397661 323.686696 138.397661 318.176472 
C 138.397661 312.666247 136.208425 307.380966 132.312109 303.484649 
C 128.415792 299.588332 123.13051 297.399097 117.620286 297.399097 
C 112.110062 297.399097 106.82478 299.588332 102.928464 303.484649 
C 99.032147 307.380966 96.842911 312.666247 96.842911 318.176472 
C 96.842911 323.686696 99.032147 328.971977 102.928464 332.868294 
C 106.82478 336.764611 112.110062 338.953846 117.620286 338.953846 
L 117.620286 338.953846 
z
" clip-path="url(#pc0d1063316)" style="fill: none; stroke: #ffbf00; stroke-linejoin: miter"/>
   </g>
   <g id="patch_23">
    <path d="M 350.105505 41.626888 
C 353.778988 41.626888 357.302509 40.167398 359.900054 37.569853 
C 362.497598 34.972309 363.957089 31.448788 363.957089 27.775305 
C 363.957089 24.101822 362.497598 20.578301 359.900054 17.980757 
C 357.302509 15.383212 353.778988 13.923722 350.105505 13.923722 
C 346.432023 13.923722 342.908502 15.383212 340.310957 17.980757 
C 337.713413 20.578301 336.253922 24.101822 336.253922 27.775305 
C 336.253922 31.448788 337.713413 34.972309 340.310957 37.569853 
C 342.908502 40.167398 346.432023 41.626888 350.105505 41.626888 
L 350.105505 41.626888 
z
" clip-path="url(#pc0d1063316)" style="fill: none; stroke: #ff00bf; stroke-linejoin: miter"/>
   </g>
   <g id="text_10">
    <!-- 0 -->
    <g transform="translate(114.439036 300.158472)scale(0.1 -0.1)">
     <defs>
      <path id="DejaVuSans-30" d="M 2034 4250 
Q 1547 4250 1301 3770 
Q 1056 3291 1056 2328 
Q 1056 1369 1301 889 
Q 1547 409 2034 409 
Q 2525 409 2770 889 
Q 3016 1369 3016 2328 
Q 3016 3291 2770 3770 
Q 2525 4250 2034 4250 
z
M 2034 4750 
Q 2819 4750 3233 4129 
Q 3647 3509 3647 2328 
Q 3647 1150 3233 529 
Q 2819 -91 2034 -91 
Q 1250 -91 836 529 
Q 422 1150 422 2328 
Q 422 3509 836 4129 
Q 1250 4750 2034 4750 
z
" transform="scale(0.015625)"/>
     </defs>
     <use xlink:href="#DejaVuSans-30"/>
    </g>
   </g>
   <g id="text_11">
    <!-- 1 -->
    <g transform="translate(233.896295 155.705513)scale(0.1 -0.1)">
     <defs>
      <path id="DejaVuSans-31" d="M 794 531 
L 1825 531 
L 1825 4091 
L 703 3866 
L 703 4441 
L 1819 4666 
L 2450 4666 
L 2450 531 
L 3481 531 
L 3481 0 
L 794 0 
L 794 531 
z
" transform="scale(0.015625)"/>
     </defs>
     <use xlink:href="#DejaVuSans-31"/>
    </g>
   </g>
   <g id="text_12">
    <!-- 2 -->
    <g transform="translate(346.924255 16.683097)scale(0.1 -0.1)">
     <defs>
      <path id="DejaVuSans-32" d="M 1228 531 
L 3431 531 
L 3431 0 
L 469 0 
L 469 531 
Q 828 903 1448 1529 
Q 2069 2156 2228 2338 
Q 2531 2678 2651 2914 
Q 2772 3150 2772 3378 
Q 2772 3750 2511 3984 
Q 2250 4219 1831 4219 
Q 1534 4219 1204 4116 
Q 875 4013 500 3803 
L 500 4441 
Q 881 4594 1212 4672 
Q 1544 4750 1819 4750 
Q 2544 4750 2975 4387 
Q 3406 4025 3406 3419 
Q 3406 3131 3298 2873 
Q 3191 2616 2906 2266 
Q 2828 2175 2409 1742 
Q 1991 1309 1228 531 
z
" transform="scale(0.015625)"/>
     </defs>
     <use xlink:href="#DejaVuSans-32"/>
    </g>
   </g>
  </g>
 </g>
 <defs>
  <clipPath id="pc0d1063316">
   <rect x="91.500628" y="0" width="277.798744" height="345.6"/>
  </clipPath>
 </defs>
</svg>
