<?xml version="1.0" encoding="utf-8" standalone="no"?>
<!DOCTYPE svg PUBLIC "-//W3C//DTD SVG 1.1//EN"
  "http://www.w3.org/Graphics/SVG/1.1/DTD/svg11.dtd">
<svg xmlns:xlink="http://www.w3.org/1999/xlink" width="460.8pt" height="345.6pt" viewBox="0 0 460.8 345.6" xmlns="http://www.w3.org/2000/svg" version="1.1">
 <metadata>
  <rdf:RDF xmlns:dc="http://purl.org/dc/elements/1.1/" xmlns:cc="http://creativecommons.org/ns#" xmlns:rdf="http://www.w3.org/1999/02/22-rdf-syntax-ns#">
   <cc:Work>
    <dc:type rdf:resource="http://purl.org/dc/dcmitype/StillImage"/>
    <dc:date>2022-05-16T19:36:41.129562</dc:date>
    <dc:format>image/svg+xml</dc:format>
    <dc:creator>
     <cc:Agent>
      <dc:title>Matplotlib v3.5.1, https://matplotlib.org/</dc:title>
     </cc:Agent>
    </dc:creator>
   </cc:Work>
  </rdf:RDF>
 </metadata>
 <defs>
  <style type="text/css">*{stroke-linejoin: round; stroke-linecap: butt}</style>
 </defs>
 <g id="figure_1">
  <g id="patch_1">
   <path d="M 0 345.6 
L 460.8 345.6 
L 460.8 0 
L 0 0 
z
" style="fill: #ffffff"/>
  </g>
  <g id="axes_1">
   <g id="patch_2">
    <path d="M 66.14 328.52 
L 394.66 328.52 
L 394.66 0 
L 66.14 0 
z
" style="fill: #ffffff"/>
   </g>
   <g id="PathCollection_1"/>
   <g id="PathCollection_2">
    <path d="M 75.648446 322.202308 
L 78.8392 322.202308 
L 82.029953 322.202308 
L 85.220707 322.202308 
L 88.411461 322.202308 
L 91.602214 322.202308 
L 94.792968 322.202308 
L 97.983722 322.202308 
L 101.174476 322.202308 
L 104.365229 322.202308 
L 107.555983 322.202308 
L 110.746737 322.202308 
L 113.93749 322.202308 
L 117.128244 322.202308 
L 120.318998 322.202308 
L 123.509751 322.202308 
L 126.700505 322.202308 
L 129.891259 322.202308 
L 133.082012 322.202308 
L 136.272766 322.202308 
L 139.46352 322.202308 
L 142.654274 322.202308 
L 145.845027 322.202308 
L 149.035781 322.202308 
L 152.226535 322.202308 
L 155.417288 322.202308 
L 158.608042 322.202308 
L 161.798796 322.202308 
L 164.989549 322.202308 
L 168.180303 322.202308 
L 171.371057 322.202308 
L 174.56181 322.202308 
L 177.752564 322.202308 
L 180.943318 322.202308 
L 184.134071 322.202308 
L 187.324825 322.202308 
L 190.515579 322.202308 
L 193.706333 322.202308 
L 196.897086 322.202308 
L 200.08784 322.202308 
L 203.278594 322.202308 
L 206.469347 322.202308 
L 209.660101 322.202308 
L 212.850855 322.202308 
L 216.041608 322.202308 
L 219.232362 322.202308 
L 222.423116 322.202308 
L 225.613869 322.202308 
L 228.804623 322.202308 
L 231.995377 322.202308 
L 235.186131 322.202308 
L 238.376884 322.202308 
L 241.567638 322.202308 
L 244.758392 322.202308 
L 247.949145 322.202308 
L 251.139899 322.202308 
L 254.330653 322.202308 
L 257.521406 322.202308 
L 260.71216 322.202308 
L 263.902914 322.202308 
L 267.093667 322.202308 
L 270.284421 322.202308 
L 273.475175 322.202308 
L 276.665929 322.202308 
L 279.856682 322.202308 
L 283.047436 322.202308 
L 286.23819 322.202308 
L 289.428943 322.202308 
L 292.619697 322.202308 
L 295.810451 322.202308 
L 299.001204 322.202308 
L 302.191958 322.202308 
L 305.382712 322.202308 
L 308.573465 322.202308 
L 311.764219 322.202308 
L 314.954973 322.202308 
L 318.145726 322.202308 
L 321.33648 322.202308 
L 324.527234 322.202308 
L 327.717988 322.202308 
L 330.908741 322.202308 
L 334.099495 322.202308 
L 337.290249 322.202308 
L 340.481002 322.202308 
L 343.671756 322.202308 
L 346.86251 322.202308 
L 350.053263 322.202308 
L 353.244017 322.202308 
L 356.434771 322.202308 
L 359.625524 322.202308 
L 362.816278 322.202308 
L 366.007032 322.202308 
L 369.197786 322.202308 
L 372.388539 322.202308 
L 375.579293 322.202308 
L 378.770047 322.202308 
L 381.9608 322.202308 
L 385.151554 322.202308 
L 388.342308 322.202308 
L 388.342308 319.011554 
L 388.342308 315.8208 
L 388.342308 312.630047 
L 388.342308 309.439293 
L 388.342308 306.248539 
L 388.342308 303.057786 
L 388.342308 299.867032 
L 388.342308 296.676278 
L 388.342308 293.485524 
L 388.342308 290.294771 
L 388.342308 287.104017 
L 388.342308 283.913263 
L 388.342308 280.72251 
L 388.342308 277.531756 
L 388.342308 274.341002 
L 388.342308 271.150249 
L 388.342308 267.959495 
L 388.342308 264.768741 
L 388.342308 261.577988 
L 388.342308 258.387234 
L 388.342308 255.19648 
L 388.342308 252.005726 
L 388.342308 248.814973 
L 388.342308 245.624219 
L 388.342308 242.433465 
L 388.342308 239.242712 
L 388.342308 236.051958 
L 388.342308 232.861204 
L 388.342308 229.670451 
L 388.342308 226.479697 
L 388.342308 223.288943 
L 388.342308 220.09819 
L 388.342308 216.907436 
L 388.342308 213.716682 
L 388.342308 210.525929 
L 388.342308 207.335175 
L 388.342308 204.144421 
L 388.342308 200.953667 
L 388.342308 197.762914 
L 388.342308 194.57216 
L 388.342308 191.381406 
L 388.342308 188.190653 
L 388.342308 184.999899 
L 388.342308 181.809145 
L 388.342308 178.618392 
L 388.342308 175.427638 
L 388.342308 172.236884 
L 388.342308 169.046131 
L 388.342308 165.855377 
L 388.342308 162.664623 
L 388.342308 159.473869 
L 388.342308 156.283116 
L 388.342308 153.092362 
L 388.342308 149.901608 
L 388.342308 146.710855 
L 388.342308 143.520101 
L 388.342308 140.329347 
L 388.342308 137.138594 
L 388.342308 133.94784 
L 388.342308 130.757086 
L 388.342308 127.566333 
L 388.342308 124.375579 
L 388.342308 121.184825 
L 388.342308 117.994071 
L 388.342308 114.803318 
L 388.342308 111.612564 
L 388.342308 108.42181 
L 388.342308 105.231057 
L 388.342308 102.040303 
L 388.342308 98.849549 
L 388.342308 95.658796 
L 388.342308 92.468042 
L 388.342308 89.277288 
L 388.342308 86.086535 
L 388.342308 82.895781 
L 388.342308 79.705027 
L 388.342308 76.514274 
L 388.342308 73.32352 
L 388.342308 70.132766 
L 388.342308 66.942012 
L 388.342308 63.751259 
L 388.342308 60.560505 
L 388.342308 57.369751 
L 388.342308 54.178998 
L 388.342308 50.988244 
L 388.342308 47.79749 
L 388.342308 44.606737 
L 388.342308 41.415983 
L 388.342308 38.225229 
L 388.342308 35.034476 
L 388.342308 31.843722 
L 388.342308 28.652968 
L 388.342308 25.462214 
L 388.342308 22.271461 
L 388.342308 19.080707 
L 388.342308 15.889953 
L 388.342308 12.6992 
L 388.342308 9.508446 
L 388.342308 6.317692 
L 385.151554 6.317692 
L 381.9608 6.317692 
L 378.770047 6.317692 
L 375.579293 6.317692 
L 372.388539 6.317692 
L 369.197786 6.317692 
L 366.007032 6.317692 
L 362.816278 6.317692 
L 359.625524 6.317692 
L 356.434771 6.317692 
L 353.244017 6.317692 
L 350.053263 6.317692 
L 346.86251 6.317692 
L 343.671756 6.317692 
L 340.481002 6.317692 
L 337.290249 6.317692 
L 334.099495 6.317692 
L 330.908741 6.317692 
L 327.717988 6.317692 
L 324.527234 6.317692 
L 321.33648 6.317692 
L 318.145726 6.317692 
L 314.954973 6.317692 
L 311.764219 6.317692 
L 308.573465 6.317692 
L 305.382712 6.317692 
L 302.191958 6.317692 
L 299.001204 6.317692 
L 295.810451 6.317692 
L 292.619697 6.317692 
L 289.428943 6.317692 
L 286.23819 6.317692 
L 283.047436 6.317692 
L 279.856682 6.317692 
L 276.665929 6.317692 
L 273.475175 6.317692 
L 270.284421 6.317692 
L 267.093667 6.317692 
L 263.902914 6.317692 
L 260.71216 6.317692 
L 257.521406 6.317692 
L 254.330653 6.317692 
L 251.139899 6.317692 
L 247.949145 6.317692 
L 244.758392 6.317692 
L 241.567638 6.317692 
L 238.376884 6.317692 
L 235.186131 6.317692 
L 231.995377 6.317692 
L 228.804623 6.317692 
L 225.613869 6.317692 
L 222.423116 6.317692 
L 219.232362 6.317692 
L 216.041608 6.317692 
L 212.850855 6.317692 
L 209.660101 6.317692 
L 206.469347 6.317692 
L 203.278594 6.317692 
L 200.08784 6.317692 
L 196.897086 6.317692 
L 193.706333 6.317692 
L 190.515579 6.317692 
L 187.324825 6.317692 
L 184.134071 6.317692 
L 180.943318 6.317692 
L 177.752564 6.317692 
L 174.56181 6.317692 
L 171.371057 6.317692 
L 168.180303 6.317692 
L 164.989549 6.317692 
L 161.798796 6.317692 
L 158.608042 6.317692 
L 155.417288 6.317692 
L 152.226535 6.317692 
L 149.035781 6.317692 
L 145.845027 6.317692 
L 142.654274 6.317692 
L 139.46352 6.317692 
L 136.272766 6.317692 
L 133.082012 6.317692 
L 129.891259 6.317692 
L 126.700505 6.317692 
L 123.509751 6.317692 
L 120.318998 6.317692 
L 117.128244 6.317692 
L 113.93749 6.317692 
L 110.746737 6.317692 
L 107.555983 6.317692 
L 104.365229 6.317692 
L 101.174476 6.317692 
L 97.983722 6.317692 
L 94.792968 6.317692 
L 91.602214 6.317692 
L 88.411461 6.317692 
L 85.220707 6.317692 
L 82.029953 6.317692 
L 78.8392 6.317692 
L 75.648446 6.317692 
L 72.457692 6.317692 
L 72.457692 9.508446 
L 72.457692 12.6992 
L 72.457692 15.889953 
L 72.457692 19.080707 
L 72.457692 22.271461 
L 72.457692 25.462214 
L 72.457692 28.652968 
L 72.457692 31.843722 
L 72.457692 35.034476 
L 72.457692 38.225229 
L 72.457692 41.415983 
L 72.457692 44.606737 
L 72.457692 47.79749 
L 72.457692 50.988244 
L 72.457692 54.178998 
L 72.457692 57.369751 
L 72.457692 60.560505 
L 72.457692 63.751259 
L 72.457692 66.942012 
L 72.457692 70.132766 
L 72.457692 73.32352 
L 72.457692 76.514274 
L 72.457692 79.705027 
L 72.457692 82.895781 
L 72.457692 86.086535 
L 72.457692 89.277288 
L 72.457692 92.468042 
L 72.457692 95.658796 
L 72.457692 98.849549 
L 72.457692 102.040303 
L 72.457692 105.231057 
L 72.457692 108.42181 
L 72.457692 111.612564 
L 72.457692 114.803318 
L 72.457692 117.994071 
L 72.457692 121.184825 
L 72.457692 124.375579 
L 72.457692 127.566333 
L 72.457692 130.757086 
L 72.457692 133.94784 
L 72.457692 137.138594 
L 72.457692 140.329347 
L 72.457692 143.520101 
L 72.457692 146.710855 
L 72.457692 149.901608 
L 72.457692 153.092362 
L 72.457692 156.283116 
L 72.457692 159.473869 
L 72.457692 162.664623 
L 72.457692 165.855377 
L 72.457692 169.046131 
L 72.457692 172.236884 
L 72.457692 175.427638 
L 72.457692 178.618392 
L 72.457692 181.809145 
L 72.457692 184.999899 
L 72.457692 188.190653 
L 72.457692 191.381406 
L 72.457692 194.57216 
L 72.457692 197.762914 
L 72.457692 200.953667 
L 72.457692 204.144421 
L 72.457692 207.335175 
L 72.457692 210.525929 
L 72.457692 213.716682 
L 72.457692 216.907436 
L 72.457692 220.09819 
L 72.457692 223.288943 
L 72.457692 226.479697 
L 72.457692 229.670451 
L 72.457692 232.861204 
L 72.457692 236.051958 
L 72.457692 239.242712 
L 72.457692 242.433465 
L 72.457692 245.624219 
L 72.457692 248.814973 
L 72.457692 252.005726 
L 72.457692 255.19648 
L 72.457692 258.387234 
L 72.457692 261.577988 
L 72.457692 264.768741 
L 72.457692 267.959495 
L 72.457692 271.150249 
L 72.457692 274.341002 
L 72.457692 277.531756 
L 72.457692 280.72251 
L 72.457692 283.913263 
L 72.457692 287.104017 
L 72.457692 290.294771 
L 72.457692 293.485524 
L 72.457692 296.676278 
L 72.457692 299.867032 
L 72.457692 303.057786 
L 72.457692 306.248539 
L 72.457692 309.439293 
L 72.457692 312.630047 
L 72.457692 315.8208 
L 72.457692 319.011554 
L 72.457692 322.202308 
z
" clip-path="url(#pb2b15ea4b4)" style="fill: #0000ff"/>
   </g>
   <g id="PathCollection_3"/>
   <g id="matplotlib.axis_1">
    <g id="xtick_1">
     <g id="line2d_1">
      <defs>
       <path id="m7fc77725a0" d="M 0 0 
L 0 3.5 
" style="stroke: #000000; stroke-width: 0.8"/>
      </defs>
      <g>
       <use xlink:href="#m7fc77725a0" x="72.457692" y="328.52" style="stroke: #000000; stroke-width: 0.8"/>
      </g>
     </g>
     <g id="text_1">
      <!-- −1.0 -->
      <g transform="translate(60.316286 343.118437)scale(0.1 -0.1)">
       <defs>
        <path id="DejaVuSans-2212" d="M 678 2272 
L 4684 2272 
L 4684 1741 
L 678 1741 
L 678 2272 
z
" transform="scale(0.015625)"/>
        <path id="DejaVuSans-31" d="M 794 531 
L 1825 531 
L 1825 4091 
L 703 3866 
L 703 4441 
L 1819 4666 
L 2450 4666 
L 2450 531 
L 3481 531 
L 3481 0 
L 794 0 
L 794 531 
z
" transform="scale(0.015625)"/>
        <path id="DejaVuSans-2e" d="M 684 794 
L 1344 794 
L 1344 0 
L 684 0 
L 684 794 
z
" transform="scale(0.015625)"/>
        <path id="DejaVuSans-30" d="M 2034 4250 
Q 1547 4250 1301 3770 
Q 1056 3291 1056 2328 
Q 1056 1369 1301 889 
Q 1547 409 2034 409 
Q 2525 409 2770 889 
Q 3016 1369 3016 2328 
Q 3016 3291 2770 3770 
Q 2525 4250 2034 4250 
z
M 2034 4750 
Q 2819 4750 3233 4129 
Q 3647 3509 3647 2328 
Q 3647 1150 3233 529 
Q 2819 -91 2034 -91 
Q 1250 -91 836 529 
Q 422 1150 422 2328 
Q 422 3509 836 4129 
Q 1250 4750 2034 4750 
z
" transform="scale(0.015625)"/>
       </defs>
       <use xlink:href="#DejaVuSans-2212"/>
       <use xlink:href="#DejaVuSans-31" x="83.789062"/>
       <use xlink:href="#DejaVuSans-2e" x="147.412109"/>
       <use xlink:href="#DejaVuSans-30" x="179.199219"/>
      </g>
     </g>
    </g>
    <g id="xtick_2">
     <g id="line2d_2">
      <g>
       <use xlink:href="#m7fc77725a0" x="151.428846" y="328.52" style="stroke: #000000; stroke-width: 0.8"/>
      </g>
     </g>
     <g id="text_2">
      <!-- −0.5 -->
      <g transform="translate(139.28744 343.118437)scale(0.1 -0.1)">
       <defs>
        <path id="DejaVuSans-35" d="M 691 4666 
L 3169 4666 
L 3169 4134 
L 1269 4134 
L 1269 2991 
Q 1406 3038 1543 3061 
Q 1681 3084 1819 3084 
Q 2600 3084 3056 2656 
Q 3513 2228 3513 1497 
Q 3513 744 3044 326 
Q 2575 -91 1722 -91 
Q 1428 -91 1123 -41 
Q 819 9 494 109 
L 494 744 
Q 775 591 1075 516 
Q 1375 441 1709 441 
Q 2250 441 2565 725 
Q 2881 1009 2881 1497 
Q 2881 1984 2565 2268 
Q 2250 2553 1709 2553 
Q 1456 2553 1204 2497 
Q 953 2441 691 2322 
L 691 4666 
z
" transform="scale(0.015625)"/>
       </defs>
       <use xlink:href="#DejaVuSans-2212"/>
       <use xlink:href="#DejaVuSans-30" x="83.789062"/>
       <use xlink:href="#DejaVuSans-2e" x="147.412109"/>
       <use xlink:href="#DejaVuSans-35" x="179.199219"/>
      </g>
     </g>
    </g>
    <g id="xtick_3">
     <g id="line2d_3">
      <g>
       <use xlink:href="#m7fc77725a0" x="230.4" y="328.52" style="stroke: #000000; stroke-width: 0.8"/>
      </g>
     </g>
     <g id="text_3">
      <!-- 0.0 -->
      <g transform="translate(222.448438 343.118437)scale(0.1 -0.1)">
       <use xlink:href="#DejaVuSans-30"/>
       <use xlink:href="#DejaVuSans-2e" x="63.623047"/>
       <use xlink:href="#DejaVuSans-30" x="95.410156"/>
      </g>
     </g>
    </g>
    <g id="xtick_4">
     <g id="line2d_4">
      <g>
       <use xlink:href="#m7fc77725a0" x="309.371154" y="328.52" style="stroke: #000000; stroke-width: 0.8"/>
      </g>
     </g>
     <g id="text_4">
      <!-- 0.5 -->
      <g transform="translate(301.419591 343.118437)scale(0.1 -0.1)">
       <use xlink:href="#DejaVuSans-30"/>
       <use xlink:href="#DejaVuSans-2e" x="63.623047"/>
       <use xlink:href="#DejaVuSans-35" x="95.410156"/>
      </g>
     </g>
    </g>
    <g id="xtick_5">
     <g id="line2d_5">
      <g>
       <use xlink:href="#m7fc77725a0" x="388.342308" y="328.52" style="stroke: #000000; stroke-width: 0.8"/>
      </g>
     </g>
     <g id="text_5">
      <!-- 1.0 -->
      <g transform="translate(380.390745 343.118437)scale(0.1 -0.1)">
       <use xlink:href="#DejaVuSans-31"/>
       <use xlink:href="#DejaVuSans-2e" x="63.623047"/>
       <use xlink:href="#DejaVuSans-30" x="95.410156"/>
      </g>
     </g>
    </g>
    <g id="xtick_6">
     <g id="line2d_6">
      <defs>
       <path id="mf9fc885bd4" d="M 0 0 
L 0 2 
" style="stroke: #000000; stroke-width: 0.6"/>
      </defs>
      <g>
       <use xlink:href="#mf9fc885bd4" x="88.251923" y="328.52" style="stroke: #000000; stroke-width: 0.6"/>
      </g>
     </g>
    </g>
    <g id="xtick_7">
     <g id="line2d_7">
      <g>
       <use xlink:href="#mf9fc885bd4" x="104.046154" y="328.52" style="stroke: #000000; stroke-width: 0.6"/>
      </g>
     </g>
    </g>
    <g id="xtick_8">
     <g id="line2d_8">
      <g>
       <use xlink:href="#mf9fc885bd4" x="119.840385" y="328.52" style="stroke: #000000; stroke-width: 0.6"/>
      </g>
     </g>
    </g>
    <g id="xtick_9">
     <g id="line2d_9">
      <g>
       <use xlink:href="#mf9fc885bd4" x="135.634615" y="328.52" style="stroke: #000000; stroke-width: 0.6"/>
      </g>
     </g>
    </g>
    <g id="xtick_10">
     <g id="line2d_10">
      <g>
       <use xlink:href="#mf9fc885bd4" x="167.223077" y="328.52" style="stroke: #000000; stroke-width: 0.6"/>
      </g>
     </g>
    </g>
    <g id="xtick_11">
     <g id="line2d_11">
      <g>
       <use xlink:href="#mf9fc885bd4" x="183.017308" y="328.52" style="stroke: #000000; stroke-width: 0.6"/>
      </g>
     </g>
    </g>
    <g id="xtick_12">
     <g id="line2d_12">
      <g>
       <use xlink:href="#mf9fc885bd4" x="198.811538" y="328.52" style="stroke: #000000; stroke-width: 0.6"/>
      </g>
     </g>
    </g>
    <g id="xtick_13">
     <g id="line2d_13">
      <g>
       <use xlink:href="#mf9fc885bd4" x="214.605769" y="328.52" style="stroke: #000000; stroke-width: 0.6"/>
      </g>
     </g>
    </g>
    <g id="xtick_14">
     <g id="line2d_14">
      <g>
       <use xlink:href="#mf9fc885bd4" x="246.194231" y="328.52" style="stroke: #000000; stroke-width: 0.6"/>
      </g>
     </g>
    </g>
    <g id="xtick_15">
     <g id="line2d_15">
      <g>
       <use xlink:href="#mf9fc885bd4" x="261.988462" y="328.52" style="stroke: #000000; stroke-width: 0.6"/>
      </g>
     </g>
    </g>
    <g id="xtick_16">
     <g id="line2d_16">
      <g>
       <use xlink:href="#mf9fc885bd4" x="277.782692" y="328.52" style="stroke: #000000; stroke-width: 0.6"/>
      </g>
     </g>
    </g>
    <g id="xtick_17">
     <g id="line2d_17">
      <g>
       <use xlink:href="#mf9fc885bd4" x="293.576923" y="328.52" style="stroke: #000000; stroke-width: 0.6"/>
      </g>
     </g>
    </g>
    <g id="xtick_18">
     <g id="line2d_18">
      <g>
       <use xlink:href="#mf9fc885bd4" x="325.165385" y="328.52" style="stroke: #000000; stroke-width: 0.6"/>
      </g>
     </g>
    </g>
    <g id="xtick_19">
     <g id="line2d_19">
      <g>
       <use xlink:href="#mf9fc885bd4" x="340.959615" y="328.52" style="stroke: #000000; stroke-width: 0.6"/>
      </g>
     </g>
    </g>
    <g id="xtick_20">
     <g id="line2d_20">
      <g>
       <use xlink:href="#mf9fc885bd4" x="356.753846" y="328.52" style="stroke: #000000; stroke-width: 0.6"/>
      </g>
     </g>
    </g>
    <g id="xtick_21">
     <g id="line2d_21">
      <g>
       <use xlink:href="#mf9fc885bd4" x="372.548077" y="328.52" style="stroke: #000000; stroke-width: 0.6"/>
      </g>
     </g>
    </g>
   </g>
   <g id="matplotlib.axis_2">
    <g id="ytick_1">
     <g id="line2d_22">
      <defs>
       <path id="m73ce57d15d" d="M 0 0 
L -3.5 0 
" style="stroke: #000000; stroke-width: 0.8"/>
      </defs>
      <g>
       <use xlink:href="#m73ce57d15d" x="66.14" y="322.202308" style="stroke: #000000; stroke-width: 0.8"/>
      </g>
     </g>
     <g id="text_6">
      <!-- −1.0 -->
      <g transform="translate(34.857188 326.001526)scale(0.1 -0.1)">
       <use xlink:href="#DejaVuSans-2212"/>
       <use xlink:href="#DejaVuSans-31" x="83.789062"/>
       <use xlink:href="#DejaVuSans-2e" x="147.412109"/>
       <use xlink:href="#DejaVuSans-30" x="179.199219"/>
      </g>
     </g>
    </g>
    <g id="ytick_2">
     <g id="line2d_23">
      <g>
       <use xlink:href="#m73ce57d15d" x="66.14" y="243.231154" style="stroke: #000000; stroke-width: 0.8"/>
      </g>
     </g>
     <g id="text_7">
      <!-- −0.5 -->
      <g transform="translate(34.857188 247.030373)scale(0.1 -0.1)">
       <use xlink:href="#DejaVuSans-2212"/>
       <use xlink:href="#DejaVuSans-30" x="83.789062"/>
       <use xlink:href="#DejaVuSans-2e" x="147.412109"/>
       <use xlink:href="#DejaVuSans-35" x="179.199219"/>
      </g>
     </g>
    </g>
    <g id="ytick_3">
     <g id="line2d_24">
      <g>
       <use xlink:href="#m73ce57d15d" x="66.14" y="164.26" style="stroke: #000000; stroke-width: 0.8"/>
      </g>
     </g>
     <g id="text_8">
      <!-- 0.0 -->
      <g transform="translate(43.236875 168.059219)scale(0.1 -0.1)">
       <use xlink:href="#DejaVuSans-30"/>
       <use xlink:href="#DejaVuSans-2e" x="63.623047"/>
       <use xlink:href="#DejaVuSans-30" x="95.410156"/>
      </g>
     </g>
    </g>
    <g id="ytick_4">
     <g id="line2d_25">
      <g>
       <use xlink:href="#m73ce57d15d" x="66.14" y="85.288846" style="stroke: #000000; stroke-width: 0.8"/>
      </g>
     </g>
     <g id="text_9">
      <!-- 0.5 -->
      <g transform="translate(43.236875 89.088065)scale(0.1 -0.1)">
       <use xlink:href="#DejaVuSans-30"/>
       <use xlink:href="#DejaVuSans-2e" x="63.623047"/>
       <use xlink:href="#DejaVuSans-35" x="95.410156"/>
      </g>
     </g>
    </g>
    <g id="ytick_5">
     <g id="line2d_26">
      <g>
       <use xlink:href="#m73ce57d15d" x="66.14" y="6.317692" style="stroke: #000000; stroke-width: 0.8"/>
      </g>
     </g>
     <g id="text_10">
      <!-- 1.0 -->
      <g transform="translate(43.236875 10.116911)scale(0.1 -0.1)">
       <use xlink:href="#DejaVuSans-31"/>
       <use xlink:href="#DejaVuSans-2e" x="63.623047"/>
       <use xlink:href="#DejaVuSans-30" x="95.410156"/>
      </g>
     </g>
    </g>
    <g id="ytick_6">
     <g id="line2d_27">
      <defs>
       <path id="m5de864101c" d="M 0 0 
L -2 0 
" style="stroke: #000000; stroke-width: 0.6"/>
      </defs>
      <g>
       <use xlink:href="#m5de864101c" x="66.14" y="306.408077" style="stroke: #000000; stroke-width: 0.6"/>
      </g>
     </g>
    </g>
    <g id="ytick_7">
     <g id="line2d_28">
      <g>
       <use xlink:href="#m5de864101c" x="66.14" y="290.613846" style="stroke: #000000; stroke-width: 0.6"/>
      </g>
     </g>
    </g>
    <g id="ytick_8">
     <g id="line2d_29">
      <g>
       <use xlink:href="#m5de864101c" x="66.14" y="274.819615" style="stroke: #000000; stroke-width: 0.6"/>
      </g>
     </g>
    </g>
    <g id="ytick_9">
     <g id="line2d_30">
      <g>
       <use xlink:href="#m5de864101c" x="66.14" y="259.025385" style="stroke: #000000; stroke-width: 0.6"/>
      </g>
     </g>
    </g>
    <g id="ytick_10">
     <g id="line2d_31">
      <g>
       <use xlink:href="#m5de864101c" x="66.14" y="227.436923" style="stroke: #000000; stroke-width: 0.6"/>
      </g>
     </g>
    </g>
    <g id="ytick_11">
     <g id="line2d_32">
      <g>
       <use xlink:href="#m5de864101c" x="66.14" y="211.642692" style="stroke: #000000; stroke-width: 0.6"/>
      </g>
     </g>
    </g>
    <g id="ytick_12">
     <g id="line2d_33">
      <g>
       <use xlink:href="#m5de864101c" x="66.14" y="195.848462" style="stroke: #000000; stroke-width: 0.6"/>
      </g>
     </g>
    </g>
    <g id="ytick_13">
     <g id="line2d_34">
      <g>
       <use xlink:href="#m5de864101c" x="66.14" y="180.054231" style="stroke: #000000; stroke-width: 0.6"/>
      </g>
     </g>
    </g>
    <g id="ytick_14">
     <g id="line2d_35">
      <g>
       <use xlink:href="#m5de864101c" x="66.14" y="148.465769" style="stroke: #000000; stroke-width: 0.6"/>
      </g>
     </g>
    </g>
    <g id="ytick_15">
     <g id="line2d_36">
      <g>
       <use xlink:href="#m5de864101c" x="66.14" y="132.671538" style="stroke: #000000; stroke-width: 0.6"/>
      </g>
     </g>
    </g>
    <g id="ytick_16">
     <g id="line2d_37">
      <g>
       <use xlink:href="#m5de864101c" x="66.14" y="116.877308" style="stroke: #000000; stroke-width: 0.6"/>
      </g>
     </g>
    </g>
    <g id="ytick_17">
     <g id="line2d_38">
      <g>
       <use xlink:href="#m5de864101c" x="66.14" y="101.083077" style="stroke: #000000; stroke-width: 0.6"/>
      </g>
     </g>
    </g>
    <g id="ytick_18">
     <g id="line2d_39">
      <g>
       <use xlink:href="#m5de864101c" x="66.14" y="69.494615" style="stroke: #000000; stroke-width: 0.6"/>
      </g>
     </g>
    </g>
    <g id="ytick_19">
     <g id="line2d_40">
      <g>
       <use xlink:href="#m5de864101c" x="66.14" y="53.700385" style="stroke: #000000; stroke-width: 0.6"/>
      </g>
     </g>
    </g>
    <g id="ytick_20">
     <g id="line2d_41">
      <g>
       <use xlink:href="#m5de864101c" x="66.14" y="37.906154" style="stroke: #000000; stroke-width: 0.6"/>
      </g>
     </g>
    </g>
    <g id="ytick_21">
     <g id="line2d_42">
      <g>
       <use xlink:href="#m5de864101c" x="66.14" y="22.111923" style="stroke: #000000; stroke-width: 0.6"/>
      </g>
     </g>
    </g>
   </g>
   <g id="PathCollection_4"/>
   <g id="patch_3">
    <path d="M 66.14 328.52 
L 66.14 -0 
" style="fill: none; stroke: #000000; stroke-width: 0.8; stroke-linejoin: miter; stroke-linecap: square"/>
   </g>
   <g id="patch_4">
    <path d="M 394.66 328.52 
L 394.66 -0 
" style="fill: none; stroke: #000000; stroke-width: 0.8; stroke-linejoin: miter; stroke-linecap: square"/>
   </g>
   <g id="patch_5">
    <path d="M 66.14 328.52 
L 394.66 328.52 
" style="fill: none; stroke: #000000; stroke-width: 0.8; stroke-linejoin: miter; stroke-linecap: square"/>
   </g>
   <g id="patch_6">
    <path d="M 66.14 0 
L 394.66 0 
" style="fill: none; stroke: #000000; stroke-width: 0.8; stroke-linejoin: miter; stroke-linecap: square"/>
   </g>
  </g>
 </g>
 <defs>
  <clipPath id="pb2b15ea4b4">
   <rect x="66.14" y="0" width="328.52" height="328.52"/>
  </clipPath>
 </defs>
</svg>
