<?xml version="1.0" encoding="utf-8" standalone="no"?>
<!DOCTYPE svg PUBLIC "-//W3C//DTD SVG 1.1//EN"
  "http://www.w3.org/Graphics/SVG/1.1/DTD/svg11.dtd">
<svg xmlns:xlink="http://www.w3.org/1999/xlink" width="460.8pt" height="345.6pt" viewBox="0 0 460.8 345.6" xmlns="http://www.w3.org/2000/svg" version="1.1">
 <metadata>
  <rdf:RDF xmlns:dc="http://purl.org/dc/elements/1.1/" xmlns:cc="http://creativecommons.org/ns#" xmlns:rdf="http://www.w3.org/1999/02/22-rdf-syntax-ns#">
   <cc:Work>
    <dc:type rdf:resource="http://purl.org/dc/dcmitype/StillImage"/>
    <dc:date>2022-05-16T19:37:05.808769</dc:date>
    <dc:format>image/svg+xml</dc:format>
    <dc:creator>
     <cc:Agent>
      <dc:title>Matplotlib v3.5.1, https://matplotlib.org/</dc:title>
     </cc:Agent>
    </dc:creator>
   </cc:Work>
  </rdf:RDF>
 </metadata>
 <defs>
  <style type="text/css">*{stroke-linejoin: round; stroke-linecap: butt}</style>
 </defs>
 <g id="figure_1">
  <g id="patch_1">
   <path d="M 0 345.6 
L 460.8 345.6 
L 460.8 0 
L 0 0 
z
" style="fill: #ffffff"/>
  </g>
  <g id="axes_1">
   <g id="patch_2">
    <path d="M 86.4 345.6 
L 374.4 345.6 
L 374.4 0 
L 86.4 0 
z
" style="fill: #ffffff"/>
   </g>
   <g id="PathCollection_1">
    <path d="M 278.437677 203.958171 
L 284.089168 206.138032 
L 289.740659 206.991523 
L 295.392151 206.230301 
L 301.043642 203.566027 
L 301.317331 203.318053 
L 306.695133 197.558434 
L 307.296129 196.536264 
L 310.393043 189.754474 
L 312.346625 183.632986 
L 312.487302 182.972684 
L 313.215455 176.190895 
L 313.215455 169.409105 
L 312.487302 162.627316 
L 312.346625 161.967014 
L 310.393043 155.845526 
L 307.296129 149.063736 
L 306.695133 148.041566 
L 301.317331 142.281947 
L 301.043642 142.033973 
L 295.392151 139.369699 
L 289.740659 138.608477 
L 284.089168 139.461968 
L 278.437677 141.641829 
L 277.241974 142.281947 
L 272.786185 145.504162 
L 268.63544 149.063736 
L 267.134694 150.930266 
L 263.257824 155.845526 
L 261.483203 159.544946 
L 259.854401 162.627316 
L 258.163763 169.409105 
L 258.163763 176.190895 
L 259.854401 182.972684 
L 261.483203 186.055054 
L 263.257824 189.754474 
L 267.134694 194.669734 
L 268.63544 196.536264 
L 272.786185 200.095838 
L 277.241974 203.318053 
z
" clip-path="url(#p733962aaa4)" style="fill: #add8e6"/>
   </g>
   <g id="PathCollection_2">
    <path d="M 278.437677 203.958171 
L 284.089168 206.138032 
L 289.740659 206.991523 
L 295.392151 206.230301 
L 301.043642 203.566027 
L 301.317331 203.318053 
L 306.695133 197.558434 
L 307.296129 196.536264 
L 310.393043 189.754474 
L 312.346625 183.632986 
L 312.487302 182.972684 
L 313.215455 176.190895 
L 313.215455 169.409105 
L 312.487302 162.627316 
L 312.346625 161.967014 
L 310.393043 155.845526 
L 307.296129 149.063736 
L 306.695133 148.041566 
L 301.317331 142.281947 
L 301.043642 142.033973 
L 295.392151 139.369699 
L 289.740659 138.608477 
L 284.089168 139.461968 
L 278.437677 141.641829 
L 277.241974 142.281947 
L 272.786185 145.504162 
L 268.63544 149.063736 
L 267.134694 150.930266 
L 263.257824 155.845526 
L 261.483203 159.544946 
L 259.854401 162.627316 
L 258.163763 169.409105 
L 258.163763 176.190895 
L 259.854401 182.972684 
L 261.483203 186.055054 
L 263.257824 189.754474 
L 267.134694 194.669734 
L 268.63544 196.536264 
L 272.786185 200.095838 
L 277.241974 203.318053 
z
M 277.241974 203.318053 
L 272.786185 200.095838 
L 268.63544 196.536264 
L 267.134694 194.669734 
L 263.257824 189.754474 
L 261.483203 186.055054 
L 259.854401 182.972684 
L 258.163763 176.190895 
L 258.163763 169.409105 
L 259.854401 162.627316 
L 261.483203 159.544946 
L 263.257824 155.845526 
L 267.134694 150.930266 
L 268.63544 149.063736 
L 272.786185 145.504162 
L 277.241974 142.281947 
L 278.437677 141.641829 
L 284.089168 139.461968 
L 289.740659 138.608477 
L 295.392151 139.369699 
L 301.043642 142.033973 
L 301.317331 142.281947 
L 306.695133 148.041566 
L 307.296129 149.063736 
L 310.393043 155.845526 
L 312.346625 161.967014 
L 312.487302 162.627316 
L 313.215455 169.409105 
L 313.215455 176.190895 
L 312.487302 182.972684 
L 312.346625 183.632986 
L 310.393043 189.754474 
L 307.296129 196.536264 
L 306.695133 197.558434 
L 301.317331 203.318053 
L 301.043642 203.566027 
L 295.392151 206.230301 
L 289.740659 206.991523 
L 284.089168 206.138032 
L 278.437677 203.958171 
z
" clip-path="url(#p733962aaa4)" style="fill: #add8e6"/>
   </g>
   <g id="PathCollection_3">
    <path d="M 278.437677 203.958171 
L 284.089168 206.138032 
L 289.740659 206.991523 
L 295.392151 206.230301 
L 301.043642 203.566027 
L 301.317331 203.318053 
L 306.695133 197.558434 
L 307.296129 196.536264 
L 310.393043 189.754474 
L 312.346625 183.632986 
L 312.487302 182.972684 
L 313.215455 176.190895 
L 313.215455 169.409105 
L 312.487302 162.627316 
L 312.346625 161.967014 
L 310.393043 155.845526 
L 307.296129 149.063736 
L 306.695133 148.041566 
L 301.317331 142.281947 
L 301.043642 142.033973 
L 295.392151 139.369699 
L 289.740659 138.608477 
L 284.089168 139.461968 
L 278.437677 141.641829 
L 277.241974 142.281947 
L 272.786185 145.504162 
L 268.63544 149.063736 
L 267.134694 150.930266 
L 263.257824 155.845526 
L 261.483203 159.544946 
L 259.854401 162.627316 
L 258.163763 169.409105 
L 258.163763 176.190895 
L 259.854401 182.972684 
L 261.483203 186.055054 
L 263.257824 189.754474 
L 267.134694 194.669734 
L 268.63544 196.536264 
L 272.786185 200.095838 
L 277.241974 203.318053 
z
M 277.241974 203.318053 
L 272.786185 200.095838 
L 268.63544 196.536264 
L 267.134694 194.669734 
L 263.257824 189.754474 
L 261.483203 186.055054 
L 259.854401 182.972684 
L 258.163763 176.190895 
L 258.163763 169.409105 
L 259.854401 162.627316 
L 261.483203 159.544946 
L 263.257824 155.845526 
L 267.134694 150.930266 
L 268.63544 149.063736 
L 272.786185 145.504162 
L 277.241974 142.281947 
L 278.437677 141.641829 
L 284.089168 139.461968 
L 289.740659 138.608477 
L 295.392151 139.369699 
L 301.043642 142.033973 
L 301.317331 142.281947 
L 306.695133 148.041566 
L 307.296129 149.063736 
L 310.393043 155.845526 
L 312.346625 161.967014 
L 312.487302 162.627316 
L 313.215455 169.409105 
L 313.215455 176.190895 
L 312.487302 182.972684 
L 312.346625 183.632986 
L 310.393043 189.754474 
L 307.296129 196.536264 
L 306.695133 197.558434 
L 301.317331 203.318053 
L 301.043642 203.566027 
L 295.392151 206.230301 
L 289.740659 206.991523 
L 284.089168 206.138032 
L 278.437677 203.958171 
z
" clip-path="url(#p733962aaa4)" style="fill: #ffffff"/>
   </g>
   <g id="PathCollection_4">
    <path d="M 97.589953 338.953846 
L 103.241444 338.953846 
L 108.892936 338.953846 
L 114.544427 338.953846 
L 120.195918 338.953846 
L 125.84741 338.953846 
L 131.498901 338.953846 
L 137.150392 338.953846 
L 142.801884 338.953846 
L 148.453375 338.953846 
L 154.104867 338.953846 
L 159.756358 338.953846 
L 165.407849 338.953846 
L 171.059341 338.953846 
L 176.710832 338.953846 
L 182.362323 338.953846 
L 188.013815 338.953846 
L 193.665306 338.953846 
L 199.316797 338.953846 
L 204.968289 338.953846 
L 210.61978 338.953846 
L 216.271272 338.953846 
L 221.922763 338.953846 
L 227.574254 338.953846 
L 233.225746 338.953846 
L 238.877237 338.953846 
L 244.528728 338.953846 
L 250.18022 338.953846 
L 255.831711 338.953846 
L 261.483203 338.953846 
L 267.134694 338.953846 
L 272.786185 338.953846 
L 278.437677 338.953846 
L 284.089168 338.953846 
L 289.740659 338.953846 
L 295.392151 338.953846 
L 301.043642 338.953846 
L 306.695133 338.953846 
L 312.346625 338.953846 
L 317.998116 338.953846 
L 323.649608 338.953846 
L 329.301099 338.953846 
L 334.95259 338.953846 
L 340.604082 338.953846 
L 346.255573 338.953846 
L 351.907064 338.953846 
L 357.558556 338.953846 
L 363.210047 338.953846 
L 368.861538 338.953846 
L 368.861538 332.172057 
L 368.861538 325.390267 
L 368.861538 318.608477 
L 368.861538 311.826688 
L 368.861538 305.044898 
L 368.861538 298.263108 
L 368.861538 291.481319 
L 368.861538 284.699529 
L 368.861538 277.917739 
L 368.861538 271.13595 
L 368.861538 264.35416 
L 368.861538 257.57237 
L 368.861538 250.790581 
L 368.861538 244.008791 
L 368.861538 237.227002 
L 368.861538 230.445212 
L 368.861538 223.663422 
L 368.861538 216.881633 
L 368.861538 210.099843 
L 368.861538 203.318053 
L 368.861538 196.536264 
L 368.861538 189.754474 
L 368.861538 182.972684 
L 368.861538 176.190895 
L 368.861538 169.409105 
L 368.861538 162.627316 
L 368.861538 155.845526 
L 368.861538 149.063736 
L 368.861538 142.281947 
L 368.861538 135.500157 
L 368.861538 128.718367 
L 368.861538 121.936578 
L 368.861538 115.154788 
L 368.861538 108.372998 
L 368.861538 101.591209 
L 368.861538 94.809419 
L 368.861538 88.02763 
L 368.861538 81.24584 
L 368.861538 74.46405 
L 368.861538 67.682261 
L 368.861538 60.900471 
L 368.861538 54.118681 
L 368.861538 47.336892 
L 368.861538 40.555102 
L 368.861538 33.773312 
L 368.861538 26.991523 
L 368.861538 20.209733 
L 368.861538 13.427943 
L 368.861538 6.646154 
L 363.210047 6.646154 
L 357.558556 6.646154 
L 351.907064 6.646154 
L 346.255573 6.646154 
L 340.604082 6.646154 
L 334.95259 6.646154 
L 329.301099 6.646154 
L 323.649608 6.646154 
L 317.998116 6.646154 
L 312.346625 6.646154 
L 306.695133 6.646154 
L 301.043642 6.646154 
L 295.392151 6.646154 
L 289.740659 6.646154 
L 284.089168 6.646154 
L 278.437677 6.646154 
L 272.786185 6.646154 
L 267.134694 6.646154 
L 261.483203 6.646154 
L 255.831711 6.646154 
L 250.18022 6.646154 
L 244.528728 6.646154 
L 238.877237 6.646154 
L 233.225746 6.646154 
L 227.574254 6.646154 
L 221.922763 6.646154 
L 216.271272 6.646154 
L 210.61978 6.646154 
L 204.968289 6.646154 
L 199.316797 6.646154 
L 193.665306 6.646154 
L 188.013815 6.646154 
L 182.362323 6.646154 
L 176.710832 6.646154 
L 171.059341 6.646154 
L 165.407849 6.646154 
L 159.756358 6.646154 
L 154.104867 6.646154 
L 148.453375 6.646154 
L 142.801884 6.646154 
L 137.150392 6.646154 
L 131.498901 6.646154 
L 125.84741 6.646154 
L 120.195918 6.646154 
L 114.544427 6.646154 
L 108.892936 6.646154 
L 103.241444 6.646154 
L 97.589953 6.646154 
L 91.938462 6.646154 
L 91.938462 13.427943 
L 91.938462 20.209733 
L 91.938462 26.991523 
L 91.938462 33.773312 
L 91.938462 40.555102 
L 91.938462 47.336892 
L 91.938462 54.118681 
L 91.938462 60.900471 
L 91.938462 67.682261 
L 91.938462 74.46405 
L 91.938462 81.24584 
L 91.938462 88.02763 
L 91.938462 94.809419 
L 91.938462 101.591209 
L 91.938462 108.372998 
L 91.938462 115.154788 
L 91.938462 121.936578 
L 91.938462 128.718367 
L 91.938462 135.500157 
L 91.938462 142.281947 
L 91.938462 149.063736 
L 91.938462 155.845526 
L 91.938462 162.627316 
L 91.938462 169.409105 
L 91.938462 176.190895 
L 91.938462 182.972684 
L 91.938462 189.754474 
L 91.938462 196.536264 
L 91.938462 203.318053 
L 91.938462 210.099843 
L 91.938462 216.881633 
L 91.938462 223.663422 
L 91.938462 230.445212 
L 91.938462 237.227002 
L 91.938462 244.008791 
L 91.938462 250.790581 
L 91.938462 257.57237 
L 91.938462 264.35416 
L 91.938462 271.13595 
L 91.938462 277.917739 
L 91.938462 284.699529 
L 91.938462 291.481319 
L 91.938462 298.263108 
L 91.938462 305.044898 
L 91.938462 311.826688 
L 91.938462 318.608477 
L 91.938462 325.390267 
L 91.938462 332.172057 
L 91.938462 338.953846 
L 97.589953 338.953846 
z
M 277.241974 203.318053 
L 272.786185 200.095838 
L 268.63544 196.536264 
L 267.134694 194.669734 
L 263.257824 189.754474 
L 261.483203 186.055054 
L 259.854401 182.972684 
L 258.163763 176.190895 
L 258.163763 169.409105 
L 259.854401 162.627316 
L 261.483203 159.544946 
L 263.257824 155.845526 
L 267.134694 150.930266 
L 268.63544 149.063736 
L 272.786185 145.504162 
L 277.241974 142.281947 
L 278.437677 141.641829 
L 284.089168 139.461968 
L 289.740659 138.608477 
L 295.392151 139.369699 
L 301.043642 142.033973 
L 301.317331 142.281947 
L 306.695133 148.041566 
L 307.296129 149.063736 
L 310.393043 155.845526 
L 312.346625 161.967014 
L 312.487302 162.627316 
L 313.215455 169.409105 
L 313.215455 176.190895 
L 312.487302 182.972684 
L 312.346625 183.632986 
L 310.393043 189.754474 
L 307.296129 196.536264 
L 306.695133 197.558434 
L 301.317331 203.318053 
L 301.043642 203.566027 
L 295.392151 206.230301 
L 289.740659 206.991523 
L 284.089168 206.138032 
L 278.437677 203.958171 
L 277.241974 203.318053 
z
" clip-path="url(#p733962aaa4)" style="fill: none"/>
   </g>
   <g id="matplotlib.axis_1">
    <g id="xtick_1">
     <g id="line2d_1">
      <defs>
       <path id="md2f225578f" d="M 0 0 
L 0 3.5 
" style="stroke: #000000; stroke-width: 0.8"/>
      </defs>
      <g>
       <use xlink:href="#md2f225578f" x="91.938462" y="172.8" style="stroke: #000000; stroke-width: 0.8"/>
      </g>
     </g>
     <g id="text_1">
      <!-- −3 -->
      <g transform="translate(84.567368 187.398437)scale(0.1 -0.1)">
       <defs>
        <path id="DejaVuSans-2212" d="M 678 2272 
L 4684 2272 
L 4684 1741 
L 678 1741 
L 678 2272 
z
" transform="scale(0.015625)"/>
        <path id="DejaVuSans-33" d="M 2597 2516 
Q 3050 2419 3304 2112 
Q 3559 1806 3559 1356 
Q 3559 666 3084 287 
Q 2609 -91 1734 -91 
Q 1441 -91 1130 -33 
Q 819 25 488 141 
L 488 750 
Q 750 597 1062 519 
Q 1375 441 1716 441 
Q 2309 441 2620 675 
Q 2931 909 2931 1356 
Q 2931 1769 2642 2001 
Q 2353 2234 1838 2234 
L 1294 2234 
L 1294 2753 
L 1863 2753 
Q 2328 2753 2575 2939 
Q 2822 3125 2822 3475 
Q 2822 3834 2567 4026 
Q 2313 4219 1838 4219 
Q 1578 4219 1281 4162 
Q 984 4106 628 3988 
L 628 4550 
Q 988 4650 1302 4700 
Q 1616 4750 1894 4750 
Q 2613 4750 3031 4423 
Q 3450 4097 3450 3541 
Q 3450 3153 3228 2886 
Q 3006 2619 2597 2516 
z
" transform="scale(0.015625)"/>
       </defs>
       <use xlink:href="#DejaVuSans-2212"/>
       <use xlink:href="#DejaVuSans-33" x="83.789062"/>
      </g>
     </g>
    </g>
    <g id="xtick_2">
     <g id="line2d_2">
      <g>
       <use xlink:href="#md2f225578f" x="147.323077" y="172.8" style="stroke: #000000; stroke-width: 0.8"/>
      </g>
     </g>
     <g id="text_2">
      <!-- −2 -->
      <g transform="translate(139.951983 187.398437)scale(0.1 -0.1)">
       <defs>
        <path id="DejaVuSans-32" d="M 1228 531 
L 3431 531 
L 3431 0 
L 469 0 
L 469 531 
Q 828 903 1448 1529 
Q 2069 2156 2228 2338 
Q 2531 2678 2651 2914 
Q 2772 3150 2772 3378 
Q 2772 3750 2511 3984 
Q 2250 4219 1831 4219 
Q 1534 4219 1204 4116 
Q 875 4013 500 3803 
L 500 4441 
Q 881 4594 1212 4672 
Q 1544 4750 1819 4750 
Q 2544 4750 2975 4387 
Q 3406 4025 3406 3419 
Q 3406 3131 3298 2873 
Q 3191 2616 2906 2266 
Q 2828 2175 2409 1742 
Q 1991 1309 1228 531 
z
" transform="scale(0.015625)"/>
       </defs>
       <use xlink:href="#DejaVuSans-2212"/>
       <use xlink:href="#DejaVuSans-32" x="83.789062"/>
      </g>
     </g>
    </g>
    <g id="xtick_3">
     <g id="line2d_3">
      <g>
       <use xlink:href="#md2f225578f" x="202.707692" y="172.8" style="stroke: #000000; stroke-width: 0.8"/>
      </g>
     </g>
     <g id="text_3">
      <!-- −1 -->
      <g transform="translate(195.336599 187.398437)scale(0.1 -0.1)">
       <defs>
        <path id="DejaVuSans-31" d="M 794 531 
L 1825 531 
L 1825 4091 
L 703 3866 
L 703 4441 
L 1819 4666 
L 2450 4666 
L 2450 531 
L 3481 531 
L 3481 0 
L 794 0 
L 794 531 
z
" transform="scale(0.015625)"/>
       </defs>
       <use xlink:href="#DejaVuSans-2212"/>
       <use xlink:href="#DejaVuSans-31" x="83.789062"/>
      </g>
     </g>
    </g>
    <g id="xtick_4">
     <g id="line2d_4">
      <g>
       <use xlink:href="#md2f225578f" x="258.092308" y="172.8" style="stroke: #000000; stroke-width: 0.8"/>
      </g>
     </g>
    </g>
    <g id="xtick_5">
     <g id="line2d_5">
      <g>
       <use xlink:href="#md2f225578f" x="313.476923" y="172.8" style="stroke: #000000; stroke-width: 0.8"/>
      </g>
     </g>
     <g id="text_4">
      <!-- 1 -->
      <g transform="translate(310.295673 187.398437)scale(0.1 -0.1)">
       <use xlink:href="#DejaVuSans-31"/>
      </g>
     </g>
    </g>
    <g id="xtick_6">
     <g id="line2d_6">
      <g>
       <use xlink:href="#md2f225578f" x="368.861538" y="172.8" style="stroke: #000000; stroke-width: 0.8"/>
      </g>
     </g>
     <g id="text_5">
      <!-- 2 -->
      <g transform="translate(365.680288 187.398437)scale(0.1 -0.1)">
       <use xlink:href="#DejaVuSans-32"/>
      </g>
     </g>
    </g>
    <g id="xtick_7">
     <g id="line2d_7">
      <defs>
       <path id="m77d597db22" d="M 0 0 
L 0 2 
" style="stroke: #000000; stroke-width: 0.6"/>
      </defs>
      <g>
       <use xlink:href="#m77d597db22" x="103.015385" y="172.8" style="stroke: #000000; stroke-width: 0.6"/>
      </g>
     </g>
    </g>
    <g id="xtick_8">
     <g id="line2d_8">
      <g>
       <use xlink:href="#m77d597db22" x="114.092308" y="172.8" style="stroke: #000000; stroke-width: 0.6"/>
      </g>
     </g>
    </g>
    <g id="xtick_9">
     <g id="line2d_9">
      <g>
       <use xlink:href="#m77d597db22" x="125.169231" y="172.8" style="stroke: #000000; stroke-width: 0.6"/>
      </g>
     </g>
    </g>
    <g id="xtick_10">
     <g id="line2d_10">
      <g>
       <use xlink:href="#m77d597db22" x="136.246154" y="172.8" style="stroke: #000000; stroke-width: 0.6"/>
      </g>
     </g>
    </g>
    <g id="xtick_11">
     <g id="line2d_11">
      <g>
       <use xlink:href="#m77d597db22" x="158.4" y="172.8" style="stroke: #000000; stroke-width: 0.6"/>
      </g>
     </g>
    </g>
    <g id="xtick_12">
     <g id="line2d_12">
      <g>
       <use xlink:href="#m77d597db22" x="169.476923" y="172.8" style="stroke: #000000; stroke-width: 0.6"/>
      </g>
     </g>
    </g>
    <g id="xtick_13">
     <g id="line2d_13">
      <g>
       <use xlink:href="#m77d597db22" x="180.553846" y="172.8" style="stroke: #000000; stroke-width: 0.6"/>
      </g>
     </g>
    </g>
    <g id="xtick_14">
     <g id="line2d_14">
      <g>
       <use xlink:href="#m77d597db22" x="191.630769" y="172.8" style="stroke: #000000; stroke-width: 0.6"/>
      </g>
     </g>
    </g>
    <g id="xtick_15">
     <g id="line2d_15">
      <g>
       <use xlink:href="#m77d597db22" x="213.784615" y="172.8" style="stroke: #000000; stroke-width: 0.6"/>
      </g>
     </g>
    </g>
    <g id="xtick_16">
     <g id="line2d_16">
      <g>
       <use xlink:href="#m77d597db22" x="224.861538" y="172.8" style="stroke: #000000; stroke-width: 0.6"/>
      </g>
     </g>
    </g>
    <g id="xtick_17">
     <g id="line2d_17">
      <g>
       <use xlink:href="#m77d597db22" x="235.938462" y="172.8" style="stroke: #000000; stroke-width: 0.6"/>
      </g>
     </g>
    </g>
    <g id="xtick_18">
     <g id="line2d_18">
      <g>
       <use xlink:href="#m77d597db22" x="247.015385" y="172.8" style="stroke: #000000; stroke-width: 0.6"/>
      </g>
     </g>
    </g>
    <g id="xtick_19">
     <g id="line2d_19">
      <g>
       <use xlink:href="#m77d597db22" x="269.169231" y="172.8" style="stroke: #000000; stroke-width: 0.6"/>
      </g>
     </g>
    </g>
    <g id="xtick_20">
     <g id="line2d_20">
      <g>
       <use xlink:href="#m77d597db22" x="280.246154" y="172.8" style="stroke: #000000; stroke-width: 0.6"/>
      </g>
     </g>
    </g>
    <g id="xtick_21">
     <g id="line2d_21">
      <g>
       <use xlink:href="#m77d597db22" x="291.323077" y="172.8" style="stroke: #000000; stroke-width: 0.6"/>
      </g>
     </g>
    </g>
    <g id="xtick_22">
     <g id="line2d_22">
      <g>
       <use xlink:href="#m77d597db22" x="302.4" y="172.8" style="stroke: #000000; stroke-width: 0.6"/>
      </g>
     </g>
    </g>
    <g id="xtick_23">
     <g id="line2d_23">
      <g>
       <use xlink:href="#m77d597db22" x="324.553846" y="172.8" style="stroke: #000000; stroke-width: 0.6"/>
      </g>
     </g>
    </g>
    <g id="xtick_24">
     <g id="line2d_24">
      <g>
       <use xlink:href="#m77d597db22" x="335.630769" y="172.8" style="stroke: #000000; stroke-width: 0.6"/>
      </g>
     </g>
    </g>
    <g id="xtick_25">
     <g id="line2d_25">
      <g>
       <use xlink:href="#m77d597db22" x="346.707692" y="172.8" style="stroke: #000000; stroke-width: 0.6"/>
      </g>
     </g>
    </g>
    <g id="xtick_26">
     <g id="line2d_26">
      <g>
       <use xlink:href="#m77d597db22" x="357.784615" y="172.8" style="stroke: #000000; stroke-width: 0.6"/>
      </g>
     </g>
    </g>
   </g>
   <g id="matplotlib.axis_2">
    <g id="ytick_1">
     <g id="line2d_27">
      <defs>
       <path id="m435a858a6f" d="M 0 0 
L -3.5 0 
" style="stroke: #000000; stroke-width: 0.8"/>
      </defs>
      <g>
       <use xlink:href="#m435a858a6f" x="258.092308" y="338.953846" style="stroke: #000000; stroke-width: 0.8"/>
      </g>
     </g>
     <g id="text_6">
      <!-- −3 -->
      <g transform="translate(236.35012 342.753065)scale(0.1 -0.1)">
       <use xlink:href="#DejaVuSans-2212"/>
       <use xlink:href="#DejaVuSans-33" x="83.789062"/>
      </g>
     </g>
    </g>
    <g id="ytick_2">
     <g id="line2d_28">
      <g>
       <use xlink:href="#m435a858a6f" x="258.092308" y="283.569231" style="stroke: #000000; stroke-width: 0.8"/>
      </g>
     </g>
     <g id="text_7">
      <!-- −2 -->
      <g transform="translate(236.35012 287.36845)scale(0.1 -0.1)">
       <use xlink:href="#DejaVuSans-2212"/>
       <use xlink:href="#DejaVuSans-32" x="83.789062"/>
      </g>
     </g>
    </g>
    <g id="ytick_3">
     <g id="line2d_29">
      <g>
       <use xlink:href="#m435a858a6f" x="258.092308" y="228.184615" style="stroke: #000000; stroke-width: 0.8"/>
      </g>
     </g>
     <g id="text_8">
      <!-- −1 -->
      <g transform="translate(236.35012 231.983834)scale(0.1 -0.1)">
       <use xlink:href="#DejaVuSans-2212"/>
       <use xlink:href="#DejaVuSans-31" x="83.789062"/>
      </g>
     </g>
    </g>
    <g id="ytick_4">
     <g id="line2d_30">
      <g>
       <use xlink:href="#m435a858a6f" x="258.092308" y="172.8" style="stroke: #000000; stroke-width: 0.8"/>
      </g>
     </g>
    </g>
    <g id="ytick_5">
     <g id="line2d_31">
      <g>
       <use xlink:href="#m435a858a6f" x="258.092308" y="117.415385" style="stroke: #000000; stroke-width: 0.8"/>
      </g>
     </g>
     <g id="text_9">
      <!-- 1 -->
      <g transform="translate(244.729808 121.214603)scale(0.1 -0.1)">
       <use xlink:href="#DejaVuSans-31"/>
      </g>
     </g>
    </g>
    <g id="ytick_6">
     <g id="line2d_32">
      <g>
       <use xlink:href="#m435a858a6f" x="258.092308" y="62.030769" style="stroke: #000000; stroke-width: 0.8"/>
      </g>
     </g>
     <g id="text_10">
      <!-- 2 -->
      <g transform="translate(244.729808 65.829988)scale(0.1 -0.1)">
       <use xlink:href="#DejaVuSans-32"/>
      </g>
     </g>
    </g>
    <g id="ytick_7">
     <g id="line2d_33">
      <g>
       <use xlink:href="#m435a858a6f" x="258.092308" y="6.646154" style="stroke: #000000; stroke-width: 0.8"/>
      </g>
     </g>
     <g id="text_11">
      <!-- 3 -->
      <g transform="translate(244.729808 10.445373)scale(0.1 -0.1)">
       <use xlink:href="#DejaVuSans-33"/>
      </g>
     </g>
    </g>
    <g id="ytick_8">
     <g id="line2d_34">
      <defs>
       <path id="m2e7633b84d" d="M 0 0 
L -2 0 
" style="stroke: #000000; stroke-width: 0.6"/>
      </defs>
      <g>
       <use xlink:href="#m2e7633b84d" x="258.092308" y="327.876923" style="stroke: #000000; stroke-width: 0.6"/>
      </g>
     </g>
    </g>
    <g id="ytick_9">
     <g id="line2d_35">
      <g>
       <use xlink:href="#m2e7633b84d" x="258.092308" y="316.8" style="stroke: #000000; stroke-width: 0.6"/>
      </g>
     </g>
    </g>
    <g id="ytick_10">
     <g id="line2d_36">
      <g>
       <use xlink:href="#m2e7633b84d" x="258.092308" y="305.723077" style="stroke: #000000; stroke-width: 0.6"/>
      </g>
     </g>
    </g>
    <g id="ytick_11">
     <g id="line2d_37">
      <g>
       <use xlink:href="#m2e7633b84d" x="258.092308" y="294.646154" style="stroke: #000000; stroke-width: 0.6"/>
      </g>
     </g>
    </g>
    <g id="ytick_12">
     <g id="line2d_38">
      <g>
       <use xlink:href="#m2e7633b84d" x="258.092308" y="272.492308" style="stroke: #000000; stroke-width: 0.6"/>
      </g>
     </g>
    </g>
    <g id="ytick_13">
     <g id="line2d_39">
      <g>
       <use xlink:href="#m2e7633b84d" x="258.092308" y="261.415385" style="stroke: #000000; stroke-width: 0.6"/>
      </g>
     </g>
    </g>
    <g id="ytick_14">
     <g id="line2d_40">
      <g>
       <use xlink:href="#m2e7633b84d" x="258.092308" y="250.338462" style="stroke: #000000; stroke-width: 0.6"/>
      </g>
     </g>
    </g>
    <g id="ytick_15">
     <g id="line2d_41">
      <g>
       <use xlink:href="#m2e7633b84d" x="258.092308" y="239.261538" style="stroke: #000000; stroke-width: 0.6"/>
      </g>
     </g>
    </g>
    <g id="ytick_16">
     <g id="line2d_42">
      <g>
       <use xlink:href="#m2e7633b84d" x="258.092308" y="217.107692" style="stroke: #000000; stroke-width: 0.6"/>
      </g>
     </g>
    </g>
    <g id="ytick_17">
     <g id="line2d_43">
      <g>
       <use xlink:href="#m2e7633b84d" x="258.092308" y="206.030769" style="stroke: #000000; stroke-width: 0.6"/>
      </g>
     </g>
    </g>
    <g id="ytick_18">
     <g id="line2d_44">
      <g>
       <use xlink:href="#m2e7633b84d" x="258.092308" y="194.953846" style="stroke: #000000; stroke-width: 0.6"/>
      </g>
     </g>
    </g>
    <g id="ytick_19">
     <g id="line2d_45">
      <g>
       <use xlink:href="#m2e7633b84d" x="258.092308" y="183.876923" style="stroke: #000000; stroke-width: 0.6"/>
      </g>
     </g>
    </g>
    <g id="ytick_20">
     <g id="line2d_46">
      <g>
       <use xlink:href="#m2e7633b84d" x="258.092308" y="161.723077" style="stroke: #000000; stroke-width: 0.6"/>
      </g>
     </g>
    </g>
    <g id="ytick_21">
     <g id="line2d_47">
      <g>
       <use xlink:href="#m2e7633b84d" x="258.092308" y="150.646154" style="stroke: #000000; stroke-width: 0.6"/>
      </g>
     </g>
    </g>
    <g id="ytick_22">
     <g id="line2d_48">
      <g>
       <use xlink:href="#m2e7633b84d" x="258.092308" y="139.569231" style="stroke: #000000; stroke-width: 0.6"/>
      </g>
     </g>
    </g>
    <g id="ytick_23">
     <g id="line2d_49">
      <g>
       <use xlink:href="#m2e7633b84d" x="258.092308" y="128.492308" style="stroke: #000000; stroke-width: 0.6"/>
      </g>
     </g>
    </g>
    <g id="ytick_24">
     <g id="line2d_50">
      <g>
       <use xlink:href="#m2e7633b84d" x="258.092308" y="106.338462" style="stroke: #000000; stroke-width: 0.6"/>
      </g>
     </g>
    </g>
    <g id="ytick_25">
     <g id="line2d_51">
      <g>
       <use xlink:href="#m2e7633b84d" x="258.092308" y="95.261538" style="stroke: #000000; stroke-width: 0.6"/>
      </g>
     </g>
    </g>
    <g id="ytick_26">
     <g id="line2d_52">
      <g>
       <use xlink:href="#m2e7633b84d" x="258.092308" y="84.184615" style="stroke: #000000; stroke-width: 0.6"/>
      </g>
     </g>
    </g>
    <g id="ytick_27">
     <g id="line2d_53">
      <g>
       <use xlink:href="#m2e7633b84d" x="258.092308" y="73.107692" style="stroke: #000000; stroke-width: 0.6"/>
      </g>
     </g>
    </g>
    <g id="ytick_28">
     <g id="line2d_54">
      <g>
       <use xlink:href="#m2e7633b84d" x="258.092308" y="50.953846" style="stroke: #000000; stroke-width: 0.6"/>
      </g>
     </g>
    </g>
    <g id="ytick_29">
     <g id="line2d_55">
      <g>
       <use xlink:href="#m2e7633b84d" x="258.092308" y="39.876923" style="stroke: #000000; stroke-width: 0.6"/>
      </g>
     </g>
    </g>
    <g id="ytick_30">
     <g id="line2d_56">
      <g>
       <use xlink:href="#m2e7633b84d" x="258.092308" y="28.8" style="stroke: #000000; stroke-width: 0.6"/>
      </g>
     </g>
    </g>
    <g id="ytick_31">
     <g id="line2d_57">
      <g>
       <use xlink:href="#m2e7633b84d" x="258.092308" y="17.723077" style="stroke: #000000; stroke-width: 0.6"/>
      </g>
     </g>
    </g>
   </g>
   <g id="PathCollection_5">
    <path d="M 278.437677 203.958171 
L 277.241974 203.318053 
L 272.786185 200.095838 
L 268.63544 196.536264 
L 267.134694 194.669734 
L 263.257824 189.754474 
L 261.483203 186.055054 
L 259.854401 182.972684 
L 258.163763 176.190895 
L 258.163763 169.409105 
L 259.854401 162.627316 
L 261.483203 159.544946 
L 263.257824 155.845526 
L 267.134694 150.930266 
L 268.63544 149.063736 
L 272.786185 145.504162 
L 277.241974 142.281947 
L 278.437677 141.641829 
L 284.089168 139.461968 
L 289.740659 138.608477 
L 295.392151 139.369699 
L 301.043642 142.033973 
L 301.317331 142.281947 
L 306.695133 148.041566 
L 307.296129 149.063736 
L 310.393043 155.845526 
L 312.346625 161.967014 
L 312.487302 162.627316 
L 313.215455 169.409105 
L 313.215455 176.190895 
L 312.487302 182.972684 
L 312.346625 183.632986 
L 310.393043 189.754474 
L 307.296129 196.536264 
L 306.695133 197.558434 
L 301.317331 203.318053 
L 301.043642 203.566027 
L 295.392151 206.230301 
L 289.740659 206.991523 
L 284.089168 206.138032 
L 278.437677 203.958171 
" clip-path="url(#p733962aaa4)" style="fill: none; stroke: #add8e6; stroke-width: 1.5"/>
   </g>
   <g id="PathCollection_6">
    <path d="M 278.437677 203.958171 
L 277.241974 203.318053 
L 272.786185 200.095838 
L 268.63544 196.536264 
L 267.134694 194.669734 
L 263.257824 189.754474 
L 261.483203 186.055054 
L 259.854401 182.972684 
L 258.163763 176.190895 
L 258.163763 169.409105 
L 259.854401 162.627316 
L 261.483203 159.544946 
L 263.257824 155.845526 
L 267.134694 150.930266 
L 268.63544 149.063736 
L 272.786185 145.504162 
L 277.241974 142.281947 
L 278.437677 141.641829 
L 284.089168 139.461968 
L 289.740659 138.608477 
L 295.392151 139.369699 
L 301.043642 142.033973 
L 301.317331 142.281947 
L 306.695133 148.041566 
L 307.296129 149.063736 
L 310.393043 155.845526 
L 312.346625 161.967014 
L 312.487302 162.627316 
L 313.215455 169.409105 
L 313.215455 176.190895 
L 312.487302 182.972684 
L 312.346625 183.632986 
L 310.393043 189.754474 
L 307.296129 196.536264 
L 306.695133 197.558434 
L 301.317331 203.318053 
L 301.043642 203.566027 
L 295.392151 206.230301 
L 289.740659 206.991523 
L 284.089168 206.138032 
L 278.437677 203.958171 
" clip-path="url(#p733962aaa4)" style="fill: none; stroke: #ffffff; stroke-width: 1.5"/>
   </g>
   <g id="PathCollection_7">
    <path d="M 278.437677 203.958171 
L 277.241974 203.318053 
L 272.786185 200.095838 
L 268.63544 196.536264 
L 267.134694 194.669734 
L 263.257824 189.754474 
L 261.483203 186.055054 
L 259.854401 182.972684 
L 258.163763 176.190895 
L 258.163763 169.409105 
L 259.854401 162.627316 
L 261.483203 159.544946 
L 263.257824 155.845526 
L 267.134694 150.930266 
L 268.63544 149.063736 
L 272.786185 145.504162 
L 277.241974 142.281947 
L 278.437677 141.641829 
L 284.089168 139.461968 
L 289.740659 138.608477 
L 295.392151 139.369699 
L 301.043642 142.033973 
L 301.317331 142.281947 
L 306.695133 148.041566 
L 307.296129 149.063736 
L 310.393043 155.845526 
L 312.346625 161.967014 
L 312.487302 162.627316 
L 313.215455 169.409105 
L 313.215455 176.190895 
L 312.487302 182.972684 
L 312.346625 183.632986 
L 310.393043 189.754474 
L 307.296129 196.536264 
L 306.695133 197.558434 
L 301.317331 203.318053 
L 301.043642 203.566027 
L 295.392151 206.230301 
L 289.740659 206.991523 
L 284.089168 206.138032 
L 278.437677 203.958171 
" clip-path="url(#p733962aaa4)" style="fill: none; stroke: #ffffff; stroke-width: 1.5"/>
   </g>
   <g id="patch_3">
    <path d="M 258.092308 345.6 
L 258.092308 0 
" style="fill: none; stroke: #000000; stroke-width: 0.8; stroke-linejoin: miter; stroke-linecap: square"/>
   </g>
   <g id="patch_4">
    <path d="M 86.4 172.8 
L 374.4 172.8 
" style="fill: none; stroke: #000000; stroke-width: 0.8; stroke-linejoin: miter; stroke-linecap: square"/>
   </g>
  </g>
 </g>
 <defs>
  <clipPath id="p733962aaa4">
   <rect x="86.4" y="0" width="288" height="345.6"/>
  </clipPath>
 </defs>
</svg>
