<?xml version="1.0" encoding="utf-8" standalone="no"?>
<!DOCTYPE svg PUBLIC "-//W3C//DTD SVG 1.1//EN"
  "http://www.w3.org/Graphics/SVG/1.1/DTD/svg11.dtd">
<svg xmlns:xlink="http://www.w3.org/1999/xlink" width="460.8pt" height="345.6pt" viewBox="0 0 460.8 345.6" xmlns="http://www.w3.org/2000/svg" version="1.1">
 <metadata>
  <rdf:RDF xmlns:dc="http://purl.org/dc/elements/1.1/" xmlns:cc="http://creativecommons.org/ns#" xmlns:rdf="http://www.w3.org/1999/02/22-rdf-syntax-ns#">
   <cc:Work>
    <dc:type rdf:resource="http://purl.org/dc/dcmitype/StillImage"/>
    <dc:date>2022-05-16T19:37:20.784338</dc:date>
    <dc:format>image/svg+xml</dc:format>
    <dc:creator>
     <cc:Agent>
      <dc:title>Matplotlib v3.5.1, https://matplotlib.org/</dc:title>
     </cc:Agent>
    </dc:creator>
   </cc:Work>
  </rdf:RDF>
 </metadata>
 <defs>
  <style type="text/css">*{stroke-linejoin: round; stroke-linecap: butt}</style>
 </defs>
 <g id="figure_1">
  <g id="patch_1">
   <path d="M 0 345.6 
L 460.8 345.6 
L 460.8 0 
L 0 0 
z
" style="fill: #ffffff"/>
  </g>
  <g id="axes_1">
   <g id="patch_2">
    <path d="M 23.04 328.32 
L 437.76 328.32 
L 437.76 17.28 
L 23.04 17.28 
z
" style="fill: #ffffff"/>
   </g>
   <g id="matplotlib.axis_1">
    <g id="xtick_1">
     <g id="line2d_1">
      <defs>
       <path id="m7236326928" d="M 0 0 
L 0 3.5 
" style="stroke: #000000; stroke-width: 0.8"/>
      </defs>
      <g>
       <use xlink:href="#m7236326928" x="31.015385" y="172.8" style="stroke: #000000; stroke-width: 0.8"/>
      </g>
     </g>
     <g id="text_1">
      <!-- −2.0 -->
      <g transform="translate(18.873978 187.398437)scale(0.1 -0.1)">
       <defs>
        <path id="DejaVuSans-2212" d="M 678 2272 
L 4684 2272 
L 4684 1741 
L 678 1741 
L 678 2272 
z
" transform="scale(0.015625)"/>
        <path id="DejaVuSans-32" d="M 1228 531 
L 3431 531 
L 3431 0 
L 469 0 
L 469 531 
Q 828 903 1448 1529 
Q 2069 2156 2228 2338 
Q 2531 2678 2651 2914 
Q 2772 3150 2772 3378 
Q 2772 3750 2511 3984 
Q 2250 4219 1831 4219 
Q 1534 4219 1204 4116 
Q 875 4013 500 3803 
L 500 4441 
Q 881 4594 1212 4672 
Q 1544 4750 1819 4750 
Q 2544 4750 2975 4387 
Q 3406 4025 3406 3419 
Q 3406 3131 3298 2873 
Q 3191 2616 2906 2266 
Q 2828 2175 2409 1742 
Q 1991 1309 1228 531 
z
" transform="scale(0.015625)"/>
        <path id="DejaVuSans-2e" d="M 684 794 
L 1344 794 
L 1344 0 
L 684 0 
L 684 794 
z
" transform="scale(0.015625)"/>
        <path id="DejaVuSans-30" d="M 2034 4250 
Q 1547 4250 1301 3770 
Q 1056 3291 1056 2328 
Q 1056 1369 1301 889 
Q 1547 409 2034 409 
Q 2525 409 2770 889 
Q 3016 1369 3016 2328 
Q 3016 3291 2770 3770 
Q 2525 4250 2034 4250 
z
M 2034 4750 
Q 2819 4750 3233 4129 
Q 3647 3509 3647 2328 
Q 3647 1150 3233 529 
Q 2819 -91 2034 -91 
Q 1250 -91 836 529 
Q 422 1150 422 2328 
Q 422 3509 836 4129 
Q 1250 4750 2034 4750 
z
" transform="scale(0.015625)"/>
       </defs>
       <use xlink:href="#DejaVuSans-2212"/>
       <use xlink:href="#DejaVuSans-32" x="83.789062"/>
       <use xlink:href="#DejaVuSans-2e" x="147.412109"/>
       <use xlink:href="#DejaVuSans-30" x="179.199219"/>
      </g>
     </g>
    </g>
    <g id="xtick_2">
     <g id="line2d_2">
      <g>
       <use xlink:href="#m7236326928" x="80.861538" y="172.8" style="stroke: #000000; stroke-width: 0.8"/>
      </g>
     </g>
     <g id="text_2">
      <!-- −1.5 -->
      <g transform="translate(68.720132 187.398437)scale(0.1 -0.1)">
       <defs>
        <path id="DejaVuSans-31" d="M 794 531 
L 1825 531 
L 1825 4091 
L 703 3866 
L 703 4441 
L 1819 4666 
L 2450 4666 
L 2450 531 
L 3481 531 
L 3481 0 
L 794 0 
L 794 531 
z
" transform="scale(0.015625)"/>
        <path id="DejaVuSans-35" d="M 691 4666 
L 3169 4666 
L 3169 4134 
L 1269 4134 
L 1269 2991 
Q 1406 3038 1543 3061 
Q 1681 3084 1819 3084 
Q 2600 3084 3056 2656 
Q 3513 2228 3513 1497 
Q 3513 744 3044 326 
Q 2575 -91 1722 -91 
Q 1428 -91 1123 -41 
Q 819 9 494 109 
L 494 744 
Q 775 591 1075 516 
Q 1375 441 1709 441 
Q 2250 441 2565 725 
Q 2881 1009 2881 1497 
Q 2881 1984 2565 2268 
Q 2250 2553 1709 2553 
Q 1456 2553 1204 2497 
Q 953 2441 691 2322 
L 691 4666 
z
" transform="scale(0.015625)"/>
       </defs>
       <use xlink:href="#DejaVuSans-2212"/>
       <use xlink:href="#DejaVuSans-31" x="83.789062"/>
       <use xlink:href="#DejaVuSans-2e" x="147.412109"/>
       <use xlink:href="#DejaVuSans-35" x="179.199219"/>
      </g>
     </g>
    </g>
    <g id="xtick_3">
     <g id="line2d_3">
      <g>
       <use xlink:href="#m7236326928" x="130.707692" y="172.8" style="stroke: #000000; stroke-width: 0.8"/>
      </g>
     </g>
     <g id="text_3">
      <!-- −1.0 -->
      <g transform="translate(118.566286 187.398437)scale(0.1 -0.1)">
       <use xlink:href="#DejaVuSans-2212"/>
       <use xlink:href="#DejaVuSans-31" x="83.789062"/>
       <use xlink:href="#DejaVuSans-2e" x="147.412109"/>
       <use xlink:href="#DejaVuSans-30" x="179.199219"/>
      </g>
     </g>
    </g>
    <g id="xtick_4">
     <g id="line2d_4">
      <g>
       <use xlink:href="#m7236326928" x="180.553846" y="172.8" style="stroke: #000000; stroke-width: 0.8"/>
      </g>
     </g>
     <g id="text_4">
      <!-- −0.5 -->
      <g transform="translate(168.41244 187.398437)scale(0.1 -0.1)">
       <use xlink:href="#DejaVuSans-2212"/>
       <use xlink:href="#DejaVuSans-30" x="83.789062"/>
       <use xlink:href="#DejaVuSans-2e" x="147.412109"/>
       <use xlink:href="#DejaVuSans-35" x="179.199219"/>
      </g>
     </g>
    </g>
    <g id="xtick_5">
     <g id="line2d_5">
      <g>
       <use xlink:href="#m7236326928" x="230.4" y="172.8" style="stroke: #000000; stroke-width: 0.8"/>
      </g>
     </g>
    </g>
    <g id="xtick_6">
     <g id="line2d_6">
      <g>
       <use xlink:href="#m7236326928" x="280.246154" y="172.8" style="stroke: #000000; stroke-width: 0.8"/>
      </g>
     </g>
     <g id="text_5">
      <!-- 0.5 -->
      <g transform="translate(272.294591 187.398437)scale(0.1 -0.1)">
       <use xlink:href="#DejaVuSans-30"/>
       <use xlink:href="#DejaVuSans-2e" x="63.623047"/>
       <use xlink:href="#DejaVuSans-35" x="95.410156"/>
      </g>
     </g>
    </g>
    <g id="xtick_7">
     <g id="line2d_7">
      <g>
       <use xlink:href="#m7236326928" x="330.092308" y="172.8" style="stroke: #000000; stroke-width: 0.8"/>
      </g>
     </g>
     <g id="text_6">
      <!-- 1.0 -->
      <g transform="translate(322.140745 187.398437)scale(0.1 -0.1)">
       <use xlink:href="#DejaVuSans-31"/>
       <use xlink:href="#DejaVuSans-2e" x="63.623047"/>
       <use xlink:href="#DejaVuSans-30" x="95.410156"/>
      </g>
     </g>
    </g>
    <g id="xtick_8">
     <g id="line2d_8">
      <g>
       <use xlink:href="#m7236326928" x="379.938462" y="172.8" style="stroke: #000000; stroke-width: 0.8"/>
      </g>
     </g>
     <g id="text_7">
      <!-- 1.5 -->
      <g transform="translate(371.986899 187.398437)scale(0.1 -0.1)">
       <use xlink:href="#DejaVuSans-31"/>
       <use xlink:href="#DejaVuSans-2e" x="63.623047"/>
       <use xlink:href="#DejaVuSans-35" x="95.410156"/>
      </g>
     </g>
    </g>
    <g id="xtick_9">
     <g id="line2d_9">
      <g>
       <use xlink:href="#m7236326928" x="429.784615" y="172.8" style="stroke: #000000; stroke-width: 0.8"/>
      </g>
     </g>
     <g id="text_8">
      <!-- 2.0 -->
      <g transform="translate(421.833053 187.398437)scale(0.1 -0.1)">
       <use xlink:href="#DejaVuSans-32"/>
       <use xlink:href="#DejaVuSans-2e" x="63.623047"/>
       <use xlink:href="#DejaVuSans-30" x="95.410156"/>
      </g>
     </g>
    </g>
    <g id="xtick_10">
     <g id="line2d_10">
      <defs>
       <path id="mecaaa2522c" d="M 0 0 
L 0 2 
" style="stroke: #000000; stroke-width: 0.6"/>
      </defs>
      <g>
       <use xlink:href="#mecaaa2522c" x="40.984615" y="172.8" style="stroke: #000000; stroke-width: 0.6"/>
      </g>
     </g>
    </g>
    <g id="xtick_11">
     <g id="line2d_11">
      <g>
       <use xlink:href="#mecaaa2522c" x="50.953846" y="172.8" style="stroke: #000000; stroke-width: 0.6"/>
      </g>
     </g>
    </g>
    <g id="xtick_12">
     <g id="line2d_12">
      <g>
       <use xlink:href="#mecaaa2522c" x="60.923077" y="172.8" style="stroke: #000000; stroke-width: 0.6"/>
      </g>
     </g>
    </g>
    <g id="xtick_13">
     <g id="line2d_13">
      <g>
       <use xlink:href="#mecaaa2522c" x="70.892308" y="172.8" style="stroke: #000000; stroke-width: 0.6"/>
      </g>
     </g>
    </g>
    <g id="xtick_14">
     <g id="line2d_14">
      <g>
       <use xlink:href="#mecaaa2522c" x="90.830769" y="172.8" style="stroke: #000000; stroke-width: 0.6"/>
      </g>
     </g>
    </g>
    <g id="xtick_15">
     <g id="line2d_15">
      <g>
       <use xlink:href="#mecaaa2522c" x="100.8" y="172.8" style="stroke: #000000; stroke-width: 0.6"/>
      </g>
     </g>
    </g>
    <g id="xtick_16">
     <g id="line2d_16">
      <g>
       <use xlink:href="#mecaaa2522c" x="110.769231" y="172.8" style="stroke: #000000; stroke-width: 0.6"/>
      </g>
     </g>
    </g>
    <g id="xtick_17">
     <g id="line2d_17">
      <g>
       <use xlink:href="#mecaaa2522c" x="120.738462" y="172.8" style="stroke: #000000; stroke-width: 0.6"/>
      </g>
     </g>
    </g>
    <g id="xtick_18">
     <g id="line2d_18">
      <g>
       <use xlink:href="#mecaaa2522c" x="140.676923" y="172.8" style="stroke: #000000; stroke-width: 0.6"/>
      </g>
     </g>
    </g>
    <g id="xtick_19">
     <g id="line2d_19">
      <g>
       <use xlink:href="#mecaaa2522c" x="150.646154" y="172.8" style="stroke: #000000; stroke-width: 0.6"/>
      </g>
     </g>
    </g>
    <g id="xtick_20">
     <g id="line2d_20">
      <g>
       <use xlink:href="#mecaaa2522c" x="160.615385" y="172.8" style="stroke: #000000; stroke-width: 0.6"/>
      </g>
     </g>
    </g>
    <g id="xtick_21">
     <g id="line2d_21">
      <g>
       <use xlink:href="#mecaaa2522c" x="170.584615" y="172.8" style="stroke: #000000; stroke-width: 0.6"/>
      </g>
     </g>
    </g>
    <g id="xtick_22">
     <g id="line2d_22">
      <g>
       <use xlink:href="#mecaaa2522c" x="190.523077" y="172.8" style="stroke: #000000; stroke-width: 0.6"/>
      </g>
     </g>
    </g>
    <g id="xtick_23">
     <g id="line2d_23">
      <g>
       <use xlink:href="#mecaaa2522c" x="200.492308" y="172.8" style="stroke: #000000; stroke-width: 0.6"/>
      </g>
     </g>
    </g>
    <g id="xtick_24">
     <g id="line2d_24">
      <g>
       <use xlink:href="#mecaaa2522c" x="210.461538" y="172.8" style="stroke: #000000; stroke-width: 0.6"/>
      </g>
     </g>
    </g>
    <g id="xtick_25">
     <g id="line2d_25">
      <g>
       <use xlink:href="#mecaaa2522c" x="220.430769" y="172.8" style="stroke: #000000; stroke-width: 0.6"/>
      </g>
     </g>
    </g>
    <g id="xtick_26">
     <g id="line2d_26">
      <g>
       <use xlink:href="#mecaaa2522c" x="240.369231" y="172.8" style="stroke: #000000; stroke-width: 0.6"/>
      </g>
     </g>
    </g>
    <g id="xtick_27">
     <g id="line2d_27">
      <g>
       <use xlink:href="#mecaaa2522c" x="250.338462" y="172.8" style="stroke: #000000; stroke-width: 0.6"/>
      </g>
     </g>
    </g>
    <g id="xtick_28">
     <g id="line2d_28">
      <g>
       <use xlink:href="#mecaaa2522c" x="260.307692" y="172.8" style="stroke: #000000; stroke-width: 0.6"/>
      </g>
     </g>
    </g>
    <g id="xtick_29">
     <g id="line2d_29">
      <g>
       <use xlink:href="#mecaaa2522c" x="270.276923" y="172.8" style="stroke: #000000; stroke-width: 0.6"/>
      </g>
     </g>
    </g>
    <g id="xtick_30">
     <g id="line2d_30">
      <g>
       <use xlink:href="#mecaaa2522c" x="290.215385" y="172.8" style="stroke: #000000; stroke-width: 0.6"/>
      </g>
     </g>
    </g>
    <g id="xtick_31">
     <g id="line2d_31">
      <g>
       <use xlink:href="#mecaaa2522c" x="300.184615" y="172.8" style="stroke: #000000; stroke-width: 0.6"/>
      </g>
     </g>
    </g>
    <g id="xtick_32">
     <g id="line2d_32">
      <g>
       <use xlink:href="#mecaaa2522c" x="310.153846" y="172.8" style="stroke: #000000; stroke-width: 0.6"/>
      </g>
     </g>
    </g>
    <g id="xtick_33">
     <g id="line2d_33">
      <g>
       <use xlink:href="#mecaaa2522c" x="320.123077" y="172.8" style="stroke: #000000; stroke-width: 0.6"/>
      </g>
     </g>
    </g>
    <g id="xtick_34">
     <g id="line2d_34">
      <g>
       <use xlink:href="#mecaaa2522c" x="340.061538" y="172.8" style="stroke: #000000; stroke-width: 0.6"/>
      </g>
     </g>
    </g>
    <g id="xtick_35">
     <g id="line2d_35">
      <g>
       <use xlink:href="#mecaaa2522c" x="350.030769" y="172.8" style="stroke: #000000; stroke-width: 0.6"/>
      </g>
     </g>
    </g>
    <g id="xtick_36">
     <g id="line2d_36">
      <g>
       <use xlink:href="#mecaaa2522c" x="360" y="172.8" style="stroke: #000000; stroke-width: 0.6"/>
      </g>
     </g>
    </g>
    <g id="xtick_37">
     <g id="line2d_37">
      <g>
       <use xlink:href="#mecaaa2522c" x="369.969231" y="172.8" style="stroke: #000000; stroke-width: 0.6"/>
      </g>
     </g>
    </g>
    <g id="xtick_38">
     <g id="line2d_38">
      <g>
       <use xlink:href="#mecaaa2522c" x="389.907692" y="172.8" style="stroke: #000000; stroke-width: 0.6"/>
      </g>
     </g>
    </g>
    <g id="xtick_39">
     <g id="line2d_39">
      <g>
       <use xlink:href="#mecaaa2522c" x="399.876923" y="172.8" style="stroke: #000000; stroke-width: 0.6"/>
      </g>
     </g>
    </g>
    <g id="xtick_40">
     <g id="line2d_40">
      <g>
       <use xlink:href="#mecaaa2522c" x="409.846154" y="172.8" style="stroke: #000000; stroke-width: 0.6"/>
      </g>
     </g>
    </g>
    <g id="xtick_41">
     <g id="line2d_41">
      <g>
       <use xlink:href="#mecaaa2522c" x="419.815385" y="172.8" style="stroke: #000000; stroke-width: 0.6"/>
      </g>
     </g>
    </g>
    <g id="text_9">
     <!-- $x$ -->
     <g transform="translate(445.76 172.8)scale(0.16 -0.16)">
      <defs>
       <path id="DejaVuSans-Oblique-78" d="M 3841 3500 
L 2234 1784 
L 3219 0 
L 2559 0 
L 1819 1388 
L 531 0 
L -166 0 
L 1556 1844 
L 641 3500 
L 1300 3500 
L 1972 2234 
L 3144 3500 
L 3841 3500 
z
" transform="scale(0.015625)"/>
      </defs>
      <use xlink:href="#DejaVuSans-Oblique-78" transform="translate(0 0.3125)"/>
     </g>
    </g>
   </g>
   <g id="matplotlib.axis_2">
    <g id="ytick_1">
     <g id="line2d_42">
      <defs>
       <path id="mb2d94f640a" d="M 0 0 
L -3.5 0 
" style="stroke: #000000; stroke-width: 0.8"/>
      </defs>
      <g>
       <use xlink:href="#mb2d94f640a" x="230.4" y="289.766908" style="stroke: #000000; stroke-width: 0.8"/>
      </g>
     </g>
     <g id="text_10">
      <!-- −1.5 -->
      <g transform="translate(199.117188 293.566127)scale(0.1 -0.1)">
       <use xlink:href="#DejaVuSans-2212"/>
       <use xlink:href="#DejaVuSans-31" x="83.789062"/>
       <use xlink:href="#DejaVuSans-2e" x="147.412109"/>
       <use xlink:href="#DejaVuSans-35" x="179.199219"/>
      </g>
     </g>
    </g>
    <g id="ytick_2">
     <g id="line2d_43">
      <g>
       <use xlink:href="#mb2d94f640a" x="230.4" y="250.777939" style="stroke: #000000; stroke-width: 0.8"/>
      </g>
     </g>
     <g id="text_11">
      <!-- −1.0 -->
      <g transform="translate(199.117188 254.577158)scale(0.1 -0.1)">
       <use xlink:href="#DejaVuSans-2212"/>
       <use xlink:href="#DejaVuSans-31" x="83.789062"/>
       <use xlink:href="#DejaVuSans-2e" x="147.412109"/>
       <use xlink:href="#DejaVuSans-30" x="179.199219"/>
      </g>
     </g>
    </g>
    <g id="ytick_3">
     <g id="line2d_44">
      <g>
       <use xlink:href="#mb2d94f640a" x="230.4" y="211.788969" style="stroke: #000000; stroke-width: 0.8"/>
      </g>
     </g>
     <g id="text_12">
      <!-- −0.5 -->
      <g transform="translate(199.117188 215.588188)scale(0.1 -0.1)">
       <use xlink:href="#DejaVuSans-2212"/>
       <use xlink:href="#DejaVuSans-30" x="83.789062"/>
       <use xlink:href="#DejaVuSans-2e" x="147.412109"/>
       <use xlink:href="#DejaVuSans-35" x="179.199219"/>
      </g>
     </g>
    </g>
    <g id="ytick_4">
     <g id="line2d_45">
      <g>
       <use xlink:href="#mb2d94f640a" x="230.4" y="172.8" style="stroke: #000000; stroke-width: 0.8"/>
      </g>
     </g>
    </g>
    <g id="ytick_5">
     <g id="line2d_46">
      <g>
       <use xlink:href="#mb2d94f640a" x="230.4" y="133.811031" style="stroke: #000000; stroke-width: 0.8"/>
      </g>
     </g>
     <g id="text_13">
      <!-- 0.5 -->
      <g transform="translate(207.496875 137.610249)scale(0.1 -0.1)">
       <use xlink:href="#DejaVuSans-30"/>
       <use xlink:href="#DejaVuSans-2e" x="63.623047"/>
       <use xlink:href="#DejaVuSans-35" x="95.410156"/>
      </g>
     </g>
    </g>
    <g id="ytick_6">
     <g id="line2d_47">
      <g>
       <use xlink:href="#mb2d94f640a" x="230.4" y="94.822061" style="stroke: #000000; stroke-width: 0.8"/>
      </g>
     </g>
     <g id="text_14">
      <!-- 1.0 -->
      <g transform="translate(207.496875 98.62128)scale(0.1 -0.1)">
       <use xlink:href="#DejaVuSans-31"/>
       <use xlink:href="#DejaVuSans-2e" x="63.623047"/>
       <use xlink:href="#DejaVuSans-30" x="95.410156"/>
      </g>
     </g>
    </g>
    <g id="ytick_7">
     <g id="line2d_48">
      <g>
       <use xlink:href="#mb2d94f640a" x="230.4" y="55.833092" style="stroke: #000000; stroke-width: 0.8"/>
      </g>
     </g>
     <g id="text_15">
      <!-- 1.5 -->
      <g transform="translate(207.496875 59.63231)scale(0.1 -0.1)">
       <use xlink:href="#DejaVuSans-31"/>
       <use xlink:href="#DejaVuSans-2e" x="63.623047"/>
       <use xlink:href="#DejaVuSans-35" x="95.410156"/>
      </g>
     </g>
    </g>
    <g id="ytick_8">
     <g id="line2d_49">
      <defs>
       <path id="m21941cc0bf" d="M 0 0 
L -2 0 
" style="stroke: #000000; stroke-width: 0.6"/>
      </defs>
      <g>
       <use xlink:href="#m21941cc0bf" x="230.4" y="320.958084" style="stroke: #000000; stroke-width: 0.6"/>
      </g>
     </g>
    </g>
    <g id="ytick_9">
     <g id="line2d_50">
      <g>
       <use xlink:href="#m21941cc0bf" x="230.4" y="313.16029" style="stroke: #000000; stroke-width: 0.6"/>
      </g>
     </g>
    </g>
    <g id="ytick_10">
     <g id="line2d_51">
      <g>
       <use xlink:href="#m21941cc0bf" x="230.4" y="305.362496" style="stroke: #000000; stroke-width: 0.6"/>
      </g>
     </g>
    </g>
    <g id="ytick_11">
     <g id="line2d_52">
      <g>
       <use xlink:href="#m21941cc0bf" x="230.4" y="297.564702" style="stroke: #000000; stroke-width: 0.6"/>
      </g>
     </g>
    </g>
    <g id="ytick_12">
     <g id="line2d_53">
      <g>
       <use xlink:href="#m21941cc0bf" x="230.4" y="281.969115" style="stroke: #000000; stroke-width: 0.6"/>
      </g>
     </g>
    </g>
    <g id="ytick_13">
     <g id="line2d_54">
      <g>
       <use xlink:href="#m21941cc0bf" x="230.4" y="274.171321" style="stroke: #000000; stroke-width: 0.6"/>
      </g>
     </g>
    </g>
    <g id="ytick_14">
     <g id="line2d_55">
      <g>
       <use xlink:href="#m21941cc0bf" x="230.4" y="266.373527" style="stroke: #000000; stroke-width: 0.6"/>
      </g>
     </g>
    </g>
    <g id="ytick_15">
     <g id="line2d_56">
      <g>
       <use xlink:href="#m21941cc0bf" x="230.4" y="258.575733" style="stroke: #000000; stroke-width: 0.6"/>
      </g>
     </g>
    </g>
    <g id="ytick_16">
     <g id="line2d_57">
      <g>
       <use xlink:href="#m21941cc0bf" x="230.4" y="242.980145" style="stroke: #000000; stroke-width: 0.6"/>
      </g>
     </g>
    </g>
    <g id="ytick_17">
     <g id="line2d_58">
      <g>
       <use xlink:href="#m21941cc0bf" x="230.4" y="235.182351" style="stroke: #000000; stroke-width: 0.6"/>
      </g>
     </g>
    </g>
    <g id="ytick_18">
     <g id="line2d_59">
      <g>
       <use xlink:href="#m21941cc0bf" x="230.4" y="227.384557" style="stroke: #000000; stroke-width: 0.6"/>
      </g>
     </g>
    </g>
    <g id="ytick_19">
     <g id="line2d_60">
      <g>
       <use xlink:href="#m21941cc0bf" x="230.4" y="219.586763" style="stroke: #000000; stroke-width: 0.6"/>
      </g>
     </g>
    </g>
    <g id="ytick_20">
     <g id="line2d_61">
      <g>
       <use xlink:href="#m21941cc0bf" x="230.4" y="203.991176" style="stroke: #000000; stroke-width: 0.6"/>
      </g>
     </g>
    </g>
    <g id="ytick_21">
     <g id="line2d_62">
      <g>
       <use xlink:href="#m21941cc0bf" x="230.4" y="196.193382" style="stroke: #000000; stroke-width: 0.6"/>
      </g>
     </g>
    </g>
    <g id="ytick_22">
     <g id="line2d_63">
      <g>
       <use xlink:href="#m21941cc0bf" x="230.4" y="188.395588" style="stroke: #000000; stroke-width: 0.6"/>
      </g>
     </g>
    </g>
    <g id="ytick_23">
     <g id="line2d_64">
      <g>
       <use xlink:href="#m21941cc0bf" x="230.4" y="180.597794" style="stroke: #000000; stroke-width: 0.6"/>
      </g>
     </g>
    </g>
    <g id="ytick_24">
     <g id="line2d_65">
      <g>
       <use xlink:href="#m21941cc0bf" x="230.4" y="165.002206" style="stroke: #000000; stroke-width: 0.6"/>
      </g>
     </g>
    </g>
    <g id="ytick_25">
     <g id="line2d_66">
      <g>
       <use xlink:href="#m21941cc0bf" x="230.4" y="157.204412" style="stroke: #000000; stroke-width: 0.6"/>
      </g>
     </g>
    </g>
    <g id="ytick_26">
     <g id="line2d_67">
      <g>
       <use xlink:href="#m21941cc0bf" x="230.4" y="149.406618" style="stroke: #000000; stroke-width: 0.6"/>
      </g>
     </g>
    </g>
    <g id="ytick_27">
     <g id="line2d_68">
      <g>
       <use xlink:href="#m21941cc0bf" x="230.4" y="141.608824" style="stroke: #000000; stroke-width: 0.6"/>
      </g>
     </g>
    </g>
    <g id="ytick_28">
     <g id="line2d_69">
      <g>
       <use xlink:href="#m21941cc0bf" x="230.4" y="126.013237" style="stroke: #000000; stroke-width: 0.6"/>
      </g>
     </g>
    </g>
    <g id="ytick_29">
     <g id="line2d_70">
      <g>
       <use xlink:href="#m21941cc0bf" x="230.4" y="118.215443" style="stroke: #000000; stroke-width: 0.6"/>
      </g>
     </g>
    </g>
    <g id="ytick_30">
     <g id="line2d_71">
      <g>
       <use xlink:href="#m21941cc0bf" x="230.4" y="110.417649" style="stroke: #000000; stroke-width: 0.6"/>
      </g>
     </g>
    </g>
    <g id="ytick_31">
     <g id="line2d_72">
      <g>
       <use xlink:href="#m21941cc0bf" x="230.4" y="102.619855" style="stroke: #000000; stroke-width: 0.6"/>
      </g>
     </g>
    </g>
    <g id="ytick_32">
     <g id="line2d_73">
      <g>
       <use xlink:href="#m21941cc0bf" x="230.4" y="87.024267" style="stroke: #000000; stroke-width: 0.6"/>
      </g>
     </g>
    </g>
    <g id="ytick_33">
     <g id="line2d_74">
      <g>
       <use xlink:href="#m21941cc0bf" x="230.4" y="79.226473" style="stroke: #000000; stroke-width: 0.6"/>
      </g>
     </g>
    </g>
    <g id="ytick_34">
     <g id="line2d_75">
      <g>
       <use xlink:href="#m21941cc0bf" x="230.4" y="71.428679" style="stroke: #000000; stroke-width: 0.6"/>
      </g>
     </g>
    </g>
    <g id="ytick_35">
     <g id="line2d_76">
      <g>
       <use xlink:href="#m21941cc0bf" x="230.4" y="63.630885" style="stroke: #000000; stroke-width: 0.6"/>
      </g>
     </g>
    </g>
    <g id="ytick_36">
     <g id="line2d_77">
      <g>
       <use xlink:href="#m21941cc0bf" x="230.4" y="48.035298" style="stroke: #000000; stroke-width: 0.6"/>
      </g>
     </g>
    </g>
    <g id="ytick_37">
     <g id="line2d_78">
      <g>
       <use xlink:href="#m21941cc0bf" x="230.4" y="40.237504" style="stroke: #000000; stroke-width: 0.6"/>
      </g>
     </g>
    </g>
    <g id="ytick_38">
     <g id="line2d_79">
      <g>
       <use xlink:href="#m21941cc0bf" x="230.4" y="32.43971" style="stroke: #000000; stroke-width: 0.6"/>
      </g>
     </g>
    </g>
    <g id="ytick_39">
     <g id="line2d_80">
      <g>
       <use xlink:href="#m21941cc0bf" x="230.4" y="24.641916" style="stroke: #000000; stroke-width: 0.6"/>
      </g>
     </g>
    </g>
    <g id="text_16">
     <!-- $y$ -->
     <g transform="translate(225.6 5.92)scale(0.16 -0.16)">
      <defs>
       <path id="DejaVuSans-Oblique-79" d="M 1588 -325 
Q 1188 -997 936 -1164 
Q 684 -1331 294 -1331 
L -159 -1331 
L -63 -850 
L 269 -850 
Q 509 -850 678 -719 
Q 847 -588 1056 -206 
L 1234 128 
L 459 3500 
L 1069 3500 
L 1650 819 
L 3256 3500 
L 3859 3500 
L 1588 -325 
z
" transform="scale(0.015625)"/>
      </defs>
      <use xlink:href="#DejaVuSans-Oblique-79" transform="translate(0 0.3125)"/>
     </g>
    </g>
   </g>
   <g id="line2d_81">
    <path d="M 31.015385 322.338462 
L 58.150325 300.13445 
L 80.987396 281.187942 
L 98.95932 266.033572 
L 115.883069 251.480708 
L 129.185085 239.774864 
L 142.180693 228.027143 
L 152.493192 218.416772 
L 162.661824 208.624558 
L 171.338096 199.981738 
L 182.090954 188.931609 
L 190.633342 180.1565 
L 195.135963 175.818843 
L 198.470642 172.954492 
L 200.981885 171.138429 
L 202.935249 170.023899 
L 204.140847 169.504843 
L 205.744328 169.058542 
L 207.09561 168.934918 
L 208.345921 169.053989 
L 209.495261 169.376704 
L 210.991035 170.106089 
L 212.438139 171.106341 
L 215.42418 173.442386 
L 216.478138 173.969791 
L 217.180777 174.104661 
L 217.882553 174.021894 
L 218.583468 173.714755 
L 218.933926 173.488068 
L 220.719947 172.236196 
L 221.323286 172.153642 
L 221.926626 172.395497 
L 223.142493 173.180521 
L 223.608779 173.109922 
L 224.696781 172.549946 
L 225.007638 172.719233 
L 225.457645 172.985727 
L 225.735944 172.89869 
L 226.153392 172.659033 
L 226.709989 172.901633 
L 227.127437 172.731511 
L 227.405736 172.86704 
L 227.544885 172.777495 
L 235.67484 172.789082 
L 236.124168 173.054664 
L 236.423721 173.012373 
L 237.526915 172.405896 
L 237.962826 172.540894 
L 239.421231 173.437553 
L 239.8235 173.437191 
L 240.628038 173.059896 
L 242.66435 171.664079 
L 243.493854 171.493466 
L 244.046856 171.55339 
L 244.855762 171.856465 
L 246.130314 172.694426 
L 249.23697 175.128741 
L 250.580826 175.913028 
L 251.833859 176.39778 
L 252.996069 176.626565 
L 254.163456 176.651165 
L 255.336021 176.485572 
L 256.517154 176.14653 
L 258.301709 175.354024 
L 260.127922 174.258308 
L 261.708011 173.127905 
L 264.71581 170.635673 
L 267.838275 167.733961 
L 273.684034 161.869987 
L 293.25788 141.803137 
L 301.084549 134.10226 
L 310.875227 124.762017 
L 320.789588 115.58542 
L 334.294467 103.444171 
L 348.705841 90.832056 
L 365.213008 76.702356 
L 384.829246 60.224313 
L 407.390459 41.565627 
L 429.784615 23.261538 
L 429.784615 23.261538 
" clip-path="url(#p96abdf4d95)" style="fill: none; stroke: #0000ff; stroke-linecap: square"/>
   </g>
   <g id="patch_3">
    <path d="M 230.4 328.32 
L 230.4 17.28 
" style="fill: none; stroke: #000000; stroke-width: 0.8; stroke-linejoin: miter; stroke-linecap: square"/>
   </g>
   <g id="patch_4">
    <path d="M 23.04 172.8 
L 437.76 172.8 
" style="fill: none; stroke: #000000; stroke-width: 0.8; stroke-linejoin: miter; stroke-linecap: square"/>
   </g>
  </g>
  <g id="axes_2">
   <g id="patch_5">
    <path d="M 69.12 103.68 
L 184.32 103.68 
L 184.32 17.28 
L 69.12 17.28 
z
" style="fill: #ffffff"/>
   </g>
   <g id="matplotlib.axis_3">
    <g id="xtick_42">
     <g id="line2d_82">
      <g>
       <use xlink:href="#m7236326928" x="71.335385" y="103.68" style="stroke: #000000; stroke-width: 0.8"/>
      </g>
     </g>
     <g id="text_17">
      <!-- −0.3 -->
      <g transform="translate(61.62226 116.75875)scale(0.08 -0.08)">
       <defs>
        <path id="DejaVuSans-33" d="M 2597 2516 
Q 3050 2419 3304 2112 
Q 3559 1806 3559 1356 
Q 3559 666 3084 287 
Q 2609 -91 1734 -91 
Q 1441 -91 1130 -33 
Q 819 25 488 141 
L 488 750 
Q 750 597 1062 519 
Q 1375 441 1716 441 
Q 2309 441 2620 675 
Q 2931 909 2931 1356 
Q 2931 1769 2642 2001 
Q 2353 2234 1838 2234 
L 1294 2234 
L 1294 2753 
L 1863 2753 
Q 2328 2753 2575 2939 
Q 2822 3125 2822 3475 
Q 2822 3834 2567 4026 
Q 2313 4219 1838 4219 
Q 1578 4219 1281 4162 
Q 984 4106 628 3988 
L 628 4550 
Q 988 4650 1302 4700 
Q 1616 4750 1894 4750 
Q 2613 4750 3031 4423 
Q 3450 4097 3450 3541 
Q 3450 3153 3228 2886 
Q 3006 2619 2597 2516 
z
" transform="scale(0.015625)"/>
       </defs>
       <use xlink:href="#DejaVuSans-2212"/>
       <use xlink:href="#DejaVuSans-30" x="83.789062"/>
       <use xlink:href="#DejaVuSans-2e" x="147.412109"/>
       <use xlink:href="#DejaVuSans-33" x="179.199219"/>
      </g>
     </g>
    </g>
    <g id="xtick_43">
     <g id="line2d_83">
      <g>
       <use xlink:href="#m7236326928" x="89.796923" y="103.68" style="stroke: #000000; stroke-width: 0.8"/>
      </g>
     </g>
     <g id="text_18">
      <!-- −0.2 -->
      <g transform="translate(80.083798 116.75875)scale(0.08 -0.08)">
       <use xlink:href="#DejaVuSans-2212"/>
       <use xlink:href="#DejaVuSans-30" x="83.789062"/>
       <use xlink:href="#DejaVuSans-2e" x="147.412109"/>
       <use xlink:href="#DejaVuSans-32" x="179.199219"/>
      </g>
     </g>
    </g>
    <g id="xtick_44">
     <g id="line2d_84">
      <g>
       <use xlink:href="#m7236326928" x="108.258462" y="103.68" style="stroke: #000000; stroke-width: 0.8"/>
      </g>
     </g>
     <g id="text_19">
      <!-- −0.1 -->
      <g transform="translate(98.545337 116.75875)scale(0.08 -0.08)">
       <use xlink:href="#DejaVuSans-2212"/>
       <use xlink:href="#DejaVuSans-30" x="83.789062"/>
       <use xlink:href="#DejaVuSans-2e" x="147.412109"/>
       <use xlink:href="#DejaVuSans-31" x="179.199219"/>
      </g>
     </g>
    </g>
    <g id="xtick_45">
     <g id="line2d_85">
      <g>
       <use xlink:href="#m7236326928" x="126.72" y="103.68" style="stroke: #000000; stroke-width: 0.8"/>
      </g>
     </g>
     <g id="text_20">
      <!-- 0.0 -->
      <g transform="translate(120.35875 116.75875)scale(0.08 -0.08)">
       <use xlink:href="#DejaVuSans-30"/>
       <use xlink:href="#DejaVuSans-2e" x="63.623047"/>
       <use xlink:href="#DejaVuSans-30" x="95.410156"/>
      </g>
     </g>
    </g>
    <g id="xtick_46">
     <g id="line2d_86">
      <g>
       <use xlink:href="#m7236326928" x="145.181538" y="103.68" style="stroke: #000000; stroke-width: 0.8"/>
      </g>
     </g>
     <g id="text_21">
      <!-- 0.1 -->
      <g transform="translate(138.820288 116.75875)scale(0.08 -0.08)">
       <use xlink:href="#DejaVuSans-30"/>
       <use xlink:href="#DejaVuSans-2e" x="63.623047"/>
       <use xlink:href="#DejaVuSans-31" x="95.410156"/>
      </g>
     </g>
    </g>
    <g id="xtick_47">
     <g id="line2d_87">
      <g>
       <use xlink:href="#m7236326928" x="163.643077" y="103.68" style="stroke: #000000; stroke-width: 0.8"/>
      </g>
     </g>
     <g id="text_22">
      <!-- 0.2 -->
      <g transform="translate(157.281827 116.75875)scale(0.08 -0.08)">
       <use xlink:href="#DejaVuSans-30"/>
       <use xlink:href="#DejaVuSans-2e" x="63.623047"/>
       <use xlink:href="#DejaVuSans-32" x="95.410156"/>
      </g>
     </g>
    </g>
    <g id="xtick_48">
     <g id="line2d_88">
      <g>
       <use xlink:href="#m7236326928" x="182.104615" y="103.68" style="stroke: #000000; stroke-width: 0.8"/>
      </g>
     </g>
     <g id="text_23">
      <!-- 0.3 -->
      <g transform="translate(175.743365 116.75875)scale(0.08 -0.08)">
       <use xlink:href="#DejaVuSans-30"/>
       <use xlink:href="#DejaVuSans-2e" x="63.623047"/>
       <use xlink:href="#DejaVuSans-33" x="95.410156"/>
      </g>
     </g>
    </g>
    <g id="xtick_49">
     <g id="line2d_89">
      <g>
       <use xlink:href="#mecaaa2522c" x="75.027692" y="103.68" style="stroke: #000000; stroke-width: 0.6"/>
      </g>
     </g>
    </g>
    <g id="xtick_50">
     <g id="line2d_90">
      <g>
       <use xlink:href="#mecaaa2522c" x="78.72" y="103.68" style="stroke: #000000; stroke-width: 0.6"/>
      </g>
     </g>
    </g>
    <g id="xtick_51">
     <g id="line2d_91">
      <g>
       <use xlink:href="#mecaaa2522c" x="82.412308" y="103.68" style="stroke: #000000; stroke-width: 0.6"/>
      </g>
     </g>
    </g>
    <g id="xtick_52">
     <g id="line2d_92">
      <g>
       <use xlink:href="#mecaaa2522c" x="86.104615" y="103.68" style="stroke: #000000; stroke-width: 0.6"/>
      </g>
     </g>
    </g>
    <g id="xtick_53">
     <g id="line2d_93">
      <g>
       <use xlink:href="#mecaaa2522c" x="93.489231" y="103.68" style="stroke: #000000; stroke-width: 0.6"/>
      </g>
     </g>
    </g>
    <g id="xtick_54">
     <g id="line2d_94">
      <g>
       <use xlink:href="#mecaaa2522c" x="97.181538" y="103.68" style="stroke: #000000; stroke-width: 0.6"/>
      </g>
     </g>
    </g>
    <g id="xtick_55">
     <g id="line2d_95">
      <g>
       <use xlink:href="#mecaaa2522c" x="100.873846" y="103.68" style="stroke: #000000; stroke-width: 0.6"/>
      </g>
     </g>
    </g>
    <g id="xtick_56">
     <g id="line2d_96">
      <g>
       <use xlink:href="#mecaaa2522c" x="104.566154" y="103.68" style="stroke: #000000; stroke-width: 0.6"/>
      </g>
     </g>
    </g>
    <g id="xtick_57">
     <g id="line2d_97">
      <g>
       <use xlink:href="#mecaaa2522c" x="111.950769" y="103.68" style="stroke: #000000; stroke-width: 0.6"/>
      </g>
     </g>
    </g>
    <g id="xtick_58">
     <g id="line2d_98">
      <g>
       <use xlink:href="#mecaaa2522c" x="115.643077" y="103.68" style="stroke: #000000; stroke-width: 0.6"/>
      </g>
     </g>
    </g>
    <g id="xtick_59">
     <g id="line2d_99">
      <g>
       <use xlink:href="#mecaaa2522c" x="119.335385" y="103.68" style="stroke: #000000; stroke-width: 0.6"/>
      </g>
     </g>
    </g>
    <g id="xtick_60">
     <g id="line2d_100">
      <g>
       <use xlink:href="#mecaaa2522c" x="123.027692" y="103.68" style="stroke: #000000; stroke-width: 0.6"/>
      </g>
     </g>
    </g>
    <g id="xtick_61">
     <g id="line2d_101">
      <g>
       <use xlink:href="#mecaaa2522c" x="130.412308" y="103.68" style="stroke: #000000; stroke-width: 0.6"/>
      </g>
     </g>
    </g>
    <g id="xtick_62">
     <g id="line2d_102">
      <g>
       <use xlink:href="#mecaaa2522c" x="134.104615" y="103.68" style="stroke: #000000; stroke-width: 0.6"/>
      </g>
     </g>
    </g>
    <g id="xtick_63">
     <g id="line2d_103">
      <g>
       <use xlink:href="#mecaaa2522c" x="137.796923" y="103.68" style="stroke: #000000; stroke-width: 0.6"/>
      </g>
     </g>
    </g>
    <g id="xtick_64">
     <g id="line2d_104">
      <g>
       <use xlink:href="#mecaaa2522c" x="141.489231" y="103.68" style="stroke: #000000; stroke-width: 0.6"/>
      </g>
     </g>
    </g>
    <g id="xtick_65">
     <g id="line2d_105">
      <g>
       <use xlink:href="#mecaaa2522c" x="148.873846" y="103.68" style="stroke: #000000; stroke-width: 0.6"/>
      </g>
     </g>
    </g>
    <g id="xtick_66">
     <g id="line2d_106">
      <g>
       <use xlink:href="#mecaaa2522c" x="152.566154" y="103.68" style="stroke: #000000; stroke-width: 0.6"/>
      </g>
     </g>
    </g>
    <g id="xtick_67">
     <g id="line2d_107">
      <g>
       <use xlink:href="#mecaaa2522c" x="156.258462" y="103.68" style="stroke: #000000; stroke-width: 0.6"/>
      </g>
     </g>
    </g>
    <g id="xtick_68">
     <g id="line2d_108">
      <g>
       <use xlink:href="#mecaaa2522c" x="159.950769" y="103.68" style="stroke: #000000; stroke-width: 0.6"/>
      </g>
     </g>
    </g>
    <g id="xtick_69">
     <g id="line2d_109">
      <g>
       <use xlink:href="#mecaaa2522c" x="167.335385" y="103.68" style="stroke: #000000; stroke-width: 0.6"/>
      </g>
     </g>
    </g>
    <g id="xtick_70">
     <g id="line2d_110">
      <g>
       <use xlink:href="#mecaaa2522c" x="171.027692" y="103.68" style="stroke: #000000; stroke-width: 0.6"/>
      </g>
     </g>
    </g>
    <g id="xtick_71">
     <g id="line2d_111">
      <g>
       <use xlink:href="#mecaaa2522c" x="174.72" y="103.68" style="stroke: #000000; stroke-width: 0.6"/>
      </g>
     </g>
    </g>
    <g id="xtick_72">
     <g id="line2d_112">
      <g>
       <use xlink:href="#mecaaa2522c" x="178.412308" y="103.68" style="stroke: #000000; stroke-width: 0.6"/>
      </g>
     </g>
    </g>
    <g id="text_24">
     <!-- $x$ -->
     <g transform="translate(123.24 131.540625)scale(0.12 -0.12)">
      <defs>
       <path id="Cmmi10-78" d="M 500 184 
Q 613 97 819 97 
Q 1019 97 1172 289 
Q 1325 481 1381 709 
L 1672 1844 
Q 1741 2153 1741 2266 
Q 1741 2425 1652 2544 
Q 1563 2663 1403 2663 
Q 1200 2663 1022 2536 
Q 844 2409 722 2214 
Q 600 2019 550 1819 
Q 538 1778 500 1778 
L 422 1778 
Q 372 1778 372 1838 
L 372 1856 
Q 434 2094 584 2320 
Q 734 2547 951 2687 
Q 1169 2828 1416 2828 
Q 1650 2828 1839 2703 
Q 2028 2578 2106 2363 
Q 2216 2559 2386 2693 
Q 2556 2828 2759 2828 
Q 2897 2828 3040 2779 
Q 3184 2731 3275 2631 
Q 3366 2531 3366 2381 
Q 3366 2219 3261 2101 
Q 3156 1984 2994 1984 
Q 2891 1984 2822 2050 
Q 2753 2116 2753 2216 
Q 2753 2350 2845 2451 
Q 2938 2553 3066 2572 
Q 2950 2663 2747 2663 
Q 2541 2663 2389 2472 
Q 2238 2281 2175 2047 
L 1894 916 
Q 1825 659 1825 494 
Q 1825 331 1917 214 
Q 2009 97 2163 97 
Q 2463 97 2698 361 
Q 2934 625 3009 941 
Q 3022 978 3059 978 
L 3138 978 
Q 3163 978 3178 961 
Q 3194 944 3194 922 
Q 3194 916 3188 903 
Q 3097 522 2806 225 
Q 2516 -72 2150 -72 
Q 1916 -72 1727 54 
Q 1538 181 1459 397 
Q 1359 209 1182 68 
Q 1006 -72 806 -72 
Q 669 -72 523 -23 
Q 378 25 287 125 
Q 197 225 197 378 
Q 197 528 301 651 
Q 406 775 563 775 
Q 669 775 741 711 
Q 813 647 813 544 
Q 813 409 723 309 
Q 634 209 500 184 
z
" transform="scale(0.015625)"/>
      </defs>
      <use xlink:href="#Cmmi10-78" transform="translate(0 0.8125)"/>
     </g>
    </g>
   </g>
   <g id="matplotlib.axis_4">
    <g id="ytick_40">
     <g id="line2d_113">
      <g>
       <use xlink:href="#mb2d94f640a" x="69.12" y="94.003609" style="stroke: #000000; stroke-width: 0.8"/>
      </g>
     </g>
     <g id="text_25">
      <!-- −0.04 -->
      <g transform="translate(37.60375 97.042984)scale(0.08 -0.08)">
       <defs>
        <path id="DejaVuSans-34" d="M 2419 4116 
L 825 1625 
L 2419 1625 
L 2419 4116 
z
M 2253 4666 
L 3047 4666 
L 3047 1625 
L 3713 1625 
L 3713 1100 
L 3047 1100 
L 3047 0 
L 2419 0 
L 2419 1100 
L 313 1100 
L 313 1709 
L 2253 4666 
z
" transform="scale(0.015625)"/>
       </defs>
       <use xlink:href="#DejaVuSans-2212"/>
       <use xlink:href="#DejaVuSans-30" x="83.789062"/>
       <use xlink:href="#DejaVuSans-2e" x="147.412109"/>
       <use xlink:href="#DejaVuSans-30" x="179.199219"/>
       <use xlink:href="#DejaVuSans-34" x="242.822266"/>
      </g>
     </g>
    </g>
    <g id="ytick_41">
     <g id="line2d_114">
      <g>
       <use xlink:href="#mb2d94f640a" x="69.12" y="77.241751" style="stroke: #000000; stroke-width: 0.8"/>
      </g>
     </g>
     <g id="text_26">
      <!-- −0.02 -->
      <g transform="translate(37.60375 80.281126)scale(0.08 -0.08)">
       <use xlink:href="#DejaVuSans-2212"/>
       <use xlink:href="#DejaVuSans-30" x="83.789062"/>
       <use xlink:href="#DejaVuSans-2e" x="147.412109"/>
       <use xlink:href="#DejaVuSans-30" x="179.199219"/>
       <use xlink:href="#DejaVuSans-32" x="242.822266"/>
      </g>
     </g>
    </g>
    <g id="ytick_42">
     <g id="line2d_115">
      <g>
       <use xlink:href="#mb2d94f640a" x="69.12" y="60.479893" style="stroke: #000000; stroke-width: 0.8"/>
      </g>
     </g>
     <g id="text_27">
      <!-- 0.00 -->
      <g transform="translate(44.3075 63.519268)scale(0.08 -0.08)">
       <use xlink:href="#DejaVuSans-30"/>
       <use xlink:href="#DejaVuSans-2e" x="63.623047"/>
       <use xlink:href="#DejaVuSans-30" x="95.410156"/>
       <use xlink:href="#DejaVuSans-30" x="159.033203"/>
      </g>
     </g>
    </g>
    <g id="ytick_43">
     <g id="line2d_116">
      <g>
       <use xlink:href="#mb2d94f640a" x="69.12" y="43.718034" style="stroke: #000000; stroke-width: 0.8"/>
      </g>
     </g>
     <g id="text_28">
      <!-- 0.02 -->
      <g transform="translate(44.3075 46.757409)scale(0.08 -0.08)">
       <use xlink:href="#DejaVuSans-30"/>
       <use xlink:href="#DejaVuSans-2e" x="63.623047"/>
       <use xlink:href="#DejaVuSans-30" x="95.410156"/>
       <use xlink:href="#DejaVuSans-32" x="159.033203"/>
      </g>
     </g>
    </g>
    <g id="ytick_44">
     <g id="line2d_117">
      <g>
       <use xlink:href="#mb2d94f640a" x="69.12" y="26.956176" style="stroke: #000000; stroke-width: 0.8"/>
      </g>
     </g>
     <g id="text_29">
      <!-- 0.04 -->
      <g transform="translate(44.3075 29.995551)scale(0.08 -0.08)">
       <use xlink:href="#DejaVuSans-30"/>
       <use xlink:href="#DejaVuSans-2e" x="63.623047"/>
       <use xlink:href="#DejaVuSans-30" x="95.410156"/>
       <use xlink:href="#DejaVuSans-34" x="159.033203"/>
      </g>
     </g>
    </g>
    <g id="ytick_45">
     <g id="line2d_118">
      <g>
       <use xlink:href="#m21941cc0bf" x="69.12" y="102.384539" style="stroke: #000000; stroke-width: 0.6"/>
      </g>
     </g>
    </g>
    <g id="ytick_46">
     <g id="line2d_119">
      <g>
       <use xlink:href="#m21941cc0bf" x="69.12" y="98.194074" style="stroke: #000000; stroke-width: 0.6"/>
      </g>
     </g>
    </g>
    <g id="ytick_47">
     <g id="line2d_120">
      <g>
       <use xlink:href="#m21941cc0bf" x="69.12" y="89.813145" style="stroke: #000000; stroke-width: 0.6"/>
      </g>
     </g>
    </g>
    <g id="ytick_48">
     <g id="line2d_121">
      <g>
       <use xlink:href="#m21941cc0bf" x="69.12" y="85.62268" style="stroke: #000000; stroke-width: 0.6"/>
      </g>
     </g>
    </g>
    <g id="ytick_49">
     <g id="line2d_122">
      <g>
       <use xlink:href="#m21941cc0bf" x="69.12" y="81.432216" style="stroke: #000000; stroke-width: 0.6"/>
      </g>
     </g>
    </g>
    <g id="ytick_50">
     <g id="line2d_123">
      <g>
       <use xlink:href="#m21941cc0bf" x="69.12" y="73.051287" style="stroke: #000000; stroke-width: 0.6"/>
      </g>
     </g>
    </g>
    <g id="ytick_51">
     <g id="line2d_124">
      <g>
       <use xlink:href="#m21941cc0bf" x="69.12" y="68.860822" style="stroke: #000000; stroke-width: 0.6"/>
      </g>
     </g>
    </g>
    <g id="ytick_52">
     <g id="line2d_125">
      <g>
       <use xlink:href="#m21941cc0bf" x="69.12" y="64.670357" style="stroke: #000000; stroke-width: 0.6"/>
      </g>
     </g>
    </g>
    <g id="ytick_53">
     <g id="line2d_126">
      <g>
       <use xlink:href="#m21941cc0bf" x="69.12" y="56.289428" style="stroke: #000000; stroke-width: 0.6"/>
      </g>
     </g>
    </g>
    <g id="ytick_54">
     <g id="line2d_127">
      <g>
       <use xlink:href="#m21941cc0bf" x="69.12" y="52.098964" style="stroke: #000000; stroke-width: 0.6"/>
      </g>
     </g>
    </g>
    <g id="ytick_55">
     <g id="line2d_128">
      <g>
       <use xlink:href="#m21941cc0bf" x="69.12" y="47.908499" style="stroke: #000000; stroke-width: 0.6"/>
      </g>
     </g>
    </g>
    <g id="ytick_56">
     <g id="line2d_129">
      <g>
       <use xlink:href="#m21941cc0bf" x="69.12" y="39.52757" style="stroke: #000000; stroke-width: 0.6"/>
      </g>
     </g>
    </g>
    <g id="ytick_57">
     <g id="line2d_130">
      <g>
       <use xlink:href="#m21941cc0bf" x="69.12" y="35.337105" style="stroke: #000000; stroke-width: 0.6"/>
      </g>
     </g>
    </g>
    <g id="ytick_58">
     <g id="line2d_131">
      <g>
       <use xlink:href="#m21941cc0bf" x="69.12" y="31.146641" style="stroke: #000000; stroke-width: 0.6"/>
      </g>
     </g>
    </g>
    <g id="ytick_59">
     <g id="line2d_132">
      <g>
       <use xlink:href="#m21941cc0bf" x="69.12" y="22.765712" style="stroke: #000000; stroke-width: 0.6"/>
      </g>
     </g>
    </g>
    <g id="ytick_60">
     <g id="line2d_133">
      <g>
       <use xlink:href="#m21941cc0bf" x="69.12" y="18.575247" style="stroke: #000000; stroke-width: 0.6"/>
      </g>
     </g>
    </g>
    <g id="text_30">
     <!-- $y$ -->
     <g transform="translate(31.08375 63.48)rotate(-90)scale(0.12 -0.12)">
      <defs>
       <path id="Cmmi10-79" d="M 538 -916 
Q 672 -1147 1006 -1147 
Q 1309 -1147 1531 -934 
Q 1753 -722 1889 -420 
Q 2025 -119 2100 197 
Q 1816 -72 1484 -72 
Q 1231 -72 1053 15 
Q 875 103 776 276 
Q 678 450 678 697 
Q 678 906 734 1126 
Q 791 1347 892 1617 
Q 994 1888 1069 2088 
Q 1153 2322 1153 2472 
Q 1153 2663 1013 2663 
Q 759 2663 595 2402 
Q 431 2141 353 1819 
Q 341 1778 300 1778 
L 225 1778 
Q 172 1778 172 1838 
L 172 1856 
Q 275 2238 487 2533 
Q 700 2828 1025 2828 
Q 1253 2828 1411 2678 
Q 1569 2528 1569 2297 
Q 1569 2178 1516 2047 
Q 1488 1969 1388 1706 
Q 1288 1444 1234 1272 
Q 1181 1100 1147 934 
Q 1113 769 1113 603 
Q 1113 391 1203 244 
Q 1294 97 1491 97 
Q 1888 97 2203 581 
L 2688 2553 
Q 2709 2638 2787 2698 
Q 2866 2759 2956 2759 
Q 3034 2759 3092 2709 
Q 3150 2659 3150 2578 
Q 3150 2541 3144 2528 
L 2509 -19 
Q 2425 -347 2200 -647 
Q 1975 -947 1658 -1130 
Q 1341 -1313 997 -1313 
Q 831 -1313 668 -1248 
Q 506 -1184 406 -1056 
Q 306 -928 306 -756 
Q 306 -581 409 -453 
Q 513 -325 684 -325 
Q 788 -325 858 -389 
Q 928 -453 928 -556 
Q 928 -703 818 -812 
Q 709 -922 563 -922 
Q 556 -919 550 -917 
Q 544 -916 538 -916 
z
" transform="scale(0.015625)"/>
      </defs>
      <use xlink:href="#Cmmi10-79" transform="translate(0 0.8125)"/>
     </g>
    </g>
   </g>
   <g id="line2d_134">
    <path d="M 71.335385 46.105663 
L 73.404261 38.420008 
L 75.400043 31.975337 
L 76.769246 28.183619 
L 78.354701 24.512396 
L 79.137586 23.009173 
L 80.490798 20.933229 
L 81.375878 19.955738 
L 82.028399 19.438408 
L 82.401783 19.222655 
L 83.416237 18.941538 
L 84.099312 19.011461 
L 84.86041 19.343368 
L 85.884419 20.224313 
L 86.696653 21.285739 
L 87.887725 23.432059 
L 88.933737 25.896879 
L 90.202908 29.601588 
L 91.656362 34.749927 
L 93.267486 41.433601 
L 95.732947 52.932546 
L 98.043714 63.596134 
L 99.404984 68.879795 
L 100.301623 71.60091 
L 100.979992 73.130973 
L 101.640087 74.105871 
L 102.285988 74.512189 
L 102.585965 74.504171 
L 102.940159 74.328148 
L 103.552124 73.591929 
L 104.218086 72.173866 
L 105.03237 69.627568 
L 106.265431 64.478204 
L 108.063171 56.599384 
L 108.744176 54.534466 
L 109.136374 53.794357 
L 109.572453 53.438756 
L 109.967768 53.581173 
L 110.322318 54.095511 
L 110.787188 55.298321 
L 111.406876 57.663255 
L 112.795827 63.522896 
L 113.201395 64.464322 
L 113.574232 64.710757 
L 113.900347 64.381281 
L 114.226461 63.559179 
L 114.780936 61.329479 
L 115.507139 58.357519 
L 115.886297 57.675101 
L 116.064052 57.690728 
L 116.241806 57.93488 
L 116.508437 58.693981 
L 117.440088 62.31096 
L 117.575846 62.481418 
L 117.796534 62.367835 
L 117.881464 62.194984 
L 118.844983 58.965673 
L 119.011216 59.126565 
L 119.17745 59.626375 
L 119.662122 61.526593 
L 119.769289 61.655781 
L 119.876456 61.588875 
L 120.090791 60.926007 
L 120.445886 59.596129 
L 120.587924 59.586661 
L 120.77865 60.188001 
L 121.077915 61.235219 
L 121.197622 61.157191 
L 121.616594 59.840151 
L 121.68136 59.935543 
L 122.005194 61.023001 
L 122.069961 60.962751 
L 122.369065 60.014481 
L 122.408122 60.059522 
L 122.660205 60.883917 
L 122.713462 60.821371 
L 122.927025 60.12621 
L 122.980817 60.212239 
L 123.142195 60.785928 
L 123.195987 60.739984 
L 123.357364 60.202647 
L 123.411157 60.295569 
L 123.518741 60.706822 
L 123.733911 60.2946 
L 123.843985 60.678765 
L 123.899021 60.578768 
L 123.997254 60.303755 
L 124.04045 60.441858 
L 124.105244 60.647466 
L 124.126842 60.624412 
L 124.213234 60.327886 
L 124.25643 60.413626 
L 124.321223 60.621383 
L 124.342821 60.586838 
L 124.407615 60.353276 
L 124.429213 60.365421 
L 124.494007 60.595703 
L 124.515605 60.584952 
L 124.580399 60.367989 
L 124.601997 60.40078 
L 124.645193 60.569811 
L 124.745613 60.415072 
L 124.770718 60.52151 
L 124.795823 60.570208 
L 124.846033 60.401925 
L 125.448554 60.505129 
L 126.019835 60.477268 
L 128.909176 60.424223 
L 128.931889 60.362303 
L 128.954601 60.381076 
L 129.023596 60.610315 
L 129.058093 60.534706 
L 129.127087 60.342672 
L 129.161584 60.448658 
L 129.230579 60.628303 
L 129.33407 60.312185 
L 129.368567 60.384091 
L 129.472059 60.646641 
L 129.506556 60.532425 
L 129.575551 60.285555 
L 129.644545 60.418878 
L 129.748036 60.695789 
L 129.782534 60.608523 
L 129.886025 60.237937 
L 129.920522 60.251635 
L 130.098204 60.745477 
L 130.137897 60.643805 
L 130.296669 60.172887 
L 130.336362 60.252689 
L 130.523269 60.831403 
L 130.57234 60.741428 
L 130.768626 60.077265 
L 130.817697 60.117476 
L 131.063054 60.941543 
L 131.161196 60.802661 
L 131.42559 59.935776 
L 131.466461 59.964312 
L 131.589073 60.354488 
L 131.834299 61.122769 
L 131.916041 61.028467 
L 132.356989 59.720195 
L 132.408304 59.79399 
L 132.896247 61.416904 
L 132.988251 61.372518 
L 133.172259 60.819539 
L 133.540274 59.41145 
L 133.719253 59.339117 
L 133.893204 59.761225 
L 134.563452 61.992204 
L 134.680106 61.932904 
L 134.913416 61.33005 
L 135.714009 58.501955 
L 135.901821 58.508012 
L 136.089632 58.852336 
L 136.465255 60.259362 
L 137.153129 62.927843 
L 137.480244 63.305961 
L 137.619644 63.233002 
L 137.898446 62.699754 
L 138.246003 61.474356 
L 139.384876 56.911029 
L 139.752093 56.305421 
L 139.986352 56.257525 
L 140.294111 56.585888 
L 140.699081 57.609557 
L 141.271425 59.852811 
L 142.672286 65.722976 
L 143.190183 66.998873 
L 143.667961 67.505856 
L 143.884752 67.516985 
L 144.101544 67.394774 
L 144.487424 66.865028 
L 144.994691 65.627432 
L 145.756985 62.882155 
L 148.887737 49.729162 
L 149.589135 47.9258 
L 150.258245 46.856686 
L 150.777382 46.478298 
L 150.992406 46.436015 
L 151.363763 46.517215 
L 151.720188 46.773441 
L 152.440968 47.793278 
L 153.138757 49.35987 
L 153.857823 51.486423 
L 155.042269 55.883327 
L 156.642537 62.971422 
L 161.021602 83.16258 
L 162.52742 88.95952 
L 163.864428 93.285455 
L 164.840082 95.908115 
L 165.650672 97.731734 
L 166.76645 99.708725 
L 167.727386 100.918613 
L 168.69573 101.684654 
L 169.669113 102.008488 
L 170.370106 101.973228 
L 171.453311 101.493611 
L 172.18249 100.891456 
L 172.925985 100.056142 
L 174.032181 98.419209 
L 175.343017 95.906461 
L 176.728692 92.626946 
L 178.0291 89.016627 
L 179.83661 83.228009 
L 182.104615 74.854122 
L 182.104615 74.854122 
" clip-path="url(#pebf28fe801)" style="fill: none; stroke: #0000ff; stroke-linecap: square"/>
   </g>
   <g id="line2d_135">
    <path d="M 69.12 60.479893 
L 184.32 60.479893 
" clip-path="url(#pebf28fe801)" style="fill: none; stroke: #000000; stroke-width: 0.8; stroke-linecap: square"/>
   </g>
   <g id="line2d_136">
    <path d="M 126.72 103.68 
L 126.72 17.28 
" clip-path="url(#pebf28fe801)" style="fill: none; stroke: #000000; stroke-width: 0.8; stroke-linecap: square"/>
   </g>
   <g id="patch_6">
    <path d="M 69.12 103.68 
L 69.12 17.28 
" style="fill: none; stroke: #000000; stroke-width: 0.8; stroke-linejoin: miter; stroke-linecap: square"/>
   </g>
   <g id="patch_7">
    <path d="M 184.32 103.68 
L 184.32 17.28 
" style="fill: none; stroke: #000000; stroke-width: 0.8; stroke-linejoin: miter; stroke-linecap: square"/>
   </g>
   <g id="patch_8">
    <path d="M 69.12 103.68 
L 184.32 103.68 
" style="fill: none; stroke: #000000; stroke-width: 0.8; stroke-linejoin: miter; stroke-linecap: square"/>
   </g>
   <g id="patch_9">
    <path d="M 69.12 17.28 
L 184.32 17.28 
" style="fill: none; stroke: #000000; stroke-width: 0.8; stroke-linejoin: miter; stroke-linecap: square"/>
   </g>
  </g>
  <g id="axes_3">
   <g id="patch_10">
    <path d="M 299.52 304.128 
L 414.72 304.128 
L 414.72 217.728 
L 299.52 217.728 
z
" style="fill: #ffffff"/>
   </g>
   <g id="matplotlib.axis_5">
    <g id="xtick_73">
     <g id="line2d_137">
      <g>
       <use xlink:href="#m7236326928" x="312.812308" y="304.128" style="stroke: #000000; stroke-width: 0.8"/>
      </g>
     </g>
     <g id="text_31">
      <!-- −0.04 -->
      <g transform="translate(303.618714 315.687062)scale(0.06 -0.06)">
       <use xlink:href="#DejaVuSans-2212"/>
       <use xlink:href="#DejaVuSans-30" x="83.789062"/>
       <use xlink:href="#DejaVuSans-2e" x="147.412109"/>
       <use xlink:href="#DejaVuSans-30" x="179.199219"/>
       <use xlink:href="#DejaVuSans-34" x="242.822266"/>
      </g>
     </g>
    </g>
    <g id="xtick_74">
     <g id="line2d_138">
      <g>
       <use xlink:href="#m7236326928" x="334.966154" y="304.128" style="stroke: #000000; stroke-width: 0.8"/>
      </g>
     </g>
     <g id="text_32">
      <!-- −0.02 -->
      <g transform="translate(325.77256 315.687062)scale(0.06 -0.06)">
       <use xlink:href="#DejaVuSans-2212"/>
       <use xlink:href="#DejaVuSans-30" x="83.789062"/>
       <use xlink:href="#DejaVuSans-2e" x="147.412109"/>
       <use xlink:href="#DejaVuSans-30" x="179.199219"/>
       <use xlink:href="#DejaVuSans-32" x="242.822266"/>
      </g>
     </g>
    </g>
    <g id="xtick_75">
     <g id="line2d_139">
      <g>
       <use xlink:href="#m7236326928" x="357.12" y="304.128" style="stroke: #000000; stroke-width: 0.8"/>
      </g>
     </g>
     <g id="text_33">
      <!-- 0.00 -->
      <g transform="translate(350.440313 315.687062)scale(0.06 -0.06)">
       <use xlink:href="#DejaVuSans-30"/>
       <use xlink:href="#DejaVuSans-2e" x="63.623047"/>
       <use xlink:href="#DejaVuSans-30" x="95.410156"/>
       <use xlink:href="#DejaVuSans-30" x="159.033203"/>
      </g>
     </g>
    </g>
    <g id="xtick_76">
     <g id="line2d_140">
      <g>
       <use xlink:href="#m7236326928" x="379.273846" y="304.128" style="stroke: #000000; stroke-width: 0.8"/>
      </g>
     </g>
     <g id="text_34">
      <!-- 0.02 -->
      <g transform="translate(372.594159 315.687062)scale(0.06 -0.06)">
       <use xlink:href="#DejaVuSans-30"/>
       <use xlink:href="#DejaVuSans-2e" x="63.623047"/>
       <use xlink:href="#DejaVuSans-30" x="95.410156"/>
       <use xlink:href="#DejaVuSans-32" x="159.033203"/>
      </g>
     </g>
    </g>
    <g id="xtick_77">
     <g id="line2d_141">
      <g>
       <use xlink:href="#m7236326928" x="401.427692" y="304.128" style="stroke: #000000; stroke-width: 0.8"/>
      </g>
     </g>
     <g id="text_35">
      <!-- 0.04 -->
      <g transform="translate(394.748005 315.687062)scale(0.06 -0.06)">
       <use xlink:href="#DejaVuSans-30"/>
       <use xlink:href="#DejaVuSans-2e" x="63.623047"/>
       <use xlink:href="#DejaVuSans-30" x="95.410156"/>
       <use xlink:href="#DejaVuSans-34" x="159.033203"/>
      </g>
     </g>
    </g>
    <g id="xtick_78">
     <g id="line2d_142">
      <g>
       <use xlink:href="#mecaaa2522c" x="301.735385" y="304.128" style="stroke: #000000; stroke-width: 0.6"/>
      </g>
     </g>
    </g>
    <g id="xtick_79">
     <g id="line2d_143">
      <g>
       <use xlink:href="#mecaaa2522c" x="307.273846" y="304.128" style="stroke: #000000; stroke-width: 0.6"/>
      </g>
     </g>
    </g>
    <g id="xtick_80">
     <g id="line2d_144">
      <g>
       <use xlink:href="#mecaaa2522c" x="318.350769" y="304.128" style="stroke: #000000; stroke-width: 0.6"/>
      </g>
     </g>
    </g>
    <g id="xtick_81">
     <g id="line2d_145">
      <g>
       <use xlink:href="#mecaaa2522c" x="323.889231" y="304.128" style="stroke: #000000; stroke-width: 0.6"/>
      </g>
     </g>
    </g>
    <g id="xtick_82">
     <g id="line2d_146">
      <g>
       <use xlink:href="#mecaaa2522c" x="329.427692" y="304.128" style="stroke: #000000; stroke-width: 0.6"/>
      </g>
     </g>
    </g>
    <g id="xtick_83">
     <g id="line2d_147">
      <g>
       <use xlink:href="#mecaaa2522c" x="340.504615" y="304.128" style="stroke: #000000; stroke-width: 0.6"/>
      </g>
     </g>
    </g>
    <g id="xtick_84">
     <g id="line2d_148">
      <g>
       <use xlink:href="#mecaaa2522c" x="346.043077" y="304.128" style="stroke: #000000; stroke-width: 0.6"/>
      </g>
     </g>
    </g>
    <g id="xtick_85">
     <g id="line2d_149">
      <g>
       <use xlink:href="#mecaaa2522c" x="351.581538" y="304.128" style="stroke: #000000; stroke-width: 0.6"/>
      </g>
     </g>
    </g>
    <g id="xtick_86">
     <g id="line2d_150">
      <g>
       <use xlink:href="#mecaaa2522c" x="362.658462" y="304.128" style="stroke: #000000; stroke-width: 0.6"/>
      </g>
     </g>
    </g>
    <g id="xtick_87">
     <g id="line2d_151">
      <g>
       <use xlink:href="#mecaaa2522c" x="368.196923" y="304.128" style="stroke: #000000; stroke-width: 0.6"/>
      </g>
     </g>
    </g>
    <g id="xtick_88">
     <g id="line2d_152">
      <g>
       <use xlink:href="#mecaaa2522c" x="373.735385" y="304.128" style="stroke: #000000; stroke-width: 0.6"/>
      </g>
     </g>
    </g>
    <g id="xtick_89">
     <g id="line2d_153">
      <g>
       <use xlink:href="#mecaaa2522c" x="384.812308" y="304.128" style="stroke: #000000; stroke-width: 0.6"/>
      </g>
     </g>
    </g>
    <g id="xtick_90">
     <g id="line2d_154">
      <g>
       <use xlink:href="#mecaaa2522c" x="390.350769" y="304.128" style="stroke: #000000; stroke-width: 0.6"/>
      </g>
     </g>
    </g>
    <g id="xtick_91">
     <g id="line2d_155">
      <g>
       <use xlink:href="#mecaaa2522c" x="395.889231" y="304.128" style="stroke: #000000; stroke-width: 0.6"/>
      </g>
     </g>
    </g>
    <g id="xtick_92">
     <g id="line2d_156">
      <g>
       <use xlink:href="#mecaaa2522c" x="406.966154" y="304.128" style="stroke: #000000; stroke-width: 0.6"/>
      </g>
     </g>
    </g>
    <g id="xtick_93">
     <g id="line2d_157">
      <g>
       <use xlink:href="#mecaaa2522c" x="412.504615" y="304.128" style="stroke: #000000; stroke-width: 0.6"/>
      </g>
     </g>
    </g>
    <g id="text_36">
     <!-- $x$ -->
     <g transform="translate(354.51 327.773469)scale(0.09 -0.09)">
      <use xlink:href="#Cmmi10-78" transform="translate(0 0.8125)"/>
     </g>
    </g>
   </g>
   <g id="matplotlib.axis_6">
    <g id="ytick_61">
     <g id="line2d_158">
      <g>
       <use xlink:href="#mb2d94f640a" x="299.52" y="295.43383" style="stroke: #000000; stroke-width: 0.8"/>
      </g>
     </g>
     <g id="text_37">
      <!-- −0.002 -->
      <g transform="translate(270.315313 297.713361)scale(0.06 -0.06)">
       <use xlink:href="#DejaVuSans-2212"/>
       <use xlink:href="#DejaVuSans-30" x="83.789062"/>
       <use xlink:href="#DejaVuSans-2e" x="147.412109"/>
       <use xlink:href="#DejaVuSans-30" x="179.199219"/>
       <use xlink:href="#DejaVuSans-30" x="242.822266"/>
       <use xlink:href="#DejaVuSans-32" x="306.445312"/>
      </g>
     </g>
    </g>
    <g id="ytick_62">
     <g id="line2d_159">
      <g>
       <use xlink:href="#mb2d94f640a" x="299.52" y="278.184458" style="stroke: #000000; stroke-width: 0.8"/>
      </g>
     </g>
     <g id="text_38">
      <!-- −0.001 -->
      <g transform="translate(270.315313 280.463989)scale(0.06 -0.06)">
       <use xlink:href="#DejaVuSans-2212"/>
       <use xlink:href="#DejaVuSans-30" x="83.789062"/>
       <use xlink:href="#DejaVuSans-2e" x="147.412109"/>
       <use xlink:href="#DejaVuSans-30" x="179.199219"/>
       <use xlink:href="#DejaVuSans-30" x="242.822266"/>
       <use xlink:href="#DejaVuSans-31" x="306.445312"/>
      </g>
     </g>
    </g>
    <g id="ytick_63">
     <g id="line2d_160">
      <g>
       <use xlink:href="#mb2d94f640a" x="299.52" y="260.935086" style="stroke: #000000; stroke-width: 0.8"/>
      </g>
     </g>
     <g id="text_39">
      <!-- 0.000 -->
      <g transform="translate(275.343125 263.214617)scale(0.06 -0.06)">
       <use xlink:href="#DejaVuSans-30"/>
       <use xlink:href="#DejaVuSans-2e" x="63.623047"/>
       <use xlink:href="#DejaVuSans-30" x="95.410156"/>
       <use xlink:href="#DejaVuSans-30" x="159.033203"/>
       <use xlink:href="#DejaVuSans-30" x="222.65625"/>
      </g>
     </g>
    </g>
    <g id="ytick_64">
     <g id="line2d_161">
      <g>
       <use xlink:href="#mb2d94f640a" x="299.52" y="243.685714" style="stroke: #000000; stroke-width: 0.8"/>
      </g>
     </g>
     <g id="text_40">
      <!-- 0.001 -->
      <g transform="translate(275.343125 245.965245)scale(0.06 -0.06)">
       <use xlink:href="#DejaVuSans-30"/>
       <use xlink:href="#DejaVuSans-2e" x="63.623047"/>
       <use xlink:href="#DejaVuSans-30" x="95.410156"/>
       <use xlink:href="#DejaVuSans-30" x="159.033203"/>
       <use xlink:href="#DejaVuSans-31" x="222.65625"/>
      </g>
     </g>
    </g>
    <g id="ytick_65">
     <g id="line2d_162">
      <g>
       <use xlink:href="#mb2d94f640a" x="299.52" y="226.436342" style="stroke: #000000; stroke-width: 0.8"/>
      </g>
     </g>
     <g id="text_41">
      <!-- 0.002 -->
      <g transform="translate(275.343125 228.715873)scale(0.06 -0.06)">
       <use xlink:href="#DejaVuSans-30"/>
       <use xlink:href="#DejaVuSans-2e" x="63.623047"/>
       <use xlink:href="#DejaVuSans-30" x="95.410156"/>
       <use xlink:href="#DejaVuSans-30" x="159.033203"/>
       <use xlink:href="#DejaVuSans-32" x="222.65625"/>
      </g>
     </g>
    </g>
    <g id="ytick_66">
     <g id="line2d_163">
      <g>
       <use xlink:href="#m21941cc0bf" x="299.52" y="302.333578" style="stroke: #000000; stroke-width: 0.6"/>
      </g>
     </g>
    </g>
    <g id="ytick_67">
     <g id="line2d_164">
      <g>
       <use xlink:href="#m21941cc0bf" x="299.52" y="298.883704" style="stroke: #000000; stroke-width: 0.6"/>
      </g>
     </g>
    </g>
    <g id="ytick_68">
     <g id="line2d_165">
      <g>
       <use xlink:href="#m21941cc0bf" x="299.52" y="291.983955" style="stroke: #000000; stroke-width: 0.6"/>
      </g>
     </g>
    </g>
    <g id="ytick_69">
     <g id="line2d_166">
      <g>
       <use xlink:href="#m21941cc0bf" x="299.52" y="288.534081" style="stroke: #000000; stroke-width: 0.6"/>
      </g>
     </g>
    </g>
    <g id="ytick_70">
     <g id="line2d_167">
      <g>
       <use xlink:href="#m21941cc0bf" x="299.52" y="285.084206" style="stroke: #000000; stroke-width: 0.6"/>
      </g>
     </g>
    </g>
    <g id="ytick_71">
     <g id="line2d_168">
      <g>
       <use xlink:href="#m21941cc0bf" x="299.52" y="281.634332" style="stroke: #000000; stroke-width: 0.6"/>
      </g>
     </g>
    </g>
    <g id="ytick_72">
     <g id="line2d_169">
      <g>
       <use xlink:href="#m21941cc0bf" x="299.52" y="274.734583" style="stroke: #000000; stroke-width: 0.6"/>
      </g>
     </g>
    </g>
    <g id="ytick_73">
     <g id="line2d_170">
      <g>
       <use xlink:href="#m21941cc0bf" x="299.52" y="271.284709" style="stroke: #000000; stroke-width: 0.6"/>
      </g>
     </g>
    </g>
    <g id="ytick_74">
     <g id="line2d_171">
      <g>
       <use xlink:href="#m21941cc0bf" x="299.52" y="267.834835" style="stroke: #000000; stroke-width: 0.6"/>
      </g>
     </g>
    </g>
    <g id="ytick_75">
     <g id="line2d_172">
      <g>
       <use xlink:href="#m21941cc0bf" x="299.52" y="264.38496" style="stroke: #000000; stroke-width: 0.6"/>
      </g>
     </g>
    </g>
    <g id="ytick_76">
     <g id="line2d_173">
      <g>
       <use xlink:href="#m21941cc0bf" x="299.52" y="257.485211" style="stroke: #000000; stroke-width: 0.6"/>
      </g>
     </g>
    </g>
    <g id="ytick_77">
     <g id="line2d_174">
      <g>
       <use xlink:href="#m21941cc0bf" x="299.52" y="254.035337" style="stroke: #000000; stroke-width: 0.6"/>
      </g>
     </g>
    </g>
    <g id="ytick_78">
     <g id="line2d_175">
      <g>
       <use xlink:href="#m21941cc0bf" x="299.52" y="250.585463" style="stroke: #000000; stroke-width: 0.6"/>
      </g>
     </g>
    </g>
    <g id="ytick_79">
     <g id="line2d_176">
      <g>
       <use xlink:href="#m21941cc0bf" x="299.52" y="247.135588" style="stroke: #000000; stroke-width: 0.6"/>
      </g>
     </g>
    </g>
    <g id="ytick_80">
     <g id="line2d_177">
      <g>
       <use xlink:href="#m21941cc0bf" x="299.52" y="240.23584" style="stroke: #000000; stroke-width: 0.6"/>
      </g>
     </g>
    </g>
    <g id="ytick_81">
     <g id="line2d_178">
      <g>
       <use xlink:href="#m21941cc0bf" x="299.52" y="236.785965" style="stroke: #000000; stroke-width: 0.6"/>
      </g>
     </g>
    </g>
    <g id="ytick_82">
     <g id="line2d_179">
      <g>
       <use xlink:href="#m21941cc0bf" x="299.52" y="233.336091" style="stroke: #000000; stroke-width: 0.6"/>
      </g>
     </g>
    </g>
    <g id="ytick_83">
     <g id="line2d_180">
      <g>
       <use xlink:href="#m21941cc0bf" x="299.52" y="229.886216" style="stroke: #000000; stroke-width: 0.6"/>
      </g>
     </g>
    </g>
    <g id="ytick_84">
     <g id="line2d_181">
      <g>
       <use xlink:href="#m21941cc0bf" x="299.52" y="222.986468" style="stroke: #000000; stroke-width: 0.6"/>
      </g>
     </g>
    </g>
    <g id="ytick_85">
     <g id="line2d_182">
      <g>
       <use xlink:href="#m21941cc0bf" x="299.52" y="219.536593" style="stroke: #000000; stroke-width: 0.6"/>
      </g>
     </g>
    </g>
    <g id="text_42">
     <!-- $y$ -->
     <g transform="translate(264.425313 263.178)rotate(-90)scale(0.09 -0.09)">
      <use xlink:href="#Cmmi10-79" transform="translate(0 0.8125)"/>
     </g>
    </g>
   </g>
   <g id="line2d_183">
    <path d="M 301.735385 300.304416 
L 302.171746 301.938345 
L 302.5046 302.466462 
L 302.837453 302.355173 
L 303.165066 301.615335 
L 303.752554 298.74079 
L 304.326942 294.102651 
L 304.969098 287.025678 
L 306.016468 272.334034 
L 308.071893 242.044445 
L 308.781703 234.715902 
L 309.336221 231.132711 
L 309.75633 229.879296 
L 309.950245 229.752572 
L 310.144159 229.917142 
L 310.399811 230.580333 
L 310.721816 232.128399 
L 311.04382 234.441216 
L 311.654475 240.717836 
L 312.603699 254.04539 
L 314.042538 275.258422 
L 314.558599 280.772385 
L 314.949982 283.593865 
L 315.341365 285.030958 
L 315.408115 285.128518 
L 315.653578 285.10687 
L 315.899041 284.484192 
L 316.144504 283.269145 
L 316.660537 278.91175 
L 317.299579 270.774382 
L 318.896139 247.628333 
L 319.44627 242.906988 
L 319.718455 241.782184 
L 319.854547 241.554197 
L 319.990639 241.555714 
L 320.224532 242.097838 
L 320.458424 243.310526 
L 320.926208 247.578066 
L 321.38698 253.668055 
L 322.687492 272.345414 
L 323.165995 276.08414 
L 323.325496 276.639881 
L 323.534275 276.792686 
L 323.743055 276.282264 
L 324.068777 274.203228 
L 324.394499 270.743712 
L 326.117432 248.485542 
L 326.344027 247.742869 
L 326.457325 247.717478 
L 326.68392 248.369166 
L 326.910516 249.922393 
L 327.159692 252.546934 
L 328.576614 271.185012 
L 328.74774 271.957651 
L 328.918866 272.115371 
L 329.064045 271.75406 
L 329.354402 269.727428 
L 329.705425 265.392094 
L 330.605089 252.979824 
L 330.887219 251.427561 
L 331.035997 251.384501 
L 331.288716 252.573039 
L 331.600538 255.944445 
L 332.553011 268.521043 
L 332.729134 269.2181 
L 332.817195 269.23559 
L 332.993318 268.598406 
L 333.247987 266.233352 
L 334.267032 253.776897 
L 334.351279 253.654381 
L 334.435526 253.767389 
L 334.639667 254.989043 
L 334.843808 257.347821 
L 335.548696 266.719247 
L 335.753504 267.35299 
L 335.859444 267.068577 
L 336.071324 265.323451 
L 336.92744 255.245131 
L 336.993613 255.250332 
L 337.059786 255.440644 
L 337.302287 257.573419 
L 337.963218 265.868382 
L 338.073373 266.031529 
L 338.24736 265.141058 
L 338.49533 261.979268 
L 338.929277 256.594262 
L 339.053262 256.352088 
L 339.177247 256.907563 
L 339.332135 258.574183 
L 339.846459 264.970866 
L 339.932179 265.084262 
L 340.0179 264.773499 
L 340.243444 262.26462 
L 340.694534 257.163783 
L 340.75092 257.197842 
L 340.807306 257.433196 
L 340.920079 258.451051 
L 341.432156 264.384581 
L 341.516756 264.19946 
L 341.727101 261.904742 
L 342.10434 257.770728 
L 342.167213 257.891026 
L 342.355832 259.819776 
L 342.672616 263.739915 
L 342.737908 263.839373 
L 342.894474 262.709077 
L 343.285889 258.246816 
L 343.421571 259.008685 
L 343.823362 263.416992 
L 344.282553 258.631707 
L 344.34456 258.750685 
L 344.530583 260.982756 
L 344.766733 263.061613 
L 344.924166 261.514399 
L 345.160316 258.927656 
L 345.213768 259.068324 
L 345.374126 261.045622 
L 345.534484 262.781199 
L 345.587936 262.753438 
L 345.692277 261.748653 
L 345.90096 259.210964 
L 345.95313 259.229942 
L 346.005301 259.60672 
L 346.266154 262.589457 
L 346.318325 262.414604 
L 346.609952 259.399689 
L 346.672381 259.844257 
L 346.922097 262.357046 
L 346.998127 261.651048 
L 347.188202 259.548367 
L 347.226217 259.685309 
L 347.454307 262.245486 
L 347.492322 262.142911 
L 347.697283 259.726993 
L 347.780756 260.077699 
L 347.947702 262.097355 
L 347.989438 262.0296 
L 348.198121 259.818169 
L 348.242902 260.079253 
L 348.421781 261.992002 
L 348.457557 261.78219 
L 348.636436 259.942103 
L 348.672212 260.198324 
L 348.815316 261.8957 
L 348.876033 261.568311 
L 349.027827 260.037729 
L 349.058186 260.260723 
L 349.20998 261.790371 
L 349.240339 261.558526 
L 349.361774 260.10054 
L 349.422491 260.457516 
L 349.543926 261.735674 
L 349.574285 261.540304 
L 349.69572 260.160472 
L 349.726079 260.294559 
L 349.851275 261.677632 
L 349.883514 261.496628 
L 350.012469 260.265286 
L 350.044708 260.584304 
L 350.649196 261.523394 
L 350.997108 260.426913 
L 351.345021 260.854967 
L 351.729604 260.542581 
L 352.057835 260.615079 
L 352.386066 261.24959 
L 353.064858 260.972167 
L 353.129522 261.136946 
L 353.17802 260.719913 
L 353.307348 261.138988 
L 353.323514 261.014061 
L 353.355845 260.763723 
L 353.388177 261.130551 
L 353.436675 260.790389 
L 353.452841 261.019775 
L 353.582169 260.781589 
L 353.844401 260.798847 
L 354.100395 261.020839 
L 354.356389 260.83133 
L 355.150506 260.930739 
L 359.0501 260.890807 
L 359.414494 260.999074 
L 359.778888 260.841349 
L 360.016683 261.025553 
L 360.095948 260.810834 
L 360.392576 261.044639 
L 360.689205 260.82379 
L 361.0183 260.724402 
L 361.155402 261.14633 
L 361.292504 260.690344 
L 361.395331 260.67921 
L 361.429606 261.078598 
L 361.463882 261.069547 
L 361.498157 260.667124 
L 361.566708 261.15592 
L 361.840913 260.674138 
L 362.133401 260.631294 
L 362.151685 260.853279 
L 362.426408 260.544919 
L 362.495088 261.322559 
L 362.529429 261.156087 
L 362.563769 260.658943 
L 362.70113 261.164209 
L 363.052845 261.41803 
L 363.140773 260.435156 
L 363.184738 260.71843 
L 363.250684 261.463083 
L 363.272666 261.372182 
L 363.360595 260.387583 
L 363.404559 260.756755 
L 363.465286 261.488566 
L 363.526012 261.008099 
L 363.586738 260.348789 
L 363.617101 260.491515 
L 363.70819 261.54426 
L 363.738554 261.400693 
L 363.829643 260.309872 
L 363.890369 260.778136 
L 363.973251 261.58674 
L 364.014692 261.218219 
L 364.097573 260.254048 
L 364.139014 260.471426 
L 364.263337 261.583407 
L 364.387659 260.193347 
L 364.553423 261.694739 
L 364.715735 260.149855 
L 364.748198 260.40999 
L 364.878048 261.770047 
L 364.910511 261.554916 
L 365.040361 260.054408 
L 365.072824 260.162567 
L 365.221523 261.855723 
L 365.251263 261.778833 
L 365.429703 259.987025 
L 365.608143 261.940358 
L 365.667623 261.661371 
L 365.816322 259.882353 
L 365.846062 259.910498 
L 366.06308 262.029167 
L 366.101657 261.753485 
L 366.26884 259.767316 
L 366.313853 259.875349 
L 366.538921 262.155704 
L 366.583935 261.84237 
L 366.763989 259.651139 
L 366.809003 259.692401 
L 367.069367 262.300725 
L 367.103435 262.112082 
L 367.341907 259.466469 
L 367.375974 259.562035 
L 367.633372 262.478352 
L 367.709077 262.202955 
L 367.985421 259.29534 
L 368.03312 259.553969 
L 368.31931 262.695877 
L 368.367008 262.518608 
L 368.68275 259.055906 
L 368.769074 259.513659 
L 369.071206 262.943004 
L 369.114368 262.851102 
L 369.200692 262.067955 
L 369.475549 258.803366 
L 369.530521 258.854784 
L 369.640464 259.867025 
L 369.935107 263.24175 
L 369.984214 263.166214 
L 370.131536 261.657879 
L 370.426179 258.446031 
L 370.508758 258.74709 
L 370.937388 263.614916 
L 371.027835 263.365132 
L 371.505627 258.027149 
L 371.602463 258.325054 
L 371.892971 262.178319 
L 372.080092 264.008486 
L 372.173653 264.026162 
L 372.267213 263.404239 
L 372.769701 257.507395 
L 372.833823 257.529019 
L 372.962068 258.389611 
L 373.566167 264.667941 
L 373.755386 263.173563 
L 374.298762 256.798834 
L 374.38123 256.85706 
L 374.546167 258.078503 
L 375.171542 265.492453 
L 375.280443 265.408165 
L 375.498244 263.543934 
L 376.062658 256.207975 
L 376.181513 255.827263 
L 376.300369 256.109667 
L 376.478411 257.657162 
L 377.170098 266.384359 
L 377.323818 266.607485 
L 377.477538 265.852796 
L 377.784978 262.10025 
L 378.358716 254.911762 
L 378.473464 254.529476 
L 378.588211 254.64062 
L 378.81229 256.197029 
L 379.32966 263.578798 
L 379.708415 267.689417 
L 379.897793 268.213876 
L 380.001503 267.999161 
L 380.208923 266.571308 
L 380.526327 262.469697 
L 381.141123 254.062971 
L 381.372569 252.725698 
L 381.470315 252.616008 
L 381.568061 252.783447 
L 381.763553 253.910513 
L 382.05679 257.229628 
L 382.926771 269.101575 
L 383.213149 270.499121 
L 383.318104 270.502364 
L 383.528013 269.692937 
L 383.817995 266.991528 
L 385.162847 250.170916 
L 385.308521 249.76817 
L 385.454195 249.823151 
L 385.599869 250.329048 
L 385.952476 253.236795 
L 386.684786 263.766426 
L 387.24326 271.139105 
L 387.633724 273.828973 
L 387.838031 274.169589 
L 387.98097 273.955226 
L 388.266849 272.455582 
L 388.632124 268.74584 
L 390.400295 246.046076 
L 390.650899 245.147355 
L 390.773491 245.054527 
L 390.896082 245.190308 
L 391.141265 246.130359 
L 391.509039 249.07029 
L 392.20467 258.24563 
L 393.396933 275.213204 
L 393.861864 279.049799 
L 394.016841 279.777496 
L 394.247381 280.31273 
L 394.47792 280.185853 
L 394.68443 279.519586 
L 395.097449 276.726477 
L 395.525215 272.088019 
L 396.173209 262.847993 
L 397.540096 243.382093 
L 398.053504 238.866698 
L 398.401967 237.175299 
L 398.737965 236.679035 
L 398.899731 236.841181 
L 399.223263 237.929156 
L 399.684391 241.124239 
L 400.062956 245.003922 
L 400.717485 253.691567 
L 402.5162 280.302671 
L 403.20921 287.536787 
L 403.815838 291.200326 
L 404.166851 292.047211 
L 404.416485 292.067595 
L 404.666119 291.608794 
L 405.088415 289.777964 
L 405.510711 286.710891 
L 406.118873 280.418215 
L 406.975903 268.790088 
L 409.412161 233.134654 
L 410.016863 226.803122 
L 410.679908 221.972373 
L 411.019173 220.442906 
L 411.329686 219.625448 
L 411.542813 219.389538 
L 411.755941 219.417902 
L 411.943109 219.659046 
L 412.317447 220.736797 
L 412.504615 221.565755 
L 412.504615 221.565755 
" clip-path="url(#p5aaef7ff2f)" style="fill: none; stroke: #0000ff; stroke-linecap: square"/>
   </g>
   <g id="line2d_184">
    <path d="M 299.52 260.935086 
L 414.72 260.935086 
" clip-path="url(#p5aaef7ff2f)" style="fill: none; stroke: #000000; stroke-width: 0.8; stroke-linecap: square"/>
   </g>
   <g id="line2d_185">
    <path d="M 357.12 304.128 
L 357.12 217.728 
" clip-path="url(#p5aaef7ff2f)" style="fill: none; stroke: #000000; stroke-width: 0.8; stroke-linecap: square"/>
   </g>
   <g id="patch_11">
    <path d="M 299.52 304.128 
L 299.52 217.728 
" style="fill: none; stroke: #000000; stroke-width: 0.8; stroke-linejoin: miter; stroke-linecap: square"/>
   </g>
   <g id="patch_12">
    <path d="M 414.72 304.128 
L 414.72 217.728 
" style="fill: none; stroke: #000000; stroke-width: 0.8; stroke-linejoin: miter; stroke-linecap: square"/>
   </g>
   <g id="patch_13">
    <path d="M 299.52 304.128 
L 414.72 304.128 
" style="fill: none; stroke: #000000; stroke-width: 0.8; stroke-linejoin: miter; stroke-linecap: square"/>
   </g>
   <g id="patch_14">
    <path d="M 299.52 217.728 
L 414.72 217.728 
" style="fill: none; stroke: #000000; stroke-width: 0.8; stroke-linejoin: miter; stroke-linecap: square"/>
   </g>
  </g>
 </g>
 <defs>
  <clipPath id="p96abdf4d95">
   <rect x="23.04" y="17.28" width="414.72" height="311.04"/>
  </clipPath>
  <clipPath id="pebf28fe801">
   <rect x="69.12" y="17.28" width="115.2" height="86.4"/>
  </clipPath>
  <clipPath id="p5aaef7ff2f">
   <rect x="299.52" y="217.728" width="115.2" height="86.4"/>
  </clipPath>
 </defs>
</svg>
