<?xml version="1.0" encoding="utf-8" standalone="no"?>
<!DOCTYPE svg PUBLIC "-//W3C//DTD SVG 1.1//EN"
  "http://www.w3.org/Graphics/SVG/1.1/DTD/svg11.dtd">
<svg xmlns:xlink="http://www.w3.org/1999/xlink" width="576pt" height="144pt" viewBox="0 0 576 144" xmlns="http://www.w3.org/2000/svg" version="1.1">
 <metadata>
  <rdf:RDF xmlns:dc="http://purl.org/dc/elements/1.1/" xmlns:cc="http://creativecommons.org/ns#" xmlns:rdf="http://www.w3.org/1999/02/22-rdf-syntax-ns#">
   <cc:Work>
    <dc:type rdf:resource="http://purl.org/dc/dcmitype/StillImage"/>
    <dc:date>2022-05-16T19:39:22.724006</dc:date>
    <dc:format>image/svg+xml</dc:format>
    <dc:creator>
     <cc:Agent>
      <dc:title>Matplotlib v3.5.1, https://matplotlib.org/</dc:title>
     </cc:Agent>
    </dc:creator>
   </cc:Work>
  </rdf:RDF>
 </metadata>
 <defs>
  <style type="text/css">*{stroke-linejoin: round; stroke-linecap: butt}</style>
 </defs>
 <g id="figure_1">
  <g id="patch_1">
   <path d="M 0 144 
L 576 144 
L 576 0 
L 0 0 
z
" style="fill: #ffffff"/>
  </g>
  <g id="axes_1">
   <g id="patch_2">
    <path d="M 0 140.117058 
L 576 140.117058 
L 576 1.718118 
L 0 1.718118 
z
" style="fill: #ffffff"/>
   </g>
   <g id="matplotlib.axis_1">
    <g id="xtick_1">
     <g id="line2d_1">
      <defs>
       <path id="m82bd9c4fdf" d="M 0 0 
L 0 3.5 
" style="stroke: #000000; stroke-width: 0.8"/>
      </defs>
      <g>
       <use xlink:href="#m82bd9c4fdf" x="11.076923" y="70.920451" style="stroke: #000000; stroke-width: 0.8"/>
      </g>
     </g>
     <g id="text_1">
      <!-- −3 -->
      <g transform="translate(3.705829 85.518889)scale(0.1 -0.1)">
       <defs>
        <path id="DejaVuSans-2212" d="M 678 2272 
L 4684 2272 
L 4684 1741 
L 678 1741 
L 678 2272 
z
" transform="scale(0.015625)"/>
        <path id="DejaVuSans-33" d="M 2597 2516 
Q 3050 2419 3304 2112 
Q 3559 1806 3559 1356 
Q 3559 666 3084 287 
Q 2609 -91 1734 -91 
Q 1441 -91 1130 -33 
Q 819 25 488 141 
L 488 750 
Q 750 597 1062 519 
Q 1375 441 1716 441 
Q 2309 441 2620 675 
Q 2931 909 2931 1356 
Q 2931 1769 2642 2001 
Q 2353 2234 1838 2234 
L 1294 2234 
L 1294 2753 
L 1863 2753 
Q 2328 2753 2575 2939 
Q 2822 3125 2822 3475 
Q 2822 3834 2567 4026 
Q 2313 4219 1838 4219 
Q 1578 4219 1281 4162 
Q 984 4106 628 3988 
L 628 4550 
Q 988 4650 1302 4700 
Q 1616 4750 1894 4750 
Q 2613 4750 3031 4423 
Q 3450 4097 3450 3541 
Q 3450 3153 3228 2886 
Q 3006 2619 2597 2516 
z
" transform="scale(0.015625)"/>
       </defs>
       <use xlink:href="#DejaVuSans-2212"/>
       <use xlink:href="#DejaVuSans-33" x="83.789062"/>
      </g>
     </g>
    </g>
    <g id="xtick_2">
     <g id="line2d_2">
      <g>
       <use xlink:href="#m82bd9c4fdf" x="103.384615" y="70.920451" style="stroke: #000000; stroke-width: 0.8"/>
      </g>
     </g>
     <g id="text_2">
      <!-- −2 -->
      <g transform="translate(96.013522 85.518889)scale(0.1 -0.1)">
       <defs>
        <path id="DejaVuSans-32" d="M 1228 531 
L 3431 531 
L 3431 0 
L 469 0 
L 469 531 
Q 828 903 1448 1529 
Q 2069 2156 2228 2338 
Q 2531 2678 2651 2914 
Q 2772 3150 2772 3378 
Q 2772 3750 2511 3984 
Q 2250 4219 1831 4219 
Q 1534 4219 1204 4116 
Q 875 4013 500 3803 
L 500 4441 
Q 881 4594 1212 4672 
Q 1544 4750 1819 4750 
Q 2544 4750 2975 4387 
Q 3406 4025 3406 3419 
Q 3406 3131 3298 2873 
Q 3191 2616 2906 2266 
Q 2828 2175 2409 1742 
Q 1991 1309 1228 531 
z
" transform="scale(0.015625)"/>
       </defs>
       <use xlink:href="#DejaVuSans-2212"/>
       <use xlink:href="#DejaVuSans-32" x="83.789062"/>
      </g>
     </g>
    </g>
    <g id="xtick_3">
     <g id="line2d_3">
      <g>
       <use xlink:href="#m82bd9c4fdf" x="195.692308" y="70.920451" style="stroke: #000000; stroke-width: 0.8"/>
      </g>
     </g>
     <g id="text_3">
      <!-- −1 -->
      <g transform="translate(188.321214 85.518889)scale(0.1 -0.1)">
       <defs>
        <path id="DejaVuSans-31" d="M 794 531 
L 1825 531 
L 1825 4091 
L 703 3866 
L 703 4441 
L 1819 4666 
L 2450 4666 
L 2450 531 
L 3481 531 
L 3481 0 
L 794 0 
L 794 531 
z
" transform="scale(0.015625)"/>
       </defs>
       <use xlink:href="#DejaVuSans-2212"/>
       <use xlink:href="#DejaVuSans-31" x="83.789062"/>
      </g>
     </g>
    </g>
    <g id="xtick_4">
     <g id="line2d_4">
      <g>
       <use xlink:href="#m82bd9c4fdf" x="288" y="70.920451" style="stroke: #000000; stroke-width: 0.8"/>
      </g>
     </g>
    </g>
    <g id="xtick_5">
     <g id="line2d_5">
      <g>
       <use xlink:href="#m82bd9c4fdf" x="380.307692" y="70.920451" style="stroke: #000000; stroke-width: 0.8"/>
      </g>
     </g>
     <g id="text_4">
      <!-- 1 -->
      <g transform="translate(377.126442 85.518889)scale(0.1 -0.1)">
       <use xlink:href="#DejaVuSans-31"/>
      </g>
     </g>
    </g>
    <g id="xtick_6">
     <g id="line2d_6">
      <g>
       <use xlink:href="#m82bd9c4fdf" x="472.615385" y="70.920451" style="stroke: #000000; stroke-width: 0.8"/>
      </g>
     </g>
     <g id="text_5">
      <!-- 2 -->
      <g transform="translate(469.434135 85.518889)scale(0.1 -0.1)">
       <use xlink:href="#DejaVuSans-32"/>
      </g>
     </g>
    </g>
    <g id="xtick_7">
     <g id="line2d_7">
      <g>
       <use xlink:href="#m82bd9c4fdf" x="564.923077" y="70.920451" style="stroke: #000000; stroke-width: 0.8"/>
      </g>
     </g>
     <g id="text_6">
      <!-- 3 -->
      <g transform="translate(561.741827 85.518889)scale(0.1 -0.1)">
       <use xlink:href="#DejaVuSans-33"/>
      </g>
     </g>
    </g>
    <g id="xtick_8">
     <g id="line2d_8">
      <defs>
       <path id="m9fe7d5095a" d="M 0 0 
L 0 2 
" style="stroke: #000000; stroke-width: 0.6"/>
      </defs>
      <g>
       <use xlink:href="#m9fe7d5095a" x="29.538462" y="70.920451" style="stroke: #000000; stroke-width: 0.6"/>
      </g>
     </g>
    </g>
    <g id="xtick_9">
     <g id="line2d_9">
      <g>
       <use xlink:href="#m9fe7d5095a" x="48" y="70.920451" style="stroke: #000000; stroke-width: 0.6"/>
      </g>
     </g>
    </g>
    <g id="xtick_10">
     <g id="line2d_10">
      <g>
       <use xlink:href="#m9fe7d5095a" x="66.461538" y="70.920451" style="stroke: #000000; stroke-width: 0.6"/>
      </g>
     </g>
    </g>
    <g id="xtick_11">
     <g id="line2d_11">
      <g>
       <use xlink:href="#m9fe7d5095a" x="84.923077" y="70.920451" style="stroke: #000000; stroke-width: 0.6"/>
      </g>
     </g>
    </g>
    <g id="xtick_12">
     <g id="line2d_12">
      <g>
       <use xlink:href="#m9fe7d5095a" x="121.846154" y="70.920451" style="stroke: #000000; stroke-width: 0.6"/>
      </g>
     </g>
    </g>
    <g id="xtick_13">
     <g id="line2d_13">
      <g>
       <use xlink:href="#m9fe7d5095a" x="140.307692" y="70.920451" style="stroke: #000000; stroke-width: 0.6"/>
      </g>
     </g>
    </g>
    <g id="xtick_14">
     <g id="line2d_14">
      <g>
       <use xlink:href="#m9fe7d5095a" x="158.769231" y="70.920451" style="stroke: #000000; stroke-width: 0.6"/>
      </g>
     </g>
    </g>
    <g id="xtick_15">
     <g id="line2d_15">
      <g>
       <use xlink:href="#m9fe7d5095a" x="177.230769" y="70.920451" style="stroke: #000000; stroke-width: 0.6"/>
      </g>
     </g>
    </g>
    <g id="xtick_16">
     <g id="line2d_16">
      <g>
       <use xlink:href="#m9fe7d5095a" x="214.153846" y="70.920451" style="stroke: #000000; stroke-width: 0.6"/>
      </g>
     </g>
    </g>
    <g id="xtick_17">
     <g id="line2d_17">
      <g>
       <use xlink:href="#m9fe7d5095a" x="232.615385" y="70.920451" style="stroke: #000000; stroke-width: 0.6"/>
      </g>
     </g>
    </g>
    <g id="xtick_18">
     <g id="line2d_18">
      <g>
       <use xlink:href="#m9fe7d5095a" x="251.076923" y="70.920451" style="stroke: #000000; stroke-width: 0.6"/>
      </g>
     </g>
    </g>
    <g id="xtick_19">
     <g id="line2d_19">
      <g>
       <use xlink:href="#m9fe7d5095a" x="269.538462" y="70.920451" style="stroke: #000000; stroke-width: 0.6"/>
      </g>
     </g>
    </g>
    <g id="xtick_20">
     <g id="line2d_20">
      <g>
       <use xlink:href="#m9fe7d5095a" x="306.461538" y="70.920451" style="stroke: #000000; stroke-width: 0.6"/>
      </g>
     </g>
    </g>
    <g id="xtick_21">
     <g id="line2d_21">
      <g>
       <use xlink:href="#m9fe7d5095a" x="324.923077" y="70.920451" style="stroke: #000000; stroke-width: 0.6"/>
      </g>
     </g>
    </g>
    <g id="xtick_22">
     <g id="line2d_22">
      <g>
       <use xlink:href="#m9fe7d5095a" x="343.384615" y="70.920451" style="stroke: #000000; stroke-width: 0.6"/>
      </g>
     </g>
    </g>
    <g id="xtick_23">
     <g id="line2d_23">
      <g>
       <use xlink:href="#m9fe7d5095a" x="361.846154" y="70.920451" style="stroke: #000000; stroke-width: 0.6"/>
      </g>
     </g>
    </g>
    <g id="xtick_24">
     <g id="line2d_24">
      <g>
       <use xlink:href="#m9fe7d5095a" x="398.769231" y="70.920451" style="stroke: #000000; stroke-width: 0.6"/>
      </g>
     </g>
    </g>
    <g id="xtick_25">
     <g id="line2d_25">
      <g>
       <use xlink:href="#m9fe7d5095a" x="417.230769" y="70.920451" style="stroke: #000000; stroke-width: 0.6"/>
      </g>
     </g>
    </g>
    <g id="xtick_26">
     <g id="line2d_26">
      <g>
       <use xlink:href="#m9fe7d5095a" x="435.692308" y="70.920451" style="stroke: #000000; stroke-width: 0.6"/>
      </g>
     </g>
    </g>
    <g id="xtick_27">
     <g id="line2d_27">
      <g>
       <use xlink:href="#m9fe7d5095a" x="454.153846" y="70.920451" style="stroke: #000000; stroke-width: 0.6"/>
      </g>
     </g>
    </g>
    <g id="xtick_28">
     <g id="line2d_28">
      <g>
       <use xlink:href="#m9fe7d5095a" x="491.076923" y="70.920451" style="stroke: #000000; stroke-width: 0.6"/>
      </g>
     </g>
    </g>
    <g id="xtick_29">
     <g id="line2d_29">
      <g>
       <use xlink:href="#m9fe7d5095a" x="509.538462" y="70.920451" style="stroke: #000000; stroke-width: 0.6"/>
      </g>
     </g>
    </g>
    <g id="xtick_30">
     <g id="line2d_30">
      <g>
       <use xlink:href="#m9fe7d5095a" x="528" y="70.920451" style="stroke: #000000; stroke-width: 0.6"/>
      </g>
     </g>
    </g>
    <g id="xtick_31">
     <g id="line2d_31">
      <g>
       <use xlink:href="#m9fe7d5095a" x="546.461538" y="70.920451" style="stroke: #000000; stroke-width: 0.6"/>
      </g>
     </g>
    </g>
   </g>
   <g id="matplotlib.axis_2">
    <g id="ytick_1">
     <g id="line2d_32">
      <defs>
       <path id="m31b78fe71d" d="M 0 0 
L -3.5 0 
" style="stroke: #000000; stroke-width: 0.8"/>
      </defs>
      <g>
       <use xlink:href="#m31b78fe71d" x="288" y="137.461314" style="stroke: #000000; stroke-width: 0.8"/>
      </g>
     </g>
     <g id="text_7">
      <!-- −1.0 -->
      <g transform="translate(256.717187 141.260533)scale(0.1 -0.1)">
       <defs>
        <path id="DejaVuSans-2e" d="M 684 794 
L 1344 794 
L 1344 0 
L 684 0 
L 684 794 
z
" transform="scale(0.015625)"/>
        <path id="DejaVuSans-30" d="M 2034 4250 
Q 1547 4250 1301 3770 
Q 1056 3291 1056 2328 
Q 1056 1369 1301 889 
Q 1547 409 2034 409 
Q 2525 409 2770 889 
Q 3016 1369 3016 2328 
Q 3016 3291 2770 3770 
Q 2525 4250 2034 4250 
z
M 2034 4750 
Q 2819 4750 3233 4129 
Q 3647 3509 3647 2328 
Q 3647 1150 3233 529 
Q 2819 -91 2034 -91 
Q 1250 -91 836 529 
Q 422 1150 422 2328 
Q 422 3509 836 4129 
Q 1250 4750 2034 4750 
z
" transform="scale(0.015625)"/>
       </defs>
       <use xlink:href="#DejaVuSans-2212"/>
       <use xlink:href="#DejaVuSans-31" x="83.789062"/>
       <use xlink:href="#DejaVuSans-2e" x="147.412109"/>
       <use xlink:href="#DejaVuSans-30" x="179.199219"/>
      </g>
     </g>
    </g>
    <g id="ytick_2">
     <g id="line2d_33">
      <g>
       <use xlink:href="#m31b78fe71d" x="288" y="104.190883" style="stroke: #000000; stroke-width: 0.8"/>
      </g>
     </g>
     <g id="text_8">
      <!-- −0.5 -->
      <g transform="translate(256.717187 107.990102)scale(0.1 -0.1)">
       <defs>
        <path id="DejaVuSans-35" d="M 691 4666 
L 3169 4666 
L 3169 4134 
L 1269 4134 
L 1269 2991 
Q 1406 3038 1543 3061 
Q 1681 3084 1819 3084 
Q 2600 3084 3056 2656 
Q 3513 2228 3513 1497 
Q 3513 744 3044 326 
Q 2575 -91 1722 -91 
Q 1428 -91 1123 -41 
Q 819 9 494 109 
L 494 744 
Q 775 591 1075 516 
Q 1375 441 1709 441 
Q 2250 441 2565 725 
Q 2881 1009 2881 1497 
Q 2881 1984 2565 2268 
Q 2250 2553 1709 2553 
Q 1456 2553 1204 2497 
Q 953 2441 691 2322 
L 691 4666 
z
" transform="scale(0.015625)"/>
       </defs>
       <use xlink:href="#DejaVuSans-2212"/>
       <use xlink:href="#DejaVuSans-30" x="83.789062"/>
       <use xlink:href="#DejaVuSans-2e" x="147.412109"/>
       <use xlink:href="#DejaVuSans-35" x="179.199219"/>
      </g>
     </g>
    </g>
    <g id="ytick_3">
     <g id="line2d_34">
      <g>
       <use xlink:href="#m31b78fe71d" x="288" y="70.920451" style="stroke: #000000; stroke-width: 0.8"/>
      </g>
     </g>
    </g>
    <g id="ytick_4">
     <g id="line2d_35">
      <g>
       <use xlink:href="#m31b78fe71d" x="288" y="37.65002" style="stroke: #000000; stroke-width: 0.8"/>
      </g>
     </g>
     <g id="text_9">
      <!-- 0.5 -->
      <g transform="translate(265.096875 41.449239)scale(0.1 -0.1)">
       <use xlink:href="#DejaVuSans-30"/>
       <use xlink:href="#DejaVuSans-2e" x="63.623047"/>
       <use xlink:href="#DejaVuSans-35" x="95.410156"/>
      </g>
     </g>
    </g>
    <g id="ytick_5">
     <g id="line2d_36">
      <g>
       <use xlink:href="#m31b78fe71d" x="288" y="4.379588" style="stroke: #000000; stroke-width: 0.8"/>
      </g>
     </g>
     <g id="text_10">
      <!-- 1.0 -->
      <g transform="translate(265.096875 8.178807)scale(0.1 -0.1)">
       <use xlink:href="#DejaVuSans-31"/>
       <use xlink:href="#DejaVuSans-2e" x="63.623047"/>
       <use xlink:href="#DejaVuSans-30" x="95.410156"/>
      </g>
     </g>
    </g>
    <g id="ytick_6">
     <g id="line2d_37">
      <defs>
       <path id="m3816c13cbe" d="M 0 0 
L -2 0 
" style="stroke: #000000; stroke-width: 0.6"/>
      </defs>
      <g>
       <use xlink:href="#m3816c13cbe" x="288" y="130.807228" style="stroke: #000000; stroke-width: 0.6"/>
      </g>
     </g>
    </g>
    <g id="ytick_7">
     <g id="line2d_38">
      <g>
       <use xlink:href="#m3816c13cbe" x="288" y="124.153142" style="stroke: #000000; stroke-width: 0.6"/>
      </g>
     </g>
    </g>
    <g id="ytick_8">
     <g id="line2d_39">
      <g>
       <use xlink:href="#m3816c13cbe" x="288" y="117.499056" style="stroke: #000000; stroke-width: 0.6"/>
      </g>
     </g>
    </g>
    <g id="ytick_9">
     <g id="line2d_40">
      <g>
       <use xlink:href="#m3816c13cbe" x="288" y="110.844969" style="stroke: #000000; stroke-width: 0.6"/>
      </g>
     </g>
    </g>
    <g id="ytick_10">
     <g id="line2d_41">
      <g>
       <use xlink:href="#m3816c13cbe" x="288" y="97.536797" style="stroke: #000000; stroke-width: 0.6"/>
      </g>
     </g>
    </g>
    <g id="ytick_11">
     <g id="line2d_42">
      <g>
       <use xlink:href="#m3816c13cbe" x="288" y="90.88271" style="stroke: #000000; stroke-width: 0.6"/>
      </g>
     </g>
    </g>
    <g id="ytick_12">
     <g id="line2d_43">
      <g>
       <use xlink:href="#m3816c13cbe" x="288" y="84.228624" style="stroke: #000000; stroke-width: 0.6"/>
      </g>
     </g>
    </g>
    <g id="ytick_13">
     <g id="line2d_44">
      <g>
       <use xlink:href="#m3816c13cbe" x="288" y="77.574538" style="stroke: #000000; stroke-width: 0.6"/>
      </g>
     </g>
    </g>
    <g id="ytick_14">
     <g id="line2d_45">
      <g>
       <use xlink:href="#m3816c13cbe" x="288" y="64.266365" style="stroke: #000000; stroke-width: 0.6"/>
      </g>
     </g>
    </g>
    <g id="ytick_15">
     <g id="line2d_46">
      <g>
       <use xlink:href="#m3816c13cbe" x="288" y="57.612279" style="stroke: #000000; stroke-width: 0.6"/>
      </g>
     </g>
    </g>
    <g id="ytick_16">
     <g id="line2d_47">
      <g>
       <use xlink:href="#m3816c13cbe" x="288" y="50.958192" style="stroke: #000000; stroke-width: 0.6"/>
      </g>
     </g>
    </g>
    <g id="ytick_17">
     <g id="line2d_48">
      <g>
       <use xlink:href="#m3816c13cbe" x="288" y="44.304106" style="stroke: #000000; stroke-width: 0.6"/>
      </g>
     </g>
    </g>
    <g id="ytick_18">
     <g id="line2d_49">
      <g>
       <use xlink:href="#m3816c13cbe" x="288" y="30.995934" style="stroke: #000000; stroke-width: 0.6"/>
      </g>
     </g>
    </g>
    <g id="ytick_19">
     <g id="line2d_50">
      <g>
       <use xlink:href="#m3816c13cbe" x="288" y="24.341847" style="stroke: #000000; stroke-width: 0.6"/>
      </g>
     </g>
    </g>
    <g id="ytick_20">
     <g id="line2d_51">
      <g>
       <use xlink:href="#m3816c13cbe" x="288" y="17.687761" style="stroke: #000000; stroke-width: 0.6"/>
      </g>
     </g>
    </g>
    <g id="ytick_21">
     <g id="line2d_52">
      <g>
       <use xlink:href="#m3816c13cbe" x="288" y="11.033675" style="stroke: #000000; stroke-width: 0.6"/>
      </g>
     </g>
    </g>
   </g>
   <g id="line2d_53">
    <path d="M 11.076923 43.497732 
L 13.499425 34.368136 
L 15.210146 28.491247 
L 16.945922 23.084139 
L 18.611036 18.474791 
L 20.679317 13.599023 
L 21.915041 11.158939 
L 23.103031 9.158318 
L 24.291022 7.502711 
L 25.521921 6.155926 
L 26.75282 5.186838 
L 27.57342 4.750844 
L 28.450654 4.470054 
L 29.327888 4.379636 
L 30.205121 4.477927 
L 31.082355 4.762735 
L 32.205542 5.395315 
L 33.297144 6.292329 
L 34.388746 7.460076 
L 35.480348 8.890108 
L 36.57195 10.573006 
L 37.87041 12.889746 
L 39.563167 16.393821 
L 41.255923 20.403242 
L 43.294369 25.832216 
L 45.915081 33.636098 
L 48.512738 42.099682 
L 51.639798 52.958612 
L 62.519646 91.623404 
L 65.215473 100.354228 
L 68.449266 109.91177 
L 71.185401 117.060378 
L 72.972102 121.207024 
L 74.721415 124.839604 
L 76.586532 128.226379 
L 78.338497 130.936062 
L 80.090463 133.179257 
L 81.25844 134.412826 
L 82.658675 135.614545 
L 84.058909 136.514561 
L 85.650312 137.173715 
L 87.241715 137.450868 
L 88.639235 137.384977 
L 89.743479 137.132634 
L 90.847722 136.70738 
L 91.951966 136.113234 
L 93.056209 135.354601 
L 94.618096 134.010022 
L 96.332878 132.183282 
L 98.619253 129.212372 
L 100.596661 126.187314 
L 102.059139 123.70086 
L 104.445661 119.232477 
L 106.722584 114.549301 
L 108.999507 109.517769 
L 113.364144 99.12123 
L 116.29515 91.758024 
L 128.977639 59.416941 
L 132.887585 50.121571 
L 136.675857 41.729604 
L 140.340321 34.303004 
L 143.169151 29.088873 
L 145.979329 24.387645 
L 148.474835 20.628125 
L 151.343846 16.799528 
L 154.051869 13.674337 
L 155.740799 11.965011 
L 158.630502 9.462932 
L 160.403202 8.187704 
L 162.175903 7.105615 
L 163.917417 6.226408 
L 165.764637 5.487685 
L 167.774071 4.903529 
L 169.945721 4.519431 
L 171.493645 4.396032 
L 173.167507 4.397516 
L 174.841369 4.53338 
L 177.973066 5.127082 
L 180.511784 5.909319 
L 181.781143 6.393817 
L 185.38607 8.0792 
L 188.11485 9.629135 
L 190.907138 11.427805 
L 195.097457 14.468079 
L 199.766263 18.236307 
L 206.487052 24.133588 
L 228.903359 44.404365 
L 233.02126 47.807527 
L 238.828888 52.291477 
L 243.644568 55.692536 
L 249.145307 59.192424 
L 254.125609 61.98653 
L 257.790682 63.807271 
L 261.957466 65.629662 
L 266.588197 67.341881 
L 268.977279 68.095394 
L 273.859519 69.359098 
L 277.637037 70.081824 
L 281.524257 70.592967 
L 284.940249 70.84734 
L 288.518494 70.918352 
L 292.524837 70.760563 
L 295.734855 70.45324 
L 299.889199 69.816632 
L 303.986559 68.924925 
L 308.181258 67.741062 
L 311.547579 66.593335 
L 315.946446 64.829887 
L 320.81798 62.532049 
L 325.58521 59.939114 
L 330.052031 57.209599 
L 333.960041 54.593093 
L 338.952374 50.95859 
L 344.076704 46.916986 
L 351.038236 41.000449 
L 358.545614 34.228285 
L 373.022091 21.001042 
L 377.209556 17.421266 
L 381.785234 13.797435 
L 384.925046 11.542128 
L 388.470054 9.278664 
L 390.335682 8.227032 
L 393.828443 6.554725 
L 396.512936 5.56279 
L 399.434168 4.807395 
L 402.253621 4.42961 
L 404.879131 4.414602 
L 407.35209 4.718715 
L 409.577655 5.271699 
L 411.704045 6.058956 
L 413.749428 7.064211 
L 415.845364 8.354781 
L 418.065692 10.017403 
L 420.359859 12.061748 
L 422.634863 14.421945 
L 424.513421 16.622952 
L 426.391979 19.052451 
L 428.919428 22.679799 
L 431.33582 26.527027 
L 433.539395 30.350437 
L 435.955826 34.875772 
L 439.447731 41.992481 
L 443.146526 50.200093 
L 446.841815 58.975785 
L 452.675948 73.649568 
L 462.672199 99.210993 
L 466.648062 108.711757 
L 470.28806 116.674616 
L 473.239059 122.437597 
L 474.789058 125.167644 
L 477.276579 129.063199 
L 479.142219 131.553822 
L 480.853957 133.485817 
L 483.014876 135.4083 
L 484.695928 136.482071 
L 485.81663 136.983733 
L 486.937331 137.308892 
L 488.101588 137.45554 
L 489.309398 137.397714 
L 490.825991 137.016764 
L 491.738679 136.619802 
L 493.564054 135.443603 
L 494.871381 134.286098 
L 496.178708 132.865199 
L 497.538267 131.109188 
L 499.470342 128.130692 
L 501.402417 124.596777 
L 503.113889 121.017384 
L 505.593024 115.121768 
L 507.440004 110.21874 
L 509.481208 104.338489 
L 512.259337 95.653157 
L 515.331704 85.311596 
L 519.296521 71.225948 
L 526.617888 45.05849 
L 529.959786 34.028819 
L 532.841232 25.452338 
L 535.343604 18.928437 
L 536.986129 15.199087 
L 538.783212 11.68179 
L 540.077884 9.541275 
L 541.372556 7.750684 
L 542.506533 6.482611 
L 543.640511 5.505132 
L 544.774488 4.826738 
L 545.908465 4.454637 
L 547.165344 4.407133 
L 548.422223 4.748977 
L 549.411639 5.294423 
L 550.401054 6.084193 
L 551.39047 7.118098 
L 552.379886 8.394991 
L 553.737773 10.538925 
L 555.095659 13.127818 
L 556.797089 16.980806 
L 558.48184 21.433969 
L 560.259704 26.777671 
L 562.758946 35.299219 
L 564.923077 43.497732 
L 564.923077 43.497732 
" clip-path="url(#p51e6810297)" style="fill: none; stroke: #0000ff; stroke-linecap: square"/>
   </g>
   <g id="patch_3">
    <path d="M 288 140.117058 
L 288 1.718118 
" style="fill: none; stroke: #000000; stroke-width: 0.8; stroke-linejoin: miter; stroke-linecap: square"/>
   </g>
   <g id="patch_4">
    <path d="M 0 70.920451 
L 576 70.920451 
" style="fill: none; stroke: #000000; stroke-width: 0.8; stroke-linejoin: miter; stroke-linecap: square"/>
   </g>
  </g>
 </g>
 <defs>
  <clipPath id="p51e6810297">
   <rect x="0" y="1.718118" width="576" height="138.39894"/>
  </clipPath>
 </defs>
</svg>
