<?xml version="1.0" encoding="utf-8" standalone="no"?>
<!DOCTYPE svg PUBLIC "-//W3C//DTD SVG 1.1//EN"
  "http://www.w3.org/Graphics/SVG/1.1/DTD/svg11.dtd">
<svg xmlns:xlink="http://www.w3.org/1999/xlink" width="460.8pt" height="345.6pt" viewBox="0 0 460.8 345.6" xmlns="http://www.w3.org/2000/svg" version="1.1">
 <metadata>
  <rdf:RDF xmlns:dc="http://purl.org/dc/elements/1.1/" xmlns:cc="http://creativecommons.org/ns#" xmlns:rdf="http://www.w3.org/1999/02/22-rdf-syntax-ns#">
   <cc:Work>
    <dc:type rdf:resource="http://purl.org/dc/dcmitype/StillImage"/>
    <dc:date>2022-05-16T19:38:42.024265</dc:date>
    <dc:format>image/svg+xml</dc:format>
    <dc:creator>
     <cc:Agent>
      <dc:title>Matplotlib v3.5.1, https://matplotlib.org/</dc:title>
     </cc:Agent>
    </dc:creator>
   </cc:Work>
  </rdf:RDF>
 </metadata>
 <defs>
  <style type="text/css">*{stroke-linejoin: round; stroke-linecap: butt}</style>
 </defs>
 <g id="figure_1">
  <g id="patch_1">
   <path d="M 0 345.6 
L 460.8 345.6 
L 460.8 0 
L 0 0 
z
" style="fill: #ffffff"/>
  </g>
  <g id="axes_1">
   <g id="patch_2">
    <path d="M 0 345.6 
L 460.8 345.6 
L 460.8 0 
L 0 0 
z
" style="fill: #ffffff"/>
   </g>
   <g id="PathCollection_1">
    <defs>
     <path id="C0_0_17c327bec3" d="M 0 2.738613 
C 0.726289 2.738613 1.422928 2.450055 1.936492 1.936492 
C 2.450055 1.422928 2.738613 0.726289 2.738613 -0 
C 2.738613 -0.726289 2.450055 -1.422928 1.936492 -1.936492 
C 1.422928 -2.450055 0.726289 -2.738613 0 -2.738613 
C -0.726289 -2.738613 -1.422928 -2.450055 -1.936492 -1.936492 
C -2.450055 -1.422928 -2.738613 -0.726289 -2.738613 0 
C -2.738613 0.726289 -2.450055 1.422928 -1.936492 1.936492 
C -1.422928 2.450055 -0.726289 2.738613 0 2.738613 
z
"/>
    </defs>
    <g clip-path="url(#p6d1c91db84)">
     <use xlink:href="#C0_0_17c327bec3" x="8.861538" y="245.94467" style="fill: #33991a"/>
    </g>
    <g clip-path="url(#p6d1c91db84)">
     <use xlink:href="#C0_0_17c327bec3" x="12.584874" y="288.187168" style="fill: #33991a"/>
    </g>
    <g clip-path="url(#p6d1c91db84)">
     <use xlink:href="#C0_0_17c327bec3" x="16.308209" y="318.538506" style="fill: #33991a"/>
    </g>
    <g clip-path="url(#p6d1c91db84)">
     <use xlink:href="#C0_0_17c327bec3" x="20.031545" y="335.386154" style="fill: #33991a"/>
    </g>
    <g clip-path="url(#p6d1c91db84)">
     <use xlink:href="#C0_0_17c327bec3" x="23.75488" y="338.454648" style="fill: #33991a"/>
    </g>
    <g clip-path="url(#p6d1c91db84)">
     <use xlink:href="#C0_0_17c327bec3" x="27.478216" y="328.648214" style="fill: #33991a"/>
    </g>
    <g clip-path="url(#p6d1c91db84)">
     <use xlink:href="#C0_0_17c327bec3" x="31.201551" y="307.810747" style="fill: #33991a"/>
    </g>
    <g clip-path="url(#p6d1c91db84)">
     <use xlink:href="#C0_0_17c327bec3" x="34.924887" y="278.440692" style="fill: #33991a"/>
    </g>
    <g clip-path="url(#p6d1c91db84)">
     <use xlink:href="#C0_0_17c327bec3" x="38.648222" y="243.395386" style="fill: #33991a"/>
    </g>
    <g clip-path="url(#p6d1c91db84)">
     <use xlink:href="#C0_0_17c327bec3" x="42.371558" y="205.613529" style="fill: #33991a"/>
    </g>
    <g clip-path="url(#p6d1c91db84)">
     <use xlink:href="#C0_0_17c327bec3" x="46.094893" y="167.87699" style="fill: #33991a"/>
    </g>
    <g clip-path="url(#p6d1c91db84)">
     <use xlink:href="#C0_0_17c327bec3" x="49.818229" y="132.625217" style="fill: #33991a"/>
    </g>
    <g clip-path="url(#p6d1c91db84)">
     <use xlink:href="#C0_0_17c327bec3" x="53.541564" y="101.82808" style="fill: #33991a"/>
    </g>
    <g clip-path="url(#p6d1c91db84)">
     <use xlink:href="#C0_0_17c327bec3" x="57.2649" y="76.91656" style="fill: #33991a"/>
    </g>
    <g clip-path="url(#p6d1c91db84)">
     <use xlink:href="#C0_0_17c327bec3" x="60.988235" y="58.76586" style="fill: #33991a"/>
    </g>
    <g clip-path="url(#p6d1c91db84)">
     <use xlink:href="#C0_0_17c327bec3" x="64.711571" y="47.722142" style="fill: #33991a"/>
    </g>
    <g clip-path="url(#p6d1c91db84)">
     <use xlink:href="#C0_0_17c327bec3" x="68.434906" y="43.662353" style="fill: #33991a"/>
    </g>
    <g clip-path="url(#p6d1c91db84)">
     <use xlink:href="#C0_0_17c327bec3" x="72.158242" y="46.076122" style="fill: #33991a"/>
    </g>
    <g clip-path="url(#p6d1c91db84)">
     <use xlink:href="#C0_0_17c327bec3" x="75.881577" y="54.159298" style="fill: #33991a"/>
    </g>
    <g clip-path="url(#p6d1c91db84)">
     <use xlink:href="#C0_0_17c327bec3" x="79.604913" y="66.910042" style="fill: #33991a"/>
    </g>
    <g clip-path="url(#p6d1c91db84)">
     <use xlink:href="#C0_0_17c327bec3" x="83.328248" y="83.220146" style="fill: #33991a"/>
    </g>
    <g clip-path="url(#p6d1c91db84)">
     <use xlink:href="#C0_0_17c327bec3" x="87.051584" y="101.956213" style="fill: #33991a"/>
    </g>
    <g clip-path="url(#p6d1c91db84)">
     <use xlink:href="#C0_0_17c327bec3" x="90.774919" y="122.027252" style="fill: #33991a"/>
    </g>
    <g clip-path="url(#p6d1c91db84)">
     <use xlink:href="#C0_0_17c327bec3" x="94.498255" y="142.436986" style="fill: #33991a"/>
    </g>
    <g clip-path="url(#p6d1c91db84)">
     <use xlink:href="#C0_0_17c327bec3" x="98.22159" y="162.320641" style="fill: #33991a"/>
    </g>
    <g clip-path="url(#p6d1c91db84)">
     <use xlink:href="#C0_0_17c327bec3" x="101.944926" y="180.967089" style="fill: #33991a"/>
    </g>
    <g clip-path="url(#p6d1c91db84)">
     <use xlink:href="#C0_0_17c327bec3" x="105.668261" y="197.828057" style="fill: #33991a"/>
    </g>
    <g clip-path="url(#p6d1c91db84)">
     <use xlink:href="#C0_0_17c327bec3" x="109.391597" y="212.516549" style="fill: #33991a"/>
    </g>
    <g clip-path="url(#p6d1c91db84)">
     <use xlink:href="#C0_0_17c327bec3" x="113.114932" y="224.796879" style="fill: #33991a"/>
    </g>
    <g clip-path="url(#p6d1c91db84)">
     <use xlink:href="#C0_0_17c327bec3" x="116.838268" y="234.56869" style="fill: #33991a"/>
    </g>
    <g clip-path="url(#p6d1c91db84)">
     <use xlink:href="#C0_0_17c327bec3" x="120.561603" y="241.847169" style="fill: #33991a"/>
    </g>
    <g clip-path="url(#p6d1c91db84)">
     <use xlink:href="#C0_0_17c327bec3" x="124.284939" y="246.74139" style="fill: #33991a"/>
    </g>
    <g clip-path="url(#p6d1c91db84)">
     <use xlink:href="#C0_0_17c327bec3" x="128.008274" y="249.432391" style="fill: #33991a"/>
    </g>
    <g clip-path="url(#p6d1c91db84)">
     <use xlink:href="#C0_0_17c327bec3" x="131.73161" y="250.152219" style="fill: #33991a"/>
    </g>
    <g clip-path="url(#p6d1c91db84)">
     <use xlink:href="#C0_0_17c327bec3" x="135.454945" y="249.164845" style="fill: #33991a"/>
    </g>
    <g clip-path="url(#p6d1c91db84)">
     <use xlink:href="#C0_0_17c327bec3" x="139.178281" y="246.749519" style="fill: #33991a"/>
    </g>
    <g clip-path="url(#p6d1c91db84)">
     <use xlink:href="#C0_0_17c327bec3" x="142.901616" y="243.186868" style="fill: #33991a"/>
    </g>
    <g clip-path="url(#p6d1c91db84)">
     <use xlink:href="#C0_0_17c327bec3" x="146.624952" y="238.747819" style="fill: #33991a"/>
    </g>
    <g clip-path="url(#p6d1c91db84)">
     <use xlink:href="#C0_0_17c327bec3" x="150.348287" y="233.685251" style="fill: #33991a"/>
    </g>
    <g clip-path="url(#p6d1c91db84)">
     <use xlink:href="#C0_0_17c327bec3" x="154.071622" y="228.228155" style="fill: #33991a"/>
    </g>
    <g clip-path="url(#p6d1c91db84)">
     <use xlink:href="#C0_0_17c327bec3" x="157.794958" y="222.578011" style="fill: #33991a"/>
    </g>
    <g clip-path="url(#p6d1c91db84)">
     <use xlink:href="#C0_0_17c327bec3" x="161.518293" y="216.907044" style="fill: #33991a"/>
    </g>
    <g clip-path="url(#p6d1c91db84)">
     <use xlink:href="#C0_0_17c327bec3" x="165.241629" y="211.357992" style="fill: #33991a"/>
    </g>
    <g clip-path="url(#p6d1c91db84)">
     <use xlink:href="#C0_0_17c327bec3" x="168.964964" y="206.04507" style="fill: #33991a"/>
    </g>
    <g clip-path="url(#p6d1c91db84)">
     <use xlink:href="#C0_0_17c327bec3" x="172.6883" y="201.055778" style="fill: #33991a"/>
    </g>
    <g clip-path="url(#p6d1c91db84)">
     <use xlink:href="#C0_0_17c327bec3" x="176.411635" y="196.453309" style="fill: #33991a"/>
    </g>
    <g clip-path="url(#p6d1c91db84)">
     <use xlink:href="#C0_0_17c327bec3" x="180.134971" y="192.279283" style="fill: #33991a"/>
    </g>
    <g clip-path="url(#p6d1c91db84)">
     <use xlink:href="#C0_0_17c327bec3" x="183.858306" y="188.556632" style="fill: #33991a"/>
    </g>
    <g clip-path="url(#p6d1c91db84)">
     <use xlink:href="#C0_0_17c327bec3" x="187.581642" y="185.292467" style="fill: #33991a"/>
    </g>
    <g clip-path="url(#p6d1c91db84)">
     <use xlink:href="#C0_0_17c327bec3" x="191.304977" y="182.480822" style="fill: #33991a"/>
    </g>
    <g clip-path="url(#p6d1c91db84)">
     <use xlink:href="#C0_0_17c327bec3" x="195.028313" y="180.105175" style="fill: #33991a"/>
    </g>
    <g clip-path="url(#p6d1c91db84)">
     <use xlink:href="#C0_0_17c327bec3" x="198.751648" y="178.140707" style="fill: #33991a"/>
    </g>
    <g clip-path="url(#p6d1c91db84)">
     <use xlink:href="#C0_0_17c327bec3" x="202.474984" y="176.556268" style="fill: #33991a"/>
    </g>
    <g clip-path="url(#p6d1c91db84)">
     <use xlink:href="#C0_0_17c327bec3" x="206.198319" y="175.316027" style="fill: #33991a"/>
    </g>
    <g clip-path="url(#p6d1c91db84)">
     <use xlink:href="#C0_0_17c327bec3" x="209.921655" y="174.380834" style="fill: #33991a"/>
    </g>
    <g clip-path="url(#p6d1c91db84)">
     <use xlink:href="#C0_0_17c327bec3" x="213.64499" y="173.70929" style="fill: #33991a"/>
    </g>
    <g clip-path="url(#p6d1c91db84)">
     <use xlink:href="#C0_0_17c327bec3" x="217.368326" y="173.258569" style="fill: #33991a"/>
    </g>
    <g clip-path="url(#p6d1c91db84)">
     <use xlink:href="#C0_0_17c327bec3" x="221.091661" y="172.985001" style="fill: #33991a"/>
    </g>
    <g clip-path="url(#p6d1c91db84)">
     <use xlink:href="#C0_0_17c327bec3" x="224.814997" y="172.84448" style="fill: #33991a"/>
    </g>
    <g clip-path="url(#p6d1c91db84)">
     <use xlink:href="#C0_0_17c327bec3" x="228.538332" y="172.792704" style="fill: #33991a"/>
    </g>
    <g clip-path="url(#p6d1c91db84)">
     <use xlink:href="#C0_0_17c327bec3" x="232.261668" y="172.785308" style="fill: #33991a"/>
    </g>
    <g clip-path="url(#p6d1c91db84)">
     <use xlink:href="#C0_0_17c327bec3" x="235.985003" y="172.777911" style="fill: #33991a"/>
    </g>
    <g clip-path="url(#p6d1c91db84)">
     <use xlink:href="#C0_0_17c327bec3" x="239.708339" y="172.726135" style="fill: #33991a"/>
    </g>
    <g clip-path="url(#p6d1c91db84)">
     <use xlink:href="#C0_0_17c327bec3" x="243.431674" y="172.585614" style="fill: #33991a"/>
    </g>
    <g clip-path="url(#p6d1c91db84)">
     <use xlink:href="#C0_0_17c327bec3" x="247.15501" y="172.312047" style="fill: #33991a"/>
    </g>
    <g clip-path="url(#p6d1c91db84)">
     <use xlink:href="#C0_0_17c327bec3" x="250.878345" y="171.861325" style="fill: #33991a"/>
    </g>
    <g clip-path="url(#p6d1c91db84)">
     <use xlink:href="#C0_0_17c327bec3" x="254.601681" y="171.189782" style="fill: #33991a"/>
    </g>
    <g clip-path="url(#p6d1c91db84)">
     <use xlink:href="#C0_0_17c327bec3" x="258.325016" y="170.254588" style="fill: #33991a"/>
    </g>
    <g clip-path="url(#p6d1c91db84)">
     <use xlink:href="#C0_0_17c327bec3" x="262.048352" y="169.014347" style="fill: #33991a"/>
    </g>
    <g clip-path="url(#p6d1c91db84)">
     <use xlink:href="#C0_0_17c327bec3" x="265.771687" y="167.429908" style="fill: #33991a"/>
    </g>
    <g clip-path="url(#p6d1c91db84)">
     <use xlink:href="#C0_0_17c327bec3" x="269.495023" y="165.46544" style="fill: #33991a"/>
    </g>
    <g clip-path="url(#p6d1c91db84)">
     <use xlink:href="#C0_0_17c327bec3" x="273.218358" y="163.089793" style="fill: #33991a"/>
    </g>
    <g clip-path="url(#p6d1c91db84)">
     <use xlink:href="#C0_0_17c327bec3" x="276.941694" y="160.278148" style="fill: #33991a"/>
    </g>
    <g clip-path="url(#p6d1c91db84)">
     <use xlink:href="#C0_0_17c327bec3" x="280.665029" y="157.013984" style="fill: #33991a"/>
    </g>
    <g clip-path="url(#p6d1c91db84)">
     <use xlink:href="#C0_0_17c327bec3" x="284.388365" y="153.291332" style="fill: #33991a"/>
    </g>
    <g clip-path="url(#p6d1c91db84)">
     <use xlink:href="#C0_0_17c327bec3" x="288.1117" y="149.117306" style="fill: #33991a"/>
    </g>
    <g clip-path="url(#p6d1c91db84)">
     <use xlink:href="#C0_0_17c327bec3" x="291.835036" y="144.514837" style="fill: #33991a"/>
    </g>
    <g clip-path="url(#p6d1c91db84)">
     <use xlink:href="#C0_0_17c327bec3" x="295.558371" y="139.525546" style="fill: #33991a"/>
    </g>
    <g clip-path="url(#p6d1c91db84)">
     <use xlink:href="#C0_0_17c327bec3" x="299.281707" y="134.212623" style="fill: #33991a"/>
    </g>
    <g clip-path="url(#p6d1c91db84)">
     <use xlink:href="#C0_0_17c327bec3" x="303.005042" y="128.663571" style="fill: #33991a"/>
    </g>
    <g clip-path="url(#p6d1c91db84)">
     <use xlink:href="#C0_0_17c327bec3" x="306.728378" y="122.992604" style="fill: #33991a"/>
    </g>
    <g clip-path="url(#p6d1c91db84)">
     <use xlink:href="#C0_0_17c327bec3" x="310.451713" y="117.34246" style="fill: #33991a"/>
    </g>
    <g clip-path="url(#p6d1c91db84)">
     <use xlink:href="#C0_0_17c327bec3" x="314.175048" y="111.885364" style="fill: #33991a"/>
    </g>
    <g clip-path="url(#p6d1c91db84)">
     <use xlink:href="#C0_0_17c327bec3" x="317.898384" y="106.822796" style="fill: #33991a"/>
    </g>
    <g clip-path="url(#p6d1c91db84)">
     <use xlink:href="#C0_0_17c327bec3" x="321.621719" y="102.383747" style="fill: #33991a"/>
    </g>
    <g clip-path="url(#p6d1c91db84)">
     <use xlink:href="#C0_0_17c327bec3" x="325.345055" y="98.821096" style="fill: #33991a"/>
    </g>
    <g clip-path="url(#p6d1c91db84)">
     <use xlink:href="#C0_0_17c327bec3" x="329.06839" y="96.40577" style="fill: #33991a"/>
    </g>
    <g clip-path="url(#p6d1c91db84)">
     <use xlink:href="#C0_0_17c327bec3" x="332.791726" y="95.418397" style="fill: #33991a"/>
    </g>
    <g clip-path="url(#p6d1c91db84)">
     <use xlink:href="#C0_0_17c327bec3" x="336.515061" y="96.138225" style="fill: #33991a"/>
    </g>
    <g clip-path="url(#p6d1c91db84)">
     <use xlink:href="#C0_0_17c327bec3" x="340.238397" y="98.829225" style="fill: #33991a"/>
    </g>
    <g clip-path="url(#p6d1c91db84)">
     <use xlink:href="#C0_0_17c327bec3" x="343.961732" y="103.723447" style="fill: #33991a"/>
    </g>
    <g clip-path="url(#p6d1c91db84)">
     <use xlink:href="#C0_0_17c327bec3" x="347.685068" y="111.001925" style="fill: #33991a"/>
    </g>
    <g clip-path="url(#p6d1c91db84)">
     <use xlink:href="#C0_0_17c327bec3" x="351.408403" y="120.773736" style="fill: #33991a"/>
    </g>
    <g clip-path="url(#p6d1c91db84)">
     <use xlink:href="#C0_0_17c327bec3" x="355.131739" y="133.054066" style="fill: #33991a"/>
    </g>
    <g clip-path="url(#p6d1c91db84)">
     <use xlink:href="#C0_0_17c327bec3" x="358.855074" y="147.742558" style="fill: #33991a"/>
    </g>
    <g clip-path="url(#p6d1c91db84)">
     <use xlink:href="#C0_0_17c327bec3" x="362.57841" y="164.603526" style="fill: #33991a"/>
    </g>
    <g clip-path="url(#p6d1c91db84)">
     <use xlink:href="#C0_0_17c327bec3" x="366.301745" y="183.249975" style="fill: #33991a"/>
    </g>
    <g clip-path="url(#p6d1c91db84)">
     <use xlink:href="#C0_0_17c327bec3" x="370.025081" y="203.133629" style="fill: #33991a"/>
    </g>
    <g clip-path="url(#p6d1c91db84)">
     <use xlink:href="#C0_0_17c327bec3" x="373.748416" y="223.543363" style="fill: #33991a"/>
    </g>
    <g clip-path="url(#p6d1c91db84)">
     <use xlink:href="#C0_0_17c327bec3" x="377.471752" y="243.614402" style="fill: #33991a"/>
    </g>
    <g clip-path="url(#p6d1c91db84)">
     <use xlink:href="#C0_0_17c327bec3" x="381.195087" y="262.350469" style="fill: #33991a"/>
    </g>
    <g clip-path="url(#p6d1c91db84)">
     <use xlink:href="#C0_0_17c327bec3" x="384.918423" y="278.660574" style="fill: #33991a"/>
    </g>
    <g clip-path="url(#p6d1c91db84)">
     <use xlink:href="#C0_0_17c327bec3" x="388.641758" y="291.411317" style="fill: #33991a"/>
    </g>
    <g clip-path="url(#p6d1c91db84)">
     <use xlink:href="#C0_0_17c327bec3" x="392.365094" y="299.494493" style="fill: #33991a"/>
    </g>
    <g clip-path="url(#p6d1c91db84)">
     <use xlink:href="#C0_0_17c327bec3" x="396.088429" y="301.908262" style="fill: #33991a"/>
    </g>
    <g clip-path="url(#p6d1c91db84)">
     <use xlink:href="#C0_0_17c327bec3" x="399.811765" y="297.848474" style="fill: #33991a"/>
    </g>
    <g clip-path="url(#p6d1c91db84)">
     <use xlink:href="#C0_0_17c327bec3" x="403.5351" y="286.804756" style="fill: #33991a"/>
    </g>
    <g clip-path="url(#p6d1c91db84)">
     <use xlink:href="#C0_0_17c327bec3" x="407.258436" y="268.654056" style="fill: #33991a"/>
    </g>
    <g clip-path="url(#p6d1c91db84)">
     <use xlink:href="#C0_0_17c327bec3" x="410.981771" y="243.742536" style="fill: #33991a"/>
    </g>
    <g clip-path="url(#p6d1c91db84)">
     <use xlink:href="#C0_0_17c327bec3" x="414.705107" y="212.945398" style="fill: #33991a"/>
    </g>
    <g clip-path="url(#p6d1c91db84)">
     <use xlink:href="#C0_0_17c327bec3" x="418.428442" y="177.693626" style="fill: #33991a"/>
    </g>
    <g clip-path="url(#p6d1c91db84)">
     <use xlink:href="#C0_0_17c327bec3" x="422.151778" y="139.957086" style="fill: #33991a"/>
    </g>
    <g clip-path="url(#p6d1c91db84)">
     <use xlink:href="#C0_0_17c327bec3" x="425.875113" y="102.175229" style="fill: #33991a"/>
    </g>
    <g clip-path="url(#p6d1c91db84)">
     <use xlink:href="#C0_0_17c327bec3" x="429.598449" y="67.129924" style="fill: #33991a"/>
    </g>
    <g clip-path="url(#p6d1c91db84)">
     <use xlink:href="#C0_0_17c327bec3" x="433.321784" y="37.759868" style="fill: #33991a"/>
    </g>
    <g clip-path="url(#p6d1c91db84)">
     <use xlink:href="#C0_0_17c327bec3" x="437.04512" y="16.922401" style="fill: #33991a"/>
    </g>
    <g clip-path="url(#p6d1c91db84)">
     <use xlink:href="#C0_0_17c327bec3" x="440.768455" y="7.115967" style="fill: #33991a"/>
    </g>
    <g clip-path="url(#p6d1c91db84)">
     <use xlink:href="#C0_0_17c327bec3" x="444.491791" y="10.184461" style="fill: #33991a"/>
    </g>
    <g clip-path="url(#p6d1c91db84)">
     <use xlink:href="#C0_0_17c327bec3" x="448.215126" y="27.032109" style="fill: #33991a"/>
    </g>
    <g clip-path="url(#p6d1c91db84)">
     <use xlink:href="#C0_0_17c327bec3" x="451.938462" y="57.383448" style="fill: #33991a"/>
    </g>
   </g>
   <g id="matplotlib.axis_1">
    <g id="xtick_1">
     <g id="line2d_1">
      <defs>
       <path id="m87633da899" d="M 0 0 
L 0 3.5 
" style="stroke: #000000; stroke-width: 0.8"/>
      </defs>
      <g>
       <use xlink:href="#m87633da899" x="8.861538" y="172.785308" style="stroke: #000000; stroke-width: 0.8"/>
      </g>
     </g>
     <g id="text_1">
      <!-- −3 -->
      <g transform="translate(1.490445 187.383745)scale(0.1 -0.1)">
       <defs>
        <path id="DejaVuSans-2212" d="M 678 2272 
L 4684 2272 
L 4684 1741 
L 678 1741 
L 678 2272 
z
" transform="scale(0.015625)"/>
        <path id="DejaVuSans-33" d="M 2597 2516 
Q 3050 2419 3304 2112 
Q 3559 1806 3559 1356 
Q 3559 666 3084 287 
Q 2609 -91 1734 -91 
Q 1441 -91 1130 -33 
Q 819 25 488 141 
L 488 750 
Q 750 597 1062 519 
Q 1375 441 1716 441 
Q 2309 441 2620 675 
Q 2931 909 2931 1356 
Q 2931 1769 2642 2001 
Q 2353 2234 1838 2234 
L 1294 2234 
L 1294 2753 
L 1863 2753 
Q 2328 2753 2575 2939 
Q 2822 3125 2822 3475 
Q 2822 3834 2567 4026 
Q 2313 4219 1838 4219 
Q 1578 4219 1281 4162 
Q 984 4106 628 3988 
L 628 4550 
Q 988 4650 1302 4700 
Q 1616 4750 1894 4750 
Q 2613 4750 3031 4423 
Q 3450 4097 3450 3541 
Q 3450 3153 3228 2886 
Q 3006 2619 2597 2516 
z
" transform="scale(0.015625)"/>
       </defs>
       <use xlink:href="#DejaVuSans-2212"/>
       <use xlink:href="#DejaVuSans-33" x="83.789062"/>
      </g>
     </g>
    </g>
    <g id="xtick_2">
     <g id="line2d_2">
      <g>
       <use xlink:href="#m87633da899" x="83.328248" y="172.785308" style="stroke: #000000; stroke-width: 0.8"/>
      </g>
     </g>
     <g id="text_2">
      <!-- −2 -->
      <g transform="translate(75.957154 187.383745)scale(0.1 -0.1)">
       <defs>
        <path id="DejaVuSans-32" d="M 1228 531 
L 3431 531 
L 3431 0 
L 469 0 
L 469 531 
Q 828 903 1448 1529 
Q 2069 2156 2228 2338 
Q 2531 2678 2651 2914 
Q 2772 3150 2772 3378 
Q 2772 3750 2511 3984 
Q 2250 4219 1831 4219 
Q 1534 4219 1204 4116 
Q 875 4013 500 3803 
L 500 4441 
Q 881 4594 1212 4672 
Q 1544 4750 1819 4750 
Q 2544 4750 2975 4387 
Q 3406 4025 3406 3419 
Q 3406 3131 3298 2873 
Q 3191 2616 2906 2266 
Q 2828 2175 2409 1742 
Q 1991 1309 1228 531 
z
" transform="scale(0.015625)"/>
       </defs>
       <use xlink:href="#DejaVuSans-2212"/>
       <use xlink:href="#DejaVuSans-32" x="83.789062"/>
      </g>
     </g>
    </g>
    <g id="xtick_3">
     <g id="line2d_3">
      <g>
       <use xlink:href="#m87633da899" x="157.794958" y="172.785308" style="stroke: #000000; stroke-width: 0.8"/>
      </g>
     </g>
     <g id="text_3">
      <!-- −1 -->
      <g transform="translate(150.423864 187.383745)scale(0.1 -0.1)">
       <defs>
        <path id="DejaVuSans-31" d="M 794 531 
L 1825 531 
L 1825 4091 
L 703 3866 
L 703 4441 
L 1819 4666 
L 2450 4666 
L 2450 531 
L 3481 531 
L 3481 0 
L 794 0 
L 794 531 
z
" transform="scale(0.015625)"/>
       </defs>
       <use xlink:href="#DejaVuSans-2212"/>
       <use xlink:href="#DejaVuSans-31" x="83.789062"/>
      </g>
     </g>
    </g>
    <g id="xtick_4">
     <g id="line2d_4">
      <g>
       <use xlink:href="#m87633da899" x="232.261668" y="172.785308" style="stroke: #000000; stroke-width: 0.8"/>
      </g>
     </g>
    </g>
    <g id="xtick_5">
     <g id="line2d_5">
      <g>
       <use xlink:href="#m87633da899" x="306.728378" y="172.785308" style="stroke: #000000; stroke-width: 0.8"/>
      </g>
     </g>
     <g id="text_4">
      <!-- 1 -->
      <g transform="translate(303.547128 187.383745)scale(0.1 -0.1)">
       <use xlink:href="#DejaVuSans-31"/>
      </g>
     </g>
    </g>
    <g id="xtick_6">
     <g id="line2d_6">
      <g>
       <use xlink:href="#m87633da899" x="381.195087" y="172.785308" style="stroke: #000000; stroke-width: 0.8"/>
      </g>
     </g>
     <g id="text_5">
      <!-- 2 -->
      <g transform="translate(378.013837 187.383745)scale(0.1 -0.1)">
       <use xlink:href="#DejaVuSans-32"/>
      </g>
     </g>
    </g>
    <g id="xtick_7">
     <g id="line2d_7">
      <g>
       <use xlink:href="#m87633da899" x="455.661797" y="172.785308" style="stroke: #000000; stroke-width: 0.8"/>
      </g>
     </g>
     <g id="text_6">
      <!-- 3 -->
      <g transform="translate(452.480547 187.383745)scale(0.1 -0.1)">
       <use xlink:href="#DejaVuSans-33"/>
      </g>
     </g>
    </g>
    <g id="xtick_8">
     <g id="line2d_8">
      <defs>
       <path id="md1bfbaaa44" d="M 0 0 
L 0 2 
" style="stroke: #000000; stroke-width: 0.6"/>
      </defs>
      <g>
       <use xlink:href="#md1bfbaaa44" x="23.75488" y="172.785308" style="stroke: #000000; stroke-width: 0.6"/>
      </g>
     </g>
    </g>
    <g id="xtick_9">
     <g id="line2d_9">
      <g>
       <use xlink:href="#md1bfbaaa44" x="38.648222" y="172.785308" style="stroke: #000000; stroke-width: 0.6"/>
      </g>
     </g>
    </g>
    <g id="xtick_10">
     <g id="line2d_10">
      <g>
       <use xlink:href="#md1bfbaaa44" x="53.541564" y="172.785308" style="stroke: #000000; stroke-width: 0.6"/>
      </g>
     </g>
    </g>
    <g id="xtick_11">
     <g id="line2d_11">
      <g>
       <use xlink:href="#md1bfbaaa44" x="68.434906" y="172.785308" style="stroke: #000000; stroke-width: 0.6"/>
      </g>
     </g>
    </g>
    <g id="xtick_12">
     <g id="line2d_12">
      <g>
       <use xlink:href="#md1bfbaaa44" x="98.22159" y="172.785308" style="stroke: #000000; stroke-width: 0.6"/>
      </g>
     </g>
    </g>
    <g id="xtick_13">
     <g id="line2d_13">
      <g>
       <use xlink:href="#md1bfbaaa44" x="113.114932" y="172.785308" style="stroke: #000000; stroke-width: 0.6"/>
      </g>
     </g>
    </g>
    <g id="xtick_14">
     <g id="line2d_14">
      <g>
       <use xlink:href="#md1bfbaaa44" x="128.008274" y="172.785308" style="stroke: #000000; stroke-width: 0.6"/>
      </g>
     </g>
    </g>
    <g id="xtick_15">
     <g id="line2d_15">
      <g>
       <use xlink:href="#md1bfbaaa44" x="142.901616" y="172.785308" style="stroke: #000000; stroke-width: 0.6"/>
      </g>
     </g>
    </g>
    <g id="xtick_16">
     <g id="line2d_16">
      <g>
       <use xlink:href="#md1bfbaaa44" x="172.6883" y="172.785308" style="stroke: #000000; stroke-width: 0.6"/>
      </g>
     </g>
    </g>
    <g id="xtick_17">
     <g id="line2d_17">
      <g>
       <use xlink:href="#md1bfbaaa44" x="187.581642" y="172.785308" style="stroke: #000000; stroke-width: 0.6"/>
      </g>
     </g>
    </g>
    <g id="xtick_18">
     <g id="line2d_18">
      <g>
       <use xlink:href="#md1bfbaaa44" x="202.474984" y="172.785308" style="stroke: #000000; stroke-width: 0.6"/>
      </g>
     </g>
    </g>
    <g id="xtick_19">
     <g id="line2d_19">
      <g>
       <use xlink:href="#md1bfbaaa44" x="217.368326" y="172.785308" style="stroke: #000000; stroke-width: 0.6"/>
      </g>
     </g>
    </g>
    <g id="xtick_20">
     <g id="line2d_20">
      <g>
       <use xlink:href="#md1bfbaaa44" x="247.15501" y="172.785308" style="stroke: #000000; stroke-width: 0.6"/>
      </g>
     </g>
    </g>
    <g id="xtick_21">
     <g id="line2d_21">
      <g>
       <use xlink:href="#md1bfbaaa44" x="262.048352" y="172.785308" style="stroke: #000000; stroke-width: 0.6"/>
      </g>
     </g>
    </g>
    <g id="xtick_22">
     <g id="line2d_22">
      <g>
       <use xlink:href="#md1bfbaaa44" x="276.941694" y="172.785308" style="stroke: #000000; stroke-width: 0.6"/>
      </g>
     </g>
    </g>
    <g id="xtick_23">
     <g id="line2d_23">
      <g>
       <use xlink:href="#md1bfbaaa44" x="291.835036" y="172.785308" style="stroke: #000000; stroke-width: 0.6"/>
      </g>
     </g>
    </g>
    <g id="xtick_24">
     <g id="line2d_24">
      <g>
       <use xlink:href="#md1bfbaaa44" x="321.621719" y="172.785308" style="stroke: #000000; stroke-width: 0.6"/>
      </g>
     </g>
    </g>
    <g id="xtick_25">
     <g id="line2d_25">
      <g>
       <use xlink:href="#md1bfbaaa44" x="336.515061" y="172.785308" style="stroke: #000000; stroke-width: 0.6"/>
      </g>
     </g>
    </g>
    <g id="xtick_26">
     <g id="line2d_26">
      <g>
       <use xlink:href="#md1bfbaaa44" x="351.408403" y="172.785308" style="stroke: #000000; stroke-width: 0.6"/>
      </g>
     </g>
    </g>
    <g id="xtick_27">
     <g id="line2d_27">
      <g>
       <use xlink:href="#md1bfbaaa44" x="366.301745" y="172.785308" style="stroke: #000000; stroke-width: 0.6"/>
      </g>
     </g>
    </g>
    <g id="xtick_28">
     <g id="line2d_28">
      <g>
       <use xlink:href="#md1bfbaaa44" x="396.088429" y="172.785308" style="stroke: #000000; stroke-width: 0.6"/>
      </g>
     </g>
    </g>
    <g id="xtick_29">
     <g id="line2d_29">
      <g>
       <use xlink:href="#md1bfbaaa44" x="410.981771" y="172.785308" style="stroke: #000000; stroke-width: 0.6"/>
      </g>
     </g>
    </g>
    <g id="xtick_30">
     <g id="line2d_30">
      <g>
       <use xlink:href="#md1bfbaaa44" x="425.875113" y="172.785308" style="stroke: #000000; stroke-width: 0.6"/>
      </g>
     </g>
    </g>
    <g id="xtick_31">
     <g id="line2d_31">
      <g>
       <use xlink:href="#md1bfbaaa44" x="440.768455" y="172.785308" style="stroke: #000000; stroke-width: 0.6"/>
      </g>
     </g>
    </g>
   </g>
   <g id="matplotlib.axis_2">
    <g id="ytick_1">
     <g id="line2d_32">
      <defs>
       <path id="ma16e14d4a9" d="M 0 0 
L -3.5 0 
" style="stroke: #000000; stroke-width: 0.8"/>
      </defs>
      <g>
       <use xlink:href="#ma16e14d4a9" x="232.261668" y="291.132118" style="stroke: #000000; stroke-width: 0.8"/>
      </g>
     </g>
     <g id="text_7">
      <!-- −2 -->
      <g transform="translate(210.51948 294.931337)scale(0.1 -0.1)">
       <use xlink:href="#DejaVuSans-2212"/>
       <use xlink:href="#DejaVuSans-32" x="83.789062"/>
      </g>
     </g>
    </g>
    <g id="ytick_2">
     <g id="line2d_33">
      <g>
       <use xlink:href="#ma16e14d4a9" x="232.261668" y="231.958713" style="stroke: #000000; stroke-width: 0.8"/>
      </g>
     </g>
     <g id="text_8">
      <!-- −1 -->
      <g transform="translate(210.51948 235.757932)scale(0.1 -0.1)">
       <use xlink:href="#DejaVuSans-2212"/>
       <use xlink:href="#DejaVuSans-31" x="83.789062"/>
      </g>
     </g>
    </g>
    <g id="ytick_3">
     <g id="line2d_34">
      <g>
       <use xlink:href="#ma16e14d4a9" x="232.261668" y="172.785308" style="stroke: #000000; stroke-width: 0.8"/>
      </g>
     </g>
    </g>
    <g id="ytick_4">
     <g id="line2d_35">
      <g>
       <use xlink:href="#ma16e14d4a9" x="232.261668" y="113.611902" style="stroke: #000000; stroke-width: 0.8"/>
      </g>
     </g>
     <g id="text_9">
      <!-- 1 -->
      <g transform="translate(218.899168 117.411121)scale(0.1 -0.1)">
       <use xlink:href="#DejaVuSans-31"/>
      </g>
     </g>
    </g>
    <g id="ytick_5">
     <g id="line2d_36">
      <g>
       <use xlink:href="#ma16e14d4a9" x="232.261668" y="54.438497" style="stroke: #000000; stroke-width: 0.8"/>
      </g>
     </g>
     <g id="text_10">
      <!-- 2 -->
      <g transform="translate(218.899168 58.237716)scale(0.1 -0.1)">
       <use xlink:href="#DejaVuSans-32"/>
      </g>
     </g>
    </g>
    <g id="ytick_6">
     <g id="line2d_37">
      <defs>
       <path id="mbbf494b60a" d="M 0 0 
L -2 0 
" style="stroke: #000000; stroke-width: 0.6"/>
      </defs>
      <g>
       <use xlink:href="#mbbf494b60a" x="232.261668" y="338.470843" style="stroke: #000000; stroke-width: 0.6"/>
      </g>
     </g>
    </g>
    <g id="ytick_7">
     <g id="line2d_38">
      <g>
       <use xlink:href="#mbbf494b60a" x="232.261668" y="326.636162" style="stroke: #000000; stroke-width: 0.6"/>
      </g>
     </g>
    </g>
    <g id="ytick_8">
     <g id="line2d_39">
      <g>
       <use xlink:href="#mbbf494b60a" x="232.261668" y="314.80148" style="stroke: #000000; stroke-width: 0.6"/>
      </g>
     </g>
    </g>
    <g id="ytick_9">
     <g id="line2d_40">
      <g>
       <use xlink:href="#mbbf494b60a" x="232.261668" y="302.966799" style="stroke: #000000; stroke-width: 0.6"/>
      </g>
     </g>
    </g>
    <g id="ytick_10">
     <g id="line2d_41">
      <g>
       <use xlink:href="#mbbf494b60a" x="232.261668" y="279.297437" style="stroke: #000000; stroke-width: 0.6"/>
      </g>
     </g>
    </g>
    <g id="ytick_11">
     <g id="line2d_42">
      <g>
       <use xlink:href="#mbbf494b60a" x="232.261668" y="267.462756" style="stroke: #000000; stroke-width: 0.6"/>
      </g>
     </g>
    </g>
    <g id="ytick_12">
     <g id="line2d_43">
      <g>
       <use xlink:href="#mbbf494b60a" x="232.261668" y="255.628075" style="stroke: #000000; stroke-width: 0.6"/>
      </g>
     </g>
    </g>
    <g id="ytick_13">
     <g id="line2d_44">
      <g>
       <use xlink:href="#mbbf494b60a" x="232.261668" y="243.793394" style="stroke: #000000; stroke-width: 0.6"/>
      </g>
     </g>
    </g>
    <g id="ytick_14">
     <g id="line2d_45">
      <g>
       <use xlink:href="#mbbf494b60a" x="232.261668" y="220.124032" style="stroke: #000000; stroke-width: 0.6"/>
      </g>
     </g>
    </g>
    <g id="ytick_15">
     <g id="line2d_46">
      <g>
       <use xlink:href="#mbbf494b60a" x="232.261668" y="208.289351" style="stroke: #000000; stroke-width: 0.6"/>
      </g>
     </g>
    </g>
    <g id="ytick_16">
     <g id="line2d_47">
      <g>
       <use xlink:href="#mbbf494b60a" x="232.261668" y="196.45467" style="stroke: #000000; stroke-width: 0.6"/>
      </g>
     </g>
    </g>
    <g id="ytick_17">
     <g id="line2d_48">
      <g>
       <use xlink:href="#mbbf494b60a" x="232.261668" y="184.619989" style="stroke: #000000; stroke-width: 0.6"/>
      </g>
     </g>
    </g>
    <g id="ytick_18">
     <g id="line2d_49">
      <g>
       <use xlink:href="#mbbf494b60a" x="232.261668" y="160.950627" style="stroke: #000000; stroke-width: 0.6"/>
      </g>
     </g>
    </g>
    <g id="ytick_19">
     <g id="line2d_50">
      <g>
       <use xlink:href="#mbbf494b60a" x="232.261668" y="149.115945" style="stroke: #000000; stroke-width: 0.6"/>
      </g>
     </g>
    </g>
    <g id="ytick_20">
     <g id="line2d_51">
      <g>
       <use xlink:href="#mbbf494b60a" x="232.261668" y="137.281264" style="stroke: #000000; stroke-width: 0.6"/>
      </g>
     </g>
    </g>
    <g id="ytick_21">
     <g id="line2d_52">
      <g>
       <use xlink:href="#mbbf494b60a" x="232.261668" y="125.446583" style="stroke: #000000; stroke-width: 0.6"/>
      </g>
     </g>
    </g>
    <g id="ytick_22">
     <g id="line2d_53">
      <g>
       <use xlink:href="#mbbf494b60a" x="232.261668" y="101.777221" style="stroke: #000000; stroke-width: 0.6"/>
      </g>
     </g>
    </g>
    <g id="ytick_23">
     <g id="line2d_54">
      <g>
       <use xlink:href="#mbbf494b60a" x="232.261668" y="89.94254" style="stroke: #000000; stroke-width: 0.6"/>
      </g>
     </g>
    </g>
    <g id="ytick_24">
     <g id="line2d_55">
      <g>
       <use xlink:href="#mbbf494b60a" x="232.261668" y="78.107859" style="stroke: #000000; stroke-width: 0.6"/>
      </g>
     </g>
    </g>
    <g id="ytick_25">
     <g id="line2d_56">
      <g>
       <use xlink:href="#mbbf494b60a" x="232.261668" y="66.273178" style="stroke: #000000; stroke-width: 0.6"/>
      </g>
     </g>
    </g>
    <g id="ytick_26">
     <g id="line2d_57">
      <g>
       <use xlink:href="#mbbf494b60a" x="232.261668" y="42.603816" style="stroke: #000000; stroke-width: 0.6"/>
      </g>
     </g>
    </g>
    <g id="ytick_27">
     <g id="line2d_58">
      <g>
       <use xlink:href="#mbbf494b60a" x="232.261668" y="30.769135" style="stroke: #000000; stroke-width: 0.6"/>
      </g>
     </g>
    </g>
    <g id="ytick_28">
     <g id="line2d_59">
      <g>
       <use xlink:href="#mbbf494b60a" x="232.261668" y="18.934454" style="stroke: #000000; stroke-width: 0.6"/>
      </g>
     </g>
    </g>
    <g id="ytick_29">
     <g id="line2d_60">
      <g>
       <use xlink:href="#mbbf494b60a" x="232.261668" y="7.099773" style="stroke: #000000; stroke-width: 0.6"/>
      </g>
     </g>
    </g>
   </g>
   <g id="line2d_61">
    <path d="M 10.35837 263.745062 
L 12.497064 287.301437 
L 14.071388 301.968266 
L 15.526927 313.303626 
L 16.953175 322.423383 
L 18.078551 328.245686 
L 19.081385 332.388983 
L 20.016746 335.346492 
L 20.718267 336.981911 
L 21.419788 338.122538 
L 22.121309 338.776186 
L 22.685216 338.953846 
L 23.345349 338.773896 
L 24.005483 338.181748 
L 24.665616 337.18543 
L 25.447847 335.495468 
L 26.352175 332.874332 
L 27.148589 329.993188 
L 28.181339 325.489597 
L 29.558338 318.217582 
L 30.701508 311.164849 
L 32.353209 299.508567 
L 34.062741 285.853398 
L 36.122571 267.645069 
L 38.574656 244.123858 
L 43.009325 199.0741 
L 47.668682 152.549125 
L 50.302415 128.332647 
L 52.34917 111.108666 
L 54.362425 95.791745 
L 56.283662 82.852515 
L 58.034119 72.594266 
L 59.631528 64.565155 
L 61.112603 58.281735 
L 62.535512 53.311753 
L 63.958421 49.382913 
L 65.163093 46.86473 
L 66.015055 45.52592 
L 66.58303 44.833441 
L 67.546053 44.01909 
L 68.509076 43.649487 
L 69.472099 43.714467 
L 70.435122 44.200503 
L 71.372669 45.06466 
L 72.310216 46.301336 
L 73.450527 48.287259 
L 74.481085 50.514465 
L 76.000285 54.499471 
L 77.004206 57.561706 
L 78.691229 63.408061 
L 80.876004 72.135036 
L 83.216039 82.687524 
L 85.719431 95.044046 
L 88.708515 110.784851 
L 99.412441 168.448192 
L 102.696852 184.530658 
L 105.065079 195.235631 
L 107.914352 206.966764 
L 110.281622 215.676764 
L 112.425995 222.712324 
L 114.41974 228.50806 
L 116.264206 233.226146 
L 118.108671 237.328432 
L 119.927427 240.779882 
L 121.622773 243.478141 
L 123.158822 245.502894 
L 124.535573 246.989333 
L 126.084689 248.303769 
L 127.487901 249.180479 
L 128.891112 249.771876 
L 130.083095 250.060246 
L 131.275078 250.16129 
L 132.91363 250.010594 
L 134.552182 249.546106 
L 136.07907 248.851935 
L 137.960728 247.679155 
L 139.67647 246.333254 
L 141.976863 244.163805 
L 144.462169 241.418032 
L 147.088799 238.146219 
L 151.225555 232.427112 
L 158.007845 222.252839 
L 164.589723 212.315403 
L 169.764913 204.943352 
L 172.882485 200.805736 
L 176.429263 196.432514 
L 179.840369 192.593299 
L 183.927683 188.491619 
L 186.644555 186.070961 
L 189.249207 183.978061 
L 192.098813 181.93849 
L 194.993821 180.125252 
L 198.863886 178.08756 
L 201.181023 177.065982 
L 204.081404 175.981189 
L 206.97187 175.097975 
L 209.723532 174.423582 
L 213.434689 173.74093 
L 217.775079 173.220854 
L 222.165084 172.93279 
L 230.240967 172.78649 
L 241.458035 172.673859 
L 247.078273 172.319322 
L 252.369203 171.621362 
L 255.525277 170.984023 
L 259.369695 169.939125 
L 263.090826 168.607029 
L 267.115895 166.766258 
L 270.146433 165.080274 
L 272.782393 163.390081 
L 275.92263 161.092123 
L 278.898964 158.619292 
L 281.902666 155.827359 
L 285.448127 152.148533 
L 288.827029 148.2653 
L 293.132552 142.817278 
L 297.196143 137.223786 
L 302.597012 129.279913 
L 314.285182 111.728891 
L 317.452461 107.400975 
L 320.43735 103.713161 
L 322.82454 101.124212 
L 325.257318 98.892936 
L 327.316958 97.381282 
L 329.002309 96.437024 
L 330.68766 95.784328 
L 331.801995 95.525623 
L 332.834821 95.416434 
L 334.724579 95.561817 
L 336.438443 96.10441 
L 337.964356 96.937806 
L 339.556296 98.177714 
L 341.402216 100.112746 
L 343.107834 102.395947 
L 344.573782 104.752318 
L 345.940363 107.285815 
L 347.481475 110.540116 
L 349.28917 114.903134 
L 350.935965 119.394202 
L 353.026732 125.806438 
L 355.49816 134.395535 
L 357.91819 143.830476 
L 360.281682 153.964152 
L 362.524898 164.347441 
L 365.576423 179.501262 
L 369.459103 200.057932 
L 378.853017 250.777523 
L 381.440364 263.511831 
L 383.43414 272.521787 
L 385.527717 281.020744 
L 387.494989 287.931293 
L 389.035629 292.505712 
L 390.136465 295.276215 
L 391.237302 297.601486 
L 392.338138 299.455238 
L 393.222495 300.585505 
L 394.034839 301.331144 
L 394.847183 301.787841 
L 395.659527 301.947074 
L 396.471871 301.800378 
L 397.281879 301.342473 
L 398.091887 300.567887 
L 398.901894 299.471202 
L 399.711902 298.047001 
L 400.846448 295.492607 
L 401.961603 292.340654 
L 403.076758 288.54931 
L 404.310214 283.607296 
L 405.707343 277.067084 
L 407.104471 269.54269 
L 408.781026 259.245374 
L 410.47185 247.527107 
L 412.300519 233.444521 
L 414.576417 214.093931 
L 417.218629 189.525126 
L 420.71025 154.714515 
L 427.363506 87.674397 
L 430.027291 63.402172 
L 432.20815 45.774772 
L 433.896117 33.922137 
L 435.284366 25.546802 
L 436.646779 18.666036 
L 437.826815 13.871665 
L 438.770845 10.867156 
L 439.714874 8.63998 
L 440.433644 7.487491 
L 440.927156 6.97721 
L 441.394452 6.708482 
L 441.835532 6.646154 
L 442.276613 6.76936 
L 442.717694 7.077836 
L 443.379315 7.887356 
L 444.040936 9.112253 
L 444.702557 10.75176 
L 445.567594 13.535005 
L 446.432632 17.086126 
L 447.327999 21.622208 
L 448.284024 27.491907 
L 448.284024 27.491907 
" clip-path="url(#p6d1c91db84)" style="fill: none; stroke: #0000ff; stroke-linecap: square"/>
   </g>
   <g id="patch_3">
    <path d="M 232.261668 345.6 
L 232.261668 0 
" style="fill: none; stroke: #000000; stroke-width: 0.8; stroke-linejoin: miter; stroke-linecap: square"/>
   </g>
   <g id="patch_4">
    <path d="M 0 172.785308 
L 460.8 172.785308 
" style="fill: none; stroke: #000000; stroke-width: 0.8; stroke-linejoin: miter; stroke-linecap: square"/>
   </g>
  </g>
 </g>
 <defs>
  <clipPath id="p6d1c91db84">
   <rect x="0" y="0" width="460.8" height="345.6"/>
  </clipPath>
 </defs>
</svg>
