<?xml version="1.0" encoding="utf-8" standalone="no"?>
<!DOCTYPE svg PUBLIC "-//W3C//DTD SVG 1.1//EN"
  "http://www.w3.org/Graphics/SVG/1.1/DTD/svg11.dtd">
<svg xmlns:xlink="http://www.w3.org/1999/xlink" width="460.8pt" height="345.6pt" viewBox="0 0 460.8 345.6" xmlns="http://www.w3.org/2000/svg" version="1.1">
 <metadata>
  <rdf:RDF xmlns:dc="http://purl.org/dc/elements/1.1/" xmlns:cc="http://creativecommons.org/ns#" xmlns:rdf="http://www.w3.org/1999/02/22-rdf-syntax-ns#">
   <cc:Work>
    <dc:type rdf:resource="http://purl.org/dc/dcmitype/StillImage"/>
    <dc:date>2022-05-16T19:38:40.876312</dc:date>
    <dc:format>image/svg+xml</dc:format>
    <dc:creator>
     <cc:Agent>
      <dc:title>Matplotlib v3.5.1, https://matplotlib.org/</dc:title>
     </cc:Agent>
    </dc:creator>
   </cc:Work>
  </rdf:RDF>
 </metadata>
 <defs>
  <style type="text/css">*{stroke-linejoin: round; stroke-linecap: butt}</style>
 </defs>
 <g id="figure_1">
  <g id="patch_1">
   <path d="M 0 345.6 
L 460.8 345.6 
L 460.8 0 
L 0 0 
z
" style="fill: #ffffff"/>
  </g>
  <g id="axes_1">
   <g id="patch_2">
    <path d="M 58.34879 344.102419 
L 402.45121 344.102419 
L 402.45121 0 
L 58.34879 0 
z
" style="fill: #ffffff"/>
   </g>
   <g id="matplotlib.axis_1">
    <g id="xtick_1">
     <g id="line2d_1">
      <defs>
       <path id="mc18a3b8654" d="M 0 0 
L 0 3.5 
" style="stroke: #000000; stroke-width: 0.8"/>
      </defs>
      <g>
       <use xlink:href="#mc18a3b8654" x="64.966145" y="172.05121" style="stroke: #000000; stroke-width: 0.8"/>
      </g>
     </g>
    </g>
    <g id="xtick_2">
     <g id="line2d_2">
      <g>
       <use xlink:href="#mc18a3b8654" x="148.518597" y="172.05121" style="stroke: #000000; stroke-width: 0.8"/>
      </g>
     </g>
     <g id="text_1">
      <!-- 5 -->
      <g transform="translate(145.337347 186.649647)scale(0.1 -0.1)">
       <defs>
        <path id="DejaVuSans-35" d="M 691 4666 
L 3169 4666 
L 3169 4134 
L 1269 4134 
L 1269 2991 
Q 1406 3038 1543 3061 
Q 1681 3084 1819 3084 
Q 2600 3084 3056 2656 
Q 3513 2228 3513 1497 
Q 3513 744 3044 326 
Q 2575 -91 1722 -91 
Q 1428 -91 1123 -41 
Q 819 9 494 109 
L 494 744 
Q 775 591 1075 516 
Q 1375 441 1709 441 
Q 2250 441 2565 725 
Q 2881 1009 2881 1497 
Q 2881 1984 2565 2268 
Q 2250 2553 1709 2553 
Q 1456 2553 1204 2497 
Q 953 2441 691 2322 
L 691 4666 
z
" transform="scale(0.015625)"/>
       </defs>
       <use xlink:href="#DejaVuSans-35"/>
      </g>
     </g>
    </g>
    <g id="xtick_3">
     <g id="line2d_3">
      <g>
       <use xlink:href="#mc18a3b8654" x="232.071049" y="172.05121" style="stroke: #000000; stroke-width: 0.8"/>
      </g>
     </g>
     <g id="text_2">
      <!-- 10 -->
      <g transform="translate(225.708549 186.649647)scale(0.1 -0.1)">
       <defs>
        <path id="DejaVuSans-31" d="M 794 531 
L 1825 531 
L 1825 4091 
L 703 3866 
L 703 4441 
L 1819 4666 
L 2450 4666 
L 2450 531 
L 3481 531 
L 3481 0 
L 794 0 
L 794 531 
z
" transform="scale(0.015625)"/>
        <path id="DejaVuSans-30" d="M 2034 4250 
Q 1547 4250 1301 3770 
Q 1056 3291 1056 2328 
Q 1056 1369 1301 889 
Q 1547 409 2034 409 
Q 2525 409 2770 889 
Q 3016 1369 3016 2328 
Q 3016 3291 2770 3770 
Q 2525 4250 2034 4250 
z
M 2034 4750 
Q 2819 4750 3233 4129 
Q 3647 3509 3647 2328 
Q 3647 1150 3233 529 
Q 2819 -91 2034 -91 
Q 1250 -91 836 529 
Q 422 1150 422 2328 
Q 422 3509 836 4129 
Q 1250 4750 2034 4750 
z
" transform="scale(0.015625)"/>
       </defs>
       <use xlink:href="#DejaVuSans-31"/>
       <use xlink:href="#DejaVuSans-30" x="63.623047"/>
      </g>
     </g>
    </g>
    <g id="xtick_4">
     <g id="line2d_4">
      <g>
       <use xlink:href="#mc18a3b8654" x="315.623501" y="172.05121" style="stroke: #000000; stroke-width: 0.8"/>
      </g>
     </g>
     <g id="text_3">
      <!-- 15 -->
      <g transform="translate(309.261001 186.649647)scale(0.1 -0.1)">
       <use xlink:href="#DejaVuSans-31"/>
       <use xlink:href="#DejaVuSans-35" x="63.623047"/>
      </g>
     </g>
    </g>
    <g id="xtick_5">
     <g id="line2d_5">
      <g>
       <use xlink:href="#mc18a3b8654" x="399.175953" y="172.05121" style="stroke: #000000; stroke-width: 0.8"/>
      </g>
     </g>
     <g id="text_4">
      <!-- 20 -->
      <g transform="translate(392.813453 186.649647)scale(0.1 -0.1)">
       <defs>
        <path id="DejaVuSans-32" d="M 1228 531 
L 3431 531 
L 3431 0 
L 469 0 
L 469 531 
Q 828 903 1448 1529 
Q 2069 2156 2228 2338 
Q 2531 2678 2651 2914 
Q 2772 3150 2772 3378 
Q 2772 3750 2511 3984 
Q 2250 4219 1831 4219 
Q 1534 4219 1204 4116 
Q 875 4013 500 3803 
L 500 4441 
Q 881 4594 1212 4672 
Q 1544 4750 1819 4750 
Q 2544 4750 2975 4387 
Q 3406 4025 3406 3419 
Q 3406 3131 3298 2873 
Q 3191 2616 2906 2266 
Q 2828 2175 2409 1742 
Q 1991 1309 1228 531 
z
" transform="scale(0.015625)"/>
       </defs>
       <use xlink:href="#DejaVuSans-32"/>
       <use xlink:href="#DejaVuSans-30" x="63.623047"/>
      </g>
     </g>
    </g>
    <g id="xtick_6">
     <g id="line2d_6">
      <defs>
       <path id="m40e26f6a83" d="M 0 0 
L 0 2 
" style="stroke: #000000; stroke-width: 0.6"/>
      </defs>
      <g>
       <use xlink:href="#m40e26f6a83" x="81.676635" y="172.05121" style="stroke: #000000; stroke-width: 0.6"/>
      </g>
     </g>
    </g>
    <g id="xtick_7">
     <g id="line2d_7">
      <g>
       <use xlink:href="#m40e26f6a83" x="98.387125" y="172.05121" style="stroke: #000000; stroke-width: 0.6"/>
      </g>
     </g>
    </g>
    <g id="xtick_8">
     <g id="line2d_8">
      <g>
       <use xlink:href="#m40e26f6a83" x="115.097616" y="172.05121" style="stroke: #000000; stroke-width: 0.6"/>
      </g>
     </g>
    </g>
    <g id="xtick_9">
     <g id="line2d_9">
      <g>
       <use xlink:href="#m40e26f6a83" x="131.808106" y="172.05121" style="stroke: #000000; stroke-width: 0.6"/>
      </g>
     </g>
    </g>
    <g id="xtick_10">
     <g id="line2d_10">
      <g>
       <use xlink:href="#m40e26f6a83" x="165.229087" y="172.05121" style="stroke: #000000; stroke-width: 0.6"/>
      </g>
     </g>
    </g>
    <g id="xtick_11">
     <g id="line2d_11">
      <g>
       <use xlink:href="#m40e26f6a83" x="181.939578" y="172.05121" style="stroke: #000000; stroke-width: 0.6"/>
      </g>
     </g>
    </g>
    <g id="xtick_12">
     <g id="line2d_12">
      <g>
       <use xlink:href="#m40e26f6a83" x="198.650068" y="172.05121" style="stroke: #000000; stroke-width: 0.6"/>
      </g>
     </g>
    </g>
    <g id="xtick_13">
     <g id="line2d_13">
      <g>
       <use xlink:href="#m40e26f6a83" x="215.360559" y="172.05121" style="stroke: #000000; stroke-width: 0.6"/>
      </g>
     </g>
    </g>
    <g id="xtick_14">
     <g id="line2d_14">
      <g>
       <use xlink:href="#m40e26f6a83" x="248.781539" y="172.05121" style="stroke: #000000; stroke-width: 0.6"/>
      </g>
     </g>
    </g>
    <g id="xtick_15">
     <g id="line2d_15">
      <g>
       <use xlink:href="#m40e26f6a83" x="265.49203" y="172.05121" style="stroke: #000000; stroke-width: 0.6"/>
      </g>
     </g>
    </g>
    <g id="xtick_16">
     <g id="line2d_16">
      <g>
       <use xlink:href="#m40e26f6a83" x="282.20252" y="172.05121" style="stroke: #000000; stroke-width: 0.6"/>
      </g>
     </g>
    </g>
    <g id="xtick_17">
     <g id="line2d_17">
      <g>
       <use xlink:href="#m40e26f6a83" x="298.913011" y="172.05121" style="stroke: #000000; stroke-width: 0.6"/>
      </g>
     </g>
    </g>
    <g id="xtick_18">
     <g id="line2d_18">
      <g>
       <use xlink:href="#m40e26f6a83" x="332.333992" y="172.05121" style="stroke: #000000; stroke-width: 0.6"/>
      </g>
     </g>
    </g>
    <g id="xtick_19">
     <g id="line2d_19">
      <g>
       <use xlink:href="#m40e26f6a83" x="349.044482" y="172.05121" style="stroke: #000000; stroke-width: 0.6"/>
      </g>
     </g>
    </g>
    <g id="xtick_20">
     <g id="line2d_20">
      <g>
       <use xlink:href="#m40e26f6a83" x="365.754973" y="172.05121" style="stroke: #000000; stroke-width: 0.6"/>
      </g>
     </g>
    </g>
    <g id="xtick_21">
     <g id="line2d_21">
      <g>
       <use xlink:href="#m40e26f6a83" x="382.465463" y="172.05121" style="stroke: #000000; stroke-width: 0.6"/>
      </g>
     </g>
    </g>
   </g>
   <g id="matplotlib.axis_2">
    <g id="ytick_1">
     <g id="line2d_22">
      <defs>
       <path id="m29a89baf9d" d="M 0 0 
L -3.5 0 
" style="stroke: #000000; stroke-width: 0.8"/>
      </defs>
      <g>
       <use xlink:href="#m29a89baf9d" x="64.966145" y="339.156114" style="stroke: #000000; stroke-width: 0.8"/>
      </g>
     </g>
     <g id="text_5">
      <!-- −10 -->
      <g transform="translate(36.861457 342.955333)scale(0.1 -0.1)">
       <defs>
        <path id="DejaVuSans-2212" d="M 678 2272 
L 4684 2272 
L 4684 1741 
L 678 1741 
L 678 2272 
z
" transform="scale(0.015625)"/>
       </defs>
       <use xlink:href="#DejaVuSans-2212"/>
       <use xlink:href="#DejaVuSans-31" x="83.789062"/>
       <use xlink:href="#DejaVuSans-30" x="147.412109"/>
      </g>
     </g>
    </g>
    <g id="ytick_2">
     <g id="line2d_23">
      <g>
       <use xlink:href="#m29a89baf9d" x="64.966145" y="255.603662" style="stroke: #000000; stroke-width: 0.8"/>
      </g>
     </g>
     <g id="text_6">
      <!-- −5 -->
      <g transform="translate(43.223957 259.402881)scale(0.1 -0.1)">
       <use xlink:href="#DejaVuSans-2212"/>
       <use xlink:href="#DejaVuSans-35" x="83.789062"/>
      </g>
     </g>
    </g>
    <g id="ytick_3">
     <g id="line2d_24">
      <g>
       <use xlink:href="#m29a89baf9d" x="64.966145" y="172.05121" style="stroke: #000000; stroke-width: 0.8"/>
      </g>
     </g>
    </g>
    <g id="ytick_4">
     <g id="line2d_25">
      <g>
       <use xlink:href="#m29a89baf9d" x="64.966145" y="88.498757" style="stroke: #000000; stroke-width: 0.8"/>
      </g>
     </g>
     <g id="text_7">
      <!-- 5 -->
      <g transform="translate(51.603645 92.297976)scale(0.1 -0.1)">
       <use xlink:href="#DejaVuSans-35"/>
      </g>
     </g>
    </g>
    <g id="ytick_5">
     <g id="line2d_26">
      <g>
       <use xlink:href="#m29a89baf9d" x="64.966145" y="4.946305" style="stroke: #000000; stroke-width: 0.8"/>
      </g>
     </g>
     <g id="text_8">
      <!-- 10 -->
      <g transform="translate(45.241145 8.745524)scale(0.1 -0.1)">
       <use xlink:href="#DejaVuSans-31"/>
       <use xlink:href="#DejaVuSans-30" x="63.623047"/>
      </g>
     </g>
    </g>
    <g id="ytick_6">
     <g id="line2d_27">
      <defs>
       <path id="m2ee0b03c3e" d="M 0 0 
L -2 0 
" style="stroke: #000000; stroke-width: 0.6"/>
      </defs>
      <g>
       <use xlink:href="#m2ee0b03c3e" x="64.966145" y="322.445624" style="stroke: #000000; stroke-width: 0.6"/>
      </g>
     </g>
    </g>
    <g id="ytick_7">
     <g id="line2d_28">
      <g>
       <use xlink:href="#m2ee0b03c3e" x="64.966145" y="305.735133" style="stroke: #000000; stroke-width: 0.6"/>
      </g>
     </g>
    </g>
    <g id="ytick_8">
     <g id="line2d_29">
      <g>
       <use xlink:href="#m2ee0b03c3e" x="64.966145" y="289.024643" style="stroke: #000000; stroke-width: 0.6"/>
      </g>
     </g>
    </g>
    <g id="ytick_9">
     <g id="line2d_30">
      <g>
       <use xlink:href="#m2ee0b03c3e" x="64.966145" y="272.314152" style="stroke: #000000; stroke-width: 0.6"/>
      </g>
     </g>
    </g>
    <g id="ytick_10">
     <g id="line2d_31">
      <g>
       <use xlink:href="#m2ee0b03c3e" x="64.966145" y="238.893171" style="stroke: #000000; stroke-width: 0.6"/>
      </g>
     </g>
    </g>
    <g id="ytick_11">
     <g id="line2d_32">
      <g>
       <use xlink:href="#m2ee0b03c3e" x="64.966145" y="222.182681" style="stroke: #000000; stroke-width: 0.6"/>
      </g>
     </g>
    </g>
    <g id="ytick_12">
     <g id="line2d_33">
      <g>
       <use xlink:href="#m2ee0b03c3e" x="64.966145" y="205.47219" style="stroke: #000000; stroke-width: 0.6"/>
      </g>
     </g>
    </g>
    <g id="ytick_13">
     <g id="line2d_34">
      <g>
       <use xlink:href="#m2ee0b03c3e" x="64.966145" y="188.7617" style="stroke: #000000; stroke-width: 0.6"/>
      </g>
     </g>
    </g>
    <g id="ytick_14">
     <g id="line2d_35">
      <g>
       <use xlink:href="#m2ee0b03c3e" x="64.966145" y="155.340719" style="stroke: #000000; stroke-width: 0.6"/>
      </g>
     </g>
    </g>
    <g id="ytick_15">
     <g id="line2d_36">
      <g>
       <use xlink:href="#m2ee0b03c3e" x="64.966145" y="138.630229" style="stroke: #000000; stroke-width: 0.6"/>
      </g>
     </g>
    </g>
    <g id="ytick_16">
     <g id="line2d_37">
      <g>
       <use xlink:href="#m2ee0b03c3e" x="64.966145" y="121.919738" style="stroke: #000000; stroke-width: 0.6"/>
      </g>
     </g>
    </g>
    <g id="ytick_17">
     <g id="line2d_38">
      <g>
       <use xlink:href="#m2ee0b03c3e" x="64.966145" y="105.209248" style="stroke: #000000; stroke-width: 0.6"/>
      </g>
     </g>
    </g>
    <g id="ytick_18">
     <g id="line2d_39">
      <g>
       <use xlink:href="#m2ee0b03c3e" x="64.966145" y="71.788267" style="stroke: #000000; stroke-width: 0.6"/>
      </g>
     </g>
    </g>
    <g id="ytick_19">
     <g id="line2d_40">
      <g>
       <use xlink:href="#m2ee0b03c3e" x="64.966145" y="55.077777" style="stroke: #000000; stroke-width: 0.6"/>
      </g>
     </g>
    </g>
    <g id="ytick_20">
     <g id="line2d_41">
      <g>
       <use xlink:href="#m2ee0b03c3e" x="64.966145" y="38.367286" style="stroke: #000000; stroke-width: 0.6"/>
      </g>
     </g>
    </g>
    <g id="ytick_21">
     <g id="line2d_42">
      <g>
       <use xlink:href="#m2ee0b03c3e" x="64.966145" y="21.656796" style="stroke: #000000; stroke-width: 0.6"/>
      </g>
     </g>
    </g>
   </g>
   <g id="patch_3">
    <path d="M 64.966145 344.102419 
L 64.966145 -0 
" style="fill: none; stroke: #000000; stroke-width: 0.8; stroke-linejoin: miter; stroke-linecap: square"/>
   </g>
   <g id="patch_4">
    <path d="M 58.34879 172.05121 
L 402.45121 172.05121 
" style="fill: none; stroke: #000000; stroke-width: 0.8; stroke-linejoin: miter; stroke-linecap: square"/>
   </g>
   <g id="patch_5">
    <path d="M 64.966145 172.05121 
C 64.966145 172.05121 64.966145 172.05121 64.966145 172.05121 
C 64.966145 172.05121 64.966145 172.05121 64.966145 172.05121 
C 64.966145 172.05121 64.966145 172.05121 64.966145 172.05121 
C 64.966145 172.05121 64.966145 172.05121 64.966145 172.05121 
C 64.966145 172.05121 64.966145 172.05121 64.966145 172.05121 
C 64.966145 172.05121 64.966145 172.05121 64.966145 172.05121 
C 64.966145 172.05121 64.966145 172.05121 64.966145 172.05121 
C 64.966145 172.05121 64.966145 172.05121 64.966145 172.05121 
L 64.966145 172.05121 
z
" clip-path="url(#pcbfd17c8dd)" style="fill: none; stroke: #ff0000; stroke-linejoin: miter"/>
   </g>
   <g id="patch_6">
    <path d="M 66.637194 173.722259 
C 67.080361 173.722259 67.505437 173.546186 67.818804 173.23282 
C 68.13217 172.919453 68.308243 172.494377 68.308243 172.05121 
C 68.308243 171.608042 68.13217 171.182966 67.818804 170.869599 
C 67.505437 170.556233 67.080361 170.380161 66.637194 170.380161 
C 66.194026 170.380161 65.76895 170.556233 65.455584 170.869599 
C 65.142217 171.182966 64.966145 171.608042 64.966145 172.05121 
C 64.966145 172.494377 65.142217 172.919453 65.455584 173.23282 
C 65.76895 173.546186 66.194026 173.722259 66.637194 173.722259 
L 66.637194 173.722259 
z
" clip-path="url(#pcbfd17c8dd)" style="fill: none; stroke: #ff0f00; stroke-linejoin: miter"/>
   </g>
   <g id="patch_7">
    <path d="M 68.308243 175.393308 
C 69.194577 175.393308 70.04473 175.041163 70.671463 174.41443 
C 71.298196 173.787697 71.650341 172.937544 71.650341 172.05121 
C 71.650341 171.164875 71.298196 170.314723 70.671463 169.687989 
C 70.04473 169.061256 69.194577 168.709112 68.308243 168.709112 
C 67.421908 168.709112 66.571756 169.061256 65.945022 169.687989 
C 65.318289 170.314723 64.966145 171.164875 64.966145 172.05121 
C 64.966145 172.937544 65.318289 173.787697 65.945022 174.41443 
C 66.571756 175.041163 67.421908 175.393308 68.308243 175.393308 
L 68.308243 175.393308 
z
" clip-path="url(#pcbfd17c8dd)" style="fill: none; stroke: #ff1f00; stroke-linejoin: miter"/>
   </g>
   <g id="patch_8">
    <path d="M 69.979292 177.064357 
C 71.308794 177.064357 72.584022 176.53614 73.524122 175.59604 
C 74.464222 174.65594 74.992439 173.380712 74.992439 172.05121 
C 74.992439 170.721707 74.464222 169.446479 73.524122 168.506379 
C 72.584022 167.566279 71.308794 167.038062 69.979292 167.038062 
C 68.64979 167.038062 67.374561 167.566279 66.434461 168.506379 
C 65.494361 169.446479 64.966145 170.721707 64.966145 172.05121 
C 64.966145 173.380712 65.494361 174.65594 66.434461 175.59604 
C 67.374561 176.53614 68.64979 177.064357 69.979292 177.064357 
L 69.979292 177.064357 
z
" clip-path="url(#pcbfd17c8dd)" style="fill: none; stroke: #ff2e00; stroke-linejoin: miter"/>
   </g>
   <g id="patch_9">
    <path d="M 71.650341 178.735406 
C 73.42301 178.735406 75.123315 178.031117 76.376781 176.77765 
C 77.630248 175.524183 78.334537 173.823879 78.334537 172.05121 
C 78.334537 170.27854 77.630248 168.578236 76.376781 167.324769 
C 75.123315 166.071303 73.42301 165.367013 71.650341 165.367013 
C 69.877671 165.367013 68.177367 166.071303 66.9239 167.324769 
C 65.670434 168.578236 64.966145 170.27854 64.966145 172.05121 
C 64.966145 173.823879 65.670434 175.524183 66.9239 176.77765 
C 68.177367 178.031117 69.877671 178.735406 71.650341 178.735406 
L 71.650341 178.735406 
z
" clip-path="url(#pcbfd17c8dd)" style="fill: none; stroke: #ff3d00; stroke-linejoin: miter"/>
   </g>
   <g id="patch_10">
    <path d="M 73.32139 180.406455 
C 75.537227 180.406455 77.662607 179.526093 79.22944 177.95926 
C 80.796274 176.392427 81.676635 174.267047 81.676635 172.05121 
C 81.676635 169.835373 80.796274 167.709992 79.22944 166.143159 
C 77.662607 164.576326 75.537227 163.695964 73.32139 163.695964 
C 71.105553 163.695964 68.980173 164.576326 67.413339 166.143159 
C 65.846506 167.709992 64.966145 169.835373 64.966145 172.05121 
C 64.966145 174.267047 65.846506 176.392427 67.413339 177.95926 
C 68.980173 179.526093 71.105553 180.406455 73.32139 180.406455 
L 73.32139 180.406455 
z
" clip-path="url(#pcbfd17c8dd)" style="fill: none; stroke: #ff4c00; stroke-linejoin: miter"/>
   </g>
   <g id="patch_11">
    <path d="M 74.992439 182.077504 
C 77.651443 182.077504 80.2019 181.02107 82.0821 179.14087 
C 83.9623 177.26067 85.018733 174.710214 85.018733 172.05121 
C 85.018733 169.392205 83.9623 166.841749 82.0821 164.961549 
C 80.2019 163.081349 77.651443 162.024915 74.992439 162.024915 
C 72.333435 162.024915 69.782978 163.081349 67.902778 164.961549 
C 66.022578 166.841749 64.966145 169.392205 64.966145 172.05121 
C 64.966145 174.710214 66.022578 177.26067 67.902778 179.14087 
C 69.782978 181.02107 72.333435 182.077504 74.992439 182.077504 
L 74.992439 182.077504 
z
" clip-path="url(#pcbfd17c8dd)" style="fill: none; stroke: #ff5c00; stroke-linejoin: miter"/>
   </g>
   <g id="patch_12">
    <path d="M 76.663488 183.748553 
C 79.76566 183.748553 82.741192 182.516047 84.934759 180.32248 
C 87.128325 178.128914 88.360831 175.153381 88.360831 172.05121 
C 88.360831 168.949038 87.128325 165.973505 84.934759 163.779939 
C 82.741192 161.586372 79.76566 160.353866 76.663488 160.353866 
C 73.561316 160.353866 70.585784 161.586372 68.392217 163.779939 
C 66.19865 165.973505 64.966145 168.949038 64.966145 172.05121 
C 64.966145 175.153381 66.19865 178.128914 68.392217 180.32248 
C 70.585784 182.516047 73.561316 183.748553 76.663488 183.748553 
L 76.663488 183.748553 
z
" clip-path="url(#pcbfd17c8dd)" style="fill: none; stroke: #ff6b00; stroke-linejoin: miter"/>
   </g>
   <g id="patch_13">
    <path d="M 78.334537 185.419602 
C 81.879876 185.419602 85.280485 184.011024 87.787418 181.50409 
C 90.294351 178.997157 91.702929 175.596549 91.702929 172.05121 
C 91.702929 168.505871 90.294351 165.105262 87.787418 162.598329 
C 85.280485 160.091395 81.879876 158.682817 78.334537 158.682817 
C 74.789198 158.682817 71.388589 160.091395 68.881656 162.598329 
C 66.374723 165.105262 64.966145 168.505871 64.966145 172.05121 
C 64.966145 175.596549 66.374723 178.997157 68.881656 181.50409 
C 71.388589 184.011024 74.789198 185.419602 78.334537 185.419602 
L 78.334537 185.419602 
z
" clip-path="url(#pcbfd17c8dd)" style="fill: none; stroke: #ff7a00; stroke-linejoin: miter"/>
   </g>
   <g id="patch_14">
    <path d="M 80.005586 187.090651 
C 83.994092 187.090651 87.819777 185.506001 90.640077 182.685701 
C 93.460377 179.865401 95.045027 176.039716 95.045027 172.05121 
C 95.045027 168.062703 93.460377 164.237019 90.640077 161.416719 
C 87.819777 158.596419 83.994092 157.011768 80.005586 157.011768 
C 76.01708 157.011768 72.191395 158.596419 69.371095 161.416719 
C 66.550795 164.237019 64.966145 168.062703 64.966145 172.05121 
C 64.966145 176.039716 66.550795 179.865401 69.371095 182.685701 
C 72.191395 185.506001 76.01708 187.090651 80.005586 187.090651 
L 80.005586 187.090651 
z
" clip-path="url(#pcbfd17c8dd)" style="fill: none; stroke: #ff8a00; stroke-linejoin: miter"/>
   </g>
   <g id="patch_15">
    <path d="M 81.676635 188.7617 
C 86.108309 188.7617 90.35907 187.000977 93.492736 183.867311 
C 96.626403 180.733644 98.387125 176.482883 98.387125 172.05121 
C 98.387125 167.619536 96.626403 163.368775 93.492736 160.235109 
C 90.35907 157.101442 86.108309 155.340719 81.676635 155.340719 
C 77.244961 155.340719 72.994201 157.101442 69.860534 160.235109 
C 66.726867 163.368775 64.966145 167.619536 64.966145 172.05121 
C 64.966145 176.482883 66.726867 180.733644 69.860534 183.867311 
C 72.994201 187.000977 77.244961 188.7617 81.676635 188.7617 
L 81.676635 188.7617 
z
" clip-path="url(#pcbfd17c8dd)" style="fill: none; stroke: #ff9900; stroke-linejoin: miter"/>
   </g>
   <g id="patch_16">
    <path d="M 83.347684 190.432749 
C 88.222525 190.432749 92.898362 188.495954 96.345395 185.048921 
C 99.792429 181.601888 101.729224 176.926051 101.729224 172.05121 
C 101.729224 167.176368 99.792429 162.500532 96.345395 159.053498 
C 92.898362 155.606465 88.222525 153.66967 83.347684 153.66967 
C 78.472843 153.66967 73.797006 155.606465 70.349973 159.053498 
C 66.90294 162.500532 64.966145 167.176368 64.966145 172.05121 
C 64.966145 176.926051 66.90294 181.601888 70.349973 185.048921 
C 73.797006 188.495954 78.472843 190.432749 83.347684 190.432749 
L 83.347684 190.432749 
z
" clip-path="url(#pcbfd17c8dd)" style="fill: none; stroke: #ffa800; stroke-linejoin: miter"/>
   </g>
   <g id="patch_17">
    <path d="M 85.018733 192.103798 
C 90.336742 192.103798 95.437654 189.990931 99.198054 186.230531 
C 102.958454 182.470131 105.071322 177.369218 105.071322 172.05121 
C 105.071322 166.733201 102.958454 161.632288 99.198054 157.871888 
C 95.437654 154.111488 90.336742 151.998621 85.018733 151.998621 
C 79.700724 151.998621 74.599812 154.111488 70.839412 157.871888 
C 67.079012 161.632288 64.966145 166.733201 64.966145 172.05121 
C 64.966145 177.369218 67.079012 182.470131 70.839412 186.230531 
C 74.599812 189.990931 79.700724 192.103798 85.018733 192.103798 
L 85.018733 192.103798 
z
" clip-path="url(#pcbfd17c8dd)" style="fill: none; stroke: #ffb700; stroke-linejoin: miter"/>
   </g>
   <g id="patch_18">
    <path d="M 86.689782 193.774847 
C 92.450958 193.774847 97.976947 191.485908 102.050714 187.412141 
C 106.12448 183.338374 108.41342 177.812386 108.41342 172.05121 
C 108.41342 166.290034 106.12448 160.764045 102.050714 156.690278 
C 97.976947 152.616512 92.450958 150.327572 86.689782 150.327572 
C 80.928606 150.327572 75.402617 152.616512 71.328851 156.690278 
C 67.255084 160.764045 64.966145 166.290034 64.966145 172.05121 
C 64.966145 177.812386 67.255084 183.338374 71.328851 187.412141 
C 75.402617 191.485908 80.928606 193.774847 86.689782 193.774847 
L 86.689782 193.774847 
z
" clip-path="url(#pcbfd17c8dd)" style="fill: none; stroke: #ffc600; stroke-linejoin: miter"/>
   </g>
   <g id="patch_19">
    <path d="M 88.360831 195.445896 
C 94.565175 195.445896 100.516239 192.980884 104.903373 188.593751 
C 109.290506 184.206618 111.755518 178.255553 111.755518 172.05121 
C 111.755518 165.846866 109.290506 159.895801 104.903373 155.508668 
C 100.516239 151.121535 94.565175 148.656523 88.360831 148.656523 
C 82.156488 148.656523 76.205423 151.121535 71.81829 155.508668 
C 67.431156 159.895801 64.966145 165.846866 64.966145 172.05121 
C 64.966145 178.255553 67.431156 184.206618 71.81829 188.593751 
C 76.205423 192.980884 82.156488 195.445896 88.360831 195.445896 
L 88.360831 195.445896 
z
" clip-path="url(#pcbfd17c8dd)" style="fill: none; stroke: #ffd600; stroke-linejoin: miter"/>
   </g>
   <g id="patch_20">
    <path d="M 90.03188 197.116945 
C 96.679391 197.116945 103.055532 194.475861 107.756032 189.775361 
C 112.456532 185.074861 115.097616 178.69872 115.097616 172.05121 
C 115.097616 165.403699 112.456532 159.027558 107.756032 154.327058 
C 103.055532 149.626558 96.679391 146.985474 90.03188 146.985474 
C 83.384369 146.985474 77.008229 149.626558 72.307729 154.327058 
C 67.607229 159.027558 64.966145 165.403699 64.966145 172.05121 
C 64.966145 178.69872 67.607229 185.074861 72.307729 189.775361 
C 77.008229 194.475861 83.384369 197.116945 90.03188 197.116945 
L 90.03188 197.116945 
z
" clip-path="url(#pcbfd17c8dd)" style="fill: none; stroke: #ffe500; stroke-linejoin: miter"/>
   </g>
   <g id="patch_21">
    <path d="M 91.702929 198.787994 
C 98.793608 198.787994 105.594824 195.970838 110.608691 190.956971 
C 115.622558 185.943105 118.439714 179.141888 118.439714 172.05121 
C 118.439714 164.960531 115.622558 158.159314 110.608691 153.145448 
C 105.594824 148.131581 98.793608 145.314425 91.702929 145.314425 
C 84.612251 145.314425 77.811034 148.131581 72.797168 153.145448 
C 67.783301 158.159314 64.966145 164.960531 64.966145 172.05121 
C 64.966145 179.141888 67.783301 185.943105 72.797168 190.956971 
C 77.811034 195.970838 84.612251 198.787994 91.702929 198.787994 
L 91.702929 198.787994 
z
" clip-path="url(#pcbfd17c8dd)" style="fill: none; stroke: #fff400; stroke-linejoin: miter"/>
   </g>
   <g id="patch_22">
    <path d="M 93.373978 200.459043 
C 100.907824 200.459043 108.134117 197.465815 113.46135 192.138581 
C 118.788584 186.811348 121.781812 179.585055 121.781812 172.05121 
C 121.781812 164.517364 118.788584 157.291071 113.46135 151.963838 
C 108.134117 146.636604 100.907824 143.643376 93.373978 143.643376 
C 85.840133 143.643376 78.61384 146.636604 73.286606 151.963838 
C 67.959373 157.291071 64.966145 164.517364 64.966145 172.05121 
C 64.966145 179.585055 67.959373 186.811348 73.286606 192.138581 
C 78.61384 197.465815 85.840133 200.459043 93.373978 200.459043 
L 93.373978 200.459043 
z
" clip-path="url(#pcbfd17c8dd)" style="fill: none; stroke: #fbff00; stroke-linejoin: miter"/>
   </g>
   <g id="patch_23">
    <path d="M 95.045027 202.130092 
C 103.02204 202.130092 110.673409 198.960792 116.314009 193.320192 
C 121.954609 187.679592 125.12391 180.028223 125.12391 172.05121 
C 125.12391 164.074197 121.954609 156.422828 116.314009 150.782228 
C 110.673409 145.141628 103.02204 141.972327 95.045027 141.972327 
C 87.068014 141.972327 79.416645 145.141628 73.776045 150.782228 
C 68.135445 156.422828 64.966145 164.074197 64.966145 172.05121 
C 64.966145 180.028223 68.135445 187.679592 73.776045 193.320192 
C 79.416645 198.960792 87.068014 202.130092 95.045027 202.130092 
L 95.045027 202.130092 
z
" clip-path="url(#pcbfd17c8dd)" style="fill: none; stroke: #ecff00; stroke-linejoin: miter"/>
   </g>
   <g id="patch_24">
    <path d="M 96.716076 203.801141 
C 105.136257 203.801141 113.212702 200.455768 119.166669 194.501802 
C 125.120635 188.547835 128.466008 180.47139 128.466008 172.05121 
C 128.466008 163.631029 125.120635 155.554584 119.166669 149.600618 
C 113.212702 143.646651 105.136257 140.301278 96.716076 140.301278 
C 88.295896 140.301278 80.219451 143.646651 74.265484 149.600618 
C 68.311518 155.554584 64.966145 163.631029 64.966145 172.05121 
C 64.966145 180.47139 68.311518 188.547835 74.265484 194.501802 
C 80.219451 200.455768 88.295896 203.801141 96.716076 203.801141 
L 96.716076 203.801141 
z
" clip-path="url(#pcbfd17c8dd)" style="fill: none; stroke: #ddff00; stroke-linejoin: miter"/>
   </g>
   <g id="patch_25">
    <path d="M 98.387125 205.47219 
C 107.250473 205.47219 115.751994 201.950745 122.019328 195.683412 
C 128.286661 189.416079 131.808106 180.914557 131.808106 172.05121 
C 131.808106 163.187862 128.286661 154.686341 122.019328 148.419007 
C 115.751994 142.151674 107.250473 138.630229 98.387125 138.630229 
C 89.523778 138.630229 81.022257 142.151674 74.754923 148.419007 
C 68.48759 154.686341 64.966145 163.187862 64.966145 172.05121 
C 64.966145 180.914557 68.48759 189.416079 74.754923 195.683412 
C 81.022257 201.950745 89.523778 205.47219 98.387125 205.47219 
L 98.387125 205.47219 
z
" clip-path="url(#pcbfd17c8dd)" style="fill: none; stroke: #ceff00; stroke-linejoin: miter"/>
   </g>
   <g id="patch_26">
    <path d="M 100.058175 207.14324 
C 109.36469 207.14324 118.291287 203.445722 124.871987 196.865022 
C 131.452687 190.284322 135.150204 181.357725 135.150204 172.05121 
C 135.150204 162.744694 131.452687 153.818097 124.871987 147.237397 
C 118.291287 140.656697 109.36469 136.95918 100.058175 136.95918 
C 90.751659 136.95918 81.825062 140.656697 75.244362 147.237397 
C 68.663662 153.818097 64.966145 162.744694 64.966145 172.05121 
C 64.966145 181.357725 68.663662 190.284322 75.244362 196.865022 
C 81.825062 203.445722 90.751659 207.14324 100.058175 207.14324 
L 100.058175 207.14324 
z
" clip-path="url(#pcbfd17c8dd)" style="fill: none; stroke: #bfff00; stroke-linejoin: miter"/>
   </g>
   <g id="patch_27">
    <path d="M 101.729224 208.814289 
C 111.478906 208.814289 120.830579 204.940699 127.724646 198.046632 
C 134.618713 191.152565 138.492303 181.800892 138.492303 172.05121 
C 138.492303 162.301527 134.618713 152.949854 127.724646 146.055787 
C 120.830579 139.161721 111.478906 135.288131 101.729224 135.288131 
C 91.979541 135.288131 82.627868 139.161721 75.733801 146.055787 
C 68.839735 152.949854 64.966145 162.301527 64.966145 172.05121 
C 64.966145 181.800892 68.839735 191.152565 75.733801 198.046632 
C 82.627868 204.940699 91.979541 208.814289 101.729224 208.814289 
L 101.729224 208.814289 
z
" clip-path="url(#pcbfd17c8dd)" style="fill: none; stroke: #b0ff00; stroke-linejoin: miter"/>
   </g>
   <g id="patch_28">
    <path d="M 103.400273 210.485338 
C 113.593123 210.485338 123.369872 206.435675 130.577305 199.228242 
C 137.784738 192.020809 141.834401 182.24406 141.834401 172.05121 
C 141.834401 161.85836 137.784738 152.08161 130.577305 144.874177 
C 123.369872 137.666744 113.593123 133.617082 103.400273 133.617082 
C 93.207423 133.617082 83.430673 137.666744 76.22324 144.874177 
C 69.015807 152.08161 64.966145 161.85836 64.966145 172.05121 
C 64.966145 182.24406 69.015807 192.020809 76.22324 199.228242 
C 83.430673 206.435675 93.207423 210.485338 103.400273 210.485338 
L 103.400273 210.485338 
z
" clip-path="url(#pcbfd17c8dd)" style="fill: none; stroke: #a1ff00; stroke-linejoin: miter"/>
   </g>
   <g id="patch_29">
    <path d="M 105.071322 212.156387 
C 115.707339 212.156387 125.909164 207.930652 133.429964 200.409852 
C 140.950764 192.889052 145.176499 182.687227 145.176499 172.05121 
C 145.176499 161.415192 140.950764 151.213367 133.429964 143.692567 
C 125.909164 136.171767 115.707339 131.946033 105.071322 131.946033 
C 94.435304 131.946033 84.233479 136.171767 76.712679 143.692567 
C 69.191879 151.213367 64.966145 161.415192 64.966145 172.05121 
C 64.966145 182.687227 69.191879 192.889052 76.712679 200.409852 
C 84.233479 207.930652 94.435304 212.156387 105.071322 212.156387 
L 105.071322 212.156387 
z
" clip-path="url(#pcbfd17c8dd)" style="fill: none; stroke: #92ff00; stroke-linejoin: miter"/>
   </g>
   <g id="patch_30">
    <path d="M 106.742371 213.827436 
C 117.821555 213.827436 128.448457 209.425629 136.282623 201.591462 
C 144.11679 193.757296 148.518597 183.130394 148.518597 172.05121 
C 148.518597 160.972025 144.11679 150.345123 136.282623 142.510957 
C 128.448457 134.67679 117.821555 130.274984 106.742371 130.274984 
C 95.663186 130.274984 85.036285 134.67679 77.202118 142.510957 
C 69.367951 150.345123 64.966145 160.972025 64.966145 172.05121 
C 64.966145 183.130394 69.367951 193.757296 77.202118 201.591462 
C 85.036285 209.425629 95.663186 213.827436 106.742371 213.827436 
L 106.742371 213.827436 
z
" clip-path="url(#pcbfd17c8dd)" style="fill: none; stroke: #83ff00; stroke-linejoin: miter"/>
   </g>
   <g id="patch_31">
    <path d="M 108.41342 215.498485 
C 119.935772 215.498485 130.987749 210.920606 139.135283 202.773072 
C 147.282816 194.625539 151.860695 183.573562 151.860695 172.05121 
C 151.860695 160.528858 147.282816 149.47688 139.135283 141.329347 
C 130.987749 133.181813 119.935772 128.603934 108.41342 128.603934 
C 96.891068 128.603934 85.83909 133.181813 77.691557 141.329347 
C 69.544024 149.47688 64.966145 160.528858 64.966145 172.05121 
C 64.966145 183.573562 69.544024 194.625539 77.691557 202.773072 
C 85.83909 210.920606 96.891068 215.498485 108.41342 215.498485 
L 108.41342 215.498485 
z
" clip-path="url(#pcbfd17c8dd)" style="fill: none; stroke: #75ff00; stroke-linejoin: miter"/>
   </g>
   <g id="patch_32">
    <path d="M 110.084469 217.169534 
C 122.049988 217.169534 133.527042 212.415583 141.987942 203.954683 
C 150.448842 195.493783 155.202793 184.016729 155.202793 172.05121 
C 155.202793 160.08569 150.448842 148.608637 141.987942 140.147737 
C 133.527042 131.686837 122.049988 126.932885 110.084469 126.932885 
C 98.118949 126.932885 86.641896 131.686837 78.180996 140.147737 
C 69.720096 148.608637 64.966145 160.08569 64.966145 172.05121 
C 64.966145 184.016729 69.720096 195.493783 78.180996 203.954683 
C 86.641896 212.415583 98.118949 217.169534 110.084469 217.169534 
L 110.084469 217.169534 
z
" clip-path="url(#pcbfd17c8dd)" style="fill: none; stroke: #66ff00; stroke-linejoin: miter"/>
   </g>
   <g id="patch_33">
    <path d="M 111.755518 218.840583 
C 124.164205 218.840583 136.066334 213.910559 144.840601 205.136293 
C 153.614868 196.362026 158.544891 184.459896 158.544891 172.05121 
C 158.544891 159.642523 153.614868 147.740393 144.840601 138.966127 
C 136.066334 130.19186 124.164205 125.261836 111.755518 125.261836 
C 99.346831 125.261836 87.444701 130.19186 78.670435 138.966127 
C 69.896168 147.740393 64.966145 159.642523 64.966145 172.05121 
C 64.966145 184.459896 69.896168 196.362026 78.670435 205.136293 
C 87.444701 213.910559 99.346831 218.840583 111.755518 218.840583 
L 111.755518 218.840583 
z
" clip-path="url(#pcbfd17c8dd)" style="fill: none; stroke: #57ff00; stroke-linejoin: miter"/>
   </g>
   <g id="patch_34">
    <path d="M 113.426567 220.511632 
C 126.278421 220.511632 138.605627 215.405536 147.69326 206.317903 
C 156.780893 197.23027 161.886989 184.903064 161.886989 172.05121 
C 161.886989 159.199355 156.780893 146.87215 147.69326 137.784516 
C 138.605627 128.696883 126.278421 123.590787 113.426567 123.590787 
C 100.574713 123.590787 88.247507 128.696883 79.159874 137.784516 
C 70.07224 146.87215 64.966145 159.199355 64.966145 172.05121 
C 64.966145 184.903064 70.07224 197.23027 79.159874 206.317903 
C 88.247507 215.405536 100.574713 220.511632 113.426567 220.511632 
L 113.426567 220.511632 
z
" clip-path="url(#pcbfd17c8dd)" style="fill: none; stroke: #48ff00; stroke-linejoin: miter"/>
   </g>
   <g id="patch_35">
    <path d="M 115.097616 222.182681 
C 128.392638 222.182681 141.144919 216.900513 150.545919 207.499513 
C 159.946919 198.098513 165.229087 185.346231 165.229087 172.05121 
C 165.229087 158.756188 159.946919 146.003906 150.545919 136.602906 
C 141.144919 127.201906 128.392638 121.919738 115.097616 121.919738 
C 101.802594 121.919738 89.050313 127.201906 79.649313 136.602906 
C 70.248313 146.003906 64.966145 158.756188 64.966145 172.05121 
C 64.966145 185.346231 70.248313 198.098513 79.649313 207.499513 
C 89.050313 216.900513 101.802594 222.182681 115.097616 222.182681 
L 115.097616 222.182681 
z
" clip-path="url(#pcbfd17c8dd)" style="fill: none; stroke: #3aff00; stroke-linejoin: miter"/>
   </g>
   <g id="patch_36">
    <path d="M 116.768665 223.85373 
C 130.506854 223.85373 143.684212 218.39549 153.398578 208.681123 
C 163.112945 198.966756 168.571185 185.789399 168.571185 172.05121 
C 168.571185 158.313021 163.112945 145.135663 153.398578 135.421296 
C 143.684212 125.70693 130.506854 120.248689 116.768665 120.248689 
C 103.030476 120.248689 89.853118 125.70693 80.138752 135.421296 
C 70.424385 145.135663 64.966145 158.313021 64.966145 172.05121 
C 64.966145 185.789399 70.424385 198.966756 80.138752 208.681123 
C 89.853118 218.39549 103.030476 223.85373 116.768665 223.85373 
L 116.768665 223.85373 
z
" clip-path="url(#pcbfd17c8dd)" style="fill: none; stroke: #2bff00; stroke-linejoin: miter"/>
   </g>
   <g id="patch_37">
    <path d="M 118.439714 225.524779 
C 132.62107 225.524779 146.223504 219.890466 156.251238 209.862733 
C 166.278971 199.835 171.913283 186.232566 171.913283 172.05121 
C 171.913283 157.869853 166.278971 144.267419 156.251238 134.239686 
C 146.223504 124.211953 132.62107 118.57764 118.439714 118.57764 
C 104.258358 118.57764 90.655924 124.211953 80.62819 134.239686 
C 70.600457 144.267419 64.966145 157.869853 64.966145 172.05121 
C 64.966145 186.232566 70.600457 199.835 80.62819 209.862733 
C 90.655924 219.890466 104.258358 225.524779 118.439714 225.524779 
L 118.439714 225.524779 
z
" clip-path="url(#pcbfd17c8dd)" style="fill: none; stroke: #1dff00; stroke-linejoin: miter"/>
   </g>
   <g id="patch_38">
    <path d="M 120.110763 227.195828 
C 134.735287 227.195828 148.762797 221.385443 159.103897 211.044343 
C 169.444997 200.703243 175.255382 186.675733 175.255382 172.05121 
C 175.255382 157.426686 169.444997 143.399176 159.103897 133.058076 
C 148.762797 122.716976 134.735287 116.906591 120.110763 116.906591 
C 105.486239 116.906591 91.458729 122.716976 81.117629 133.058076 
C 70.776529 143.399176 64.966145 157.426686 64.966145 172.05121 
C 64.966145 186.675733 70.776529 200.703243 81.117629 211.044343 
C 91.458729 221.385443 105.486239 227.195828 120.110763 227.195828 
L 120.110763 227.195828 
z
" clip-path="url(#pcbfd17c8dd)" style="fill: none; stroke: #0eff00; stroke-linejoin: miter"/>
   </g>
   <g id="patch_39">
    <path d="M 121.781812 228.866877 
C 136.849503 228.866877 151.302089 222.88042 161.956556 212.225953 
C 172.611022 201.571487 178.59748 187.118901 178.59748 172.05121 
C 178.59748 156.983518 172.611022 142.530932 161.956556 131.876466 
C 151.302089 121.221999 136.849503 115.235542 121.781812 115.235542 
C 106.714121 115.235542 92.261535 121.221999 81.607068 131.876466 
C 70.952602 142.530932 64.966145 156.983518 64.966145 172.05121 
C 64.966145 187.118901 70.952602 201.571487 81.607068 212.225953 
C 92.261535 222.88042 106.714121 228.866877 121.781812 228.866877 
L 121.781812 228.866877 
z
" clip-path="url(#pcbfd17c8dd)" style="fill: none; stroke: #00ff00; stroke-linejoin: miter"/>
   </g>
   <g id="patch_40">
    <path d="M 123.452861 230.537926 
C 138.96372 230.537926 153.841382 224.375397 164.809215 213.407563 
C 175.777048 202.43973 181.939578 187.562068 181.939578 172.05121 
C 181.939578 156.540351 175.777048 141.662689 164.809215 130.694856 
C 153.841382 119.727022 138.96372 113.564493 123.452861 113.564493 
C 107.942003 113.564493 93.064341 119.727022 82.096507 130.694856 
C 71.128674 141.662689 64.966145 156.540351 64.966145 172.05121 
C 64.966145 187.562068 71.128674 202.43973 82.096507 213.407563 
C 93.064341 224.375397 107.942003 230.537926 123.452861 230.537926 
L 123.452861 230.537926 
z
" clip-path="url(#pcbfd17c8dd)" style="fill: none; stroke: #00ff0f; stroke-linejoin: miter"/>
   </g>
   <g id="patch_41">
    <path d="M 125.12391 232.208975 
C 141.077936 232.208975 156.380674 225.870374 167.661874 214.589174 
C 178.943074 203.307974 185.281676 188.005236 185.281676 172.05121 
C 185.281676 156.097184 178.943074 140.794446 167.661874 129.513246 
C 156.380674 118.232046 141.077936 111.893444 125.12391 111.893444 
C 109.169884 111.893444 93.867146 118.232046 82.585946 129.513246 
C 71.304746 140.794446 64.966145 156.097184 64.966145 172.05121 
C 64.966145 188.005236 71.304746 203.307974 82.585946 214.589174 
C 93.867146 225.870374 109.169884 232.208975 125.12391 232.208975 
L 125.12391 232.208975 
z
" clip-path="url(#pcbfd17c8dd)" style="fill: none; stroke: #00ff1d; stroke-linejoin: miter"/>
   </g>
   <g id="patch_42">
    <path d="M 126.794959 233.880024 
C 143.192153 233.880024 158.919967 227.36535 170.514533 215.770784 
C 182.1091 204.176217 188.623774 188.448403 188.623774 172.05121 
C 188.623774 155.654016 182.1091 139.926202 170.514533 128.331636 
C 158.919967 116.737069 143.192153 110.222395 126.794959 110.222395 
C 110.397766 110.222395 94.669952 116.737069 83.075385 128.331636 
C 71.480819 139.926202 64.966145 155.654016 64.966145 172.05121 
C 64.966145 188.448403 71.480819 204.176217 83.075385 215.770784 
C 94.669952 227.36535 110.397766 233.880024 126.794959 233.880024 
L 126.794959 233.880024 
z
" clip-path="url(#pcbfd17c8dd)" style="fill: none; stroke: #00ff2b; stroke-linejoin: miter"/>
   </g>
   <g id="patch_43">
    <path d="M 128.466008 235.551073 
C 145.306369 235.551073 161.459259 228.860327 173.367193 216.952394 
C 185.275126 205.044461 191.965872 188.89157 191.965872 172.05121 
C 191.965872 155.210849 185.275126 139.057959 173.367193 127.150025 
C 161.459259 115.242092 145.306369 108.551346 128.466008 108.551346 
C 111.625648 108.551346 95.472757 115.242092 83.564824 127.150025 
C 71.656891 139.057959 64.966145 155.210849 64.966145 172.05121 
C 64.966145 188.89157 71.656891 205.044461 83.564824 216.952394 
C 95.472757 228.860327 111.625648 235.551073 128.466008 235.551073 
L 128.466008 235.551073 
z
" clip-path="url(#pcbfd17c8dd)" style="fill: none; stroke: #00ff3a; stroke-linejoin: miter"/>
   </g>
   <g id="patch_44">
    <path d="M 130.137057 237.222122 
C 147.420585 237.222122 163.998552 230.355304 176.219852 218.134004 
C 188.441152 205.912704 195.30797 189.334738 195.30797 172.05121 
C 195.30797 154.767682 188.441152 138.189715 176.219852 125.968415 
C 163.998552 113.747115 147.420585 106.880297 130.137057 106.880297 
C 112.853529 106.880297 96.275563 113.747115 84.054263 125.968415 
C 71.832963 138.189715 64.966145 154.767682 64.966145 172.05121 
C 64.966145 189.334738 71.832963 205.912704 84.054263 218.134004 
C 96.275563 230.355304 112.853529 237.222122 130.137057 237.222122 
L 130.137057 237.222122 
z
" clip-path="url(#pcbfd17c8dd)" style="fill: none; stroke: #00ff48; stroke-linejoin: miter"/>
   </g>
   <g id="patch_45">
    <path d="M 131.808106 238.893171 
C 149.534802 238.893171 166.537844 231.850281 179.072511 219.315614 
C 191.607177 206.780947 198.650068 189.777905 198.650068 172.05121 
C 198.650068 154.324514 191.607177 137.321472 179.072511 124.786805 
C 166.537844 112.252139 149.534802 105.209248 131.808106 105.209248 
C 114.081411 105.209248 97.078369 112.252139 84.543702 124.786805 
C 72.009035 137.321472 64.966145 154.324514 64.966145 172.05121 
C 64.966145 189.777905 72.009035 206.780947 84.543702 219.315614 
C 97.078369 231.850281 114.081411 238.893171 131.808106 238.893171 
L 131.808106 238.893171 
z
" clip-path="url(#pcbfd17c8dd)" style="fill: none; stroke: #00ff56; stroke-linejoin: miter"/>
   </g>
   <g id="patch_46">
    <path d="M 133.479155 240.56422 
C 151.649018 240.56422 169.077137 233.345257 181.92517 220.497224 
C 194.773203 207.649191 201.992166 190.221072 201.992166 172.05121 
C 201.992166 153.881347 194.773203 136.453228 181.92517 123.605195 
C 169.077137 110.757162 151.649018 103.538199 133.479155 103.538199 
C 115.309293 103.538199 97.881174 110.757162 85.033141 123.605195 
C 72.185108 136.453228 64.966145 153.881347 64.966145 172.05121 
C 64.966145 190.221072 72.185108 207.649191 85.033141 220.497224 
C 97.881174 233.345257 115.309293 240.56422 133.479155 240.56422 
L 133.479155 240.56422 
z
" clip-path="url(#pcbfd17c8dd)" style="fill: none; stroke: #00ff64; stroke-linejoin: miter"/>
   </g>
   <g id="patch_47">
    <path d="M 135.150204 242.235269 
C 153.763235 242.235269 171.616429 234.840234 184.777829 221.678834 
C 197.939229 208.517434 205.334264 190.66424 205.334264 172.05121 
C 205.334264 153.438179 197.939229 135.584985 184.777829 122.423585 
C 171.616429 109.262185 153.763235 101.86715 135.150204 101.86715 
C 116.537174 101.86715 98.68398 109.262185 85.52258 122.423585 
C 72.36118 135.584985 64.966145 153.438179 64.966145 172.05121 
C 64.966145 190.66424 72.36118 208.517434 85.52258 221.678834 
C 98.68398 234.840234 116.537174 242.235269 135.150204 242.235269 
L 135.150204 242.235269 
z
" clip-path="url(#pcbfd17c8dd)" style="fill: none; stroke: #00ff72; stroke-linejoin: miter"/>
   </g>
   <g id="patch_48">
    <path d="M 136.821254 243.906319 
C 155.877451 243.906319 174.155722 236.335211 187.630488 222.860444 
C 201.105255 209.385678 208.676362 191.107407 208.676362 172.05121 
C 208.676362 152.995012 201.105255 134.716741 187.630488 121.241975 
C 174.155722 107.767208 155.877451 100.196101 136.821254 100.196101 
C 117.765056 100.196101 99.486785 107.767208 86.012019 121.241975 
C 72.537252 134.716741 64.966145 152.995012 64.966145 172.05121 
C 64.966145 191.107407 72.537252 209.385678 86.012019 222.860444 
C 99.486785 236.335211 117.765056 243.906319 136.821254 243.906319 
L 136.821254 243.906319 
z
" clip-path="url(#pcbfd17c8dd)" style="fill: none; stroke: #00ff80; stroke-linejoin: miter"/>
   </g>
   <g id="patch_49">
    <path d="M 138.492303 245.577368 
C 157.991668 245.577368 176.695014 237.830188 190.483147 224.042054 
C 204.271281 210.253921 212.018461 191.550575 212.018461 172.05121 
C 212.018461 152.551845 204.271281 133.848498 190.483147 120.060365 
C 176.695014 106.272231 157.991668 98.525052 138.492303 98.525052 
C 118.992938 98.525052 100.289591 106.272231 86.501458 120.060365 
C 72.713324 133.848498 64.966145 152.551845 64.966145 172.05121 
C 64.966145 191.550575 72.713324 210.253921 86.501458 224.042054 
C 100.289591 237.830188 118.992938 245.577368 138.492303 245.577368 
L 138.492303 245.577368 
z
" clip-path="url(#pcbfd17c8dd)" style="fill: none; stroke: #00ff8e; stroke-linejoin: miter"/>
   </g>
   <g id="patch_50">
    <path d="M 140.163352 247.248417 
C 160.105884 247.248417 179.234307 239.325165 193.335807 225.223665 
C 207.437306 211.122165 215.360559 191.993742 215.360559 172.05121 
C 215.360559 152.108677 207.437306 132.980255 193.335807 118.878755 
C 179.234307 104.777255 160.105884 96.854003 140.163352 96.854003 
C 120.220819 96.854003 101.092397 104.777255 86.990897 118.878755 
C 72.889397 132.980255 64.966145 152.108677 64.966145 172.05121 
C 64.966145 191.993742 72.889397 211.122165 86.990897 225.223665 
C 101.092397 239.325165 120.220819 247.248417 140.163352 247.248417 
L 140.163352 247.248417 
z
" clip-path="url(#pcbfd17c8dd)" style="fill: none; stroke: #00ff9b; stroke-linejoin: miter"/>
   </g>
   <g id="patch_51">
    <path d="M 141.834401 248.919466 
C 162.2201 248.919466 181.773599 240.820141 196.188466 226.405275 
C 210.603332 211.990408 218.702657 192.436909 218.702657 172.05121 
C 218.702657 151.66551 210.603332 132.112011 196.188466 117.697145 
C 181.773599 103.282278 162.2201 95.182954 141.834401 95.182954 
C 121.448701 95.182954 101.895202 103.282278 87.480336 117.697145 
C 73.065469 132.112011 64.966145 151.66551 64.966145 172.05121 
C 64.966145 192.436909 73.065469 211.990408 87.480336 226.405275 
C 101.895202 240.820141 121.448701 248.919466 141.834401 248.919466 
L 141.834401 248.919466 
z
" clip-path="url(#pcbfd17c8dd)" style="fill: none; stroke: #00ffa9; stroke-linejoin: miter"/>
   </g>
   <g id="patch_52">
    <path d="M 143.50545 250.590515 
C 164.334317 250.590515 184.312892 242.315118 199.041125 227.586885 
C 213.769358 212.858652 222.044755 192.880077 222.044755 172.05121 
C 222.044755 151.222342 213.769358 131.243768 199.041125 116.515534 
C 184.312892 101.787301 164.334317 93.511905 143.50545 93.511905 
C 122.676583 93.511905 102.698008 101.787301 87.969774 116.515534 
C 73.241541 131.243768 64.966145 151.222342 64.966145 172.05121 
C 64.966145 192.880077 73.241541 212.858652 87.969774 227.586885 
C 102.698008 242.315118 122.676583 250.590515 143.50545 250.590515 
L 143.50545 250.590515 
z
" clip-path="url(#pcbfd17c8dd)" style="fill: none; stroke: #00ffb7; stroke-linejoin: miter"/>
   </g>
   <g id="patch_53">
    <path d="M 145.176499 252.261564 
C 166.448533 252.261564 186.852184 243.810095 201.893784 228.768495 
C 216.935384 213.726895 225.386853 193.323244 225.386853 172.05121 
C 225.386853 150.779175 216.935384 130.375524 201.893784 115.333924 
C 186.852184 100.292324 166.448533 91.840855 145.176499 91.840855 
C 123.904464 91.840855 103.500813 100.292324 88.459213 115.333924 
C 73.417614 130.375524 64.966145 150.779175 64.966145 172.05121 
C 64.966145 193.323244 73.417614 213.726895 88.459213 228.768495 
C 103.500813 243.810095 123.904464 252.261564 145.176499 252.261564 
L 145.176499 252.261564 
z
" clip-path="url(#pcbfd17c8dd)" style="fill: none; stroke: #00ffc5; stroke-linejoin: miter"/>
   </g>
   <g id="patch_54">
    <path d="M 146.847548 253.932613 
C 168.56275 253.932613 189.391477 245.305072 204.746443 229.950105 
C 220.10141 214.595138 228.728951 193.766412 228.728951 172.05121 
C 228.728951 150.336008 220.10141 129.507281 204.746443 114.152314 
C 189.391477 98.797348 168.56275 90.169806 146.847548 90.169806 
C 125.132346 90.169806 104.303619 98.797348 88.948652 114.152314 
C 73.593686 129.507281 64.966145 150.336008 64.966145 172.05121 
C 64.966145 193.766412 73.593686 214.595138 88.948652 229.950105 
C 104.303619 245.305072 125.132346 253.932613 146.847548 253.932613 
L 146.847548 253.932613 
z
" clip-path="url(#pcbfd17c8dd)" style="fill: none; stroke: #00ffd2; stroke-linejoin: miter"/>
   </g>
   <g id="patch_55">
    <path d="M 148.518597 255.603662 
C 170.676966 255.603662 191.930769 246.800048 207.599102 231.131715 
C 223.267436 215.463382 232.071049 194.209579 232.071049 172.05121 
C 232.071049 149.89284 223.267436 128.639037 207.599102 112.970704 
C 191.930769 97.302371 170.676966 88.498757 148.518597 88.498757 
C 126.360227 88.498757 105.106424 97.302371 89.438091 112.970704 
C 73.769758 128.639037 64.966145 149.89284 64.966145 172.05121 
C 64.966145 194.209579 73.769758 215.463382 89.438091 231.131715 
C 105.106424 246.800048 126.360227 255.603662 148.518597 255.603662 
L 148.518597 255.603662 
z
" clip-path="url(#pcbfd17c8dd)" style="fill: none; stroke: #00ffe0; stroke-linejoin: miter"/>
   </g>
   <g id="patch_56">
    <path d="M 150.189646 257.274711 
C 172.791183 257.274711 194.470062 248.295025 210.451762 232.313325 
C 226.433461 216.331625 235.413147 194.652746 235.413147 172.05121 
C 235.413147 149.449673 226.433461 127.770794 210.451762 111.789094 
C 194.470062 95.807394 172.791183 86.827708 150.189646 86.827708 
C 127.588109 86.827708 105.90923 95.807394 89.92753 111.789094 
C 73.94583 127.770794 64.966145 149.449673 64.966145 172.05121 
C 64.966145 194.652746 73.94583 216.331625 89.92753 232.313325 
C 105.90923 248.295025 127.588109 257.274711 150.189646 257.274711 
L 150.189646 257.274711 
z
" clip-path="url(#pcbfd17c8dd)" style="fill: none; stroke: #00ffed; stroke-linejoin: miter"/>
   </g>
   <g id="patch_57">
    <path d="M 151.860695 258.94576 
C 174.905399 258.94576 197.009354 249.790002 213.304421 233.494935 
C 229.599487 217.199869 238.755245 195.095914 238.755245 172.05121 
C 238.755245 149.006505 229.599487 126.90255 213.304421 110.607484 
C 197.009354 94.312417 174.905399 85.156659 151.860695 85.156659 
C 128.815991 85.156659 106.712036 94.312417 90.416969 110.607484 
C 74.121903 126.90255 64.966145 149.006505 64.966145 172.05121 
C 64.966145 195.095914 74.121903 217.199869 90.416969 233.494935 
C 106.712036 249.790002 128.815991 258.94576 151.860695 258.94576 
L 151.860695 258.94576 
z
" clip-path="url(#pcbfd17c8dd)" style="fill: none; stroke: #00fffa; stroke-linejoin: miter"/>
   </g>
   <g id="patch_58">
    <path d="M 153.531744 260.616809 
C 177.019615 260.616809 199.548647 251.284979 216.15708 234.676545 
C 232.765513 218.068112 242.097343 195.539081 242.097343 172.05121 
C 242.097343 148.563338 232.765513 126.034307 216.15708 109.425874 
C 199.548647 92.817441 177.019615 83.48561 153.531744 83.48561 
C 130.043872 83.48561 107.514841 92.817441 90.906408 109.425874 
C 74.297975 126.034307 64.966145 148.563338 64.966145 172.05121 
C 64.966145 195.539081 74.297975 218.068112 90.906408 234.676545 
C 107.514841 251.284979 130.043872 260.616809 153.531744 260.616809 
L 153.531744 260.616809 
z
" clip-path="url(#pcbfd17c8dd)" style="fill: none; stroke: #00f7ff; stroke-linejoin: miter"/>
   </g>
   <g id="patch_59">
    <path d="M 155.202793 262.287858 
C 179.133832 262.287858 202.087939 252.779955 219.009739 235.858156 
C 235.931539 218.936356 245.439441 195.982248 245.439441 172.05121 
C 245.439441 148.120171 235.931539 125.166063 219.009739 108.244264 
C 202.087939 91.322464 179.133832 81.814561 155.202793 81.814561 
C 131.271754 81.814561 108.317647 91.322464 91.395847 108.244264 
C 74.474047 125.166063 64.966145 148.120171 64.966145 172.05121 
C 64.966145 195.982248 74.474047 218.936356 91.395847 235.858156 
C 108.317647 252.779955 131.271754 262.287858 155.202793 262.287858 
L 155.202793 262.287858 
z
" clip-path="url(#pcbfd17c8dd)" style="fill: none; stroke: #00e9ff; stroke-linejoin: miter"/>
   </g>
   <g id="patch_60">
    <path d="M 156.873842 263.958907 
C 181.248048 263.958907 204.627232 254.274932 221.862398 237.039766 
C 239.097565 219.804599 248.781539 196.425416 248.781539 172.05121 
C 248.781539 147.677003 239.097565 124.29782 221.862398 107.062654 
C 204.627232 89.827487 181.248048 80.143512 156.873842 80.143512 
C 132.499636 80.143512 109.120452 89.827487 91.885286 107.062654 
C 74.650119 124.29782 64.966145 147.677003 64.966145 172.05121 
C 64.966145 196.425416 74.650119 219.804599 91.885286 237.039766 
C 109.120452 254.274932 132.499636 263.958907 156.873842 263.958907 
L 156.873842 263.958907 
z
" clip-path="url(#pcbfd17c8dd)" style="fill: none; stroke: #00dcff; stroke-linejoin: miter"/>
   </g>
   <g id="patch_61">
    <path d="M 158.544891 265.629956 
C 183.362265 265.629956 207.166524 255.769909 224.715057 238.221376 
C 242.263591 220.672843 252.123638 196.868583 252.123638 172.05121 
C 252.123638 147.233836 242.263591 123.429577 224.715057 105.881043 
C 207.166524 88.33251 183.362265 78.472463 158.544891 78.472463 
C 133.727517 78.472463 109.923258 88.33251 92.374725 105.881043 
C 74.826192 123.429577 64.966145 147.233836 64.966145 172.05121 
C 64.966145 196.868583 74.826192 220.672843 92.374725 238.221376 
C 109.923258 255.769909 133.727517 265.629956 158.544891 265.629956 
L 158.544891 265.629956 
z
" clip-path="url(#pcbfd17c8dd)" style="fill: none; stroke: #00cfff; stroke-linejoin: miter"/>
   </g>
   <g id="patch_62">
    <path d="M 160.21594 267.301005 
C 185.476481 267.301005 209.705817 257.264886 227.567716 239.402986 
C 245.429616 221.541086 255.465736 197.311751 255.465736 172.05121 
C 255.465736 146.790669 245.429616 122.561333 227.567716 104.699433 
C 209.705817 86.837533 185.476481 76.801414 160.21594 76.801414 
C 134.955399 76.801414 110.726064 86.837533 92.864164 104.699433 
C 75.002264 122.561333 64.966145 146.790669 64.966145 172.05121 
C 64.966145 197.311751 75.002264 221.541086 92.864164 239.402986 
C 110.726064 257.264886 134.955399 267.301005 160.21594 267.301005 
L 160.21594 267.301005 
z
" clip-path="url(#pcbfd17c8dd)" style="fill: none; stroke: #00c2ff; stroke-linejoin: miter"/>
   </g>
   <g id="patch_63">
    <path d="M 161.886989 268.972054 
C 187.590698 268.972054 212.245109 258.759863 230.420376 240.584596 
C 248.595642 222.40933 258.807834 197.754918 258.807834 172.05121 
C 258.807834 146.347501 248.595642 121.69309 230.420376 103.517823 
C 212.245109 85.342557 187.590698 75.130365 161.886989 75.130365 
C 136.183281 75.130365 111.528869 85.342557 93.353603 103.517823 
C 75.178336 121.69309 64.966145 146.347501 64.966145 172.05121 
C 64.966145 197.754918 75.178336 222.40933 93.353603 240.584596 
C 111.528869 258.759863 136.183281 268.972054 161.886989 268.972054 
L 161.886989 268.972054 
z
" clip-path="url(#pcbfd17c8dd)" style="fill: none; stroke: #00b6ff; stroke-linejoin: miter"/>
   </g>
   <g id="patch_64">
    <path d="M 163.558038 270.643103 
C 189.704914 270.643103 214.784402 260.254839 233.273035 241.766206 
C 251.761668 223.277573 262.149932 198.198085 262.149932 172.05121 
C 262.149932 145.904334 251.761668 120.824846 233.273035 102.336213 
C 214.784402 83.84758 189.704914 73.459316 163.558038 73.459316 
C 137.411162 73.459316 112.331675 83.84758 93.843042 102.336213 
C 75.354408 120.824846 64.966145 145.904334 64.966145 172.05121 
C 64.966145 198.198085 75.354408 223.277573 93.843042 241.766206 
C 112.331675 260.254839 137.411162 270.643103 163.558038 270.643103 
L 163.558038 270.643103 
z
" clip-path="url(#pcbfd17c8dd)" style="fill: none; stroke: #00a9ff; stroke-linejoin: miter"/>
   </g>
   <g id="patch_65">
    <path d="M 165.229087 272.314152 
C 191.81913 272.314152 217.323694 261.749816 236.125694 242.947816 
C 254.927694 224.145816 265.49203 198.641253 265.49203 172.05121 
C 265.49203 145.461166 254.927694 119.956603 236.125694 101.154603 
C 217.323694 82.352603 191.81913 71.788267 165.229087 71.788267 
C 138.639044 71.788267 113.13448 82.352603 94.332481 101.154603 
C 75.530481 119.956603 64.966145 145.461166 64.966145 172.05121 
C 64.966145 198.641253 75.530481 224.145816 94.332481 242.947816 
C 113.13448 261.749816 138.639044 272.314152 165.229087 272.314152 
L 165.229087 272.314152 
z
" clip-path="url(#pcbfd17c8dd)" style="fill: none; stroke: #009cff; stroke-linejoin: miter"/>
   </g>
   <g id="patch_66">
    <path d="M 166.900136 273.985201 
C 193.933347 273.985201 219.862987 263.244793 238.978353 244.129426 
C 258.09372 225.01406 268.834128 199.08442 268.834128 172.05121 
C 268.834128 145.017999 258.09372 119.088359 238.978353 99.972993 
C 219.862987 80.857626 193.933347 70.117218 166.900136 70.117218 
C 139.866926 70.117218 113.937286 80.857626 94.82192 99.972993 
C 75.706553 119.088359 64.966145 145.017999 64.966145 172.05121 
C 64.966145 199.08442 75.706553 225.01406 94.82192 244.129426 
C 113.937286 263.244793 139.866926 273.985201 166.900136 273.985201 
L 166.900136 273.985201 
z
" clip-path="url(#pcbfd17c8dd)" style="fill: none; stroke: #0090ff; stroke-linejoin: miter"/>
   </g>
   <g id="patch_67">
    <path d="M 168.571185 275.65625 
C 196.047563 275.65625 222.402279 264.73977 241.831012 245.311036 
C 261.259745 225.882303 272.176226 199.527588 272.176226 172.05121 
C 272.176226 144.574832 261.259745 118.220116 241.831012 98.791383 
C 222.402279 79.36265 196.047563 68.446169 168.571185 68.446169 
C 141.094807 68.446169 114.740092 79.36265 95.311358 98.791383 
C 75.882625 118.220116 64.966145 144.574832 64.966145 172.05121 
C 64.966145 199.527588 75.882625 225.882303 95.311358 245.311036 
C 114.740092 264.73977 141.094807 275.65625 168.571185 275.65625 
L 168.571185 275.65625 
z
" clip-path="url(#pcbfd17c8dd)" style="fill: none; stroke: #0083ff; stroke-linejoin: miter"/>
   </g>
   <g id="patch_68">
    <path d="M 170.242234 277.327299 
C 198.16178 277.327299 224.941572 266.234746 244.683671 246.492647 
C 264.425771 226.750547 275.518324 199.970755 275.518324 172.05121 
C 275.518324 144.131664 264.425771 117.351872 244.683671 97.609773 
C 224.941572 77.867673 198.16178 66.77512 170.242234 66.77512 
C 142.322689 66.77512 115.542897 77.867673 95.800797 97.609773 
C 76.058698 117.351872 64.966145 144.131664 64.966145 172.05121 
C 64.966145 199.970755 76.058698 226.750547 95.800797 246.492647 
C 115.542897 266.234746 142.322689 277.327299 170.242234 277.327299 
L 170.242234 277.327299 
z
" clip-path="url(#pcbfd17c8dd)" style="fill: none; stroke: #0077ff; stroke-linejoin: miter"/>
   </g>
   <g id="patch_69">
    <path d="M 171.913283 278.998348 
C 200.275996 278.998348 227.480864 267.729723 247.536331 247.674257 
C 267.591797 227.61879 278.860422 200.413922 278.860422 172.05121 
C 278.860422 143.688497 267.591797 116.483629 247.536331 96.428163 
C 227.480864 76.372696 200.275996 65.104071 171.913283 65.104071 
C 143.550571 65.104071 116.345703 76.372696 96.290236 96.428163 
C 76.23477 116.483629 64.966145 143.688497 64.966145 172.05121 
C 64.966145 200.413922 76.23477 227.61879 96.290236 247.674257 
C 116.345703 267.729723 143.550571 278.998348 171.913283 278.998348 
L 171.913283 278.998348 
z
" clip-path="url(#pcbfd17c8dd)" style="fill: none; stroke: #006aff; stroke-linejoin: miter"/>
   </g>
   <g id="patch_70">
    <path d="M 173.584332 280.669397 
C 202.390213 280.669397 230.020157 269.2247 250.38899 248.855867 
C 270.757823 228.487034 282.20252 200.85709 282.20252 172.05121 
C 282.20252 143.245329 270.757823 115.615386 250.38899 95.246552 
C 230.020157 74.877719 202.390213 63.433022 173.584332 63.433022 
C 144.778452 63.433022 117.148508 74.877719 96.779675 95.246552 
C 76.410842 115.615386 64.966145 143.245329 64.966145 172.05121 
C 64.966145 200.85709 76.410842 228.487034 96.779675 248.855867 
C 117.148508 269.2247 144.778452 280.669397 173.584332 280.669397 
L 173.584332 280.669397 
z
" clip-path="url(#pcbfd17c8dd)" style="fill: none; stroke: #005eff; stroke-linejoin: miter"/>
   </g>
   <g id="patch_71">
    <path d="M 175.255382 282.340447 
C 204.504429 282.340447 232.559449 270.719677 253.241649 250.037477 
C 273.923849 229.355277 285.544618 201.300257 285.544618 172.05121 
C 285.544618 142.802162 273.923849 114.747142 253.241649 94.064942 
C 232.559449 73.382742 204.504429 61.761973 175.255382 61.761973 
C 146.006334 61.761973 117.951314 73.382742 97.269114 94.064942 
C 76.586914 114.747142 64.966145 142.802162 64.966145 172.05121 
C 64.966145 201.300257 76.586914 229.355277 97.269114 250.037477 
C 117.951314 270.719677 146.006334 282.340447 175.255382 282.340447 
L 175.255382 282.340447 
z
" clip-path="url(#pcbfd17c8dd)" style="fill: none; stroke: #0052ff; stroke-linejoin: miter"/>
   </g>
   <g id="patch_72">
    <path d="M 176.926431 284.011496 
C 206.618645 284.011496 235.098741 272.214654 256.094308 251.219087 
C 277.089875 230.223521 288.886717 201.743425 288.886717 172.05121 
C 288.886717 142.358995 277.089875 113.878899 256.094308 92.883332 
C 235.098741 71.887766 206.618645 60.090924 176.926431 60.090924 
C 147.234216 60.090924 118.75412 71.887766 97.758553 92.883332 
C 76.762987 113.878899 64.966145 142.358995 64.966145 172.05121 
C 64.966145 201.743425 76.762987 230.223521 97.758553 251.219087 
C 118.75412 272.214654 147.234216 284.011496 176.926431 284.011496 
L 176.926431 284.011496 
z
" clip-path="url(#pcbfd17c8dd)" style="fill: none; stroke: #0046ff; stroke-linejoin: miter"/>
   </g>
   <g id="patch_73">
    <path d="M 178.59748 285.682545 
C 208.732862 285.682545 237.638034 273.70963 258.946967 252.400697 
C 280.2559 231.091764 292.228815 202.186592 292.228815 172.05121 
C 292.228815 141.915827 280.2559 113.010655 258.946967 91.701722 
C 237.638034 70.392789 208.732862 58.419875 178.59748 58.419875 
C 148.462097 58.419875 119.556925 70.392789 98.247992 91.701722 
C 76.939059 113.010655 64.966145 141.915827 64.966145 172.05121 
C 64.966145 202.186592 76.939059 231.091764 98.247992 252.400697 
C 119.556925 273.70963 148.462097 285.682545 178.59748 285.682545 
L 178.59748 285.682545 
z
" clip-path="url(#pcbfd17c8dd)" style="fill: none; stroke: #003aff; stroke-linejoin: miter"/>
   </g>
   <g id="patch_74">
    <path d="M 180.268529 287.353594 
C 210.847078 287.353594 240.177326 275.204607 261.799626 253.582307 
C 283.421926 231.960007 295.570913 202.629759 295.570913 172.05121 
C 295.570913 141.47266 283.421926 112.142412 261.799626 90.520112 
C 240.177326 68.897812 210.847078 56.748826 180.268529 56.748826 
C 149.689979 56.748826 120.359731 68.897812 98.737431 90.520112 
C 77.115131 112.142412 64.966145 141.47266 64.966145 172.05121 
C 64.966145 202.629759 77.115131 231.960007 98.737431 253.582307 
C 120.359731 275.204607 149.689979 287.353594 180.268529 287.353594 
L 180.268529 287.353594 
z
" clip-path="url(#pcbfd17c8dd)" style="fill: none; stroke: #002eff; stroke-linejoin: miter"/>
   </g>
   <g id="patch_75">
    <path d="M 181.939578 289.024643 
C 212.961295 289.024643 242.716619 276.699584 264.652285 254.763917 
C 286.587952 232.828251 298.913011 203.072927 298.913011 172.05121 
C 298.913011 141.029493 286.587952 111.274168 264.652285 89.338502 
C 242.716619 67.402835 212.961295 55.077777 181.939578 55.077777 
C 150.917861 55.077777 121.162536 67.402835 99.22687 89.338502 
C 77.291203 111.274168 64.966145 141.029493 64.966145 172.05121 
C 64.966145 203.072927 77.291203 232.828251 99.22687 254.763917 
C 121.162536 276.699584 150.917861 289.024643 181.939578 289.024643 
L 181.939578 289.024643 
z
" clip-path="url(#pcbfd17c8dd)" style="fill: none; stroke: #0022ff; stroke-linejoin: miter"/>
   </g>
   <g id="patch_76">
    <path d="M 183.610627 290.695692 
C 215.075511 290.695692 245.255911 278.194561 267.504945 255.945527 
C 289.753978 233.696494 302.255109 203.516094 302.255109 172.05121 
C 302.255109 140.586325 289.753978 110.405925 267.504945 88.156892 
C 245.255911 65.907859 215.075511 53.406727 183.610627 53.406727 
C 152.145742 53.406727 121.965342 65.907859 99.716309 88.156892 
C 77.467276 110.405925 64.966145 140.586325 64.966145 172.05121 
C 64.966145 203.516094 77.467276 233.696494 99.716309 255.945527 
C 121.965342 278.194561 152.145742 290.695692 183.610627 290.695692 
L 183.610627 290.695692 
z
" clip-path="url(#pcbfd17c8dd)" style="fill: none; stroke: #0017ff; stroke-linejoin: miter"/>
   </g>
   <g id="patch_77">
    <path d="M 185.281676 292.366741 
C 217.189728 292.366741 247.795204 279.689537 270.357604 257.127138 
C 292.920004 234.564738 305.597207 203.959261 305.597207 172.05121 
C 305.597207 140.143158 292.920004 109.537681 270.357604 86.975282 
C 247.795204 64.412882 217.189728 51.735678 185.281676 51.735678 
C 153.373624 51.735678 122.768148 64.412882 100.205748 86.975282 
C 77.643348 109.537681 64.966145 140.143158 64.966145 172.05121 
C 64.966145 203.959261 77.643348 234.564738 100.205748 257.127138 
C 122.768148 279.689537 153.373624 292.366741 185.281676 292.366741 
L 185.281676 292.366741 
z
" clip-path="url(#pcbfd17c8dd)" style="fill: none; stroke: #000bff; stroke-linejoin: miter"/>
   </g>
   <g id="patch_78">
    <path d="M 186.952725 294.03779 
C 219.303944 294.03779 250.334496 281.184514 273.210263 258.308748 
C 296.086029 235.432981 308.939305 204.402429 308.939305 172.05121 
C 308.939305 139.69999 296.086029 108.669438 273.210263 85.793672 
C 250.334496 62.917905 219.303944 50.064629 186.952725 50.064629 
C 154.601506 50.064629 123.570953 62.917905 100.695187 85.793672 
C 77.81942 108.669438 64.966145 139.69999 64.966145 172.05121 
C 64.966145 204.402429 77.81942 235.432981 100.695187 258.308748 
C 123.570953 281.184514 154.601506 294.03779 186.952725 294.03779 
L 186.952725 294.03779 
z
" clip-path="url(#pcbfd17c8dd)" style="fill: none; stroke: #0000ff; stroke-linejoin: miter"/>
   </g>
   <g id="patch_79">
    <path d="M 188.623774 295.708839 
C 221.418161 295.708839 252.873789 282.679491 276.062922 259.490358 
C 299.252055 236.301225 312.281403 204.845596 312.281403 172.05121 
C 312.281403 139.256823 299.252055 107.801195 276.062922 84.612061 
C 252.873789 61.422928 221.418161 48.39358 188.623774 48.39358 
C 155.829387 48.39358 124.373759 61.422928 101.184626 84.612061 
C 77.995493 107.801195 64.966145 139.256823 64.966145 172.05121 
C 64.966145 204.845596 77.995493 236.301225 101.184626 259.490358 
C 124.373759 282.679491 155.829387 295.708839 188.623774 295.708839 
L 188.623774 295.708839 
z
" clip-path="url(#pcbfd17c8dd)" style="fill: none; stroke: #0c00ff; stroke-linejoin: miter"/>
   </g>
   <g id="patch_80">
    <path d="M 190.294823 297.379888 
C 223.532377 297.379888 255.413081 284.174468 278.915581 260.671968 
C 302.418081 237.169468 315.623501 205.288764 315.623501 172.05121 
C 315.623501 138.813656 302.418081 106.932951 278.915581 83.430451 
C 255.413081 59.927951 223.532377 46.722531 190.294823 46.722531 
C 157.057269 46.722531 125.176564 59.927951 101.674065 83.430451 
C 78.171565 106.932951 64.966145 138.813656 64.966145 172.05121 
C 64.966145 205.288764 78.171565 237.169468 101.674065 260.671968 
C 125.176564 284.174468 157.057269 297.379888 190.294823 297.379888 
L 190.294823 297.379888 
z
" clip-path="url(#pcbfd17c8dd)" style="fill: none; stroke: #1700ff; stroke-linejoin: miter"/>
   </g>
   <g id="patch_81">
    <path d="M 191.965872 299.050937 
C 225.646593 299.050937 257.952374 285.669445 281.76824 261.853578 
C 305.584107 238.037712 318.965599 205.731931 318.965599 172.05121 
C 318.965599 138.370488 305.584107 106.064708 281.76824 82.248841 
C 257.952374 58.432975 225.646593 45.051482 191.965872 45.051482 
C 158.285151 45.051482 125.97937 58.432975 102.163504 82.248841 
C 78.347637 106.064708 64.966145 138.370488 64.966145 172.05121 
C 64.966145 205.731931 78.347637 238.037712 102.163504 261.853578 
C 125.97937 285.669445 158.285151 299.050937 191.965872 299.050937 
L 191.965872 299.050937 
z
" clip-path="url(#pcbfd17c8dd)" style="fill: none; stroke: #2200ff; stroke-linejoin: miter"/>
   </g>
   <g id="patch_82">
    <path d="M 193.636921 300.721986 
C 227.76081 300.721986 260.491666 287.164421 284.6209 263.035188 
C 308.750133 238.905955 322.307697 206.175098 322.307697 172.05121 
C 322.307697 137.927321 308.750133 105.196464 284.6209 81.067231 
C 260.491666 56.937998 227.76081 43.380433 193.636921 43.380433 
C 159.513032 43.380433 126.782176 56.937998 102.652942 81.067231 
C 78.523709 105.196464 64.966145 137.927321 64.966145 172.05121 
C 64.966145 206.175098 78.523709 238.905955 102.652942 263.035188 
C 126.782176 287.164421 159.513032 300.721986 193.636921 300.721986 
L 193.636921 300.721986 
z
" clip-path="url(#pcbfd17c8dd)" style="fill: none; stroke: #2d00ff; stroke-linejoin: miter"/>
   </g>
   <g id="patch_83">
    <path d="M 195.30797 302.393035 
C 229.875026 302.393035 263.030959 288.659398 287.473559 264.216798 
C 311.916159 239.774198 325.649796 206.618266 325.649796 172.05121 
C 325.649796 137.484153 311.916159 104.328221 287.473559 79.885621 
C 263.030959 55.443021 229.875026 41.709384 195.30797 41.709384 
C 160.740914 41.709384 127.584981 55.443021 103.142381 79.885621 
C 78.699782 104.328221 64.966145 137.484153 64.966145 172.05121 
C 64.966145 206.618266 78.699782 239.774198 103.142381 264.216798 
C 127.584981 288.659398 160.740914 302.393035 195.30797 302.393035 
L 195.30797 302.393035 
z
" clip-path="url(#pcbfd17c8dd)" style="fill: none; stroke: #3800ff; stroke-linejoin: miter"/>
   </g>
   <g id="patch_84">
    <path d="M 196.979019 304.064084 
C 231.989243 304.064084 265.570251 290.154375 290.326218 265.398408 
C 315.082184 240.642442 328.991894 207.061433 328.991894 172.05121 
C 328.991894 137.040986 315.082184 103.459977 290.326218 78.704011 
C 265.570251 53.948044 231.989243 40.038335 196.979019 40.038335 
C 161.968796 40.038335 128.387787 53.948044 103.63182 78.704011 
C 78.875854 103.459977 64.966145 137.040986 64.966145 172.05121 
C 64.966145 207.061433 78.875854 240.642442 103.63182 265.398408 
C 128.387787 290.154375 161.968796 304.064084 196.979019 304.064084 
L 196.979019 304.064084 
z
" clip-path="url(#pcbfd17c8dd)" style="fill: none; stroke: #4300ff; stroke-linejoin: miter"/>
   </g>
   <g id="patch_85">
    <path d="M 198.650068 305.735133 
C 234.103459 305.735133 268.109544 291.649352 293.178877 266.580018 
C 318.24821 241.510685 332.333992 207.504601 332.333992 172.05121 
C 332.333992 136.597819 318.24821 102.591734 293.178877 77.522401 
C 268.109544 52.453068 234.103459 38.367286 198.650068 38.367286 
C 163.196677 38.367286 129.190592 52.453068 104.121259 77.522401 
C 79.051926 102.591734 64.966145 136.597819 64.966145 172.05121 
C 64.966145 207.504601 79.051926 241.510685 104.121259 266.580018 
C 129.190592 291.649352 163.196677 305.735133 198.650068 305.735133 
L 198.650068 305.735133 
z
" clip-path="url(#pcbfd17c8dd)" style="fill: none; stroke: #4e00ff; stroke-linejoin: miter"/>
   </g>
   <g id="patch_86">
    <path d="M 200.321117 307.406182 
C 236.217676 307.406182 270.648836 293.144328 296.031536 267.761629 
C 321.414236 242.378929 335.67609 207.947768 335.67609 172.05121 
C 335.67609 136.154651 321.414236 101.72349 296.031536 76.340791 
C 270.648836 50.958091 236.217676 36.696237 200.321117 36.696237 
C 164.424559 36.696237 129.993398 50.958091 104.610698 76.340791 
C 79.227998 101.72349 64.966145 136.154651 64.966145 172.05121 
C 64.966145 207.947768 79.227998 242.378929 104.610698 267.761629 
C 129.993398 293.144328 164.424559 307.406182 200.321117 307.406182 
L 200.321117 307.406182 
z
" clip-path="url(#pcbfd17c8dd)" style="fill: none; stroke: #5800ff; stroke-linejoin: miter"/>
   </g>
   <g id="patch_87">
    <path d="M 201.992166 309.077231 
C 238.331892 309.077231 273.188129 294.639305 298.884195 268.943239 
C 324.580262 243.247172 339.018188 208.390935 339.018188 172.05121 
C 339.018188 135.711484 324.580262 100.855247 298.884195 75.159181 
C 273.188129 49.463114 238.331892 35.025188 201.992166 35.025188 
C 165.652441 35.025188 130.796204 49.463114 105.100137 75.159181 
C 79.404071 100.855247 64.966145 135.711484 64.966145 172.05121 
C 64.966145 208.390935 79.404071 243.247172 105.100137 268.943239 
C 130.796204 294.639305 165.652441 309.077231 201.992166 309.077231 
L 201.992166 309.077231 
z
" clip-path="url(#pcbfd17c8dd)" style="fill: none; stroke: #6300ff; stroke-linejoin: miter"/>
   </g>
   <g id="patch_88">
    <path d="M 203.663215 310.74828 
C 240.446108 310.74828 275.727421 296.134282 301.736855 270.124849 
C 327.746288 244.115416 342.360286 208.834103 342.360286 172.05121 
C 342.360286 135.268317 327.746288 99.987004 301.736855 73.97757 
C 275.727421 47.968137 240.446108 33.354139 203.663215 33.354139 
C 166.880322 33.354139 131.599009 47.968137 105.589576 73.97757 
C 79.580143 99.987004 64.966145 135.268317 64.966145 172.05121 
C 64.966145 208.834103 79.580143 244.115416 105.589576 270.124849 
C 131.599009 296.134282 166.880322 310.74828 203.663215 310.74828 
L 203.663215 310.74828 
z
" clip-path="url(#pcbfd17c8dd)" style="fill: none; stroke: #6d00ff; stroke-linejoin: miter"/>
   </g>
   <g id="patch_89">
    <path d="M 205.334264 312.419329 
C 242.560325 312.419329 278.266714 297.629259 304.589514 271.306459 
C 330.912313 244.983659 345.702384 209.27727 345.702384 172.05121 
C 345.702384 134.825149 330.912313 99.11876 304.589514 72.79596 
C 278.266714 46.47316 242.560325 31.68309 205.334264 31.68309 
C 168.108204 31.68309 132.401815 46.47316 106.079015 72.79596 
C 79.756215 99.11876 64.966145 134.825149 64.966145 172.05121 
C 64.966145 209.27727 79.756215 244.983659 106.079015 271.306459 
C 132.401815 297.629259 168.108204 312.419329 205.334264 312.419329 
L 205.334264 312.419329 
z
" clip-path="url(#pcbfd17c8dd)" style="fill: none; stroke: #7700ff; stroke-linejoin: miter"/>
   </g>
   <g id="patch_90">
    <path d="M 207.005313 314.090378 
C 244.674541 314.090378 280.806006 299.124236 307.442173 272.488069 
C 334.078339 245.851903 349.044482 209.720437 349.044482 172.05121 
C 349.044482 134.381982 334.078339 98.250517 307.442173 71.61435 
C 280.806006 44.978184 244.674541 30.012041 207.005313 30.012041 
C 169.336085 30.012041 133.20462 44.978184 106.568454 71.61435 
C 79.932287 98.250517 64.966145 134.381982 64.966145 172.05121 
C 64.966145 209.720437 79.932287 245.851903 106.568454 272.488069 
C 133.20462 299.124236 169.336085 314.090378 207.005313 314.090378 
L 207.005313 314.090378 
z
" clip-path="url(#pcbfd17c8dd)" style="fill: none; stroke: #8100ff; stroke-linejoin: miter"/>
   </g>
   <g id="patch_91">
    <path d="M 208.676362 315.761427 
C 246.788758 315.761427 283.345299 300.619212 310.294832 273.669679 
C 337.244365 246.720146 352.38658 210.163605 352.38658 172.05121 
C 352.38658 133.938814 337.244365 97.382273 310.294832 70.43274 
C 283.345299 43.483207 246.788758 28.340992 208.676362 28.340992 
C 170.563967 28.340992 134.007426 43.483207 107.057893 70.43274 
C 80.10836 97.382273 64.966145 133.938814 64.966145 172.05121 
C 64.966145 210.163605 80.10836 246.720146 107.057893 273.669679 
C 134.007426 300.619212 170.563967 315.761427 208.676362 315.761427 
L 208.676362 315.761427 
z
" clip-path="url(#pcbfd17c8dd)" style="fill: none; stroke: #8b00ff; stroke-linejoin: miter"/>
   </g>
   <g id="patch_92">
    <path d="M 210.347411 317.432476 
C 248.902974 317.432476 285.884591 302.114189 313.147491 274.851289 
C 340.410391 247.588389 355.728678 210.606772 355.728678 172.05121 
C 355.728678 133.495647 340.410391 96.51403 313.147491 69.25113 
C 285.884591 41.98823 248.902974 26.669943 210.347411 26.669943 
C 171.791849 26.669943 134.810232 41.98823 107.547332 69.25113 
C 80.284432 96.51403 64.966145 133.495647 64.966145 172.05121 
C 64.966145 210.606772 80.284432 247.588389 107.547332 274.851289 
C 134.810232 302.114189 171.791849 317.432476 210.347411 317.432476 
L 210.347411 317.432476 
z
" clip-path="url(#pcbfd17c8dd)" style="fill: none; stroke: #9500ff; stroke-linejoin: miter"/>
   </g>
   <g id="patch_93">
    <path d="M 212.018461 319.103526 
C 251.017191 319.103526 288.423884 303.609166 316.00015 276.032899 
C 343.576417 248.456633 359.070776 211.04994 359.070776 172.05121 
C 359.070776 133.05248 343.576417 95.645786 316.00015 68.06952 
C 288.423884 40.493253 251.017191 24.998894 212.018461 24.998894 
C 173.01973 24.998894 135.613037 40.493253 108.036771 68.06952 
C 80.460504 95.645786 64.966145 133.05248 64.966145 172.05121 
C 64.966145 211.04994 80.460504 248.456633 108.036771 276.032899 
C 135.613037 303.609166 173.01973 319.103526 212.018461 319.103526 
L 212.018461 319.103526 
z
" clip-path="url(#pcbfd17c8dd)" style="fill: none; stroke: #9f00ff; stroke-linejoin: miter"/>
   </g>
   <g id="patch_94">
    <path d="M 213.68951 320.774575 
C 253.131407 320.774575 290.963176 305.104143 318.852809 277.214509 
C 346.742443 249.324876 362.412875 211.493107 362.412875 172.05121 
C 362.412875 132.609312 346.742443 94.777543 318.852809 66.88791 
C 290.963176 38.998277 253.131407 23.327845 213.68951 23.327845 
C 174.247612 23.327845 136.415843 38.998277 108.52621 66.88791 
C 80.636577 94.777543 64.966145 132.609312 64.966145 172.05121 
C 64.966145 211.493107 80.636577 249.324876 108.52621 277.214509 
C 136.415843 305.104143 174.247612 320.774575 213.68951 320.774575 
L 213.68951 320.774575 
z
" clip-path="url(#pcbfd17c8dd)" style="fill: none; stroke: #a900ff; stroke-linejoin: miter"/>
   </g>
   <g id="patch_95">
    <path d="M 215.360559 322.445624 
C 255.245623 322.445624 293.502469 306.599119 321.705469 278.39612 
C 349.908468 250.19312 365.754973 211.936274 365.754973 172.05121 
C 365.754973 132.166145 349.908468 93.909299 321.705469 65.7063 
C 293.502469 37.5033 255.245623 21.656796 215.360559 21.656796 
C 175.475494 21.656796 137.218648 37.5033 109.015649 65.7063 
C 80.812649 93.909299 64.966145 132.166145 64.966145 172.05121 
C 64.966145 211.936274 80.812649 250.19312 109.015649 278.39612 
C 137.218648 306.599119 175.475494 322.445624 215.360559 322.445624 
L 215.360559 322.445624 
z
" clip-path="url(#pcbfd17c8dd)" style="fill: none; stroke: #b200ff; stroke-linejoin: miter"/>
   </g>
   <g id="patch_96">
    <path d="M 217.031608 324.116673 
C 257.35984 324.116673 296.041761 308.094096 324.558128 279.57773 
C 353.074494 251.061363 369.097071 212.379442 369.097071 172.05121 
C 369.097071 131.722977 353.074494 93.041056 324.558128 64.52469 
C 296.041761 36.008323 257.35984 19.985747 217.031608 19.985747 
C 176.703375 19.985747 138.021454 36.008323 109.505088 64.52469 
C 80.988721 93.041056 64.966145 131.722977 64.966145 172.05121 
C 64.966145 212.379442 80.988721 251.061363 109.505088 279.57773 
C 138.021454 308.094096 176.703375 324.116673 217.031608 324.116673 
L 217.031608 324.116673 
z
" clip-path="url(#pcbfd17c8dd)" style="fill: none; stroke: #bc00ff; stroke-linejoin: miter"/>
   </g>
   <g id="patch_97">
    <path d="M 218.702657 325.787722 
C 259.474056 325.787722 298.581054 309.589073 327.410787 280.75934 
C 356.24052 251.929607 372.439169 212.822609 372.439169 172.05121 
C 372.439169 131.27981 356.24052 92.172813 327.410787 63.343079 
C 298.581054 34.513346 259.474056 18.314698 218.702657 18.314698 
C 177.931257 18.314698 138.82426 34.513346 109.994526 63.343079 
C 81.164793 92.172813 64.966145 131.27981 64.966145 172.05121 
C 64.966145 212.822609 81.164793 251.929607 109.994526 280.75934 
C 138.82426 309.589073 177.931257 325.787722 218.702657 325.787722 
L 218.702657 325.787722 
z
" clip-path="url(#pcbfd17c8dd)" style="fill: none; stroke: #c500ff; stroke-linejoin: miter"/>
   </g>
   <g id="patch_98">
    <path d="M 220.373706 327.458771 
C 261.588273 327.458771 301.120346 311.08405 330.263446 281.94095 
C 359.406546 252.79785 375.781267 213.265777 375.781267 172.05121 
C 375.781267 130.836643 359.406546 91.304569 330.263446 62.161469 
C 301.120346 33.018369 261.588273 16.643648 220.373706 16.643648 
C 179.159139 16.643648 139.627065 33.018369 110.483965 62.161469 
C 81.340866 91.304569 64.966145 130.836643 64.966145 172.05121 
C 64.966145 213.265777 81.340866 252.79785 110.483965 281.94095 
C 139.627065 311.08405 179.159139 327.458771 220.373706 327.458771 
L 220.373706 327.458771 
z
" clip-path="url(#pcbfd17c8dd)" style="fill: none; stroke: #ce00ff; stroke-linejoin: miter"/>
   </g>
   <g id="patch_99">
    <path d="M 222.044755 329.12982 
C 263.702489 329.12982 303.659639 312.579026 333.116105 283.12256 
C 362.572572 253.666094 379.123365 213.708944 379.123365 172.05121 
C 379.123365 130.393475 362.572572 90.436326 333.116105 60.979859 
C 303.659639 31.523393 263.702489 14.972599 222.044755 14.972599 
C 180.38702 14.972599 140.429871 31.523393 110.973404 60.979859 
C 81.516938 90.436326 64.966145 130.393475 64.966145 172.05121 
C 64.966145 213.708944 81.516938 253.666094 110.973404 283.12256 
C 140.429871 312.579026 180.38702 329.12982 222.044755 329.12982 
L 222.044755 329.12982 
z
" clip-path="url(#pcbfd17c8dd)" style="fill: none; stroke: #d800ff; stroke-linejoin: miter"/>
   </g>
   <g id="patch_100">
    <path d="M 223.715804 330.800869 
C 265.816706 330.800869 306.198931 314.074003 335.968764 284.30417 
C 365.738597 254.534337 382.465463 214.152111 382.465463 172.05121 
C 382.465463 129.950308 365.738597 89.568082 335.968764 59.798249 
C 306.198931 30.028416 265.816706 13.30155 223.715804 13.30155 
C 181.614902 13.30155 141.232676 30.028416 111.462843 59.798249 
C 81.69301 89.568082 64.966145 129.950308 64.966145 172.05121 
C 64.966145 214.152111 81.69301 254.534337 111.462843 284.30417 
C 141.232676 314.074003 181.614902 330.800869 223.715804 330.800869 
L 223.715804 330.800869 
z
" clip-path="url(#pcbfd17c8dd)" style="fill: none; stroke: #e100ff; stroke-linejoin: miter"/>
   </g>
   <g id="patch_101">
    <path d="M 225.386853 332.471918 
C 267.930922 332.471918 308.738224 315.56898 338.821424 285.48578 
C 368.904623 255.40258 385.807561 214.595279 385.807561 172.05121 
C 385.807561 129.50714 368.904623 88.699839 338.821424 58.616639 
C 308.738224 28.533439 267.930922 11.630501 225.386853 11.630501 
C 182.842784 11.630501 142.035482 28.533439 111.952282 58.616639 
C 81.869082 88.699839 64.966145 129.50714 64.966145 172.05121 
C 64.966145 214.595279 81.869082 255.40258 111.952282 285.48578 
C 142.035482 315.56898 182.842784 332.471918 225.386853 332.471918 
L 225.386853 332.471918 
z
" clip-path="url(#pcbfd17c8dd)" style="fill: none; stroke: #e900ff; stroke-linejoin: miter"/>
   </g>
   <g id="patch_102">
    <path d="M 227.057902 334.142967 
C 270.045138 334.142967 311.277516 317.063957 341.674083 286.66739 
C 372.070649 256.270824 389.149659 215.038446 389.149659 172.05121 
C 389.149659 129.063973 372.070649 87.831595 341.674083 57.435029 
C 311.277516 27.038462 270.045138 9.959452 227.057902 9.959452 
C 184.070665 9.959452 142.838288 27.038462 112.441721 57.435029 
C 82.045155 87.831595 64.966145 129.063973 64.966145 172.05121 
C 64.966145 215.038446 82.045155 256.270824 112.441721 286.66739 
C 142.838288 317.063957 184.070665 334.142967 227.057902 334.142967 
L 227.057902 334.142967 
z
" clip-path="url(#pcbfd17c8dd)" style="fill: none; stroke: #f200ff; stroke-linejoin: miter"/>
   </g>
   <g id="patch_103">
    <path d="M 228.728951 335.814016 
C 272.159355 335.814016 313.816809 318.558934 344.526742 287.849 
C 375.236675 257.139067 392.491757 215.481614 392.491757 172.05121 
C 392.491757 128.620806 375.236675 86.963352 344.526742 56.253419 
C 313.816809 25.543486 272.159355 8.288403 228.728951 8.288403 
C 185.298547 8.288403 143.641093 25.543486 112.93116 56.253419 
C 82.221227 86.963352 64.966145 128.620806 64.966145 172.05121 
C 64.966145 215.481614 82.221227 257.139067 112.93116 287.849 
C 143.641093 318.558934 185.298547 335.814016 228.728951 335.814016 
L 228.728951 335.814016 
z
" clip-path="url(#pcbfd17c8dd)" style="fill: none; stroke: #fb00ff; stroke-linejoin: miter"/>
   </g>
   <g id="patch_104">
    <path d="M 230.4 337.485065 
C 274.273571 337.485065 316.356101 320.05391 347.379401 289.030611 
C 378.402701 258.007311 395.833855 215.924781 395.833855 172.05121 
C 395.833855 128.177638 378.402701 86.095108 347.379401 55.071809 
C 316.356101 24.048509 274.273571 6.617354 230.4 6.617354 
C 186.526429 6.617354 144.443899 24.048509 113.420599 55.071809 
C 82.397299 86.095108 64.966145 128.177638 64.966145 172.05121 
C 64.966145 215.924781 82.397299 258.007311 113.420599 289.030611 
C 144.443899 320.05391 186.526429 337.485065 230.4 337.485065 
L 230.4 337.485065 
z
" clip-path="url(#pcbfd17c8dd)" style="fill: none; stroke: #ff00fb; stroke-linejoin: miter"/>
   </g>
  </g>
 </g>
 <defs>
  <clipPath id="pcbfd17c8dd">
   <rect x="58.34879" y="0" width="344.102419" height="344.102419"/>
  </clipPath>
 </defs>
</svg>
