<?xml version="1.0" encoding="utf-8" standalone="no"?>
<!DOCTYPE svg PUBLIC "-//W3C//DTD SVG 1.1//EN"
  "http://www.w3.org/Graphics/SVG/1.1/DTD/svg11.dtd">
<svg xmlns:xlink="http://www.w3.org/1999/xlink" width="460.8pt" height="345.6pt" viewBox="0 0 460.8 345.6" xmlns="http://www.w3.org/2000/svg" version="1.1">
 <metadata>
  <rdf:RDF xmlns:dc="http://purl.org/dc/elements/1.1/" xmlns:cc="http://creativecommons.org/ns#" xmlns:rdf="http://www.w3.org/1999/02/22-rdf-syntax-ns#">
   <cc:Work>
    <dc:type rdf:resource="http://purl.org/dc/dcmitype/StillImage"/>
    <dc:date>2022-05-16T19:39:24.547930</dc:date>
    <dc:format>image/svg+xml</dc:format>
    <dc:creator>
     <cc:Agent>
      <dc:title>Matplotlib v3.5.1, https://matplotlib.org/</dc:title>
     </cc:Agent>
    </dc:creator>
   </cc:Work>
  </rdf:RDF>
 </metadata>
 <defs>
  <style type="text/css">*{stroke-linejoin: round; stroke-linecap: butt}</style>
 </defs>
 <g id="figure_1">
  <g id="patch_1">
   <path d="M 0 345.6 
L 460.8 345.6 
L 460.8 0 
L 0 0 
z
" style="fill: #ffffff"/>
  </g>
  <g id="axes_1">
   <g id="patch_2">
    <path d="M 15.781362 334.520722 
L 459.293882 334.520722 
L 459.293882 0 
L 15.781362 0 
z
" style="fill: #ffffff"/>
   </g>
   <g id="matplotlib.axis_1">
    <g id="xtick_1">
     <g id="line2d_1">
      <defs>
       <path id="mb534bbd160" d="M 0 0 
L 0 3.5 
" style="stroke: #000000; stroke-width: 0.8"/>
      </defs>
      <g>
       <use xlink:href="#mb534bbd160" x="20.002829" y="328.087631" style="stroke: #000000; stroke-width: 0.8"/>
      </g>
     </g>
    </g>
    <g id="xtick_2">
     <g id="line2d_2">
      <g>
       <use xlink:href="#mb534bbd160" x="106.155222" y="328.087631" style="stroke: #000000; stroke-width: 0.8"/>
      </g>
     </g>
     <g id="text_1">
      <!-- 20 -->
      <g transform="translate(99.792722 342.686069)scale(0.1 -0.1)">
       <defs>
        <path id="DejaVuSans-32" d="M 1228 531 
L 3431 531 
L 3431 0 
L 469 0 
L 469 531 
Q 828 903 1448 1529 
Q 2069 2156 2228 2338 
Q 2531 2678 2651 2914 
Q 2772 3150 2772 3378 
Q 2772 3750 2511 3984 
Q 2250 4219 1831 4219 
Q 1534 4219 1204 4116 
Q 875 4013 500 3803 
L 500 4441 
Q 881 4594 1212 4672 
Q 1544 4750 1819 4750 
Q 2544 4750 2975 4387 
Q 3406 4025 3406 3419 
Q 3406 3131 3298 2873 
Q 3191 2616 2906 2266 
Q 2828 2175 2409 1742 
Q 1991 1309 1228 531 
z
" transform="scale(0.015625)"/>
        <path id="DejaVuSans-30" d="M 2034 4250 
Q 1547 4250 1301 3770 
Q 1056 3291 1056 2328 
Q 1056 1369 1301 889 
Q 1547 409 2034 409 
Q 2525 409 2770 889 
Q 3016 1369 3016 2328 
Q 3016 3291 2770 3770 
Q 2525 4250 2034 4250 
z
M 2034 4750 
Q 2819 4750 3233 4129 
Q 3647 3509 3647 2328 
Q 3647 1150 3233 529 
Q 2819 -91 2034 -91 
Q 1250 -91 836 529 
Q 422 1150 422 2328 
Q 422 3509 836 4129 
Q 1250 4750 2034 4750 
z
" transform="scale(0.015625)"/>
       </defs>
       <use xlink:href="#DejaVuSans-32"/>
       <use xlink:href="#DejaVuSans-30" x="63.623047"/>
      </g>
     </g>
    </g>
    <g id="xtick_3">
     <g id="line2d_3">
      <g>
       <use xlink:href="#mb534bbd160" x="192.307615" y="328.087631" style="stroke: #000000; stroke-width: 0.8"/>
      </g>
     </g>
     <g id="text_2">
      <!-- 40 -->
      <g transform="translate(185.945115 342.686069)scale(0.1 -0.1)">
       <defs>
        <path id="DejaVuSans-34" d="M 2419 4116 
L 825 1625 
L 2419 1625 
L 2419 4116 
z
M 2253 4666 
L 3047 4666 
L 3047 1625 
L 3713 1625 
L 3713 1100 
L 3047 1100 
L 3047 0 
L 2419 0 
L 2419 1100 
L 313 1100 
L 313 1709 
L 2253 4666 
z
" transform="scale(0.015625)"/>
       </defs>
       <use xlink:href="#DejaVuSans-34"/>
       <use xlink:href="#DejaVuSans-30" x="63.623047"/>
      </g>
     </g>
    </g>
    <g id="xtick_4">
     <g id="line2d_4">
      <g>
       <use xlink:href="#mb534bbd160" x="278.460008" y="328.087631" style="stroke: #000000; stroke-width: 0.8"/>
      </g>
     </g>
     <g id="text_3">
      <!-- 60 -->
      <g transform="translate(272.097508 342.686069)scale(0.1 -0.1)">
       <defs>
        <path id="DejaVuSans-36" d="M 2113 2584 
Q 1688 2584 1439 2293 
Q 1191 2003 1191 1497 
Q 1191 994 1439 701 
Q 1688 409 2113 409 
Q 2538 409 2786 701 
Q 3034 994 3034 1497 
Q 3034 2003 2786 2293 
Q 2538 2584 2113 2584 
z
M 3366 4563 
L 3366 3988 
Q 3128 4100 2886 4159 
Q 2644 4219 2406 4219 
Q 1781 4219 1451 3797 
Q 1122 3375 1075 2522 
Q 1259 2794 1537 2939 
Q 1816 3084 2150 3084 
Q 2853 3084 3261 2657 
Q 3669 2231 3669 1497 
Q 3669 778 3244 343 
Q 2819 -91 2113 -91 
Q 1303 -91 875 529 
Q 447 1150 447 2328 
Q 447 3434 972 4092 
Q 1497 4750 2381 4750 
Q 2619 4750 2861 4703 
Q 3103 4656 3366 4563 
z
" transform="scale(0.015625)"/>
       </defs>
       <use xlink:href="#DejaVuSans-36"/>
       <use xlink:href="#DejaVuSans-30" x="63.623047"/>
      </g>
     </g>
    </g>
    <g id="xtick_5">
     <g id="line2d_5">
      <g>
       <use xlink:href="#mb534bbd160" x="364.612402" y="328.087631" style="stroke: #000000; stroke-width: 0.8"/>
      </g>
     </g>
     <g id="text_4">
      <!-- 80 -->
      <g transform="translate(358.249902 342.686069)scale(0.1 -0.1)">
       <defs>
        <path id="DejaVuSans-38" d="M 2034 2216 
Q 1584 2216 1326 1975 
Q 1069 1734 1069 1313 
Q 1069 891 1326 650 
Q 1584 409 2034 409 
Q 2484 409 2743 651 
Q 3003 894 3003 1313 
Q 3003 1734 2745 1975 
Q 2488 2216 2034 2216 
z
M 1403 2484 
Q 997 2584 770 2862 
Q 544 3141 544 3541 
Q 544 4100 942 4425 
Q 1341 4750 2034 4750 
Q 2731 4750 3128 4425 
Q 3525 4100 3525 3541 
Q 3525 3141 3298 2862 
Q 3072 2584 2669 2484 
Q 3125 2378 3379 2068 
Q 3634 1759 3634 1313 
Q 3634 634 3220 271 
Q 2806 -91 2034 -91 
Q 1263 -91 848 271 
Q 434 634 434 1313 
Q 434 1759 690 2068 
Q 947 2378 1403 2484 
z
M 1172 3481 
Q 1172 3119 1398 2916 
Q 1625 2713 2034 2713 
Q 2441 2713 2670 2916 
Q 2900 3119 2900 3481 
Q 2900 3844 2670 4047 
Q 2441 4250 2034 4250 
Q 1625 4250 1398 4047 
Q 1172 3844 1172 3481 
z
" transform="scale(0.015625)"/>
       </defs>
       <use xlink:href="#DejaVuSans-38"/>
       <use xlink:href="#DejaVuSans-30" x="63.623047"/>
      </g>
     </g>
    </g>
    <g id="xtick_6">
     <g id="line2d_6">
      <g>
       <use xlink:href="#mb534bbd160" x="450.764795" y="328.087631" style="stroke: #000000; stroke-width: 0.8"/>
      </g>
     </g>
     <g id="text_5">
      <!-- 100 -->
      <g transform="translate(441.221045 342.686069)scale(0.1 -0.1)">
       <defs>
        <path id="DejaVuSans-31" d="M 794 531 
L 1825 531 
L 1825 4091 
L 703 3866 
L 703 4441 
L 1819 4666 
L 2450 4666 
L 2450 531 
L 3481 531 
L 3481 0 
L 794 0 
L 794 531 
z
" transform="scale(0.015625)"/>
       </defs>
       <use xlink:href="#DejaVuSans-31"/>
       <use xlink:href="#DejaVuSans-30" x="63.623047"/>
       <use xlink:href="#DejaVuSans-30" x="127.246094"/>
      </g>
     </g>
    </g>
    <g id="xtick_7">
     <g id="line2d_7">
      <defs>
       <path id="me8a111d5d9" d="M 0 0 
L 0 2 
" style="stroke: #000000; stroke-width: 0.6"/>
      </defs>
      <g>
       <use xlink:href="#me8a111d5d9" x="41.540927" y="328.087631" style="stroke: #000000; stroke-width: 0.6"/>
      </g>
     </g>
    </g>
    <g id="xtick_8">
     <g id="line2d_8">
      <g>
       <use xlink:href="#me8a111d5d9" x="63.079025" y="328.087631" style="stroke: #000000; stroke-width: 0.6"/>
      </g>
     </g>
    </g>
    <g id="xtick_9">
     <g id="line2d_9">
      <g>
       <use xlink:href="#me8a111d5d9" x="84.617124" y="328.087631" style="stroke: #000000; stroke-width: 0.6"/>
      </g>
     </g>
    </g>
    <g id="xtick_10">
     <g id="line2d_10">
      <g>
       <use xlink:href="#me8a111d5d9" x="127.69332" y="328.087631" style="stroke: #000000; stroke-width: 0.6"/>
      </g>
     </g>
    </g>
    <g id="xtick_11">
     <g id="line2d_11">
      <g>
       <use xlink:href="#me8a111d5d9" x="149.231419" y="328.087631" style="stroke: #000000; stroke-width: 0.6"/>
      </g>
     </g>
    </g>
    <g id="xtick_12">
     <g id="line2d_12">
      <g>
       <use xlink:href="#me8a111d5d9" x="170.769517" y="328.087631" style="stroke: #000000; stroke-width: 0.6"/>
      </g>
     </g>
    </g>
    <g id="xtick_13">
     <g id="line2d_13">
      <g>
       <use xlink:href="#me8a111d5d9" x="213.845714" y="328.087631" style="stroke: #000000; stroke-width: 0.6"/>
      </g>
     </g>
    </g>
    <g id="xtick_14">
     <g id="line2d_14">
      <g>
       <use xlink:href="#me8a111d5d9" x="235.383812" y="328.087631" style="stroke: #000000; stroke-width: 0.6"/>
      </g>
     </g>
    </g>
    <g id="xtick_15">
     <g id="line2d_15">
      <g>
       <use xlink:href="#me8a111d5d9" x="256.92191" y="328.087631" style="stroke: #000000; stroke-width: 0.6"/>
      </g>
     </g>
    </g>
    <g id="xtick_16">
     <g id="line2d_16">
      <g>
       <use xlink:href="#me8a111d5d9" x="299.998107" y="328.087631" style="stroke: #000000; stroke-width: 0.6"/>
      </g>
     </g>
    </g>
    <g id="xtick_17">
     <g id="line2d_17">
      <g>
       <use xlink:href="#me8a111d5d9" x="321.536205" y="328.087631" style="stroke: #000000; stroke-width: 0.6"/>
      </g>
     </g>
    </g>
    <g id="xtick_18">
     <g id="line2d_18">
      <g>
       <use xlink:href="#me8a111d5d9" x="343.074303" y="328.087631" style="stroke: #000000; stroke-width: 0.6"/>
      </g>
     </g>
    </g>
    <g id="xtick_19">
     <g id="line2d_19">
      <g>
       <use xlink:href="#me8a111d5d9" x="386.1505" y="328.087631" style="stroke: #000000; stroke-width: 0.6"/>
      </g>
     </g>
    </g>
    <g id="xtick_20">
     <g id="line2d_20">
      <g>
       <use xlink:href="#me8a111d5d9" x="407.688598" y="328.087631" style="stroke: #000000; stroke-width: 0.6"/>
      </g>
     </g>
    </g>
    <g id="xtick_21">
     <g id="line2d_21">
      <g>
       <use xlink:href="#me8a111d5d9" x="429.226697" y="328.087631" style="stroke: #000000; stroke-width: 0.6"/>
      </g>
     </g>
    </g>
   </g>
   <g id="matplotlib.axis_2">
    <g id="ytick_1">
     <g id="line2d_22">
      <defs>
       <path id="m7012c22502" d="M 0 0 
L -3.5 0 
" style="stroke: #000000; stroke-width: 0.8"/>
      </defs>
      <g>
       <use xlink:href="#m7012c22502" x="20.002829" y="328.087631" style="stroke: #000000; stroke-width: 0.8"/>
      </g>
     </g>
    </g>
    <g id="ytick_2">
     <g id="line2d_23">
      <g>
       <use xlink:href="#m7012c22502" x="20.002829" y="263.756723" style="stroke: #000000; stroke-width: 0.8"/>
      </g>
     </g>
     <g id="text_6">
      <!-- 5 -->
      <g transform="translate(6.640329 267.555942)scale(0.1 -0.1)">
       <defs>
        <path id="DejaVuSans-35" d="M 691 4666 
L 3169 4666 
L 3169 4134 
L 1269 4134 
L 1269 2991 
Q 1406 3038 1543 3061 
Q 1681 3084 1819 3084 
Q 2600 3084 3056 2656 
Q 3513 2228 3513 1497 
Q 3513 744 3044 326 
Q 2575 -91 1722 -91 
Q 1428 -91 1123 -41 
Q 819 9 494 109 
L 494 744 
Q 775 591 1075 516 
Q 1375 441 1709 441 
Q 2250 441 2565 725 
Q 2881 1009 2881 1497 
Q 2881 1984 2565 2268 
Q 2250 2553 1709 2553 
Q 1456 2553 1204 2497 
Q 953 2441 691 2322 
L 691 4666 
z
" transform="scale(0.015625)"/>
       </defs>
       <use xlink:href="#DejaVuSans-35"/>
      </g>
     </g>
    </g>
    <g id="ytick_3">
     <g id="line2d_24">
      <g>
       <use xlink:href="#m7012c22502" x="20.002829" y="199.425815" style="stroke: #000000; stroke-width: 0.8"/>
      </g>
     </g>
     <g id="text_7">
      <!-- 10 -->
      <g transform="translate(0.277829 203.225034)scale(0.1 -0.1)">
       <use xlink:href="#DejaVuSans-31"/>
       <use xlink:href="#DejaVuSans-30" x="63.623047"/>
      </g>
     </g>
    </g>
    <g id="ytick_4">
     <g id="line2d_25">
      <g>
       <use xlink:href="#m7012c22502" x="20.002829" y="135.094907" style="stroke: #000000; stroke-width: 0.8"/>
      </g>
     </g>
     <g id="text_8">
      <!-- 15 -->
      <g transform="translate(0.277829 138.894126)scale(0.1 -0.1)">
       <use xlink:href="#DejaVuSans-31"/>
       <use xlink:href="#DejaVuSans-35" x="63.623047"/>
      </g>
     </g>
    </g>
    <g id="ytick_5">
     <g id="line2d_26">
      <g>
       <use xlink:href="#m7012c22502" x="20.002829" y="70.763999" style="stroke: #000000; stroke-width: 0.8"/>
      </g>
     </g>
     <g id="text_9">
      <!-- 20 -->
      <g transform="translate(0.277829 74.563218)scale(0.1 -0.1)">
       <use xlink:href="#DejaVuSans-32"/>
       <use xlink:href="#DejaVuSans-30" x="63.623047"/>
      </g>
     </g>
    </g>
    <g id="ytick_6">
     <g id="line2d_27">
      <g>
       <use xlink:href="#m7012c22502" x="20.002829" y="6.433091" style="stroke: #000000; stroke-width: 0.8"/>
      </g>
     </g>
     <g id="text_10">
      <!-- 25 -->
      <g transform="translate(0.277829 10.23231)scale(0.1 -0.1)">
       <use xlink:href="#DejaVuSans-32"/>
       <use xlink:href="#DejaVuSans-35" x="63.623047"/>
      </g>
     </g>
    </g>
    <g id="ytick_7">
     <g id="line2d_28">
      <defs>
       <path id="m5a58202648" d="M 0 0 
L -2 0 
" style="stroke: #000000; stroke-width: 0.6"/>
      </defs>
      <g>
       <use xlink:href="#m5a58202648" x="20.002829" y="315.221449" style="stroke: #000000; stroke-width: 0.6"/>
      </g>
     </g>
    </g>
    <g id="ytick_8">
     <g id="line2d_29">
      <g>
       <use xlink:href="#m5a58202648" x="20.002829" y="302.355268" style="stroke: #000000; stroke-width: 0.6"/>
      </g>
     </g>
    </g>
    <g id="ytick_9">
     <g id="line2d_30">
      <g>
       <use xlink:href="#m5a58202648" x="20.002829" y="289.489086" style="stroke: #000000; stroke-width: 0.6"/>
      </g>
     </g>
    </g>
    <g id="ytick_10">
     <g id="line2d_31">
      <g>
       <use xlink:href="#m5a58202648" x="20.002829" y="276.622905" style="stroke: #000000; stroke-width: 0.6"/>
      </g>
     </g>
    </g>
    <g id="ytick_11">
     <g id="line2d_32">
      <g>
       <use xlink:href="#m5a58202648" x="20.002829" y="250.890541" style="stroke: #000000; stroke-width: 0.6"/>
      </g>
     </g>
    </g>
    <g id="ytick_12">
     <g id="line2d_33">
      <g>
       <use xlink:href="#m5a58202648" x="20.002829" y="238.02436" style="stroke: #000000; stroke-width: 0.6"/>
      </g>
     </g>
    </g>
    <g id="ytick_13">
     <g id="line2d_34">
      <g>
       <use xlink:href="#m5a58202648" x="20.002829" y="225.158178" style="stroke: #000000; stroke-width: 0.6"/>
      </g>
     </g>
    </g>
    <g id="ytick_14">
     <g id="line2d_35">
      <g>
       <use xlink:href="#m5a58202648" x="20.002829" y="212.291997" style="stroke: #000000; stroke-width: 0.6"/>
      </g>
     </g>
    </g>
    <g id="ytick_15">
     <g id="line2d_36">
      <g>
       <use xlink:href="#m5a58202648" x="20.002829" y="186.559633" style="stroke: #000000; stroke-width: 0.6"/>
      </g>
     </g>
    </g>
    <g id="ytick_16">
     <g id="line2d_37">
      <g>
       <use xlink:href="#m5a58202648" x="20.002829" y="173.693452" style="stroke: #000000; stroke-width: 0.6"/>
      </g>
     </g>
    </g>
    <g id="ytick_17">
     <g id="line2d_38">
      <g>
       <use xlink:href="#m5a58202648" x="20.002829" y="160.82727" style="stroke: #000000; stroke-width: 0.6"/>
      </g>
     </g>
    </g>
    <g id="ytick_18">
     <g id="line2d_39">
      <g>
       <use xlink:href="#m5a58202648" x="20.002829" y="147.961089" style="stroke: #000000; stroke-width: 0.6"/>
      </g>
     </g>
    </g>
    <g id="ytick_19">
     <g id="line2d_40">
      <g>
       <use xlink:href="#m5a58202648" x="20.002829" y="122.228725" style="stroke: #000000; stroke-width: 0.6"/>
      </g>
     </g>
    </g>
    <g id="ytick_20">
     <g id="line2d_41">
      <g>
       <use xlink:href="#m5a58202648" x="20.002829" y="109.362544" style="stroke: #000000; stroke-width: 0.6"/>
      </g>
     </g>
    </g>
    <g id="ytick_21">
     <g id="line2d_42">
      <g>
       <use xlink:href="#m5a58202648" x="20.002829" y="96.496362" style="stroke: #000000; stroke-width: 0.6"/>
      </g>
     </g>
    </g>
    <g id="ytick_22">
     <g id="line2d_43">
      <g>
       <use xlink:href="#m5a58202648" x="20.002829" y="83.63018" style="stroke: #000000; stroke-width: 0.6"/>
      </g>
     </g>
    </g>
    <g id="ytick_23">
     <g id="line2d_44">
      <g>
       <use xlink:href="#m5a58202648" x="20.002829" y="57.897817" style="stroke: #000000; stroke-width: 0.6"/>
      </g>
     </g>
    </g>
    <g id="ytick_24">
     <g id="line2d_45">
      <g>
       <use xlink:href="#m5a58202648" x="20.002829" y="45.031636" style="stroke: #000000; stroke-width: 0.6"/>
      </g>
     </g>
    </g>
    <g id="ytick_25">
     <g id="line2d_46">
      <g>
       <use xlink:href="#m5a58202648" x="20.002829" y="32.165454" style="stroke: #000000; stroke-width: 0.6"/>
      </g>
     </g>
    </g>
    <g id="ytick_26">
     <g id="line2d_47">
      <g>
       <use xlink:href="#m5a58202648" x="20.002829" y="19.299272" style="stroke: #000000; stroke-width: 0.6"/>
      </g>
     </g>
    </g>
   </g>
   <g id="line2d_48">
    <path d="M 24.310448 328.087631 
L 26.221346 328.087631 
L 28.191614 328.087631 
L 28.404841 328.087631 
L 28.511455 328.087631 
L 28.564761 328.087631 
" clip-path="url(#pa6cad8ae16)" style="fill: none; stroke: #0000ff; stroke-linecap: square"/>
   </g>
   <g id="line2d_49">
    <path d="M 29.044522 315.221449 
L 29.077076 315.221449 
L 31.774906 315.221449 
L 32.499233 315.221449 
L 32.797504 315.221449 
L 32.872071 315.221449 
" clip-path="url(#pa6cad8ae16)" style="fill: none; stroke: #0000ff; stroke-linecap: square"/>
   </g>
   <g id="line2d_50">
    <path d="M 32.946639 302.355268 
L 33.095774 302.355268 
L 33.352142 302.355268 
L 34.314644 302.355268 
L 37.152557 302.355268 
L 39.188883 302.355268 
L 41.114473 302.355268 
L 41.3277 302.355268 
L 41.434314 302.355268 
L 41.48762 302.355268 
" clip-path="url(#pa6cad8ae16)" style="fill: none; stroke: #0000ff; stroke-linecap: square"/>
   </g>
   <g id="line2d_51">
    <path d="M 41.967381 289.489086 
L 42.255925 289.489086 
L 42.775306 289.489086 
L 45.514461 289.489086 
L 46.921247 289.489086 
L 49.729712 289.489086 
L 49.943769 289.489086 
L 50.050797 289.489086 
L 50.104312 289.489086 
L 50.131069 289.489086 
" clip-path="url(#pa6cad8ae16)" style="fill: none; stroke: #0000ff; stroke-linecap: square"/>
   </g>
   <g id="line2d_52">
    <path d="M 50.582621 276.622905 
L 53.103257 276.622905 
L 53.555105 276.622905 
L 56.384937 276.622905 
L 58.516489 276.622905 
L 59.838501 276.622905 
L 62.431751 276.622905 
L 64.569728 276.622905 
L 66.409258 276.622905 
L 66.960191 276.622905 
L 67.173418 276.622905 
L 67.280031 276.622905 
L 67.333338 276.622905 
" clip-path="url(#pa6cad8ae16)" style="fill: none; stroke: #0000ff; stroke-linecap: square"/>
   </g>
   <g id="line2d_53">
    <path d="M 67.813099 263.756723 
L 69.640946 263.756723 
L 72.176857 263.756723 
L 73.257201 263.756723 
L 75.57543 263.756723 
L 75.788657 263.756723 
L 75.895271 263.756723 
L 75.948578 263.756723 
" clip-path="url(#pa6cad8ae16)" style="fill: none; stroke: #0000ff; stroke-linecap: square"/>
   </g>
   <g id="line2d_54">
    <path d="M 76.428339 250.890541 
L 76.755769 250.890541 
L 77.143976 250.890541 
L 79.54154 250.890541 
L 82.403418 250.890541 
L 84.859332 250.890541 
L 85.563964 250.890541 
L 88.424545 250.890541 
L 91.160181 250.890541 
L 92.805909 250.890541 
L 93.202928 250.890541 
" clip-path="url(#pa6cad8ae16)" style="fill: none; stroke: #0000ff; stroke-linecap: square"/>
   </g>
   <g id="line2d_55">
    <path d="M 93.259914 238.02436 
L 93.3169 238.02436 
L 93.430872 238.02436 
L 93.658817 238.02436 
L 95.752271 238.02436 
L 97.900351 238.02436 
L 100.232863 238.02436 
L 100.752161 238.02436 
L 101.421148 238.02436 
L 101.634375 238.02436 
L 101.740989 238.02436 
L 101.794296 238.02436 
" clip-path="url(#pa6cad8ae16)" style="fill: none; stroke: #0000ff; stroke-linecap: square"/>
   </g>
   <g id="line2d_56">
    <path d="M 102.274057 225.158178 
L 102.742006 225.158178 
L 106.410452 225.158178 
L 107.892309 225.158178 
L 110.99199 225.158178 
L 111.845886 225.158178 
L 114.516674 225.158178 
L 117.523516 225.158178 
L 118.651627 225.158178 
L 118.864854 225.158178 
L 118.971467 225.158178 
L 119.024774 225.158178 
" clip-path="url(#pa6cad8ae16)" style="fill: none; stroke: #0000ff; stroke-linecap: square"/>
   </g>
   <g id="line2d_57">
    <path d="M 119.504535 212.291997 
L 119.628844 212.291997 
L 121.421567 212.291997 
L 122.627792 212.291997 
L 125.29939 212.291997 
L 128.009822 212.291997 
L 128.431086 212.291997 
L 130.924533 212.291997 
L 134.346746 212.291997 
L 136.085425 212.291997 
L 137.849847 212.291997 
L 139.397046 212.291997 
L 141.977628 212.291997 
L 143.548941 212.291997 
L 144.497345 212.291997 
L 144.710572 212.291997 
L 144.817185 212.291997 
L 144.870492 212.291997 
" clip-path="url(#pa6cad8ae16)" style="fill: none; stroke: #0000ff; stroke-linecap: square"/>
   </g>
   <g id="line2d_58">
    <path d="M 145.350253 199.425815 
L 145.978555 199.425815 
L 148.380312 199.425815 
L 149.944142 199.425815 
L 152.8112 199.425815 
L 153.112584 199.425815 
L 153.325811 199.425815 
L 153.432425 199.425815 
L 153.485731 199.425815 
" clip-path="url(#pa6cad8ae16)" style="fill: none; stroke: #0000ff; stroke-linecap: square"/>
   </g>
   <g id="line2d_59">
    <path d="M 153.965493 186.559633 
L 154.277807 186.559633 
L 157.398833 186.559633 
L 158.430985 186.559633 
L 160.769853 186.559633 
L 164.516647 186.559633 
L 166.242347 186.559633 
L 167.457117 186.559633 
L 169.828825 186.559633 
L 173.023539 186.559633 
L 175.085193 186.559633 
L 176.32136 186.559633 
L 178.784173 186.559633 
L 178.958302 186.559633 
L 179.171529 186.559633 
L 179.278143 186.559633 
L 179.331449 186.559633 
" clip-path="url(#pa6cad8ae16)" style="fill: none; stroke: #0000ff; stroke-linecap: square"/>
   </g>
   <g id="line2d_60">
    <path d="M 179.811211 173.693452 
L 181.712632 173.693452 
L 182.180254 173.693452 
L 185.129546 173.693452 
L 186.528278 173.693452 
L 189.991395 173.693452 
L 191.224946 173.693452 
L 193.43626 173.693452 
L 195.178594 173.693452 
L 196.188781 173.693452 
L 196.402008 173.693452 
L 196.508621 173.693452 
L 196.561928 173.693452 
" clip-path="url(#pa6cad8ae16)" style="fill: none; stroke: #0000ff; stroke-linecap: square"/>
   </g>
   <g id="line2d_61">
    <path d="M 197.041689 160.82727 
L 197.744445 160.82727 
L 201.022149 160.82727 
L 201.351449 160.82727 
L 203.815405 160.82727 
L 204.80402 160.82727 
L 205.188329 160.82727 
" clip-path="url(#pa6cad8ae16)" style="fill: none; stroke: #0000ff; stroke-linecap: square"/>
   </g>
   <g id="line2d_62">
    <path d="M 205.284406 147.961089 
L 205.380483 147.961089 
L 205.572638 147.961089 
L 205.656929 147.961089 
L 208.95258 147.961089 
L 210.04207 147.961089 
L 213.01339 147.961089 
L 214.712687 147.961089 
L 216.934545 147.961089 
L 220.247779 147.961089 
L 222.034499 147.961089 
L 222.133651 147.961089 
L 222.32209 147.961089 
L 222.41631 147.961089 
" clip-path="url(#pa6cad8ae16)" style="fill: none; stroke: #0000ff; stroke-linecap: square"/>
   </g>
   <g id="line2d_63">
    <path d="M 222.510529 135.094907 
L 222.887407 135.094907 
L 224.602679 135.094907 
L 225.166392 135.094907 
L 227.938905 135.094907 
L 229.151949 135.094907 
L 233.180856 135.094907 
L 234.697367 135.094907 
L 236.109269 135.094907 
L 238.472546 135.094907 
L 240.204192 135.094907 
L 243.024819 135.094907 
L 245.366068 135.094907 
L 247.460116 135.094907 
L 247.880216 135.094907 
L 248.282811 135.094907 
" clip-path="url(#pa6cad8ae16)" style="fill: none; stroke: #0000ff; stroke-linecap: square"/>
   </g>
   <g id="line2d_64">
    <path d="M 248.339101 122.228725 
L 248.39539 122.228725 
L 248.507968 122.228725 
L 248.733125 122.228725 
L 251.657979 122.228725 
L 254.148956 122.228725 
L 255.946158 122.228725 
L 257.204973 122.228725 
L 259.852887 122.228725 
L 261.354166 122.228725 
L 265.024028 122.228725 
L 266.990999 122.228725 
L 268.540369 122.228725 
L 271.345786 122.228725 
L 273.072334 122.228725 
L 273.725934 122.228725 
L 273.939162 122.228725 
L 274.045775 122.228725 
L 274.099082 122.228725 
" clip-path="url(#pa6cad8ae16)" style="fill: none; stroke: #0000ff; stroke-linecap: square"/>
   </g>
   <g id="line2d_65">
    <path d="M 274.578843 109.362544 
L 275.918696 109.362544 
L 277.660118 109.362544 
L 279.854366 109.362544 
L 281.351315 109.362544 
L 282.341174 109.362544 
L 282.686441 109.362544 
L 282.729599 109.362544 
" clip-path="url(#pa6cad8ae16)" style="fill: none; stroke: #0000ff; stroke-linecap: square"/>
   </g>
   <g id="line2d_66">
    <path d="M 282.859075 96.496362 
L 283.031708 96.496362 
L 283.194082 96.496362 
L 285.979632 96.496362 
L 287.504126 96.496362 
L 289.49916 96.496362 
L 291.88967 96.496362 
L 294.781869 96.496362 
L 295.795935 96.496362 
L 298.69143 96.496362 
L 300.275845 96.496362 
L 301.916604 96.496362 
L 304.641038 96.496362 
L 306.581731 96.496362 
L 308.186892 96.496362 
L 308.400119 96.496362 
L 308.506732 96.496362 
L 308.560039 96.496362 
" clip-path="url(#pa6cad8ae16)" style="fill: none; stroke: #0000ff; stroke-linecap: square"/>
   </g>
   <g id="line2d_67">
    <path d="M 309.0398 83.63018 
L 309.316403 83.63018 
L 312.378275 83.63018 
L 314.394209 83.63018 
L 316.467843 83.63018 
L 317.244845 83.63018 
L 320.911529 83.63018 
L 321.394491 83.63018 
L 324.671996 83.63018 
L 325.41737 83.63018 
L 325.630598 83.63018 
L 325.737211 83.63018 
L 325.790518 83.63018 
" clip-path="url(#pa6cad8ae16)" style="fill: none; stroke: #0000ff; stroke-linecap: square"/>
   </g>
   <g id="line2d_68">
    <path d="M 326.270279 70.763999 
L 326.439559 70.763999 
L 329.095661 70.763999 
L 331.026723 70.763999 
L 332.844208 70.763999 
L 334.03261 70.763999 
L 334.245837 70.763999 
L 334.35245 70.763999 
L 334.405757 70.763999 
" clip-path="url(#pa6cad8ae16)" style="fill: none; stroke: #0000ff; stroke-linecap: square"/>
   </g>
   <g id="line2d_69">
    <path d="M 334.885518 57.897817 
L 335.473261 57.897817 
L 336.660894 57.897817 
L 340.267514 57.897817 
L 341.146728 57.897817 
L 344.271197 57.897817 
L 345.974496 57.897817 
L 348.900319 57.897817 
L 349.128313 57.897817 
L 352.441605 57.897817 
L 353.282775 57.897817 
L 355.755907 57.897817 
L 359.533574 57.897817 
L 359.878328 57.897817 
L 360.116641 57.897817 
L 360.235798 57.897817 
" clip-path="url(#pa6cad8ae16)" style="fill: none; stroke: #0000ff; stroke-linecap: square"/>
   </g>
   <g id="line2d_70">
    <path d="M 360.325166 45.031636 
L 360.354955 45.031636 
L 360.731236 45.031636 
L 361.915199 45.031636 
L 365.726643 45.031636 
L 366.878298 45.031636 
L 369.693031 45.031636 
L 371.348495 45.031636 
L 374.177221 45.031636 
L 375.95874 45.031636 
L 377.108806 45.031636 
L 377.322033 45.031636 
L 377.428647 45.031636 
L 377.481954 45.031636 
" clip-path="url(#pa6cad8ae16)" style="fill: none; stroke: #0000ff; stroke-linecap: square"/>
   </g>
   <g id="line2d_71">
    <path d="M 377.961715 32.165454 
L 378.643428 32.165454 
L 380.194435 32.165454 
L 382.838873 32.165454 
L 385.178041 32.165454 
L 385.73577 32.165454 
L 388.812251 32.165454 
L 390.456052 32.165454 
L 392.556713 32.165454 
L 396.014352 32.165454 
L 398.246648 32.165454 
L 398.979574 32.165454 
L 401.067027 32.165454 
L 402.558276 32.165454 
L 402.954524 32.165454 
L 403.167751 32.165454 
L 403.274365 32.165454 
L 403.327672 32.165454 
" clip-path="url(#pa6cad8ae16)" style="fill: none; stroke: #0000ff; stroke-linecap: square"/>
   </g>
   <g id="line2d_72">
    <path d="M 403.807433 19.299272 
L 405.899684 19.299272 
L 408.948385 19.299272 
L 409.338929 19.299272 
L 411.544603 19.299272 
L 414.510374 19.299272 
L 416.935465 19.299272 
L 418.091419 19.299272 
L 420.013919 19.299272 
L 421.967972 19.299272 
L 424.087206 19.299272 
L 427.256225 19.299272 
L 429.232843 19.299272 
L 431.56946 19.299272 
L 432.946158 19.299272 
L 436.50774 19.299272 
L 437.415482 19.299272 
L 437.628709 19.299272 
L 437.735322 19.299272 
L 437.788629 19.299272 
" clip-path="url(#pa6cad8ae16)" style="fill: none; stroke: #0000ff; stroke-linecap: square"/>
   </g>
   <g id="line2d_73">
    <path d="M 438.26839 6.433091 
L 438.621854 6.433091 
L 439.729157 6.433091 
L 443.234211 6.433091 
L 443.95119 6.433091 
L 447.528367 6.433091 
L 447.565656 6.433091 
L 450.764795 6.433091 
" clip-path="url(#pa6cad8ae16)" style="fill: none; stroke: #0000ff; stroke-linecap: square"/>
   </g>
   <g id="patch_3">
    <path d="M 20.002829 334.520722 
L 20.002829 0 
" style="fill: none; stroke: #000000; stroke-width: 0.8; stroke-linejoin: miter; stroke-linecap: square"/>
   </g>
   <g id="patch_4">
    <path d="M 15.781362 328.087631 
L 459.293882 328.087631 
" style="fill: none; stroke: #000000; stroke-width: 0.8; stroke-linejoin: miter; stroke-linecap: square"/>
   </g>
  </g>
 </g>
 <defs>
  <clipPath id="pa6cad8ae16">
   <rect x="15.781362" y="0" width="443.51252" height="334.520722"/>
  </clipPath>
 </defs>
</svg>
