<?xml version="1.0" encoding="utf-8" standalone="no"?>
<!DOCTYPE svg PUBLIC "-//W3C//DTD SVG 1.1//EN"
  "http://www.w3.org/Graphics/SVG/1.1/DTD/svg11.dtd">
<svg xmlns:xlink="http://www.w3.org/1999/xlink" width="460.8pt" height="345.6pt" viewBox="0 0 460.8 345.6" xmlns="http://www.w3.org/2000/svg" version="1.1">
 <metadata>
  <rdf:RDF xmlns:dc="http://purl.org/dc/elements/1.1/" xmlns:cc="http://creativecommons.org/ns#" xmlns:rdf="http://www.w3.org/1999/02/22-rdf-syntax-ns#">
   <cc:Work>
    <dc:type rdf:resource="http://purl.org/dc/dcmitype/StillImage"/>
    <dc:date>2022-05-16T19:39:32.461179</dc:date>
    <dc:format>image/svg+xml</dc:format>
    <dc:creator>
     <cc:Agent>
      <dc:title>Matplotlib v3.5.1, https://matplotlib.org/</dc:title>
     </cc:Agent>
    </dc:creator>
   </cc:Work>
  </rdf:RDF>
 </metadata>
 <defs>
  <style type="text/css">*{stroke-linejoin: round; stroke-linecap: butt}</style>
 </defs>
 <g id="figure_1">
  <g id="patch_1">
   <path d="M 0 345.6 
L 460.8 345.6 
L 460.8 0 
L 0 0 
z
" style="fill: #ffffff"/>
  </g>
  <g id="axes_1">
   <g id="patch_2">
    <path d="M 65.878694 345.6 
L 394.921306 345.6 
L 394.921306 0 
L 65.878694 0 
z
" style="fill: #ffffff"/>
   </g>
   <g id="matplotlib.axis_1">
    <g id="xtick_1">
     <g id="line2d_1">
      <defs>
       <path id="m4ccc9af4f4" d="M 0 0 
L 0 3.5 
" style="stroke: #000000; stroke-width: 0.8"/>
      </defs>
      <g>
       <use xlink:href="#m4ccc9af4f4" x="147.319359" y="172.811739" style="stroke: #000000; stroke-width: 0.8"/>
      </g>
     </g>
     <g id="text_1">
      <!-- −0.5 -->
      <g transform="translate(135.177953 187.410177)scale(0.1 -0.1)">
       <defs>
        <path id="DejaVuSans-2212" d="M 678 2272 
L 4684 2272 
L 4684 1741 
L 678 1741 
L 678 2272 
z
" transform="scale(0.015625)"/>
        <path id="DejaVuSans-30" d="M 2034 4250 
Q 1547 4250 1301 3770 
Q 1056 3291 1056 2328 
Q 1056 1369 1301 889 
Q 1547 409 2034 409 
Q 2525 409 2770 889 
Q 3016 1369 3016 2328 
Q 3016 3291 2770 3770 
Q 2525 4250 2034 4250 
z
M 2034 4750 
Q 2819 4750 3233 4129 
Q 3647 3509 3647 2328 
Q 3647 1150 3233 529 
Q 2819 -91 2034 -91 
Q 1250 -91 836 529 
Q 422 1150 422 2328 
Q 422 3509 836 4129 
Q 1250 4750 2034 4750 
z
" transform="scale(0.015625)"/>
        <path id="DejaVuSans-2e" d="M 684 794 
L 1344 794 
L 1344 0 
L 684 0 
L 684 794 
z
" transform="scale(0.015625)"/>
        <path id="DejaVuSans-35" d="M 691 4666 
L 3169 4666 
L 3169 4134 
L 1269 4134 
L 1269 2991 
Q 1406 3038 1543 3061 
Q 1681 3084 1819 3084 
Q 2600 3084 3056 2656 
Q 3513 2228 3513 1497 
Q 3513 744 3044 326 
Q 2575 -91 1722 -91 
Q 1428 -91 1123 -41 
Q 819 9 494 109 
L 494 744 
Q 775 591 1075 516 
Q 1375 441 1709 441 
Q 2250 441 2565 725 
Q 2881 1009 2881 1497 
Q 2881 1984 2565 2268 
Q 2250 2553 1709 2553 
Q 1456 2553 1204 2497 
Q 953 2441 691 2322 
L 691 4666 
z
" transform="scale(0.015625)"/>
       </defs>
       <use xlink:href="#DejaVuSans-2212"/>
       <use xlink:href="#DejaVuSans-30" x="83.789062"/>
       <use xlink:href="#DejaVuSans-2e" x="147.412109"/>
       <use xlink:href="#DejaVuSans-35" x="179.199219"/>
      </g>
     </g>
    </g>
    <g id="xtick_2">
     <g id="line2d_2">
      <g>
       <use xlink:href="#m4ccc9af4f4" x="230.402168" y="172.811739" style="stroke: #000000; stroke-width: 0.8"/>
      </g>
     </g>
    </g>
    <g id="xtick_3">
     <g id="line2d_3">
      <g>
       <use xlink:href="#m4ccc9af4f4" x="313.484977" y="172.811739" style="stroke: #000000; stroke-width: 0.8"/>
      </g>
     </g>
     <g id="text_2">
      <!-- 0.5 -->
      <g transform="translate(305.533415 187.410177)scale(0.1 -0.1)">
       <use xlink:href="#DejaVuSans-30"/>
       <use xlink:href="#DejaVuSans-2e" x="63.623047"/>
       <use xlink:href="#DejaVuSans-35" x="95.410156"/>
      </g>
     </g>
    </g>
    <g id="xtick_4">
     <g id="line2d_4">
      <defs>
       <path id="mc2b3ce57f4" d="M 0 0 
L 0 2 
" style="stroke: #000000; stroke-width: 0.6"/>
      </defs>
      <g>
       <use xlink:href="#mc2b3ce57f4" x="80.853112" y="172.811739" style="stroke: #000000; stroke-width: 0.6"/>
      </g>
     </g>
    </g>
    <g id="xtick_5">
     <g id="line2d_5">
      <g>
       <use xlink:href="#mc2b3ce57f4" x="97.469673" y="172.811739" style="stroke: #000000; stroke-width: 0.6"/>
      </g>
     </g>
    </g>
    <g id="xtick_6">
     <g id="line2d_6">
      <g>
       <use xlink:href="#mc2b3ce57f4" x="114.086235" y="172.811739" style="stroke: #000000; stroke-width: 0.6"/>
      </g>
     </g>
    </g>
    <g id="xtick_7">
     <g id="line2d_7">
      <g>
       <use xlink:href="#mc2b3ce57f4" x="130.702797" y="172.811739" style="stroke: #000000; stroke-width: 0.6"/>
      </g>
     </g>
    </g>
    <g id="xtick_8">
     <g id="line2d_8">
      <g>
       <use xlink:href="#mc2b3ce57f4" x="163.935921" y="172.811739" style="stroke: #000000; stroke-width: 0.6"/>
      </g>
     </g>
    </g>
    <g id="xtick_9">
     <g id="line2d_9">
      <g>
       <use xlink:href="#mc2b3ce57f4" x="180.552483" y="172.811739" style="stroke: #000000; stroke-width: 0.6"/>
      </g>
     </g>
    </g>
    <g id="xtick_10">
     <g id="line2d_10">
      <g>
       <use xlink:href="#mc2b3ce57f4" x="197.169044" y="172.811739" style="stroke: #000000; stroke-width: 0.6"/>
      </g>
     </g>
    </g>
    <g id="xtick_11">
     <g id="line2d_11">
      <g>
       <use xlink:href="#mc2b3ce57f4" x="213.785606" y="172.811739" style="stroke: #000000; stroke-width: 0.6"/>
      </g>
     </g>
    </g>
    <g id="xtick_12">
     <g id="line2d_12">
      <g>
       <use xlink:href="#mc2b3ce57f4" x="247.01873" y="172.811739" style="stroke: #000000; stroke-width: 0.6"/>
      </g>
     </g>
    </g>
    <g id="xtick_13">
     <g id="line2d_13">
      <g>
       <use xlink:href="#mc2b3ce57f4" x="263.635292" y="172.811739" style="stroke: #000000; stroke-width: 0.6"/>
      </g>
     </g>
    </g>
    <g id="xtick_14">
     <g id="line2d_14">
      <g>
       <use xlink:href="#mc2b3ce57f4" x="280.251854" y="172.811739" style="stroke: #000000; stroke-width: 0.6"/>
      </g>
     </g>
    </g>
    <g id="xtick_15">
     <g id="line2d_15">
      <g>
       <use xlink:href="#mc2b3ce57f4" x="296.868415" y="172.811739" style="stroke: #000000; stroke-width: 0.6"/>
      </g>
     </g>
    </g>
    <g id="xtick_16">
     <g id="line2d_16">
      <g>
       <use xlink:href="#mc2b3ce57f4" x="330.101539" y="172.811739" style="stroke: #000000; stroke-width: 0.6"/>
      </g>
     </g>
    </g>
    <g id="xtick_17">
     <g id="line2d_17">
      <g>
       <use xlink:href="#mc2b3ce57f4" x="346.718101" y="172.811739" style="stroke: #000000; stroke-width: 0.6"/>
      </g>
     </g>
    </g>
    <g id="xtick_18">
     <g id="line2d_18">
      <g>
       <use xlink:href="#mc2b3ce57f4" x="363.334663" y="172.811739" style="stroke: #000000; stroke-width: 0.6"/>
      </g>
     </g>
    </g>
    <g id="xtick_19">
     <g id="line2d_19">
      <g>
       <use xlink:href="#mc2b3ce57f4" x="379.951224" y="172.811739" style="stroke: #000000; stroke-width: 0.6"/>
      </g>
     </g>
    </g>
   </g>
   <g id="matplotlib.axis_2">
    <g id="ytick_1">
     <g id="line2d_20">
      <defs>
       <path id="mfc0273a53a" d="M 0 0 
L -3.5 0 
" style="stroke: #000000; stroke-width: 0.8"/>
      </defs>
      <g>
       <use xlink:href="#mfc0273a53a" x="230.402168" y="338.977358" style="stroke: #000000; stroke-width: 0.8"/>
      </g>
     </g>
     <g id="text_3">
      <!-- −1.0 -->
      <g transform="translate(199.119356 342.776576)scale(0.1 -0.1)">
       <defs>
        <path id="DejaVuSans-31" d="M 794 531 
L 1825 531 
L 1825 4091 
L 703 3866 
L 703 4441 
L 1819 4666 
L 2450 4666 
L 2450 531 
L 3481 531 
L 3481 0 
L 794 0 
L 794 531 
z
" transform="scale(0.015625)"/>
       </defs>
       <use xlink:href="#DejaVuSans-2212"/>
       <use xlink:href="#DejaVuSans-31" x="83.789062"/>
       <use xlink:href="#DejaVuSans-2e" x="147.412109"/>
       <use xlink:href="#DejaVuSans-30" x="179.199219"/>
      </g>
     </g>
    </g>
    <g id="ytick_2">
     <g id="line2d_21">
      <g>
       <use xlink:href="#mfc0273a53a" x="230.402168" y="255.894548" style="stroke: #000000; stroke-width: 0.8"/>
      </g>
     </g>
     <g id="text_4">
      <!-- −0.5 -->
      <g transform="translate(199.119356 259.693767)scale(0.1 -0.1)">
       <use xlink:href="#DejaVuSans-2212"/>
       <use xlink:href="#DejaVuSans-30" x="83.789062"/>
       <use xlink:href="#DejaVuSans-2e" x="147.412109"/>
       <use xlink:href="#DejaVuSans-35" x="179.199219"/>
      </g>
     </g>
    </g>
    <g id="ytick_3">
     <g id="line2d_22">
      <g>
       <use xlink:href="#mfc0273a53a" x="230.402168" y="172.811739" style="stroke: #000000; stroke-width: 0.8"/>
      </g>
     </g>
    </g>
    <g id="ytick_4">
     <g id="line2d_23">
      <g>
       <use xlink:href="#mfc0273a53a" x="230.402168" y="89.72893" style="stroke: #000000; stroke-width: 0.8"/>
      </g>
     </g>
     <g id="text_5">
      <!-- 0.5 -->
      <g transform="translate(207.499043 93.528149)scale(0.1 -0.1)">
       <use xlink:href="#DejaVuSans-30"/>
       <use xlink:href="#DejaVuSans-2e" x="63.623047"/>
       <use xlink:href="#DejaVuSans-35" x="95.410156"/>
      </g>
     </g>
    </g>
    <g id="ytick_5">
     <g id="line2d_24">
      <g>
       <use xlink:href="#mfc0273a53a" x="230.402168" y="6.646121" style="stroke: #000000; stroke-width: 0.8"/>
      </g>
     </g>
     <g id="text_6">
      <!-- 1.0 -->
      <g transform="translate(207.499043 10.44534)scale(0.1 -0.1)">
       <use xlink:href="#DejaVuSans-31"/>
       <use xlink:href="#DejaVuSans-2e" x="63.623047"/>
       <use xlink:href="#DejaVuSans-30" x="95.410156"/>
      </g>
     </g>
    </g>
    <g id="ytick_6">
     <g id="line2d_25">
      <defs>
       <path id="mc0a33e566f" d="M 0 0 
L -2 0 
" style="stroke: #000000; stroke-width: 0.6"/>
      </defs>
      <g>
       <use xlink:href="#mc0a33e566f" x="230.402168" y="322.360796" style="stroke: #000000; stroke-width: 0.6"/>
      </g>
     </g>
    </g>
    <g id="ytick_7">
     <g id="line2d_26">
      <g>
       <use xlink:href="#mc0a33e566f" x="230.402168" y="305.744234" style="stroke: #000000; stroke-width: 0.6"/>
      </g>
     </g>
    </g>
    <g id="ytick_8">
     <g id="line2d_27">
      <g>
       <use xlink:href="#mc0a33e566f" x="230.402168" y="289.127672" style="stroke: #000000; stroke-width: 0.6"/>
      </g>
     </g>
    </g>
    <g id="ytick_9">
     <g id="line2d_28">
      <g>
       <use xlink:href="#mc0a33e566f" x="230.402168" y="272.51111" style="stroke: #000000; stroke-width: 0.6"/>
      </g>
     </g>
    </g>
    <g id="ytick_10">
     <g id="line2d_29">
      <g>
       <use xlink:href="#mc0a33e566f" x="230.402168" y="239.277987" style="stroke: #000000; stroke-width: 0.6"/>
      </g>
     </g>
    </g>
    <g id="ytick_11">
     <g id="line2d_30">
      <g>
       <use xlink:href="#mc0a33e566f" x="230.402168" y="222.661425" style="stroke: #000000; stroke-width: 0.6"/>
      </g>
     </g>
    </g>
    <g id="ytick_12">
     <g id="line2d_31">
      <g>
       <use xlink:href="#mc0a33e566f" x="230.402168" y="206.044863" style="stroke: #000000; stroke-width: 0.6"/>
      </g>
     </g>
    </g>
    <g id="ytick_13">
     <g id="line2d_32">
      <g>
       <use xlink:href="#mc0a33e566f" x="230.402168" y="189.428301" style="stroke: #000000; stroke-width: 0.6"/>
      </g>
     </g>
    </g>
    <g id="ytick_14">
     <g id="line2d_33">
      <g>
       <use xlink:href="#mc0a33e566f" x="230.402168" y="156.195177" style="stroke: #000000; stroke-width: 0.6"/>
      </g>
     </g>
    </g>
    <g id="ytick_15">
     <g id="line2d_34">
      <g>
       <use xlink:href="#mc0a33e566f" x="230.402168" y="139.578616" style="stroke: #000000; stroke-width: 0.6"/>
      </g>
     </g>
    </g>
    <g id="ytick_16">
     <g id="line2d_35">
      <g>
       <use xlink:href="#mc0a33e566f" x="230.402168" y="122.962054" style="stroke: #000000; stroke-width: 0.6"/>
      </g>
     </g>
    </g>
    <g id="ytick_17">
     <g id="line2d_36">
      <g>
       <use xlink:href="#mc0a33e566f" x="230.402168" y="106.345492" style="stroke: #000000; stroke-width: 0.6"/>
      </g>
     </g>
    </g>
    <g id="ytick_18">
     <g id="line2d_37">
      <g>
       <use xlink:href="#mc0a33e566f" x="230.402168" y="73.112368" style="stroke: #000000; stroke-width: 0.6"/>
      </g>
     </g>
    </g>
    <g id="ytick_19">
     <g id="line2d_38">
      <g>
       <use xlink:href="#mc0a33e566f" x="230.402168" y="56.495807" style="stroke: #000000; stroke-width: 0.6"/>
      </g>
     </g>
    </g>
    <g id="ytick_20">
     <g id="line2d_39">
      <g>
       <use xlink:href="#mc0a33e566f" x="230.402168" y="39.879245" style="stroke: #000000; stroke-width: 0.6"/>
      </g>
     </g>
    </g>
    <g id="ytick_21">
     <g id="line2d_40">
      <g>
       <use xlink:href="#mc0a33e566f" x="230.402168" y="23.262683" style="stroke: #000000; stroke-width: 0.6"/>
      </g>
     </g>
    </g>
   </g>
   <g id="line2d_41">
    <path d="M 230.402168 172.811739 
L 233.494769 172.727057 
L 240.455576 172.311311 
L 248.485807 171.592557 
L 255.772994 170.766845 
L 264.025013 169.657605 
L 273.0923 168.241725 
L 285.649657 165.956208 
L 298.904009 163.139575 
L 301.275161 162.591203 
L 318.407888 158.206362 
L 326.861873 155.748896 
L 335.107918 153.141348 
L 348.291247 148.468632 
L 356.453642 145.19329 
L 363.967681 141.837488 
L 370.640072 138.485134 
L 376.37024 135.192543 
L 380.502655 132.43558 
L 383.358969 130.203429 
L 385.611046 128.083323 
L 387.241819 126.097162 
L 388.224724 124.303576 
L 388.482579 123.486238 
L 388.593564 122.711039 
L 388.557654 121.980011 
L 388.23597 120.984129 
L 387.595648 120.095038 
L 386.639931 119.318255 
L 385.373351 118.658808 
L 383.801712 118.121206 
L 381.932056 117.709401 
L 379.772629 117.42676 
L 375.658216 117.249791 
L 371.999782 117.358084 
L 367.318543 117.748495 
L 361.465416 118.530839 
L 355.072653 119.670737 
L 348.21082 121.158332 
L 344.627326 122.028042 
L 337.574486 123.903441 
L 330.269606 126.052167 
L 322.578645 128.519434 
L 314.774708 131.221511 
L 299.141603 137.194462 
L 289.714424 141.142653 
L 280.608863 145.201199 
L 269.047531 150.710141 
L 258.611222 156.047014 
L 249.839076 160.83142 
L 243.009074 164.777426 
L 235.3597 169.491043 
L 230.431108 172.790583 
L 232.319484 171.346675 
L 236.974506 167.565075 
L 242.890142 162.4658 
L 249.086437 156.840369 
L 255.491472 150.748285 
L 262.452662 143.818686 
L 271.300835 134.541597 
L 280.394062 124.426896 
L 297.46965 103.547041 
L 300.961525 98.900395 
L 306.098081 91.762288 
L 313.084346 81.316294 
L 317.176694 74.649304 
L 320.466924 68.852564 
L 323.048529 63.899288 
L 325.234279 59.266441 
L 327.007988 54.994806 
L 328.440195 50.852986 
L 329.419037 46.984195 
L 329.814319 43.918544 
L 329.726275 41.579541 
L 329.517961 40.608579 
L 329.201406 39.773416 
L 328.777877 39.076275 
L 328.248878 38.519089 
L 327.616143 38.103489 
L 326.62799 37.774385 
L 325.468406 37.695298 
L 324.143058 37.867496 
L 322.658208 38.291292 
L 321.118665 38.920544 
L 319.449597 39.771436 
L 317.657528 40.841871 
L 315.749337 42.128988 
L 311.613702 45.338049 
L 307.10367 49.360753 
L 304.006297 52.384423 
L 300.796676 55.714254 
L 297.493451 59.332331 
L 291.602454 66.226637 
L 289.066889 69.358225 
L 283.957737 75.955099 
L 278.846446 82.929737 
L 273.789632 90.19684 
L 265.54707 102.842538 
L 261.002398 110.261699 
L 256.681482 117.634003 
L 249.749192 130.184324 
L 245.652887 138.082804 
L 242.019751 145.448322 
L 238.149915 153.75095 
L 235.124231 160.670257 
L 231.95383 168.52684 
L 230.408014 172.793875 
L 230.915119 171.114275 
L 232.625387 164.743847 
L 234.444402 157.008994 
L 236.319944 147.93406 
L 237.885575 139.315599 
L 239.88551 126.384488 
L 241.130805 116.665594 
L 242.155605 107.008381 
L 242.987497 97.087084 
L 243.955626 77.035521 
L 244.029196 64.584089 
L 243.899209 58.559132 
L 243.418399 48.713296 
L 242.806085 41.373378 
L 242.035013 34.831185 
L 241.093657 28.841945 
L 239.994723 23.467323 
L 238.746163 18.737872 
L 237.363855 14.71491 
L 235.875184 11.4698 
L 235.097941 10.149994 
L 234.302677 9.036856 
L 233.492434 8.133334 
L 232.551986 7.360387 
L 231.60074 6.86706 
L 230.387562 6.646154 
L 229.780405 6.705482 
L 228.571075 7.16329 
L 227.376506 8.070919 
L 226.20631 9.423331 
L 225.069881 11.21302 
L 224.517184 12.268833 
L 223.448327 14.695077 
L 222.435204 17.529357 
L 221.037461 22.510202 
L 219.807232 28.311047 
L 218.919326 33.76058 
L 218.174483 39.689457 
L 217.580841 46.045853 
L 217.144292 52.774291 
L 216.90996 58.40613 
L 216.779906 64.208472 
L 216.788195 73.81599 
L 217.057886 83.641632 
L 218.318488 103.381644 
L 219.111422 111.616661 
L 220.028935 119.61746 
L 221.047622 127.302033 
L 223.144107 140.624949 
L 224.996062 150.531998 
L 226.768472 158.832283 
L 228.692551 166.751935 
L 230.389457 172.773033 
L 229.615019 170.573102 
L 227.627442 165.398798 
L 224.54314 158.017487 
L 221.263827 150.705635 
L 217.003498 141.791191 
L 211.05797 130.189639 
L 207.719974 124.027852 
L 200.775331 111.894547 
L 197.244092 106.045339 
L 189.827125 94.398236 
L 184.180962 86.079394 
L 178.435122 78.082834 
L 174.352829 72.687874 
L 170.289873 67.558607 
L 166.276168 62.73437 
L 162.341947 58.251803 
L 158.863767 54.505739 
L 155.498611 51.092126 
L 152.268673 48.031571 
L 147.202354 43.730479 
L 143.489263 41.062437 
L 140.181293 39.156652 
L 138.693462 38.495501 
L 137.32343 38.0308 
L 136.076084 37.763273 
L 135.093883 37.69103 
L 134.210852 37.767968 
L 133.429563 37.99347 
L 132.75237 38.366585 
L 132.10447 38.977165 
L 131.600165 39.77915 
L 131.24188 40.7695 
L 131.031602 41.944626 
L 130.970866 43.300409 
L 131.060746 44.832216 
L 131.301847 46.534918 
L 132.076103 49.867212 
L 133.079728 53.040188 
L 133.70053 54.7435 
L 135.176536 58.369557 
L 136.958695 62.268056 
L 140.251761 68.694869 
L 144.193277 75.602029 
L 148.728139 82.887784 
L 153.790637 90.446666 
L 160.727099 100.091678 
L 169.877726 111.877616 
L 179.409912 123.275557 
L 184.238356 128.760366 
L 189.048238 134.049616 
L 198.843729 144.319049 
L 207.940797 153.280983 
L 216.084408 160.833153 
L 223.33679 167.151376 
L 228.765784 171.566166 
L 230.401935 172.81157 
L 228.753078 171.66823 
L 224.286534 168.752601 
L 217.923952 164.853903 
L 209.482652 160.001806 
L 201.542489 155.703518 
L 191.170273 150.420755 
L 181.063431 145.600773 
L 176.441436 143.498581 
L 167.072588 139.428689 
L 157.434769 135.507609 
L 148.526348 132.12624 
L 139.630221 128.991377 
L 130.861967 126.152992 
L 122.33671 123.654656 
L 116.672821 122.152979 
L 111.213276 120.83958 
L 105.99283 119.722688 
L 98.23972 118.362853 
L 92.979186 117.694939 
L 88.225274 117.327873 
L 84.022337 117.261273 
L 82.140055 117.339603 
L 79.772254 117.570988 
L 76.59758 118.239015 
L 74.738931 118.984145 
L 73.381817 119.923866 
L 72.894697 120.463605 
L 72.536569 121.048109 
L 72.308191 121.675917 
L 72.211362 122.320806 
L 72.23595 123.003087 
L 72.382054 123.721265 
L 73.038266 125.259074 
L 74.176995 126.921288 
L 74.925533 127.794818 
L 76.609852 129.467954 
L 78.685539 131.21772 
L 81.142366 133.032712 
L 83.968049 134.901364 
L 87.148304 136.812037 
L 90.666922 138.753101 
L 94.505846 140.713026 
L 101.842819 144.114291 
L 110.251632 147.594346 
L 115.56801 149.613248 
L 121.097973 151.587382 
L 126.808926 153.506152 
L 134.17467 155.819209 
L 141.703331 158.012588 
L 156.967346 161.983212 
L 165.358003 163.914772 
L 173.590944 165.645583 
L 181.57153 167.17062 
L 194.418564 169.308348 
L 204.051841 170.644526 
L 212.361812 171.596997 
L 222.053134 172.433783 
L 228.658303 172.775938 
L 230.368325 172.811643 
L 228.627345 172.848499 
L 222.413016 173.165372 
L 215.822893 173.690479 
L 208.169879 174.48241 
L 199.958486 175.517657 
L 190.801582 176.876846 
L 180.878805 178.579292 
L 175.690491 179.562159 
L 167.055456 181.338662 
L 158.223073 183.340222 
L 137.69821 188.757186 
L 128.936227 191.431341 
L 120.46818 194.254922 
L 110.620238 197.884996 
L 101.572581 201.627756 
L 93.499897 205.410222 
L 89.878403 207.292032 
L 86.556972 209.1541 
L 81.632183 212.252543 
L 78.889363 214.246348 
L 76.599239 216.165193 
L 74.778257 217.992114 
L 73.436923 219.712493 
L 72.948565 220.528294 
L 72.401031 221.836314 
L 72.206436 223.044886 
L 72.364975 224.14641 
L 72.875233 225.133751 
L 73.734201 226.00029 
L 74.937294 226.739978 
L 76.47838 227.347378 
L 79.62257 228.03169 
L 82.503585 228.305397 
L 85.815284 228.369589 
L 89.535339 228.221068 
L 91.540826 228.066497 
L 95.887937 227.58857 
L 100.563394 226.895191 
L 105.555349 225.987598 
L 110.830671 224.870592 
L 120.347495 222.511434 
L 124.431643 221.380344 
L 132.821517 218.858853 
L 141.418397 216.022012 
L 150.114922 212.911688 
L 163.112585 207.838566 
L 175.737246 202.439673 
L 187.265638 197.10182 
L 197.84801 191.842627 
L 207.562109 186.683209 
L 215.752112 182.049159 
L 223.911705 177.107704 
L 229.708355 173.300813 
L 230.40127 172.812391 
L 229.123194 173.779993 
L 225.344411 176.801984 
L 219.336888 181.905586 
L 212.702666 187.871018 
L 206.384923 193.836455 
L 198.100452 202.060878 
L 189.420557 211.171407 
L 185.047587 215.961343 
L 161.374436 244.666135 
L 156.11336 251.866299 
L 148.914916 262.447226 
L 144.668423 269.22961 
L 142.731524 272.507504 
L 140.090534 277.226538 
L 137.761133 281.713481 
L 134.883206 287.93879 
L 132.974565 292.887048 
L 132.100302 295.670232 
L 131.568424 297.763244 
L 131.204215 299.677675 
L 131.007913 301.406604 
L 130.979167 302.94368 
L 131.174804 304.574794 
L 131.623649 305.892398 
L 132.321375 306.888379 
L 133.26238 307.556214 
L 134.439829 307.891019 
L 135.845714 307.889585 
L 137.470918 307.550412 
L 139.305274 306.873733 
L 141.697164 305.659079 
L 144.339779 303.993101 
L 146.428266 302.487449 
L 148.632145 300.748184 
L 153.349732 296.592663 
L 158.417162 291.583125 
L 163.755749 285.789836 
L 167.279965 281.705821 
L 173.744642 273.718797 
L 176.64021 269.942175 
L 182.425163 262.037558 
L 188.133863 253.768573 
L 193.688588 245.266243 
L 199.902332 235.194103 
L 206.915236 223.047396 
L 213.154105 211.441415 
L 217.957106 201.885865 
L 221.991674 193.333284 
L 225.187247 186.111763 
L 227.836116 179.701162 
L 230.212606 173.372284 
L 230.39897 172.821529 
L 229.715474 175.112391 
L 228.236896 180.649203 
L 226.442761 188.240665 
L 224.532117 197.442919 
L 223.017154 205.733065 
L 221.229164 217.051232 
L 219.780062 228.055635 
L 219.133435 233.798869 
L 218.038152 245.616974 
L 217.253821 257.668556 
L 216.933611 265.465015 
L 216.770976 273.176851 
L 216.77166 280.740949 
L 216.939014 288.089487 
L 217.273697 295.156414 
L 217.65481 300.493712 
L 218.136851 305.585823 
L 218.716716 310.404074 
L 219.390362 314.921295 
L 220.087871 318.785057 
L 220.855952 322.354623 
L 221.689584 325.612947 
L 223.131306 330.101848 
L 224.277762 332.856783 
L 225.482275 335.11721 
L 226.733505 336.868323 
L 227.372958 337.549168 
L 228.502199 338.420331 
L 229.645139 338.889334 
L 230.79354 338.953846 
L 231.939117 338.613548 
L 233.073611 337.87013 
L 234.188851 336.727283 
L 235.27682 335.190682 
L 236.329725 333.267953 
L 237.814489 329.715901 
L 239.181965 325.370514 
L 240.001196 322.128272 
L 240.756087 318.583202 
L 241.441823 314.751834 
L 242.528343 306.845316 
L 243.290173 298.710164 
L 243.793511 289.977354 
L 243.946105 285.425521 
L 244.052475 276.032096 
L 243.995716 270.544158 
L 243.18706 251.426747 
L 242.456716 241.908159 
L 241.540595 232.586293 
L 239.782717 218.505568 
L 237.780537 205.694418 
L 235.97632 195.933954 
L 233.767588 185.621545 
L 231.931908 178.186722 
L 230.404112 172.817747 
L 231.165935 174.9863 
L 233.418372 180.825939 
L 235.908982 186.7916 
L 239.352068 194.509508 
L 244.045367 204.327238 
L 247.701864 211.540971 
L 251.029075 217.829101 
L 254.608127 224.333947 
L 258.416752 230.989054 
L 262.429298 237.727003 
L 270.679385 250.773546 
L 274.976817 257.165681 
L 279.345593 263.391251 
L 288.157753 275.119178 
L 291.076892 278.755647 
L 294.789033 283.194037 
L 298.431258 287.337204 
L 301.979494 291.158447 
L 308.005765 297.105385 
L 312.89141 301.331409 
L 315.159593 303.069755 
L 317.29758 304.549646 
L 319.29556 305.765958 
L 321.1442 306.714691 
L 323.874508 307.695176 
L 325.720973 307.932412 
L 326.523375 307.867669 
L 327.49977 307.575835 
L 328.311034 307.051012 
L 328.953084 306.295938 
L 329.422437 305.314157 
L 329.716222 304.110001 
L 329.832205 302.688563 
L 329.768805 301.055678 
L 329.525104 299.217895 
L 329.100592 297.181325 
L 328.495792 294.954776 
L 327.711843 292.54676 
L 325.923488 287.944355 
L 323.985448 283.647734 
L 322.877689 281.381808 
L 320.719744 277.237547 
L 318.297028 272.89603 
L 315.623182 268.383386 
L 310.091765 259.71077 
L 307.325899 255.6287 
L 301.410828 247.332337 
L 295.072651 238.97103 
L 288.425607 230.676525 
L 278.397727 218.922586 
L 273.360249 213.319181 
L 264.600523 204.007853 
L 257.333743 196.677948 
L 249.881635 189.524464 
L 242.735388 183.020737 
L 236.136432 177.360414 
L 231.240117 173.441141 
L 230.402568 172.812029 
L 232.04842 173.953326 
L 236.03268 176.562816 
L 243.200723 180.959789 
L 250.104143 184.941044 
L 260.000726 190.308248 
L 266.478693 193.633019 
L 273.420624 197.045083 
L 286.115165 202.905486 
L 291.604241 205.292923 
L 311.947095 213.375903 
L 322.189698 216.973997 
L 332.245032 220.171834 
L 342.893266 223.153771 
L 347.980794 224.411124 
L 356.012406 226.136403 
L 361.964933 227.170091 
L 367.436245 227.887649 
L 372.372551 228.285349 
L 377.215444 228.351123 
L 379.561152 228.216006 
L 381.858517 227.926644 
L 383.833727 227.4934 
L 385.477088 226.920221 
L 386.780397 226.211779 
L 387.73699 225.373431 
L 388.341779 224.411175 
L 388.591281 223.3316 
L 388.483642 222.141843 
L 387.962072 220.733975 
L 387.02108 219.215519 
L 385.664896 217.597335 
L 382.61067 214.798431 
L 379.58513 212.537258 
L 375.174871 209.702536 
L 372.225629 208.003229 
L 365.567391 204.55286 
L 357.986822 201.085322 
L 349.606352 197.660374 
L 341.993192 194.837879 
L 335.139201 192.49245 
L 328.05933 190.239798 
L 313.469387 186.074552 
L 300.947248 182.955621 
L 288.632803 180.264843 
L 275.625479 177.812783 
L 263.924858 175.951364 
L 253.674762 174.603418 
L 245.021537 173.694149 
L 236.362501 173.039074 
L 230.402168 172.811739 
L 230.402168 172.811739 
" clip-path="url(#pa0ff95f5d0)" style="fill: none; stroke: #0000ff; stroke-linecap: square"/>
   </g>
   <g id="patch_3">
    <path d="M 230.402168 345.6 
L 230.402168 0 
" style="fill: none; stroke: #000000; stroke-width: 0.8; stroke-linejoin: miter; stroke-linecap: square"/>
   </g>
   <g id="patch_4">
    <path d="M 65.878694 172.811739 
L 394.921306 172.811739 
" style="fill: none; stroke: #000000; stroke-width: 0.8; stroke-linejoin: miter; stroke-linecap: square"/>
   </g>
  </g>
 </g>
 <defs>
  <clipPath id="pa0ff95f5d0">
   <rect x="65.878694" y="0" width="329.042613" height="345.6"/>
  </clipPath>
 </defs>
</svg>
