<?xml version="1.0" encoding="utf-8" standalone="no"?>
<!DOCTYPE svg PUBLIC "-//W3C//DTD SVG 1.1//EN"
  "http://www.w3.org/Graphics/SVG/1.1/DTD/svg11.dtd">
<svg xmlns:xlink="http://www.w3.org/1999/xlink" width="460.8pt" height="345.6pt" viewBox="0 0 460.8 345.6" xmlns="http://www.w3.org/2000/svg" version="1.1">
 <metadata>
  <rdf:RDF xmlns:dc="http://purl.org/dc/elements/1.1/" xmlns:cc="http://creativecommons.org/ns#" xmlns:rdf="http://www.w3.org/1999/02/22-rdf-syntax-ns#">
   <cc:Work>
    <dc:type rdf:resource="http://purl.org/dc/dcmitype/StillImage"/>
    <dc:date>2022-05-16T19:39:45.098315</dc:date>
    <dc:format>image/svg+xml</dc:format>
    <dc:creator>
     <cc:Agent>
      <dc:title>Matplotlib v3.5.1, https://matplotlib.org/</dc:title>
     </cc:Agent>
    </dc:creator>
   </cc:Work>
  </rdf:RDF>
 </metadata>
 <defs>
  <style type="text/css">*{stroke-linejoin: round; stroke-linecap: butt}</style>
 </defs>
 <g id="figure_1">
  <g id="patch_1">
   <path d="M 0 345.6 
L 460.8 345.6 
L 460.8 0 
L 0 0 
z
" style="fill: #ffffff"/>
  </g>
  <g id="axes_1">
   <g id="patch_2">
    <path d="M 57.6 345.6 
L 403.2 345.6 
L 403.2 0 
L 57.6 0 
z
" style="fill: #ffffff"/>
   </g>
   <g id="patch_3">
    <path d="M 396.553846 172.8 
L 396.173946 177.060744 
L 395.037264 181.26121 
L 393.152831 185.34168 
L 390.535612 189.243542 
L 387.206373 192.909837 
L 383.191499 196.285787 
L 378.522765 199.319299 
L 373.237056 201.961453 
L 367.376044 204.166957 
L 360.985826 205.894568 
L 354.116518 207.107486 
L 346.821815 207.773692 
L 339.158528 207.866263 
L 331.18608 207.363626 
L 322.965991 206.249771 
L 314.561344 204.514413 
L 306.036227 202.153106 
L 297.455182 199.167297 
L 288.882638 195.564339 
L 280.382355 191.357437 
L 272.016865 186.565556 
L 263.846937 181.213267 
L 255.931042 175.330548 
L 248.324855 168.952535 
L 241.080774 162.119226 
L 234.247465 154.875145 
L 227.869452 147.268958 
L 221.986733 139.353063 
L 216.634444 131.183135 
L 211.842563 122.817645 
L 207.635661 114.317362 
L 204.032703 105.744818 
L 201.046894 97.163773 
L 198.685587 88.638656 
L 196.950229 80.234009 
L 195.836374 72.01392 
L 195.333737 64.041472 
L 195.426308 56.378185 
L 196.092514 49.083482 
L 197.305432 42.214174 
L 199.033043 35.823956 
L 201.238547 29.962944 
L 203.880701 24.677235 
L 206.914213 20.008501 
L 210.290163 15.993627 
L 213.956458 12.664388 
L 217.85832 10.047169 
L 221.93879 8.162736 
L 226.139256 7.026054 
L 230.4 6.646154 
L 234.660744 7.026054 
L 238.86121 8.162736 
L 242.94168 10.047169 
L 246.843542 12.664388 
L 250.509837 15.993627 
L 253.885787 20.008501 
L 256.919299 24.677235 
L 259.561453 29.962944 
L 261.766957 35.823956 
L 263.494568 42.214174 
L 264.707486 49.083482 
L 265.373692 56.378185 
L 265.466263 64.041472 
L 264.963626 72.01392 
L 263.849771 80.234009 
L 262.114413 88.638656 
L 259.753106 97.163773 
L 256.767297 105.744818 
L 253.164339 114.317362 
L 248.957437 122.817645 
L 244.165556 131.183135 
L 238.813267 139.353063 
L 232.930548 147.268958 
L 226.552535 154.875145 
L 219.719226 162.119226 
L 212.475145 168.952535 
L 204.868958 175.330548 
L 196.953063 181.213267 
L 188.783135 186.565556 
L 180.417645 191.357437 
L 171.917362 195.564339 
L 163.344818 199.167297 
L 154.763773 202.153106 
L 146.238656 204.514413 
L 137.834009 206.249771 
L 129.61392 207.363626 
L 121.641472 207.866263 
L 113.978185 207.773692 
L 106.683482 207.107486 
L 99.814174 205.894568 
L 93.423956 204.166957 
L 87.562944 201.961453 
L 82.277235 199.319299 
L 77.608501 196.285787 
L 73.593627 192.909837 
L 70.264388 189.243542 
L 67.647169 185.34168 
L 65.762736 181.26121 
L 64.626054 177.060744 
L 64.246154 172.8 
L 64.626054 168.539256 
L 65.762736 164.33879 
L 67.647169 160.25832 
L 70.264388 156.356458 
L 73.593627 152.690163 
L 77.608501 149.314213 
L 82.277235 146.280701 
L 87.562944 143.638547 
L 93.423956 141.433043 
L 99.814174 139.705432 
L 106.683482 138.492514 
L 113.978185 137.826308 
L 121.641472 137.733737 
L 129.61392 138.236374 
L 137.834009 139.350229 
L 146.238656 141.085587 
L 154.763773 143.446894 
L 163.344818 146.432703 
L 171.917362 150.035661 
L 180.417645 154.242563 
L 188.783135 159.034444 
L 196.953063 164.386733 
L 204.868958 170.269452 
L 212.475145 176.647465 
L 219.719226 183.480774 
L 226.552535 190.724855 
L 232.930548 198.331042 
L 238.813267 206.246937 
L 244.165556 214.416865 
L 248.957437 222.782355 
L 253.164339 231.282638 
L 256.767297 239.855182 
L 259.753106 248.436227 
L 262.114413 256.961344 
L 263.849771 265.365991 
L 264.963626 273.58608 
L 265.466263 281.558528 
L 265.373692 289.221815 
L 264.707486 296.516518 
L 263.494568 303.385826 
L 261.766957 309.776044 
L 259.561453 315.637056 
L 256.919299 320.922765 
L 253.885787 325.591499 
L 250.509837 329.606373 
L 246.843542 332.935612 
L 242.94168 335.552831 
L 238.86121 337.437264 
L 234.660744 338.573946 
L 230.4 338.953846 
L 226.139256 338.573946 
L 221.93879 337.437264 
L 217.85832 335.552831 
L 213.956458 332.935612 
L 210.290163 329.606373 
L 206.914213 325.591499 
L 203.880701 320.922765 
L 201.238547 315.637056 
L 199.033043 309.776044 
L 197.305432 303.385826 
L 196.092514 296.516518 
L 195.426308 289.221815 
L 195.333737 281.558528 
L 195.836374 273.58608 
L 196.950229 265.365991 
L 198.685587 256.961344 
L 201.046894 248.436227 
L 204.032703 239.855182 
L 207.635661 231.282638 
L 211.842563 222.782355 
L 216.634444 214.416865 
L 221.986733 206.246937 
L 227.869452 198.331042 
L 234.247465 190.724855 
L 241.080774 183.480774 
L 248.324855 176.647465 
L 255.931042 170.269452 
L 263.846937 164.386733 
L 272.016865 159.034444 
L 280.382355 154.242563 
L 288.882638 150.035661 
L 297.455182 146.432703 
L 306.036227 143.446894 
L 314.561344 141.085587 
L 322.965991 139.350229 
L 331.18608 138.236374 
L 339.158528 137.733737 
L 346.821815 137.826308 
L 354.116518 138.492514 
L 360.985826 139.705432 
L 367.376044 141.433043 
L 373.237056 143.638547 
L 378.522765 146.280701 
L 383.191499 149.314213 
L 387.206373 152.690163 
L 390.535612 156.356458 
L 393.152831 160.25832 
L 395.037264 164.33879 
L 396.173946 168.539256 
z
" clip-path="url(#pcb344a7b8a)" style="fill: #204080"/>
   </g>
   <g id="matplotlib.axis_1">
    <g id="xtick_1">
     <g id="line2d_1">
      <defs>
       <path id="mda0c20f229" d="M 0 0 
L 0 3.5 
" style="stroke: #000000; stroke-width: 0.8"/>
      </defs>
      <g>
       <use xlink:href="#mda0c20f229" x="79.351049" y="172.8" style="stroke: #000000; stroke-width: 0.8"/>
      </g>
     </g>
     <g id="text_1">
      <!-- −10 -->
      <g transform="translate(68.798705 187.398437)scale(0.1 -0.1)">
       <defs>
        <path id="DejaVuSans-2212" d="M 678 2272 
L 4684 2272 
L 4684 1741 
L 678 1741 
L 678 2272 
z
" transform="scale(0.015625)"/>
        <path id="DejaVuSans-31" d="M 794 531 
L 1825 531 
L 1825 4091 
L 703 3866 
L 703 4441 
L 1819 4666 
L 2450 4666 
L 2450 531 
L 3481 531 
L 3481 0 
L 794 0 
L 794 531 
z
" transform="scale(0.015625)"/>
        <path id="DejaVuSans-30" d="M 2034 4250 
Q 1547 4250 1301 3770 
Q 1056 3291 1056 2328 
Q 1056 1369 1301 889 
Q 1547 409 2034 409 
Q 2525 409 2770 889 
Q 3016 1369 3016 2328 
Q 3016 3291 2770 3770 
Q 2525 4250 2034 4250 
z
M 2034 4750 
Q 2819 4750 3233 4129 
Q 3647 3509 3647 2328 
Q 3647 1150 3233 529 
Q 2819 -91 2034 -91 
Q 1250 -91 836 529 
Q 422 1150 422 2328 
Q 422 3509 836 4129 
Q 1250 4750 2034 4750 
z
" transform="scale(0.015625)"/>
       </defs>
       <use xlink:href="#DejaVuSans-2212"/>
       <use xlink:href="#DejaVuSans-31" x="83.789062"/>
       <use xlink:href="#DejaVuSans-30" x="147.412109"/>
      </g>
     </g>
    </g>
    <g id="xtick_2">
     <g id="line2d_2">
      <g>
       <use xlink:href="#mda0c20f229" x="154.875524" y="172.8" style="stroke: #000000; stroke-width: 0.8"/>
      </g>
     </g>
     <g id="text_2">
      <!-- −5 -->
      <g transform="translate(147.504431 187.398437)scale(0.1 -0.1)">
       <defs>
        <path id="DejaVuSans-35" d="M 691 4666 
L 3169 4666 
L 3169 4134 
L 1269 4134 
L 1269 2991 
Q 1406 3038 1543 3061 
Q 1681 3084 1819 3084 
Q 2600 3084 3056 2656 
Q 3513 2228 3513 1497 
Q 3513 744 3044 326 
Q 2575 -91 1722 -91 
Q 1428 -91 1123 -41 
Q 819 9 494 109 
L 494 744 
Q 775 591 1075 516 
Q 1375 441 1709 441 
Q 2250 441 2565 725 
Q 2881 1009 2881 1497 
Q 2881 1984 2565 2268 
Q 2250 2553 1709 2553 
Q 1456 2553 1204 2497 
Q 953 2441 691 2322 
L 691 4666 
z
" transform="scale(0.015625)"/>
       </defs>
       <use xlink:href="#DejaVuSans-2212"/>
       <use xlink:href="#DejaVuSans-35" x="83.789062"/>
      </g>
     </g>
    </g>
    <g id="xtick_3">
     <g id="line2d_3">
      <g>
       <use xlink:href="#mda0c20f229" x="230.4" y="172.8" style="stroke: #000000; stroke-width: 0.8"/>
      </g>
     </g>
    </g>
    <g id="xtick_4">
     <g id="line2d_4">
      <g>
       <use xlink:href="#mda0c20f229" x="305.924476" y="172.8" style="stroke: #000000; stroke-width: 0.8"/>
      </g>
     </g>
     <g id="text_3">
      <!-- 5 -->
      <g transform="translate(302.743226 187.398437)scale(0.1 -0.1)">
       <use xlink:href="#DejaVuSans-35"/>
      </g>
     </g>
    </g>
    <g id="xtick_5">
     <g id="line2d_5">
      <g>
       <use xlink:href="#mda0c20f229" x="381.448951" y="172.8" style="stroke: #000000; stroke-width: 0.8"/>
      </g>
     </g>
     <g id="text_4">
      <!-- 10 -->
      <g transform="translate(375.086451 187.398437)scale(0.1 -0.1)">
       <use xlink:href="#DejaVuSans-31"/>
       <use xlink:href="#DejaVuSans-30" x="63.623047"/>
      </g>
     </g>
    </g>
    <g id="xtick_6">
     <g id="line2d_6">
      <defs>
       <path id="m6a7415b504" d="M 0 0 
L 0 2 
" style="stroke: #000000; stroke-width: 0.6"/>
      </defs>
      <g>
       <use xlink:href="#m6a7415b504" x="64.246154" y="172.8" style="stroke: #000000; stroke-width: 0.6"/>
      </g>
     </g>
    </g>
    <g id="xtick_7">
     <g id="line2d_7">
      <g>
       <use xlink:href="#m6a7415b504" x="94.455944" y="172.8" style="stroke: #000000; stroke-width: 0.6"/>
      </g>
     </g>
    </g>
    <g id="xtick_8">
     <g id="line2d_8">
      <g>
       <use xlink:href="#m6a7415b504" x="109.560839" y="172.8" style="stroke: #000000; stroke-width: 0.6"/>
      </g>
     </g>
    </g>
    <g id="xtick_9">
     <g id="line2d_9">
      <g>
       <use xlink:href="#m6a7415b504" x="124.665734" y="172.8" style="stroke: #000000; stroke-width: 0.6"/>
      </g>
     </g>
    </g>
    <g id="xtick_10">
     <g id="line2d_10">
      <g>
       <use xlink:href="#m6a7415b504" x="139.770629" y="172.8" style="stroke: #000000; stroke-width: 0.6"/>
      </g>
     </g>
    </g>
    <g id="xtick_11">
     <g id="line2d_11">
      <g>
       <use xlink:href="#m6a7415b504" x="169.98042" y="172.8" style="stroke: #000000; stroke-width: 0.6"/>
      </g>
     </g>
    </g>
    <g id="xtick_12">
     <g id="line2d_12">
      <g>
       <use xlink:href="#m6a7415b504" x="185.085315" y="172.8" style="stroke: #000000; stroke-width: 0.6"/>
      </g>
     </g>
    </g>
    <g id="xtick_13">
     <g id="line2d_13">
      <g>
       <use xlink:href="#m6a7415b504" x="200.19021" y="172.8" style="stroke: #000000; stroke-width: 0.6"/>
      </g>
     </g>
    </g>
    <g id="xtick_14">
     <g id="line2d_14">
      <g>
       <use xlink:href="#m6a7415b504" x="215.295105" y="172.8" style="stroke: #000000; stroke-width: 0.6"/>
      </g>
     </g>
    </g>
    <g id="xtick_15">
     <g id="line2d_15">
      <g>
       <use xlink:href="#m6a7415b504" x="245.504895" y="172.8" style="stroke: #000000; stroke-width: 0.6"/>
      </g>
     </g>
    </g>
    <g id="xtick_16">
     <g id="line2d_16">
      <g>
       <use xlink:href="#m6a7415b504" x="260.60979" y="172.8" style="stroke: #000000; stroke-width: 0.6"/>
      </g>
     </g>
    </g>
    <g id="xtick_17">
     <g id="line2d_17">
      <g>
       <use xlink:href="#m6a7415b504" x="275.714685" y="172.8" style="stroke: #000000; stroke-width: 0.6"/>
      </g>
     </g>
    </g>
    <g id="xtick_18">
     <g id="line2d_18">
      <g>
       <use xlink:href="#m6a7415b504" x="290.81958" y="172.8" style="stroke: #000000; stroke-width: 0.6"/>
      </g>
     </g>
    </g>
    <g id="xtick_19">
     <g id="line2d_19">
      <g>
       <use xlink:href="#m6a7415b504" x="321.029371" y="172.8" style="stroke: #000000; stroke-width: 0.6"/>
      </g>
     </g>
    </g>
    <g id="xtick_20">
     <g id="line2d_20">
      <g>
       <use xlink:href="#m6a7415b504" x="336.134266" y="172.8" style="stroke: #000000; stroke-width: 0.6"/>
      </g>
     </g>
    </g>
    <g id="xtick_21">
     <g id="line2d_21">
      <g>
       <use xlink:href="#m6a7415b504" x="351.239161" y="172.8" style="stroke: #000000; stroke-width: 0.6"/>
      </g>
     </g>
    </g>
    <g id="xtick_22">
     <g id="line2d_22">
      <g>
       <use xlink:href="#m6a7415b504" x="366.344056" y="172.8" style="stroke: #000000; stroke-width: 0.6"/>
      </g>
     </g>
    </g>
    <g id="xtick_23">
     <g id="line2d_23">
      <g>
       <use xlink:href="#m6a7415b504" x="396.553846" y="172.8" style="stroke: #000000; stroke-width: 0.6"/>
      </g>
     </g>
    </g>
   </g>
   <g id="matplotlib.axis_2">
    <g id="ytick_1">
     <g id="line2d_24">
      <defs>
       <path id="m3f0694bf60" d="M 0 0 
L -3.5 0 
" style="stroke: #000000; stroke-width: 0.8"/>
      </defs>
      <g>
       <use xlink:href="#m3f0694bf60" x="230.4" y="323.848951" style="stroke: #000000; stroke-width: 0.8"/>
      </g>
     </g>
     <g id="text_5">
      <!-- −10 -->
      <g transform="translate(202.295312 327.64817)scale(0.1 -0.1)">
       <use xlink:href="#DejaVuSans-2212"/>
       <use xlink:href="#DejaVuSans-31" x="83.789062"/>
       <use xlink:href="#DejaVuSans-30" x="147.412109"/>
      </g>
     </g>
    </g>
    <g id="ytick_2">
     <g id="line2d_25">
      <g>
       <use xlink:href="#m3f0694bf60" x="230.4" y="248.324476" style="stroke: #000000; stroke-width: 0.8"/>
      </g>
     </g>
     <g id="text_6">
      <!-- −5 -->
      <g transform="translate(208.657813 252.123694)scale(0.1 -0.1)">
       <use xlink:href="#DejaVuSans-2212"/>
       <use xlink:href="#DejaVuSans-35" x="83.789062"/>
      </g>
     </g>
    </g>
    <g id="ytick_3">
     <g id="line2d_26">
      <g>
       <use xlink:href="#m3f0694bf60" x="230.4" y="172.8" style="stroke: #000000; stroke-width: 0.8"/>
      </g>
     </g>
    </g>
    <g id="ytick_4">
     <g id="line2d_27">
      <g>
       <use xlink:href="#m3f0694bf60" x="230.4" y="97.275524" style="stroke: #000000; stroke-width: 0.8"/>
      </g>
     </g>
     <g id="text_7">
      <!-- 5 -->
      <g transform="translate(217.0375 101.074743)scale(0.1 -0.1)">
       <use xlink:href="#DejaVuSans-35"/>
      </g>
     </g>
    </g>
    <g id="ytick_5">
     <g id="line2d_28">
      <g>
       <use xlink:href="#m3f0694bf60" x="230.4" y="21.751049" style="stroke: #000000; stroke-width: 0.8"/>
      </g>
     </g>
     <g id="text_8">
      <!-- 10 -->
      <g transform="translate(210.675 25.550268)scale(0.1 -0.1)">
       <use xlink:href="#DejaVuSans-31"/>
       <use xlink:href="#DejaVuSans-30" x="63.623047"/>
      </g>
     </g>
    </g>
    <g id="ytick_6">
     <g id="line2d_29">
      <defs>
       <path id="m65b8ae4aa2" d="M 0 0 
L -2 0 
" style="stroke: #000000; stroke-width: 0.6"/>
      </defs>
      <g>
       <use xlink:href="#m65b8ae4aa2" x="230.4" y="338.953846" style="stroke: #000000; stroke-width: 0.6"/>
      </g>
     </g>
    </g>
    <g id="ytick_7">
     <g id="line2d_30">
      <g>
       <use xlink:href="#m65b8ae4aa2" x="230.4" y="308.744056" style="stroke: #000000; stroke-width: 0.6"/>
      </g>
     </g>
    </g>
    <g id="ytick_8">
     <g id="line2d_31">
      <g>
       <use xlink:href="#m65b8ae4aa2" x="230.4" y="293.639161" style="stroke: #000000; stroke-width: 0.6"/>
      </g>
     </g>
    </g>
    <g id="ytick_9">
     <g id="line2d_32">
      <g>
       <use xlink:href="#m65b8ae4aa2" x="230.4" y="278.534266" style="stroke: #000000; stroke-width: 0.6"/>
      </g>
     </g>
    </g>
    <g id="ytick_10">
     <g id="line2d_33">
      <g>
       <use xlink:href="#m65b8ae4aa2" x="230.4" y="263.429371" style="stroke: #000000; stroke-width: 0.6"/>
      </g>
     </g>
    </g>
    <g id="ytick_11">
     <g id="line2d_34">
      <g>
       <use xlink:href="#m65b8ae4aa2" x="230.4" y="233.21958" style="stroke: #000000; stroke-width: 0.6"/>
      </g>
     </g>
    </g>
    <g id="ytick_12">
     <g id="line2d_35">
      <g>
       <use xlink:href="#m65b8ae4aa2" x="230.4" y="218.114685" style="stroke: #000000; stroke-width: 0.6"/>
      </g>
     </g>
    </g>
    <g id="ytick_13">
     <g id="line2d_36">
      <g>
       <use xlink:href="#m65b8ae4aa2" x="230.4" y="203.00979" style="stroke: #000000; stroke-width: 0.6"/>
      </g>
     </g>
    </g>
    <g id="ytick_14">
     <g id="line2d_37">
      <g>
       <use xlink:href="#m65b8ae4aa2" x="230.4" y="187.904895" style="stroke: #000000; stroke-width: 0.6"/>
      </g>
     </g>
    </g>
    <g id="ytick_15">
     <g id="line2d_38">
      <g>
       <use xlink:href="#m65b8ae4aa2" x="230.4" y="157.695105" style="stroke: #000000; stroke-width: 0.6"/>
      </g>
     </g>
    </g>
    <g id="ytick_16">
     <g id="line2d_39">
      <g>
       <use xlink:href="#m65b8ae4aa2" x="230.4" y="142.59021" style="stroke: #000000; stroke-width: 0.6"/>
      </g>
     </g>
    </g>
    <g id="ytick_17">
     <g id="line2d_40">
      <g>
       <use xlink:href="#m65b8ae4aa2" x="230.4" y="127.485315" style="stroke: #000000; stroke-width: 0.6"/>
      </g>
     </g>
    </g>
    <g id="ytick_18">
     <g id="line2d_41">
      <g>
       <use xlink:href="#m65b8ae4aa2" x="230.4" y="112.38042" style="stroke: #000000; stroke-width: 0.6"/>
      </g>
     </g>
    </g>
    <g id="ytick_19">
     <g id="line2d_42">
      <g>
       <use xlink:href="#m65b8ae4aa2" x="230.4" y="82.170629" style="stroke: #000000; stroke-width: 0.6"/>
      </g>
     </g>
    </g>
    <g id="ytick_20">
     <g id="line2d_43">
      <g>
       <use xlink:href="#m65b8ae4aa2" x="230.4" y="67.065734" style="stroke: #000000; stroke-width: 0.6"/>
      </g>
     </g>
    </g>
    <g id="ytick_21">
     <g id="line2d_44">
      <g>
       <use xlink:href="#m65b8ae4aa2" x="230.4" y="51.960839" style="stroke: #000000; stroke-width: 0.6"/>
      </g>
     </g>
    </g>
    <g id="ytick_22">
     <g id="line2d_45">
      <g>
       <use xlink:href="#m65b8ae4aa2" x="230.4" y="36.855944" style="stroke: #000000; stroke-width: 0.6"/>
      </g>
     </g>
    </g>
    <g id="ytick_23">
     <g id="line2d_46">
      <g>
       <use xlink:href="#m65b8ae4aa2" x="230.4" y="6.646154" style="stroke: #000000; stroke-width: 0.6"/>
      </g>
     </g>
    </g>
   </g>
   <g id="patch_4">
    <path d="M 230.4 345.6 
L 230.4 0 
" style="fill: none; stroke: #000000; stroke-width: 0.8; stroke-linejoin: miter; stroke-linecap: square"/>
   </g>
   <g id="patch_5">
    <path d="M 57.6 172.8 
L 403.2 172.8 
" style="fill: none; stroke: #000000; stroke-width: 0.8; stroke-linejoin: miter; stroke-linecap: square"/>
   </g>
  </g>
 </g>
 <defs>
  <clipPath id="pcb344a7b8a">
   <rect x="57.6" y="0" width="345.6" height="345.6"/>
  </clipPath>
 </defs>
</svg>
