<?xml version="1.0" encoding="utf-8" standalone="no"?>
<!DOCTYPE svg PUBLIC "-//W3C//DTD SVG 1.1//EN"
  "http://www.w3.org/Graphics/SVG/1.1/DTD/svg11.dtd">
<svg xmlns:xlink="http://www.w3.org/1999/xlink" width="460.8pt" height="345.6pt" viewBox="0 0 460.8 345.6" xmlns="http://www.w3.org/2000/svg" version="1.1">
 <metadata>
  <rdf:RDF xmlns:dc="http://purl.org/dc/elements/1.1/" xmlns:cc="http://creativecommons.org/ns#" xmlns:rdf="http://www.w3.org/1999/02/22-rdf-syntax-ns#">
   <cc:Work>
    <dc:type rdf:resource="http://purl.org/dc/dcmitype/StillImage"/>
    <dc:date>2022-05-16T19:32:41.430017</dc:date>
    <dc:format>image/svg+xml</dc:format>
    <dc:creator>
     <cc:Agent>
      <dc:title>Matplotlib v3.5.1, https://matplotlib.org/</dc:title>
     </cc:Agent>
    </dc:creator>
   </cc:Work>
  </rdf:RDF>
 </metadata>
 <defs>
  <style type="text/css">*{stroke-linejoin: round; stroke-linecap: butt}</style>
 </defs>
 <g id="figure_1">
  <g id="patch_1">
   <path d="M 0 345.6 
L 460.8 345.6 
L 460.8 0 
L 0 0 
z
" style="fill: #ffffff"/>
  </g>
  <g id="axes_1">
   <g id="patch_2">
    <path d="M 57.6 345.6 
L 403.2 345.6 
L 403.2 0 
L 57.6 0 
z
" style="fill: #ffffff"/>
   </g>
   <g id="matplotlib.axis_1"/>
   <g id="matplotlib.axis_2"/>
   <g id="patch_3">
    <path d="M 180.553846 106.338462 
C 205.172321 125.486164 231.622077 142.155373 259.517651 156.10316 
C 287.413225 170.050947 316.618445 181.209226 346.707692 189.415385 
" clip-path="url(#p026d470648)" style="fill: none; stroke: #0000ff; stroke-linejoin: miter"/>
   </g>
   <g id="patch_4">
    <path d="M 230.4 338.953846 
C 274.464515 338.953846 316.730194 321.446829 347.888511 290.288511 
C 379.046829 259.130194 396.553846 216.864515 396.553846 172.8 
C 396.553846 128.735485 379.046829 86.469806 347.888511 55.311489 
C 316.730194 24.153171 274.464515 6.646154 230.4 6.646154 
C 186.335485 6.646154 144.069806 24.153171 112.911489 55.311489 
C 81.753171 86.469806 64.246154 128.735485 64.246154 172.8 
C 64.246154 216.864515 81.753171 259.130194 112.911489 290.288511 
C 144.069806 321.446829 186.335485 338.953846 230.4 338.953846 
L 230.4 338.953846 
z
" clip-path="url(#p026d470648)" style="fill: none; stroke: #000000; stroke-linejoin: miter"/>
   </g>
   <g id="patch_5">
    <path d="M 342.064651 49.762988 
C 306.285588 89.18593 277.701228 134.58391 257.614608 183.887433 
C 237.527987 233.190956 226.249035 285.639287 224.29191 338.841536 
" clip-path="url(#p026d470648)" style="fill: none; stroke: #ffa500; stroke-linejoin: miter"/>
   </g>
   <g id="patch_6">
    <path d="M 230.4 338.953846 
C 274.464515 338.953846 316.730194 321.446829 347.888511 290.288511 
C 379.046829 259.130194 396.553846 216.864515 396.553846 172.8 
C 396.553846 128.735485 379.046829 86.469806 347.888511 55.311489 
C 316.730194 24.153171 274.464515 6.646154 230.4 6.646154 
C 186.335485 6.646154 144.069806 24.153171 112.911489 55.311489 
C 81.753171 86.469806 64.246154 128.735485 64.246154 172.8 
C 64.246154 216.864515 81.753171 259.130194 112.911489 290.288511 
C 144.069806 321.446829 186.335485 338.953846 230.4 338.953846 
L 230.4 338.953846 
z
" clip-path="url(#p026d470648)" style="fill: none; stroke: #000000; stroke-linejoin: miter"/>
   </g>
  </g>
 </g>
 <defs>
  <clipPath id="p026d470648">
   <rect x="57.6" y="0" width="345.6" height="345.6"/>
  </clipPath>
 </defs>
</svg>
