<?xml version="1.0" encoding="utf-8" standalone="no"?>
<!DOCTYPE svg PUBLIC "-//W3C//DTD SVG 1.1//EN"
  "http://www.w3.org/Graphics/SVG/1.1/DTD/svg11.dtd">
<svg xmlns:xlink="http://www.w3.org/1999/xlink" width="460.8pt" height="345.6pt" viewBox="0 0 460.8 345.6" xmlns="http://www.w3.org/2000/svg" version="1.1">
 <metadata>
  <rdf:RDF xmlns:dc="http://purl.org/dc/elements/1.1/" xmlns:cc="http://creativecommons.org/ns#" xmlns:rdf="http://www.w3.org/1999/02/22-rdf-syntax-ns#">
   <cc:Work>
    <dc:type rdf:resource="http://purl.org/dc/dcmitype/StillImage"/>
    <dc:date>2022-05-16T19:22:20.643368</dc:date>
    <dc:format>image/svg+xml</dc:format>
    <dc:creator>
     <cc:Agent>
      <dc:title>Matplotlib v3.5.1, https://matplotlib.org/</dc:title>
     </cc:Agent>
    </dc:creator>
   </cc:Work>
  </rdf:RDF>
 </metadata>
 <defs>
  <style type="text/css">*{stroke-linejoin: round; stroke-linecap: butt}</style>
 </defs>
 <g id="figure_1">
  <g id="patch_1">
   <path d="M 0 345.6 
L 460.8 345.6 
L 460.8 0 
L 0 0 
z
" style="fill: #ffffff"/>
  </g>
  <g id="axes_1">
   <g id="patch_2">
    <path d="M 66.034254 345.371491 
L 394.765746 345.371491 
L 394.765746 16.64 
L 66.034254 16.64 
z
" style="fill: #ffffff"/>
   </g>
   <g id="PathCollection_1">
    <path d="M 289.666495 103.564891 
C 290.085818 103.564891 290.488023 103.398293 290.784529 103.101786 
C 291.081035 102.80528 291.247634 102.403075 291.247634 101.983753 
C 291.247634 101.56443 291.081035 101.162225 290.784529 100.865719 
C 290.488023 100.569212 290.085818 100.402614 289.666495 100.402614 
C 289.247172 100.402614 288.844967 100.569212 288.548461 100.865719 
C 288.251955 101.162225 288.085356 101.56443 288.085356 101.983753 
C 288.085356 102.403075 288.251955 102.80528 288.548461 103.101786 
C 288.844967 103.398293 289.247172 103.564891 289.666495 103.564891 
z
" clip-path="url(#pe3b5ffa626)"/>
   </g>
   <g id="matplotlib.axis_1">
    <g id="xtick_1">
     <g id="line2d_1">
      <defs>
       <path id="mcab478bfc0" d="M 0 0 
L 0 3.5 
" style="stroke: #000000; stroke-width: 0.8"/>
      </defs>
      <g>
       <use xlink:href="#mcab478bfc0" x="72.356014" y="181.005746" style="stroke: #000000; stroke-width: 0.8"/>
      </g>
     </g>
     <g id="text_1">
      <!-- −8 -->
      <g transform="translate(64.98492 195.604183)scale(0.1 -0.1)">
       <defs>
        <path id="DejaVuSans-2212" d="M 678 2272 
L 4684 2272 
L 4684 1741 
L 678 1741 
L 678 2272 
z
" transform="scale(0.015625)"/>
        <path id="DejaVuSans-38" d="M 2034 2216 
Q 1584 2216 1326 1975 
Q 1069 1734 1069 1313 
Q 1069 891 1326 650 
Q 1584 409 2034 409 
Q 2484 409 2743 651 
Q 3003 894 3003 1313 
Q 3003 1734 2745 1975 
Q 2488 2216 2034 2216 
z
M 1403 2484 
Q 997 2584 770 2862 
Q 544 3141 544 3541 
Q 544 4100 942 4425 
Q 1341 4750 2034 4750 
Q 2731 4750 3128 4425 
Q 3525 4100 3525 3541 
Q 3525 3141 3298 2862 
Q 3072 2584 2669 2484 
Q 3125 2378 3379 2068 
Q 3634 1759 3634 1313 
Q 3634 634 3220 271 
Q 2806 -91 2034 -91 
Q 1263 -91 848 271 
Q 434 634 434 1313 
Q 434 1759 690 2068 
Q 947 2378 1403 2484 
z
M 1172 3481 
Q 1172 3119 1398 2916 
Q 1625 2713 2034 2713 
Q 2441 2713 2670 2916 
Q 2900 3119 2900 3481 
Q 2900 3844 2670 4047 
Q 2441 4250 2034 4250 
Q 1625 4250 1398 4047 
Q 1172 3844 1172 3481 
z
" transform="scale(0.015625)"/>
       </defs>
       <use xlink:href="#DejaVuSans-2212"/>
       <use xlink:href="#DejaVuSans-38" x="83.789062"/>
      </g>
     </g>
    </g>
    <g id="xtick_2">
     <g id="line2d_2">
      <g>
       <use xlink:href="#mcab478bfc0" x="111.86701" y="181.005746" style="stroke: #000000; stroke-width: 0.8"/>
      </g>
     </g>
     <g id="text_2">
      <!-- −6 -->
      <g transform="translate(104.495917 195.604183)scale(0.1 -0.1)">
       <defs>
        <path id="DejaVuSans-36" d="M 2113 2584 
Q 1688 2584 1439 2293 
Q 1191 2003 1191 1497 
Q 1191 994 1439 701 
Q 1688 409 2113 409 
Q 2538 409 2786 701 
Q 3034 994 3034 1497 
Q 3034 2003 2786 2293 
Q 2538 2584 2113 2584 
z
M 3366 4563 
L 3366 3988 
Q 3128 4100 2886 4159 
Q 2644 4219 2406 4219 
Q 1781 4219 1451 3797 
Q 1122 3375 1075 2522 
Q 1259 2794 1537 2939 
Q 1816 3084 2150 3084 
Q 2853 3084 3261 2657 
Q 3669 2231 3669 1497 
Q 3669 778 3244 343 
Q 2819 -91 2113 -91 
Q 1303 -91 875 529 
Q 447 1150 447 2328 
Q 447 3434 972 4092 
Q 1497 4750 2381 4750 
Q 2619 4750 2861 4703 
Q 3103 4656 3366 4563 
z
" transform="scale(0.015625)"/>
       </defs>
       <use xlink:href="#DejaVuSans-2212"/>
       <use xlink:href="#DejaVuSans-36" x="83.789062"/>
      </g>
     </g>
    </g>
    <g id="xtick_3">
     <g id="line2d_3">
      <g>
       <use xlink:href="#mcab478bfc0" x="151.378007" y="181.005746" style="stroke: #000000; stroke-width: 0.8"/>
      </g>
     </g>
     <g id="text_3">
      <!-- −4 -->
      <g transform="translate(144.006913 195.604183)scale(0.1 -0.1)">
       <defs>
        <path id="DejaVuSans-34" d="M 2419 4116 
L 825 1625 
L 2419 1625 
L 2419 4116 
z
M 2253 4666 
L 3047 4666 
L 3047 1625 
L 3713 1625 
L 3713 1100 
L 3047 1100 
L 3047 0 
L 2419 0 
L 2419 1100 
L 313 1100 
L 313 1709 
L 2253 4666 
z
" transform="scale(0.015625)"/>
       </defs>
       <use xlink:href="#DejaVuSans-2212"/>
       <use xlink:href="#DejaVuSans-34" x="83.789062"/>
      </g>
     </g>
    </g>
    <g id="xtick_4">
     <g id="line2d_4">
      <g>
       <use xlink:href="#mcab478bfc0" x="190.889003" y="181.005746" style="stroke: #000000; stroke-width: 0.8"/>
      </g>
     </g>
     <g id="text_4">
      <!-- −2 -->
      <g transform="translate(183.51791 195.604183)scale(0.1 -0.1)">
       <defs>
        <path id="DejaVuSans-32" d="M 1228 531 
L 3431 531 
L 3431 0 
L 469 0 
L 469 531 
Q 828 903 1448 1529 
Q 2069 2156 2228 2338 
Q 2531 2678 2651 2914 
Q 2772 3150 2772 3378 
Q 2772 3750 2511 3984 
Q 2250 4219 1831 4219 
Q 1534 4219 1204 4116 
Q 875 4013 500 3803 
L 500 4441 
Q 881 4594 1212 4672 
Q 1544 4750 1819 4750 
Q 2544 4750 2975 4387 
Q 3406 4025 3406 3419 
Q 3406 3131 3298 2873 
Q 3191 2616 2906 2266 
Q 2828 2175 2409 1742 
Q 1991 1309 1228 531 
z
" transform="scale(0.015625)"/>
       </defs>
       <use xlink:href="#DejaVuSans-2212"/>
       <use xlink:href="#DejaVuSans-32" x="83.789062"/>
      </g>
     </g>
    </g>
    <g id="xtick_5">
     <g id="line2d_5">
      <g>
       <use xlink:href="#mcab478bfc0" x="230.4" y="181.005746" style="stroke: #000000; stroke-width: 0.8"/>
      </g>
     </g>
    </g>
    <g id="xtick_6">
     <g id="line2d_6">
      <g>
       <use xlink:href="#mcab478bfc0" x="269.910997" y="181.005746" style="stroke: #000000; stroke-width: 0.8"/>
      </g>
     </g>
     <g id="text_5">
      <!-- 2 -->
      <g transform="translate(266.729747 195.604183)scale(0.1 -0.1)">
       <use xlink:href="#DejaVuSans-32"/>
      </g>
     </g>
    </g>
    <g id="xtick_7">
     <g id="line2d_7">
      <g>
       <use xlink:href="#mcab478bfc0" x="309.421993" y="181.005746" style="stroke: #000000; stroke-width: 0.8"/>
      </g>
     </g>
     <g id="text_6">
      <!-- 4 -->
      <g transform="translate(306.240743 195.604183)scale(0.1 -0.1)">
       <use xlink:href="#DejaVuSans-34"/>
      </g>
     </g>
    </g>
    <g id="xtick_8">
     <g id="line2d_8">
      <g>
       <use xlink:href="#mcab478bfc0" x="348.93299" y="181.005746" style="stroke: #000000; stroke-width: 0.8"/>
      </g>
     </g>
     <g id="text_7">
      <!-- 6 -->
      <g transform="translate(345.75174 195.604183)scale(0.1 -0.1)">
       <use xlink:href="#DejaVuSans-36"/>
      </g>
     </g>
    </g>
    <g id="xtick_9">
     <g id="line2d_9">
      <g>
       <use xlink:href="#mcab478bfc0" x="388.443986" y="181.005746" style="stroke: #000000; stroke-width: 0.8"/>
      </g>
     </g>
     <g id="text_8">
      <!-- 8 -->
      <g transform="translate(385.262736 195.604183)scale(0.1 -0.1)">
       <use xlink:href="#DejaVuSans-38"/>
      </g>
     </g>
    </g>
    <g id="xtick_10">
     <g id="line2d_10">
      <defs>
       <path id="md8fa499468" d="M 0 0 
L 0 2 
" style="stroke: #000000; stroke-width: 0.6"/>
      </defs>
      <g>
       <use xlink:href="#md8fa499468" x="82.233763" y="181.005746" style="stroke: #000000; stroke-width: 0.6"/>
      </g>
     </g>
    </g>
    <g id="xtick_11">
     <g id="line2d_11">
      <g>
       <use xlink:href="#md8fa499468" x="92.111512" y="181.005746" style="stroke: #000000; stroke-width: 0.6"/>
      </g>
     </g>
    </g>
    <g id="xtick_12">
     <g id="line2d_12">
      <g>
       <use xlink:href="#md8fa499468" x="101.989261" y="181.005746" style="stroke: #000000; stroke-width: 0.6"/>
      </g>
     </g>
    </g>
    <g id="xtick_13">
     <g id="line2d_13">
      <g>
       <use xlink:href="#md8fa499468" x="121.74476" y="181.005746" style="stroke: #000000; stroke-width: 0.6"/>
      </g>
     </g>
    </g>
    <g id="xtick_14">
     <g id="line2d_14">
      <g>
       <use xlink:href="#md8fa499468" x="131.622509" y="181.005746" style="stroke: #000000; stroke-width: 0.6"/>
      </g>
     </g>
    </g>
    <g id="xtick_15">
     <g id="line2d_15">
      <g>
       <use xlink:href="#md8fa499468" x="141.500258" y="181.005746" style="stroke: #000000; stroke-width: 0.6"/>
      </g>
     </g>
    </g>
    <g id="xtick_16">
     <g id="line2d_16">
      <g>
       <use xlink:href="#md8fa499468" x="161.255756" y="181.005746" style="stroke: #000000; stroke-width: 0.6"/>
      </g>
     </g>
    </g>
    <g id="xtick_17">
     <g id="line2d_17">
      <g>
       <use xlink:href="#md8fa499468" x="171.133505" y="181.005746" style="stroke: #000000; stroke-width: 0.6"/>
      </g>
     </g>
    </g>
    <g id="xtick_18">
     <g id="line2d_18">
      <g>
       <use xlink:href="#md8fa499468" x="181.011254" y="181.005746" style="stroke: #000000; stroke-width: 0.6"/>
      </g>
     </g>
    </g>
    <g id="xtick_19">
     <g id="line2d_19">
      <g>
       <use xlink:href="#md8fa499468" x="200.766753" y="181.005746" style="stroke: #000000; stroke-width: 0.6"/>
      </g>
     </g>
    </g>
    <g id="xtick_20">
     <g id="line2d_20">
      <g>
       <use xlink:href="#md8fa499468" x="210.644502" y="181.005746" style="stroke: #000000; stroke-width: 0.6"/>
      </g>
     </g>
    </g>
    <g id="xtick_21">
     <g id="line2d_21">
      <g>
       <use xlink:href="#md8fa499468" x="220.522251" y="181.005746" style="stroke: #000000; stroke-width: 0.6"/>
      </g>
     </g>
    </g>
    <g id="xtick_22">
     <g id="line2d_22">
      <g>
       <use xlink:href="#md8fa499468" x="240.277749" y="181.005746" style="stroke: #000000; stroke-width: 0.6"/>
      </g>
     </g>
    </g>
    <g id="xtick_23">
     <g id="line2d_23">
      <g>
       <use xlink:href="#md8fa499468" x="250.155498" y="181.005746" style="stroke: #000000; stroke-width: 0.6"/>
      </g>
     </g>
    </g>
    <g id="xtick_24">
     <g id="line2d_24">
      <g>
       <use xlink:href="#md8fa499468" x="260.033247" y="181.005746" style="stroke: #000000; stroke-width: 0.6"/>
      </g>
     </g>
    </g>
    <g id="xtick_25">
     <g id="line2d_25">
      <g>
       <use xlink:href="#md8fa499468" x="279.788746" y="181.005746" style="stroke: #000000; stroke-width: 0.6"/>
      </g>
     </g>
    </g>
    <g id="xtick_26">
     <g id="line2d_26">
      <g>
       <use xlink:href="#md8fa499468" x="289.666495" y="181.005746" style="stroke: #000000; stroke-width: 0.6"/>
      </g>
     </g>
    </g>
    <g id="xtick_27">
     <g id="line2d_27">
      <g>
       <use xlink:href="#md8fa499468" x="299.544244" y="181.005746" style="stroke: #000000; stroke-width: 0.6"/>
      </g>
     </g>
    </g>
    <g id="xtick_28">
     <g id="line2d_28">
      <g>
       <use xlink:href="#md8fa499468" x="319.299742" y="181.005746" style="stroke: #000000; stroke-width: 0.6"/>
      </g>
     </g>
    </g>
    <g id="xtick_29">
     <g id="line2d_29">
      <g>
       <use xlink:href="#md8fa499468" x="329.177491" y="181.005746" style="stroke: #000000; stroke-width: 0.6"/>
      </g>
     </g>
    </g>
    <g id="xtick_30">
     <g id="line2d_30">
      <g>
       <use xlink:href="#md8fa499468" x="339.05524" y="181.005746" style="stroke: #000000; stroke-width: 0.6"/>
      </g>
     </g>
    </g>
    <g id="xtick_31">
     <g id="line2d_31">
      <g>
       <use xlink:href="#md8fa499468" x="358.810739" y="181.005746" style="stroke: #000000; stroke-width: 0.6"/>
      </g>
     </g>
    </g>
    <g id="xtick_32">
     <g id="line2d_32">
      <g>
       <use xlink:href="#md8fa499468" x="368.688488" y="181.005746" style="stroke: #000000; stroke-width: 0.6"/>
      </g>
     </g>
    </g>
    <g id="xtick_33">
     <g id="line2d_33">
      <g>
       <use xlink:href="#md8fa499468" x="378.566237" y="181.005746" style="stroke: #000000; stroke-width: 0.6"/>
      </g>
     </g>
    </g>
    <g id="text_9">
     <!-- $ y $ -->
     <g transform="translate(402.765746 181.005746)scale(0.16 -0.16)">
      <defs>
       <path id="Cmmi10-79" d="M 538 -916 
Q 672 -1147 1006 -1147 
Q 1309 -1147 1531 -934 
Q 1753 -722 1889 -420 
Q 2025 -119 2100 197 
Q 1816 -72 1484 -72 
Q 1231 -72 1053 15 
Q 875 103 776 276 
Q 678 450 678 697 
Q 678 906 734 1126 
Q 791 1347 892 1617 
Q 994 1888 1069 2088 
Q 1153 2322 1153 2472 
Q 1153 2663 1013 2663 
Q 759 2663 595 2402 
Q 431 2141 353 1819 
Q 341 1778 300 1778 
L 225 1778 
Q 172 1778 172 1838 
L 172 1856 
Q 275 2238 487 2533 
Q 700 2828 1025 2828 
Q 1253 2828 1411 2678 
Q 1569 2528 1569 2297 
Q 1569 2178 1516 2047 
Q 1488 1969 1388 1706 
Q 1288 1444 1234 1272 
Q 1181 1100 1147 934 
Q 1113 769 1113 603 
Q 1113 391 1203 244 
Q 1294 97 1491 97 
Q 1888 97 2203 581 
L 2688 2553 
Q 2709 2638 2787 2698 
Q 2866 2759 2956 2759 
Q 3034 2759 3092 2709 
Q 3150 2659 3150 2578 
Q 3150 2541 3144 2528 
L 2509 -19 
Q 2425 -347 2200 -647 
Q 1975 -947 1658 -1130 
Q 1341 -1313 997 -1313 
Q 831 -1313 668 -1248 
Q 506 -1184 406 -1056 
Q 306 -928 306 -756 
Q 306 -581 409 -453 
Q 513 -325 684 -325 
Q 788 -325 858 -389 
Q 928 -453 928 -556 
Q 928 -703 818 -812 
Q 709 -922 563 -922 
Q 556 -919 550 -917 
Q 544 -916 538 -916 
z
" transform="scale(0.015625)"/>
      </defs>
      <use xlink:href="#Cmmi10-79" transform="translate(0 0.8125)"/>
     </g>
    </g>
   </g>
   <g id="matplotlib.axis_2">
    <g id="ytick_1">
     <g id="line2d_34">
      <defs>
       <path id="m4d0ccb7ca2" d="M 0 0 
L -3.5 0 
" style="stroke: #000000; stroke-width: 0.8"/>
      </defs>
      <g>
       <use xlink:href="#m4d0ccb7ca2" x="230.4" y="339.049732" style="stroke: #000000; stroke-width: 0.8"/>
      </g>
     </g>
     <g id="text_10">
      <!-- −8 -->
      <g transform="translate(208.657813 342.84895)scale(0.1 -0.1)">
       <use xlink:href="#DejaVuSans-2212"/>
       <use xlink:href="#DejaVuSans-38" x="83.789062"/>
      </g>
     </g>
    </g>
    <g id="ytick_2">
     <g id="line2d_35">
      <g>
       <use xlink:href="#m4d0ccb7ca2" x="230.4" y="299.538735" style="stroke: #000000; stroke-width: 0.8"/>
      </g>
     </g>
     <g id="text_11">
      <!-- −6 -->
      <g transform="translate(208.657813 303.337954)scale(0.1 -0.1)">
       <use xlink:href="#DejaVuSans-2212"/>
       <use xlink:href="#DejaVuSans-36" x="83.789062"/>
      </g>
     </g>
    </g>
    <g id="ytick_3">
     <g id="line2d_36">
      <g>
       <use xlink:href="#m4d0ccb7ca2" x="230.4" y="260.027739" style="stroke: #000000; stroke-width: 0.8"/>
      </g>
     </g>
     <g id="text_12">
      <!-- −4 -->
      <g transform="translate(208.657813 263.826957)scale(0.1 -0.1)">
       <use xlink:href="#DejaVuSans-2212"/>
       <use xlink:href="#DejaVuSans-34" x="83.789062"/>
      </g>
     </g>
    </g>
    <g id="ytick_4">
     <g id="line2d_37">
      <g>
       <use xlink:href="#m4d0ccb7ca2" x="230.4" y="220.516742" style="stroke: #000000; stroke-width: 0.8"/>
      </g>
     </g>
     <g id="text_13">
      <!-- −2 -->
      <g transform="translate(208.657813 224.315961)scale(0.1 -0.1)">
       <use xlink:href="#DejaVuSans-2212"/>
       <use xlink:href="#DejaVuSans-32" x="83.789062"/>
      </g>
     </g>
    </g>
    <g id="ytick_5">
     <g id="line2d_38">
      <g>
       <use xlink:href="#m4d0ccb7ca2" x="230.4" y="181.005746" style="stroke: #000000; stroke-width: 0.8"/>
      </g>
     </g>
    </g>
    <g id="ytick_6">
     <g id="line2d_39">
      <g>
       <use xlink:href="#m4d0ccb7ca2" x="230.4" y="141.494749" style="stroke: #000000; stroke-width: 0.8"/>
      </g>
     </g>
     <g id="text_14">
      <!-- 2 -->
      <g transform="translate(217.0375 145.293968)scale(0.1 -0.1)">
       <use xlink:href="#DejaVuSans-32"/>
      </g>
     </g>
    </g>
    <g id="ytick_7">
     <g id="line2d_40">
      <g>
       <use xlink:href="#m4d0ccb7ca2" x="230.4" y="101.983753" style="stroke: #000000; stroke-width: 0.8"/>
      </g>
     </g>
     <g id="text_15">
      <!-- 4 -->
      <g transform="translate(217.0375 105.782971)scale(0.1 -0.1)">
       <use xlink:href="#DejaVuSans-34"/>
      </g>
     </g>
    </g>
    <g id="ytick_8">
     <g id="line2d_41">
      <g>
       <use xlink:href="#m4d0ccb7ca2" x="230.4" y="62.472756" style="stroke: #000000; stroke-width: 0.8"/>
      </g>
     </g>
     <g id="text_16">
      <!-- 6 -->
      <g transform="translate(217.0375 66.271975)scale(0.1 -0.1)">
       <use xlink:href="#DejaVuSans-36"/>
      </g>
     </g>
    </g>
    <g id="ytick_9">
     <g id="line2d_42">
      <g>
       <use xlink:href="#m4d0ccb7ca2" x="230.4" y="22.961759" style="stroke: #000000; stroke-width: 0.8"/>
      </g>
     </g>
     <g id="text_17">
      <!-- 8 -->
      <g transform="translate(217.0375 26.760978)scale(0.1 -0.1)">
       <use xlink:href="#DejaVuSans-38"/>
      </g>
     </g>
    </g>
    <g id="ytick_10">
     <g id="line2d_43">
      <defs>
       <path id="m6611f2b190" d="M 0 0 
L -2 0 
" style="stroke: #000000; stroke-width: 0.6"/>
      </defs>
      <g>
       <use xlink:href="#m6611f2b190" x="230.4" y="329.171983" style="stroke: #000000; stroke-width: 0.6"/>
      </g>
     </g>
    </g>
    <g id="ytick_11">
     <g id="line2d_44">
      <g>
       <use xlink:href="#m6611f2b190" x="230.4" y="319.294233" style="stroke: #000000; stroke-width: 0.6"/>
      </g>
     </g>
    </g>
    <g id="ytick_12">
     <g id="line2d_45">
      <g>
       <use xlink:href="#m6611f2b190" x="230.4" y="309.416484" style="stroke: #000000; stroke-width: 0.6"/>
      </g>
     </g>
    </g>
    <g id="ytick_13">
     <g id="line2d_46">
      <g>
       <use xlink:href="#m6611f2b190" x="230.4" y="289.660986" style="stroke: #000000; stroke-width: 0.6"/>
      </g>
     </g>
    </g>
    <g id="ytick_14">
     <g id="line2d_47">
      <g>
       <use xlink:href="#m6611f2b190" x="230.4" y="279.783237" style="stroke: #000000; stroke-width: 0.6"/>
      </g>
     </g>
    </g>
    <g id="ytick_15">
     <g id="line2d_48">
      <g>
       <use xlink:href="#m6611f2b190" x="230.4" y="269.905488" style="stroke: #000000; stroke-width: 0.6"/>
      </g>
     </g>
    </g>
    <g id="ytick_16">
     <g id="line2d_49">
      <g>
       <use xlink:href="#m6611f2b190" x="230.4" y="250.149989" style="stroke: #000000; stroke-width: 0.6"/>
      </g>
     </g>
    </g>
    <g id="ytick_17">
     <g id="line2d_50">
      <g>
       <use xlink:href="#m6611f2b190" x="230.4" y="240.27224" style="stroke: #000000; stroke-width: 0.6"/>
      </g>
     </g>
    </g>
    <g id="ytick_18">
     <g id="line2d_51">
      <g>
       <use xlink:href="#m6611f2b190" x="230.4" y="230.394491" style="stroke: #000000; stroke-width: 0.6"/>
      </g>
     </g>
    </g>
    <g id="ytick_19">
     <g id="line2d_52">
      <g>
       <use xlink:href="#m6611f2b190" x="230.4" y="210.638993" style="stroke: #000000; stroke-width: 0.6"/>
      </g>
     </g>
    </g>
    <g id="ytick_20">
     <g id="line2d_53">
      <g>
       <use xlink:href="#m6611f2b190" x="230.4" y="200.761244" style="stroke: #000000; stroke-width: 0.6"/>
      </g>
     </g>
    </g>
    <g id="ytick_21">
     <g id="line2d_54">
      <g>
       <use xlink:href="#m6611f2b190" x="230.4" y="190.883495" style="stroke: #000000; stroke-width: 0.6"/>
      </g>
     </g>
    </g>
    <g id="ytick_22">
     <g id="line2d_55">
      <g>
       <use xlink:href="#m6611f2b190" x="230.4" y="171.127996" style="stroke: #000000; stroke-width: 0.6"/>
      </g>
     </g>
    </g>
    <g id="ytick_23">
     <g id="line2d_56">
      <g>
       <use xlink:href="#m6611f2b190" x="230.4" y="161.250247" style="stroke: #000000; stroke-width: 0.6"/>
      </g>
     </g>
    </g>
    <g id="ytick_24">
     <g id="line2d_57">
      <g>
       <use xlink:href="#m6611f2b190" x="230.4" y="151.372498" style="stroke: #000000; stroke-width: 0.6"/>
      </g>
     </g>
    </g>
    <g id="ytick_25">
     <g id="line2d_58">
      <g>
       <use xlink:href="#m6611f2b190" x="230.4" y="131.617" style="stroke: #000000; stroke-width: 0.6"/>
      </g>
     </g>
    </g>
    <g id="ytick_26">
     <g id="line2d_59">
      <g>
       <use xlink:href="#m6611f2b190" x="230.4" y="121.739251" style="stroke: #000000; stroke-width: 0.6"/>
      </g>
     </g>
    </g>
    <g id="ytick_27">
     <g id="line2d_60">
      <g>
       <use xlink:href="#m6611f2b190" x="230.4" y="111.861502" style="stroke: #000000; stroke-width: 0.6"/>
      </g>
     </g>
    </g>
    <g id="ytick_28">
     <g id="line2d_61">
      <g>
       <use xlink:href="#m6611f2b190" x="230.4" y="92.106003" style="stroke: #000000; stroke-width: 0.6"/>
      </g>
     </g>
    </g>
    <g id="ytick_29">
     <g id="line2d_62">
      <g>
       <use xlink:href="#m6611f2b190" x="230.4" y="82.228254" style="stroke: #000000; stroke-width: 0.6"/>
      </g>
     </g>
    </g>
    <g id="ytick_30">
     <g id="line2d_63">
      <g>
       <use xlink:href="#m6611f2b190" x="230.4" y="72.350505" style="stroke: #000000; stroke-width: 0.6"/>
      </g>
     </g>
    </g>
    <g id="ytick_31">
     <g id="line2d_64">
      <g>
       <use xlink:href="#m6611f2b190" x="230.4" y="52.595007" style="stroke: #000000; stroke-width: 0.6"/>
      </g>
     </g>
    </g>
    <g id="ytick_32">
     <g id="line2d_65">
      <g>
       <use xlink:href="#m6611f2b190" x="230.4" y="42.717258" style="stroke: #000000; stroke-width: 0.6"/>
      </g>
     </g>
    </g>
    <g id="ytick_33">
     <g id="line2d_66">
      <g>
       <use xlink:href="#m6611f2b190" x="230.4" y="32.839509" style="stroke: #000000; stroke-width: 0.6"/>
      </g>
     </g>
    </g>
    <g id="text_18">
     <!-- $ z $ -->
     <g transform="translate(226.64 5.3125)scale(0.16 -0.16)">
      <defs>
       <path id="Cmmi10-7a" d="M 313 -72 
Q 263 -72 263 -13 
Q 263 19 275 31 
Q 447 328 689 598 
Q 931 869 1239 1145 
Q 1547 1422 1858 1700 
Q 2169 1978 2363 2194 
L 2338 2194 
Q 2197 2194 1925 2284 
Q 1653 2375 1497 2375 
Q 1328 2375 1168 2301 
Q 1009 2228 966 2075 
Q 956 2028 916 2028 
L 838 2028 
Q 788 2028 788 2094 
L 788 2113 
Q 838 2300 952 2462 
Q 1066 2625 1233 2726 
Q 1400 2828 1581 2828 
Q 1709 2828 1793 2770 
Q 1878 2713 1990 2591 
Q 2103 2469 2173 2416 
Q 2244 2363 2350 2363 
Q 2491 2363 2602 2491 
Q 2713 2619 2822 2809 
Q 2841 2828 2869 2828 
L 2944 2828 
Q 2966 2828 2980 2812 
Q 2994 2797 2994 2772 
Q 2994 2750 2981 2731 
Q 2809 2434 2579 2176 
Q 2350 1919 1979 1586 
Q 1609 1253 1354 1023 
Q 1100 794 878 550 
Q 928 563 1013 563 
Q 1169 563 1439 473 
Q 1709 384 1856 384 
Q 2016 384 2178 453 
Q 2341 522 2459 647 
Q 2578 772 2619 934 
Q 2634 978 2669 978 
L 2747 978 
Q 2772 978 2787 958 
Q 2803 938 2803 916 
Q 2803 909 2797 897 
Q 2738 653 2591 433 
Q 2444 213 2230 70 
Q 2016 -72 1772 -72 
Q 1650 -72 1565 -15 
Q 1481 41 1367 164 
Q 1253 288 1181 342 
Q 1109 397 1006 397 
Q 688 397 434 -50 
Q 413 -72 391 -72 
L 313 -72 
z
" transform="scale(0.015625)"/>
      </defs>
      <use xlink:href="#Cmmi10-7a" transform="translate(0 0.8125)"/>
     </g>
    </g>
   </g>
   <g id="line2d_67">
    <path d="M 72.356014 339.049732 
L 76.627473 339.049732 
L 80.898932 339.049732 
L 85.170391 339.049732 
L 89.44185 339.049732 
L 93.713309 339.049732 
L 97.984768 339.049732 
L 102.256227 339.049732 
L 106.527687 339.049732 
L 110.799146 339.049732 
L 115.070605 339.049732 
L 119.342064 339.049732 
L 123.613523 339.049732 
L 127.884982 339.049732 
L 132.156441 339.049732 
L 136.4279 339.049732 
L 140.699359 339.049732 
L 144.970818 339.049732 
L 149.242277 339.049732 
L 153.513736 339.049732 
L 157.785196 339.049732 
L 162.056655 339.049732 
L 166.328114 339.049732 
L 170.599573 339.049732 
L 174.871032 339.049732 
L 179.142491 339.049732 
L 183.41395 339.049732 
L 187.685409 339.049732 
L 191.956868 339.049732 
L 196.228327 339.049732 
L 200.499786 339.049732 
L 204.771245 339.049732 
L 209.042705 339.049732 
L 213.314164 339.049732 
L 217.585623 339.049732 
L 221.857082 339.049732 
L 226.128541 339.049732 
L 230.4 339.049732 
L 234.671459 339.049732 
L 238.942918 339.049732 
L 243.214377 339.049732 
L 247.485836 339.049732 
L 251.757295 339.049732 
L 256.028755 339.049732 
L 260.300214 339.049732 
L 264.571673 339.049732 
L 268.843132 339.049732 
L 273.114591 339.049732 
L 277.38605 339.049732 
L 281.657509 339.049732 
L 285.928968 339.049732 
L 290.200427 339.049732 
L 294.471886 339.049732 
L 298.743345 339.049732 
L 303.014804 339.049732 
L 307.286264 339.049732 
L 311.557723 339.049732 
L 315.829182 339.049732 
L 320.100641 339.049732 
L 324.3721 339.049732 
L 328.643559 339.049732 
L 332.915018 339.049732 
L 337.186477 339.049732 
L 341.457936 339.049732 
L 345.729395 339.049732 
L 350.000854 339.049732 
L 354.272313 339.049732 
L 358.543773 339.049732 
L 362.815232 339.049732 
L 367.086691 339.049732 
L 371.35815 339.049732 
L 375.629609 339.049732 
L 379.901068 339.049732 
L 384.172527 339.049732 
L 388.443986 339.049732 
" clip-path="url(#pe3b5ffa626)" style="fill: none; stroke: #ff0000; stroke-linecap: square"/>
   </g>
   <g id="line2d_68">
    <path d="M 72.356014 299.538735 
L 76.627473 299.538735 
L 80.898932 299.538735 
L 85.170391 299.538735 
L 89.44185 299.538735 
L 93.713309 299.538735 
L 97.984768 299.538735 
L 102.256227 299.538735 
L 106.527687 299.538735 
L 110.799146 299.538735 
L 115.070605 299.538735 
L 119.342064 299.538735 
L 123.613523 299.538735 
L 127.884982 299.538735 
L 132.156441 299.538735 
L 136.4279 299.538735 
L 140.699359 299.538735 
L 144.970818 299.538735 
L 149.242277 299.538735 
L 153.513736 299.538735 
L 157.785196 299.538735 
L 162.056655 299.538735 
L 166.328114 299.538735 
L 170.599573 299.538735 
L 174.871032 299.538735 
L 179.142491 299.538735 
L 183.41395 299.538735 
L 187.685409 299.538735 
L 191.956868 299.538735 
L 196.228327 299.538735 
L 200.499786 299.538735 
L 204.771245 299.538735 
L 209.042705 299.538735 
L 213.314164 299.538735 
L 217.585623 299.538735 
L 221.857082 299.538735 
L 226.128541 299.538735 
L 230.4 299.538735 
L 234.671459 299.538735 
L 238.942918 299.538735 
L 243.214377 299.538735 
L 247.485836 299.538735 
L 251.757295 299.538735 
L 256.028755 299.538735 
L 260.300214 299.538735 
L 264.571673 299.538735 
L 268.843132 299.538735 
L 273.114591 299.538735 
L 277.38605 299.538735 
L 281.657509 299.538735 
L 285.928968 299.538735 
L 290.200427 299.538735 
L 294.471886 299.538735 
L 298.743345 299.538735 
L 303.014804 299.538735 
L 307.286264 299.538735 
L 311.557723 299.538735 
L 315.829182 299.538735 
L 320.100641 299.538735 
L 324.3721 299.538735 
L 328.643559 299.538735 
L 332.915018 299.538735 
L 337.186477 299.538735 
L 341.457936 299.538735 
L 345.729395 299.538735 
L 350.000854 299.538735 
L 354.272313 299.538735 
L 358.543773 299.538735 
L 362.815232 299.538735 
L 367.086691 299.538735 
L 371.35815 299.538735 
L 375.629609 299.538735 
L 379.901068 299.538735 
L 384.172527 299.538735 
L 388.443986 299.538735 
" clip-path="url(#pe3b5ffa626)" style="fill: none; stroke: #ff0000; stroke-linecap: square"/>
   </g>
   <g id="line2d_69">
    <path d="M 72.356014 260.027739 
L 76.627473 260.027739 
L 80.898932 260.027739 
L 85.170391 260.027739 
L 89.44185 260.027739 
L 93.713309 260.027739 
L 97.984768 260.027739 
L 102.256227 260.027739 
L 106.527687 260.027739 
L 110.799146 260.027739 
L 115.070605 260.027739 
L 119.342064 260.027739 
L 123.613523 260.027739 
L 127.884982 260.027739 
L 132.156441 260.027739 
L 136.4279 260.027739 
L 140.699359 260.027739 
L 144.970818 260.027739 
L 149.242277 260.027739 
L 153.513736 260.027739 
L 157.785196 260.027739 
L 162.056655 260.027739 
L 166.328114 260.027739 
L 170.599573 260.027739 
L 174.871032 260.027739 
L 179.142491 260.027739 
L 183.41395 260.027739 
L 187.685409 260.027739 
L 191.956868 260.027739 
L 196.228327 260.027739 
L 200.499786 260.027739 
L 204.771245 260.027739 
L 209.042705 260.027739 
L 213.314164 260.027739 
L 217.585623 260.027739 
L 221.857082 260.027739 
L 226.128541 260.027739 
L 230.4 260.027739 
L 234.671459 260.027739 
L 238.942918 260.027739 
L 243.214377 260.027739 
L 247.485836 260.027739 
L 251.757295 260.027739 
L 256.028755 260.027739 
L 260.300214 260.027739 
L 264.571673 260.027739 
L 268.843132 260.027739 
L 273.114591 260.027739 
L 277.38605 260.027739 
L 281.657509 260.027739 
L 285.928968 260.027739 
L 290.200427 260.027739 
L 294.471886 260.027739 
L 298.743345 260.027739 
L 303.014804 260.027739 
L 307.286264 260.027739 
L 311.557723 260.027739 
L 315.829182 260.027739 
L 320.100641 260.027739 
L 324.3721 260.027739 
L 328.643559 260.027739 
L 332.915018 260.027739 
L 337.186477 260.027739 
L 341.457936 260.027739 
L 345.729395 260.027739 
L 350.000854 260.027739 
L 354.272313 260.027739 
L 358.543773 260.027739 
L 362.815232 260.027739 
L 367.086691 260.027739 
L 371.35815 260.027739 
L 375.629609 260.027739 
L 379.901068 260.027739 
L 384.172527 260.027739 
L 388.443986 260.027739 
" clip-path="url(#pe3b5ffa626)" style="fill: none; stroke: #ff0000; stroke-linecap: square"/>
   </g>
   <g id="line2d_70">
    <path d="M 72.356014 220.516742 
L 76.627473 220.516742 
L 80.898932 220.516742 
L 85.170391 220.516742 
L 89.44185 220.516742 
L 93.713309 220.516742 
L 97.984768 220.516742 
L 102.256227 220.516742 
L 106.527687 220.516742 
L 110.799146 220.516742 
L 115.070605 220.516742 
L 119.342064 220.516742 
L 123.613523 220.516742 
L 127.884982 220.516742 
L 132.156441 220.516742 
L 136.4279 220.516742 
L 140.699359 220.516742 
L 144.970818 220.516742 
L 149.242277 220.516742 
L 153.513736 220.516742 
L 157.785196 220.516742 
L 162.056655 220.516742 
L 166.328114 220.516742 
L 170.599573 220.516742 
L 174.871032 220.516742 
L 179.142491 220.516742 
L 183.41395 220.516742 
L 187.685409 220.516742 
L 191.956868 220.516742 
L 196.228327 220.516742 
L 200.499786 220.516742 
L 204.771245 220.516742 
L 209.042705 220.516742 
L 213.314164 220.516742 
L 217.585623 220.516742 
L 221.857082 220.516742 
L 226.128541 220.516742 
L 230.4 220.516742 
L 234.671459 220.516742 
L 238.942918 220.516742 
L 243.214377 220.516742 
L 247.485836 220.516742 
L 251.757295 220.516742 
L 256.028755 220.516742 
L 260.300214 220.516742 
L 264.571673 220.516742 
L 268.843132 220.516742 
L 273.114591 220.516742 
L 277.38605 220.516742 
L 281.657509 220.516742 
L 285.928968 220.516742 
L 290.200427 220.516742 
L 294.471886 220.516742 
L 298.743345 220.516742 
L 303.014804 220.516742 
L 307.286264 220.516742 
L 311.557723 220.516742 
L 315.829182 220.516742 
L 320.100641 220.516742 
L 324.3721 220.516742 
L 328.643559 220.516742 
L 332.915018 220.516742 
L 337.186477 220.516742 
L 341.457936 220.516742 
L 345.729395 220.516742 
L 350.000854 220.516742 
L 354.272313 220.516742 
L 358.543773 220.516742 
L 362.815232 220.516742 
L 367.086691 220.516742 
L 371.35815 220.516742 
L 375.629609 220.516742 
L 379.901068 220.516742 
L 384.172527 220.516742 
L 388.443986 220.516742 
" clip-path="url(#pe3b5ffa626)" style="fill: none; stroke: #ff0000; stroke-linecap: square"/>
   </g>
   <g id="line2d_71">
    <path d="M 72.356014 181.005746 
L 76.627473 181.005746 
L 80.898932 181.005746 
L 85.170391 181.005746 
L 89.44185 181.005746 
L 93.713309 181.005746 
L 97.984768 181.005746 
L 102.256227 181.005746 
L 106.527687 181.005746 
L 110.799146 181.005746 
L 115.070605 181.005746 
L 119.342064 181.005746 
L 123.613523 181.005746 
L 127.884982 181.005746 
L 132.156441 181.005746 
L 136.4279 181.005746 
L 140.699359 181.005746 
L 144.970818 181.005746 
L 149.242277 181.005746 
L 153.513736 181.005746 
L 157.785196 181.005746 
L 162.056655 181.005746 
L 166.328114 181.005746 
L 170.599573 181.005746 
L 174.871032 181.005746 
L 179.142491 181.005746 
L 183.41395 181.005746 
L 187.685409 181.005746 
L 191.956868 181.005746 
L 196.228327 181.005746 
L 200.499786 181.005746 
L 204.771245 181.005746 
L 209.042705 181.005746 
L 213.314164 181.005746 
L 217.585623 181.005746 
L 221.857082 181.005746 
L 226.128541 181.005746 
L 230.4 181.005746 
L 234.671459 181.005746 
L 238.942918 181.005746 
L 243.214377 181.005746 
L 247.485836 181.005746 
L 251.757295 181.005746 
L 256.028755 181.005746 
L 260.300214 181.005746 
L 264.571673 181.005746 
L 268.843132 181.005746 
L 273.114591 181.005746 
L 277.38605 181.005746 
L 281.657509 181.005746 
L 285.928968 181.005746 
L 290.200427 181.005746 
L 294.471886 181.005746 
L 298.743345 181.005746 
L 303.014804 181.005746 
L 307.286264 181.005746 
L 311.557723 181.005746 
L 315.829182 181.005746 
L 320.100641 181.005746 
L 324.3721 181.005746 
L 328.643559 181.005746 
L 332.915018 181.005746 
L 337.186477 181.005746 
L 341.457936 181.005746 
L 345.729395 181.005746 
L 350.000854 181.005746 
L 354.272313 181.005746 
L 358.543773 181.005746 
L 362.815232 181.005746 
L 367.086691 181.005746 
L 371.35815 181.005746 
L 375.629609 181.005746 
L 379.901068 181.005746 
L 384.172527 181.005746 
L 388.443986 181.005746 
" clip-path="url(#pe3b5ffa626)" style="fill: none; stroke: #ff0000; stroke-linecap: square"/>
   </g>
   <g id="line2d_72">
    <path d="M 72.356014 141.494749 
L 76.627473 141.494749 
L 80.898932 141.494749 
L 85.170391 141.494749 
L 89.44185 141.494749 
L 93.713309 141.494749 
L 97.984768 141.494749 
L 102.256227 141.494749 
L 106.527687 141.494749 
L 110.799146 141.494749 
L 115.070605 141.494749 
L 119.342064 141.494749 
L 123.613523 141.494749 
L 127.884982 141.494749 
L 132.156441 141.494749 
L 136.4279 141.494749 
L 140.699359 141.494749 
L 144.970818 141.494749 
L 149.242277 141.494749 
L 153.513736 141.494749 
L 157.785196 141.494749 
L 162.056655 141.494749 
L 166.328114 141.494749 
L 170.599573 141.494749 
L 174.871032 141.494749 
L 179.142491 141.494749 
L 183.41395 141.494749 
L 187.685409 141.494749 
L 191.956868 141.494749 
L 196.228327 141.494749 
L 200.499786 141.494749 
L 204.771245 141.494749 
L 209.042705 141.494749 
L 213.314164 141.494749 
L 217.585623 141.494749 
L 221.857082 141.494749 
L 226.128541 141.494749 
L 230.4 141.494749 
L 234.671459 141.494749 
L 238.942918 141.494749 
L 243.214377 141.494749 
L 247.485836 141.494749 
L 251.757295 141.494749 
L 256.028755 141.494749 
L 260.300214 141.494749 
L 264.571673 141.494749 
L 268.843132 141.494749 
L 273.114591 141.494749 
L 277.38605 141.494749 
L 281.657509 141.494749 
L 285.928968 141.494749 
L 290.200427 141.494749 
L 294.471886 141.494749 
L 298.743345 141.494749 
L 303.014804 141.494749 
L 307.286264 141.494749 
L 311.557723 141.494749 
L 315.829182 141.494749 
L 320.100641 141.494749 
L 324.3721 141.494749 
L 328.643559 141.494749 
L 332.915018 141.494749 
L 337.186477 141.494749 
L 341.457936 141.494749 
L 345.729395 141.494749 
L 350.000854 141.494749 
L 354.272313 141.494749 
L 358.543773 141.494749 
L 362.815232 141.494749 
L 367.086691 141.494749 
L 371.35815 141.494749 
L 375.629609 141.494749 
L 379.901068 141.494749 
L 384.172527 141.494749 
L 388.443986 141.494749 
" clip-path="url(#pe3b5ffa626)" style="fill: none; stroke: #ff0000; stroke-linecap: square"/>
   </g>
   <g id="line2d_73">
    <path d="M 72.356014 101.983753 
L 76.627473 101.983753 
L 80.898932 101.983753 
L 85.170391 101.983753 
L 89.44185 101.983753 
L 93.713309 101.983753 
L 97.984768 101.983753 
L 102.256227 101.983753 
L 106.527687 101.983753 
L 110.799146 101.983753 
L 115.070605 101.983753 
L 119.342064 101.983753 
L 123.613523 101.983753 
L 127.884982 101.983753 
L 132.156441 101.983753 
L 136.4279 101.983753 
L 140.699359 101.983753 
L 144.970818 101.983753 
L 149.242277 101.983753 
L 153.513736 101.983753 
L 157.785196 101.983753 
L 162.056655 101.983753 
L 166.328114 101.983753 
L 170.599573 101.983753 
L 174.871032 101.983753 
L 179.142491 101.983753 
L 183.41395 101.983753 
L 187.685409 101.983753 
L 191.956868 101.983753 
L 196.228327 101.983753 
L 200.499786 101.983753 
L 204.771245 101.983753 
L 209.042705 101.983753 
L 213.314164 101.983753 
L 217.585623 101.983753 
L 221.857082 101.983753 
L 226.128541 101.983753 
L 230.4 101.983753 
L 234.671459 101.983753 
L 238.942918 101.983753 
L 243.214377 101.983753 
L 247.485836 101.983753 
L 251.757295 101.983753 
L 256.028755 101.983753 
L 260.300214 101.983753 
L 264.571673 101.983753 
L 268.843132 101.983753 
L 273.114591 101.983753 
L 277.38605 101.983753 
L 281.657509 101.983753 
L 285.928968 101.983753 
L 290.200427 101.983753 
L 294.471886 101.983753 
L 298.743345 101.983753 
L 303.014804 101.983753 
L 307.286264 101.983753 
L 311.557723 101.983753 
L 315.829182 101.983753 
L 320.100641 101.983753 
L 324.3721 101.983753 
L 328.643559 101.983753 
L 332.915018 101.983753 
L 337.186477 101.983753 
L 341.457936 101.983753 
L 345.729395 101.983753 
L 350.000854 101.983753 
L 354.272313 101.983753 
L 358.543773 101.983753 
L 362.815232 101.983753 
L 367.086691 101.983753 
L 371.35815 101.983753 
L 375.629609 101.983753 
L 379.901068 101.983753 
L 384.172527 101.983753 
L 388.443986 101.983753 
" clip-path="url(#pe3b5ffa626)" style="fill: none; stroke: #ff0000; stroke-linecap: square"/>
   </g>
   <g id="line2d_74">
    <path d="M 72.356014 62.472756 
L 76.627473 62.472756 
L 80.898932 62.472756 
L 85.170391 62.472756 
L 89.44185 62.472756 
L 93.713309 62.472756 
L 97.984768 62.472756 
L 102.256227 62.472756 
L 106.527687 62.472756 
L 110.799146 62.472756 
L 115.070605 62.472756 
L 119.342064 62.472756 
L 123.613523 62.472756 
L 127.884982 62.472756 
L 132.156441 62.472756 
L 136.4279 62.472756 
L 140.699359 62.472756 
L 144.970818 62.472756 
L 149.242277 62.472756 
L 153.513736 62.472756 
L 157.785196 62.472756 
L 162.056655 62.472756 
L 166.328114 62.472756 
L 170.599573 62.472756 
L 174.871032 62.472756 
L 179.142491 62.472756 
L 183.41395 62.472756 
L 187.685409 62.472756 
L 191.956868 62.472756 
L 196.228327 62.472756 
L 200.499786 62.472756 
L 204.771245 62.472756 
L 209.042705 62.472756 
L 213.314164 62.472756 
L 217.585623 62.472756 
L 221.857082 62.472756 
L 226.128541 62.472756 
L 230.4 62.472756 
L 234.671459 62.472756 
L 238.942918 62.472756 
L 243.214377 62.472756 
L 247.485836 62.472756 
L 251.757295 62.472756 
L 256.028755 62.472756 
L 260.300214 62.472756 
L 264.571673 62.472756 
L 268.843132 62.472756 
L 273.114591 62.472756 
L 277.38605 62.472756 
L 281.657509 62.472756 
L 285.928968 62.472756 
L 290.200427 62.472756 
L 294.471886 62.472756 
L 298.743345 62.472756 
L 303.014804 62.472756 
L 307.286264 62.472756 
L 311.557723 62.472756 
L 315.829182 62.472756 
L 320.100641 62.472756 
L 324.3721 62.472756 
L 328.643559 62.472756 
L 332.915018 62.472756 
L 337.186477 62.472756 
L 341.457936 62.472756 
L 345.729395 62.472756 
L 350.000854 62.472756 
L 354.272313 62.472756 
L 358.543773 62.472756 
L 362.815232 62.472756 
L 367.086691 62.472756 
L 371.35815 62.472756 
L 375.629609 62.472756 
L 379.901068 62.472756 
L 384.172527 62.472756 
L 388.443986 62.472756 
" clip-path="url(#pe3b5ffa626)" style="fill: none; stroke: #ff0000; stroke-linecap: square"/>
   </g>
   <g id="line2d_75">
    <path d="M 72.356014 22.961759 
L 76.627473 22.961759 
L 80.898932 22.961759 
L 85.170391 22.961759 
L 89.44185 22.961759 
L 93.713309 22.961759 
L 97.984768 22.961759 
L 102.256227 22.961759 
L 106.527687 22.961759 
L 110.799146 22.961759 
L 115.070605 22.961759 
L 119.342064 22.961759 
L 123.613523 22.961759 
L 127.884982 22.961759 
L 132.156441 22.961759 
L 136.4279 22.961759 
L 140.699359 22.961759 
L 144.970818 22.961759 
L 149.242277 22.961759 
L 153.513736 22.961759 
L 157.785196 22.961759 
L 162.056655 22.961759 
L 166.328114 22.961759 
L 170.599573 22.961759 
L 174.871032 22.961759 
L 179.142491 22.961759 
L 183.41395 22.961759 
L 187.685409 22.961759 
L 191.956868 22.961759 
L 196.228327 22.961759 
L 200.499786 22.961759 
L 204.771245 22.961759 
L 209.042705 22.961759 
L 213.314164 22.961759 
L 217.585623 22.961759 
L 221.857082 22.961759 
L 226.128541 22.961759 
L 230.4 22.961759 
L 234.671459 22.961759 
L 238.942918 22.961759 
L 243.214377 22.961759 
L 247.485836 22.961759 
L 251.757295 22.961759 
L 256.028755 22.961759 
L 260.300214 22.961759 
L 264.571673 22.961759 
L 268.843132 22.961759 
L 273.114591 22.961759 
L 277.38605 22.961759 
L 281.657509 22.961759 
L 285.928968 22.961759 
L 290.200427 22.961759 
L 294.471886 22.961759 
L 298.743345 22.961759 
L 303.014804 22.961759 
L 307.286264 22.961759 
L 311.557723 22.961759 
L 315.829182 22.961759 
L 320.100641 22.961759 
L 324.3721 22.961759 
L 328.643559 22.961759 
L 332.915018 22.961759 
L 337.186477 22.961759 
L 341.457936 22.961759 
L 345.729395 22.961759 
L 350.000854 22.961759 
L 354.272313 22.961759 
L 358.543773 22.961759 
L 362.815232 22.961759 
L 367.086691 22.961759 
L 371.35815 22.961759 
L 375.629609 22.961759 
L 379.901068 22.961759 
L 384.172527 22.961759 
L 388.443986 22.961759 
" clip-path="url(#pe3b5ffa626)" style="fill: none; stroke: #ff0000; stroke-linecap: square"/>
   </g>
   <g id="line2d_76">
    <path d="M 72.356014 339.049732 
L 72.356014 334.778273 
L 72.356014 330.506814 
L 72.356014 326.235354 
L 72.356014 321.963895 
L 72.356014 317.692436 
L 72.356014 313.420977 
L 72.356014 309.149518 
L 72.356014 304.878059 
L 72.356014 300.6066 
L 72.356014 296.335141 
L 72.356014 292.063682 
L 72.356014 287.792223 
L 72.356014 283.520764 
L 72.356014 279.249304 
L 72.356014 274.977845 
L 72.356014 270.706386 
L 72.356014 266.434927 
L 72.356014 262.163468 
L 72.356014 257.892009 
L 72.356014 253.62055 
L 72.356014 249.349091 
L 72.356014 245.077632 
L 72.356014 240.806173 
L 72.356014 236.534714 
L 72.356014 232.263255 
L 72.356014 227.991795 
L 72.356014 223.720336 
L 72.356014 219.448877 
L 72.356014 215.177418 
L 72.356014 210.905959 
L 72.356014 206.6345 
L 72.356014 202.363041 
L 72.356014 198.091582 
L 72.356014 193.820123 
L 72.356014 189.548664 
L 72.356014 185.277205 
L 72.356014 181.005746 
L 72.356014 176.734286 
L 72.356014 172.462827 
L 72.356014 168.191368 
L 72.356014 163.919909 
L 72.356014 159.64845 
L 72.356014 155.376991 
L 72.356014 151.105532 
L 72.356014 146.834073 
L 72.356014 142.562614 
L 72.356014 138.291155 
L 72.356014 134.019696 
L 72.356014 129.748237 
L 72.356014 125.476777 
L 72.356014 121.205318 
L 72.356014 116.933859 
L 72.356014 112.6624 
L 72.356014 108.390941 
L 72.356014 104.119482 
L 72.356014 99.848023 
L 72.356014 95.576564 
L 72.356014 91.305105 
L 72.356014 87.033646 
L 72.356014 82.762187 
L 72.356014 78.490728 
L 72.356014 74.219268 
L 72.356014 69.947809 
L 72.356014 65.67635 
L 72.356014 61.404891 
L 72.356014 57.133432 
L 72.356014 52.861973 
L 72.356014 48.590514 
L 72.356014 44.319055 
L 72.356014 40.047596 
L 72.356014 35.776137 
L 72.356014 31.504678 
L 72.356014 27.233219 
L 72.356014 22.961759 
" clip-path="url(#pe3b5ffa626)" style="fill: none; stroke: #ff0000; stroke-linecap: square"/>
   </g>
   <g id="line2d_77">
    <path d="M 111.86701 339.049732 
L 111.86701 334.778273 
L 111.86701 330.506814 
L 111.86701 326.235354 
L 111.86701 321.963895 
L 111.86701 317.692436 
L 111.86701 313.420977 
L 111.86701 309.149518 
L 111.86701 304.878059 
L 111.86701 300.6066 
L 111.86701 296.335141 
L 111.86701 292.063682 
L 111.86701 287.792223 
L 111.86701 283.520764 
L 111.86701 279.249304 
L 111.86701 274.977845 
L 111.86701 270.706386 
L 111.86701 266.434927 
L 111.86701 262.163468 
L 111.86701 257.892009 
L 111.86701 253.62055 
L 111.86701 249.349091 
L 111.86701 245.077632 
L 111.86701 240.806173 
L 111.86701 236.534714 
L 111.86701 232.263255 
L 111.86701 227.991795 
L 111.86701 223.720336 
L 111.86701 219.448877 
L 111.86701 215.177418 
L 111.86701 210.905959 
L 111.86701 206.6345 
L 111.86701 202.363041 
L 111.86701 198.091582 
L 111.86701 193.820123 
L 111.86701 189.548664 
L 111.86701 185.277205 
L 111.86701 181.005746 
L 111.86701 176.734286 
L 111.86701 172.462827 
L 111.86701 168.191368 
L 111.86701 163.919909 
L 111.86701 159.64845 
L 111.86701 155.376991 
L 111.86701 151.105532 
L 111.86701 146.834073 
L 111.86701 142.562614 
L 111.86701 138.291155 
L 111.86701 134.019696 
L 111.86701 129.748237 
L 111.86701 125.476777 
L 111.86701 121.205318 
L 111.86701 116.933859 
L 111.86701 112.6624 
L 111.86701 108.390941 
L 111.86701 104.119482 
L 111.86701 99.848023 
L 111.86701 95.576564 
L 111.86701 91.305105 
L 111.86701 87.033646 
L 111.86701 82.762187 
L 111.86701 78.490728 
L 111.86701 74.219268 
L 111.86701 69.947809 
L 111.86701 65.67635 
L 111.86701 61.404891 
L 111.86701 57.133432 
L 111.86701 52.861973 
L 111.86701 48.590514 
L 111.86701 44.319055 
L 111.86701 40.047596 
L 111.86701 35.776137 
L 111.86701 31.504678 
L 111.86701 27.233219 
L 111.86701 22.961759 
" clip-path="url(#pe3b5ffa626)" style="fill: none; stroke: #ff0000; stroke-linecap: square"/>
   </g>
   <g id="line2d_78">
    <path d="M 151.378007 339.049732 
L 151.378007 334.778273 
L 151.378007 330.506814 
L 151.378007 326.235354 
L 151.378007 321.963895 
L 151.378007 317.692436 
L 151.378007 313.420977 
L 151.378007 309.149518 
L 151.378007 304.878059 
L 151.378007 300.6066 
L 151.378007 296.335141 
L 151.378007 292.063682 
L 151.378007 287.792223 
L 151.378007 283.520764 
L 151.378007 279.249304 
L 151.378007 274.977845 
L 151.378007 270.706386 
L 151.378007 266.434927 
L 151.378007 262.163468 
L 151.378007 257.892009 
L 151.378007 253.62055 
L 151.378007 249.349091 
L 151.378007 245.077632 
L 151.378007 240.806173 
L 151.378007 236.534714 
L 151.378007 232.263255 
L 151.378007 227.991795 
L 151.378007 223.720336 
L 151.378007 219.448877 
L 151.378007 215.177418 
L 151.378007 210.905959 
L 151.378007 206.6345 
L 151.378007 202.363041 
L 151.378007 198.091582 
L 151.378007 193.820123 
L 151.378007 189.548664 
L 151.378007 185.277205 
L 151.378007 181.005746 
L 151.378007 176.734286 
L 151.378007 172.462827 
L 151.378007 168.191368 
L 151.378007 163.919909 
L 151.378007 159.64845 
L 151.378007 155.376991 
L 151.378007 151.105532 
L 151.378007 146.834073 
L 151.378007 142.562614 
L 151.378007 138.291155 
L 151.378007 134.019696 
L 151.378007 129.748237 
L 151.378007 125.476777 
L 151.378007 121.205318 
L 151.378007 116.933859 
L 151.378007 112.6624 
L 151.378007 108.390941 
L 151.378007 104.119482 
L 151.378007 99.848023 
L 151.378007 95.576564 
L 151.378007 91.305105 
L 151.378007 87.033646 
L 151.378007 82.762187 
L 151.378007 78.490728 
L 151.378007 74.219268 
L 151.378007 69.947809 
L 151.378007 65.67635 
L 151.378007 61.404891 
L 151.378007 57.133432 
L 151.378007 52.861973 
L 151.378007 48.590514 
L 151.378007 44.319055 
L 151.378007 40.047596 
L 151.378007 35.776137 
L 151.378007 31.504678 
L 151.378007 27.233219 
L 151.378007 22.961759 
" clip-path="url(#pe3b5ffa626)" style="fill: none; stroke: #ff0000; stroke-linecap: square"/>
   </g>
   <g id="line2d_79">
    <path d="M 190.889003 339.049732 
L 190.889003 334.778273 
L 190.889003 330.506814 
L 190.889003 326.235354 
L 190.889003 321.963895 
L 190.889003 317.692436 
L 190.889003 313.420977 
L 190.889003 309.149518 
L 190.889003 304.878059 
L 190.889003 300.6066 
L 190.889003 296.335141 
L 190.889003 292.063682 
L 190.889003 287.792223 
L 190.889003 283.520764 
L 190.889003 279.249304 
L 190.889003 274.977845 
L 190.889003 270.706386 
L 190.889003 266.434927 
L 190.889003 262.163468 
L 190.889003 257.892009 
L 190.889003 253.62055 
L 190.889003 249.349091 
L 190.889003 245.077632 
L 190.889003 240.806173 
L 190.889003 236.534714 
L 190.889003 232.263255 
L 190.889003 227.991795 
L 190.889003 223.720336 
L 190.889003 219.448877 
L 190.889003 215.177418 
L 190.889003 210.905959 
L 190.889003 206.6345 
L 190.889003 202.363041 
L 190.889003 198.091582 
L 190.889003 193.820123 
L 190.889003 189.548664 
L 190.889003 185.277205 
L 190.889003 181.005746 
L 190.889003 176.734286 
L 190.889003 172.462827 
L 190.889003 168.191368 
L 190.889003 163.919909 
L 190.889003 159.64845 
L 190.889003 155.376991 
L 190.889003 151.105532 
L 190.889003 146.834073 
L 190.889003 142.562614 
L 190.889003 138.291155 
L 190.889003 134.019696 
L 190.889003 129.748237 
L 190.889003 125.476777 
L 190.889003 121.205318 
L 190.889003 116.933859 
L 190.889003 112.6624 
L 190.889003 108.390941 
L 190.889003 104.119482 
L 190.889003 99.848023 
L 190.889003 95.576564 
L 190.889003 91.305105 
L 190.889003 87.033646 
L 190.889003 82.762187 
L 190.889003 78.490728 
L 190.889003 74.219268 
L 190.889003 69.947809 
L 190.889003 65.67635 
L 190.889003 61.404891 
L 190.889003 57.133432 
L 190.889003 52.861973 
L 190.889003 48.590514 
L 190.889003 44.319055 
L 190.889003 40.047596 
L 190.889003 35.776137 
L 190.889003 31.504678 
L 190.889003 27.233219 
L 190.889003 22.961759 
" clip-path="url(#pe3b5ffa626)" style="fill: none; stroke: #ff0000; stroke-linecap: square"/>
   </g>
   <g id="line2d_80">
    <path d="M 230.4 339.049732 
L 230.4 334.778273 
L 230.4 330.506814 
L 230.4 326.235354 
L 230.4 321.963895 
L 230.4 317.692436 
L 230.4 313.420977 
L 230.4 309.149518 
L 230.4 304.878059 
L 230.4 300.6066 
L 230.4 296.335141 
L 230.4 292.063682 
L 230.4 287.792223 
L 230.4 283.520764 
L 230.4 279.249304 
L 230.4 274.977845 
L 230.4 270.706386 
L 230.4 266.434927 
L 230.4 262.163468 
L 230.4 257.892009 
L 230.4 253.62055 
L 230.4 249.349091 
L 230.4 245.077632 
L 230.4 240.806173 
L 230.4 236.534714 
L 230.4 232.263255 
L 230.4 227.991795 
L 230.4 223.720336 
L 230.4 219.448877 
L 230.4 215.177418 
L 230.4 210.905959 
L 230.4 206.6345 
L 230.4 202.363041 
L 230.4 198.091582 
L 230.4 193.820123 
L 230.4 189.548664 
L 230.4 185.277205 
L 230.4 181.005746 
L 230.4 176.734286 
L 230.4 172.462827 
L 230.4 168.191368 
L 230.4 163.919909 
L 230.4 159.64845 
L 230.4 155.376991 
L 230.4 151.105532 
L 230.4 146.834073 
L 230.4 142.562614 
L 230.4 138.291155 
L 230.4 134.019696 
L 230.4 129.748237 
L 230.4 125.476777 
L 230.4 121.205318 
L 230.4 116.933859 
L 230.4 112.6624 
L 230.4 108.390941 
L 230.4 104.119482 
L 230.4 99.848023 
L 230.4 95.576564 
L 230.4 91.305105 
L 230.4 87.033646 
L 230.4 82.762187 
L 230.4 78.490728 
L 230.4 74.219268 
L 230.4 69.947809 
L 230.4 65.67635 
L 230.4 61.404891 
L 230.4 57.133432 
L 230.4 52.861973 
L 230.4 48.590514 
L 230.4 44.319055 
L 230.4 40.047596 
L 230.4 35.776137 
L 230.4 31.504678 
L 230.4 27.233219 
L 230.4 22.961759 
" clip-path="url(#pe3b5ffa626)" style="fill: none; stroke: #ff0000; stroke-linecap: square"/>
   </g>
   <g id="line2d_81">
    <path d="M 269.910997 339.049732 
L 269.910997 334.778273 
L 269.910997 330.506814 
L 269.910997 326.235354 
L 269.910997 321.963895 
L 269.910997 317.692436 
L 269.910997 313.420977 
L 269.910997 309.149518 
L 269.910997 304.878059 
L 269.910997 300.6066 
L 269.910997 296.335141 
L 269.910997 292.063682 
L 269.910997 287.792223 
L 269.910997 283.520764 
L 269.910997 279.249304 
L 269.910997 274.977845 
L 269.910997 270.706386 
L 269.910997 266.434927 
L 269.910997 262.163468 
L 269.910997 257.892009 
L 269.910997 253.62055 
L 269.910997 249.349091 
L 269.910997 245.077632 
L 269.910997 240.806173 
L 269.910997 236.534714 
L 269.910997 232.263255 
L 269.910997 227.991795 
L 269.910997 223.720336 
L 269.910997 219.448877 
L 269.910997 215.177418 
L 269.910997 210.905959 
L 269.910997 206.6345 
L 269.910997 202.363041 
L 269.910997 198.091582 
L 269.910997 193.820123 
L 269.910997 189.548664 
L 269.910997 185.277205 
L 269.910997 181.005746 
L 269.910997 176.734286 
L 269.910997 172.462827 
L 269.910997 168.191368 
L 269.910997 163.919909 
L 269.910997 159.64845 
L 269.910997 155.376991 
L 269.910997 151.105532 
L 269.910997 146.834073 
L 269.910997 142.562614 
L 269.910997 138.291155 
L 269.910997 134.019696 
L 269.910997 129.748237 
L 269.910997 125.476777 
L 269.910997 121.205318 
L 269.910997 116.933859 
L 269.910997 112.6624 
L 269.910997 108.390941 
L 269.910997 104.119482 
L 269.910997 99.848023 
L 269.910997 95.576564 
L 269.910997 91.305105 
L 269.910997 87.033646 
L 269.910997 82.762187 
L 269.910997 78.490728 
L 269.910997 74.219268 
L 269.910997 69.947809 
L 269.910997 65.67635 
L 269.910997 61.404891 
L 269.910997 57.133432 
L 269.910997 52.861973 
L 269.910997 48.590514 
L 269.910997 44.319055 
L 269.910997 40.047596 
L 269.910997 35.776137 
L 269.910997 31.504678 
L 269.910997 27.233219 
L 269.910997 22.961759 
" clip-path="url(#pe3b5ffa626)" style="fill: none; stroke: #ff0000; stroke-linecap: square"/>
   </g>
   <g id="line2d_82">
    <path d="M 309.421993 339.049732 
L 309.421993 334.778273 
L 309.421993 330.506814 
L 309.421993 326.235354 
L 309.421993 321.963895 
L 309.421993 317.692436 
L 309.421993 313.420977 
L 309.421993 309.149518 
L 309.421993 304.878059 
L 309.421993 300.6066 
L 309.421993 296.335141 
L 309.421993 292.063682 
L 309.421993 287.792223 
L 309.421993 283.520764 
L 309.421993 279.249304 
L 309.421993 274.977845 
L 309.421993 270.706386 
L 309.421993 266.434927 
L 309.421993 262.163468 
L 309.421993 257.892009 
L 309.421993 253.62055 
L 309.421993 249.349091 
L 309.421993 245.077632 
L 309.421993 240.806173 
L 309.421993 236.534714 
L 309.421993 232.263255 
L 309.421993 227.991795 
L 309.421993 223.720336 
L 309.421993 219.448877 
L 309.421993 215.177418 
L 309.421993 210.905959 
L 309.421993 206.6345 
L 309.421993 202.363041 
L 309.421993 198.091582 
L 309.421993 193.820123 
L 309.421993 189.548664 
L 309.421993 185.277205 
L 309.421993 181.005746 
L 309.421993 176.734286 
L 309.421993 172.462827 
L 309.421993 168.191368 
L 309.421993 163.919909 
L 309.421993 159.64845 
L 309.421993 155.376991 
L 309.421993 151.105532 
L 309.421993 146.834073 
L 309.421993 142.562614 
L 309.421993 138.291155 
L 309.421993 134.019696 
L 309.421993 129.748237 
L 309.421993 125.476777 
L 309.421993 121.205318 
L 309.421993 116.933859 
L 309.421993 112.6624 
L 309.421993 108.390941 
L 309.421993 104.119482 
L 309.421993 99.848023 
L 309.421993 95.576564 
L 309.421993 91.305105 
L 309.421993 87.033646 
L 309.421993 82.762187 
L 309.421993 78.490728 
L 309.421993 74.219268 
L 309.421993 69.947809 
L 309.421993 65.67635 
L 309.421993 61.404891 
L 309.421993 57.133432 
L 309.421993 52.861973 
L 309.421993 48.590514 
L 309.421993 44.319055 
L 309.421993 40.047596 
L 309.421993 35.776137 
L 309.421993 31.504678 
L 309.421993 27.233219 
L 309.421993 22.961759 
" clip-path="url(#pe3b5ffa626)" style="fill: none; stroke: #ff0000; stroke-linecap: square"/>
   </g>
   <g id="line2d_83">
    <path d="M 348.93299 339.049732 
L 348.93299 334.778273 
L 348.93299 330.506814 
L 348.93299 326.235354 
L 348.93299 321.963895 
L 348.93299 317.692436 
L 348.93299 313.420977 
L 348.93299 309.149518 
L 348.93299 304.878059 
L 348.93299 300.6066 
L 348.93299 296.335141 
L 348.93299 292.063682 
L 348.93299 287.792223 
L 348.93299 283.520764 
L 348.93299 279.249304 
L 348.93299 274.977845 
L 348.93299 270.706386 
L 348.93299 266.434927 
L 348.93299 262.163468 
L 348.93299 257.892009 
L 348.93299 253.62055 
L 348.93299 249.349091 
L 348.93299 245.077632 
L 348.93299 240.806173 
L 348.93299 236.534714 
L 348.93299 232.263255 
L 348.93299 227.991795 
L 348.93299 223.720336 
L 348.93299 219.448877 
L 348.93299 215.177418 
L 348.93299 210.905959 
L 348.93299 206.6345 
L 348.93299 202.363041 
L 348.93299 198.091582 
L 348.93299 193.820123 
L 348.93299 189.548664 
L 348.93299 185.277205 
L 348.93299 181.005746 
L 348.93299 176.734286 
L 348.93299 172.462827 
L 348.93299 168.191368 
L 348.93299 163.919909 
L 348.93299 159.64845 
L 348.93299 155.376991 
L 348.93299 151.105532 
L 348.93299 146.834073 
L 348.93299 142.562614 
L 348.93299 138.291155 
L 348.93299 134.019696 
L 348.93299 129.748237 
L 348.93299 125.476777 
L 348.93299 121.205318 
L 348.93299 116.933859 
L 348.93299 112.6624 
L 348.93299 108.390941 
L 348.93299 104.119482 
L 348.93299 99.848023 
L 348.93299 95.576564 
L 348.93299 91.305105 
L 348.93299 87.033646 
L 348.93299 82.762187 
L 348.93299 78.490728 
L 348.93299 74.219268 
L 348.93299 69.947809 
L 348.93299 65.67635 
L 348.93299 61.404891 
L 348.93299 57.133432 
L 348.93299 52.861973 
L 348.93299 48.590514 
L 348.93299 44.319055 
L 348.93299 40.047596 
L 348.93299 35.776137 
L 348.93299 31.504678 
L 348.93299 27.233219 
L 348.93299 22.961759 
" clip-path="url(#pe3b5ffa626)" style="fill: none; stroke: #ff0000; stroke-linecap: square"/>
   </g>
   <g id="line2d_84">
    <path d="M 388.443986 339.049732 
L 388.443986 334.778273 
L 388.443986 330.506814 
L 388.443986 326.235354 
L 388.443986 321.963895 
L 388.443986 317.692436 
L 388.443986 313.420977 
L 388.443986 309.149518 
L 388.443986 304.878059 
L 388.443986 300.6066 
L 388.443986 296.335141 
L 388.443986 292.063682 
L 388.443986 287.792223 
L 388.443986 283.520764 
L 388.443986 279.249304 
L 388.443986 274.977845 
L 388.443986 270.706386 
L 388.443986 266.434927 
L 388.443986 262.163468 
L 388.443986 257.892009 
L 388.443986 253.62055 
L 388.443986 249.349091 
L 388.443986 245.077632 
L 388.443986 240.806173 
L 388.443986 236.534714 
L 388.443986 232.263255 
L 388.443986 227.991795 
L 388.443986 223.720336 
L 388.443986 219.448877 
L 388.443986 215.177418 
L 388.443986 210.905959 
L 388.443986 206.6345 
L 388.443986 202.363041 
L 388.443986 198.091582 
L 388.443986 193.820123 
L 388.443986 189.548664 
L 388.443986 185.277205 
L 388.443986 181.005746 
L 388.443986 176.734286 
L 388.443986 172.462827 
L 388.443986 168.191368 
L 388.443986 163.919909 
L 388.443986 159.64845 
L 388.443986 155.376991 
L 388.443986 151.105532 
L 388.443986 146.834073 
L 388.443986 142.562614 
L 388.443986 138.291155 
L 388.443986 134.019696 
L 388.443986 129.748237 
L 388.443986 125.476777 
L 388.443986 121.205318 
L 388.443986 116.933859 
L 388.443986 112.6624 
L 388.443986 108.390941 
L 388.443986 104.119482 
L 388.443986 99.848023 
L 388.443986 95.576564 
L 388.443986 91.305105 
L 388.443986 87.033646 
L 388.443986 82.762187 
L 388.443986 78.490728 
L 388.443986 74.219268 
L 388.443986 69.947809 
L 388.443986 65.67635 
L 388.443986 61.404891 
L 388.443986 57.133432 
L 388.443986 52.861973 
L 388.443986 48.590514 
L 388.443986 44.319055 
L 388.443986 40.047596 
L 388.443986 35.776137 
L 388.443986 31.504678 
L 388.443986 27.233219 
L 388.443986 22.961759 
" clip-path="url(#pe3b5ffa626)" style="fill: none; stroke: #ff0000; stroke-linecap: square"/>
   </g>
   <g id="patch_3">
    <path d="M 230.4 345.371491 
L 230.4 16.64 
" style="fill: none; stroke: #000000; stroke-width: 0.8; stroke-linejoin: miter; stroke-linecap: square"/>
   </g>
   <g id="patch_4">
    <path d="M 66.034254 181.005746 
L 394.765746 181.005746 
" style="fill: none; stroke: #000000; stroke-width: 0.8; stroke-linejoin: miter; stroke-linecap: square"/>
   </g>
   <g id="text_19">
    <!-- $p$ -->
    <g transform="translate(295.018694 96.840928)scale(0.1 -0.1)">
     <defs>
      <path id="Cmmi10-70" d="M -159 -1241 
Q -219 -1241 -219 -1159 
Q -197 -1019 -134 -1019 
Q 66 -1019 145 -983 
Q 225 -947 269 -800 
L 991 2081 
Q 1038 2200 1038 2388 
Q 1038 2663 850 2663 
Q 650 2663 553 2423 
Q 456 2184 366 1819 
Q 366 1778 313 1778 
L 238 1778 
Q 222 1778 203 1801 
Q 184 1825 184 1844 
Q 253 2122 317 2315 
Q 381 2509 517 2668 
Q 653 2828 856 2828 
Q 1075 2828 1240 2704 
Q 1406 2581 1453 2369 
Q 1628 2572 1840 2700 
Q 2053 2828 2278 2828 
Q 2547 2828 2745 2684 
Q 2944 2541 3044 2308 
Q 3144 2075 3144 1806 
Q 3144 1394 2933 953 
Q 2722 513 2361 220 
Q 2000 -72 1588 -72 
Q 1400 -72 1248 34 
Q 1097 141 1013 313 
L 722 -825 
Q 706 -919 703 -934 
Q 703 -1019 1125 -1019 
Q 1191 -1019 1191 -1100 
Q 1169 -1184 1155 -1212 
Q 1141 -1241 1081 -1241 
L -159 -1241 
z
M 1594 97 
Q 1816 97 2006 280 
Q 2197 463 2316 691 
Q 2403 863 2479 1111 
Q 2556 1359 2612 1640 
Q 2669 1922 2669 2088 
Q 2669 2234 2630 2362 
Q 2591 2491 2502 2577 
Q 2413 2663 2266 2663 
Q 2031 2663 1823 2495 
Q 1616 2328 1447 2081 
L 1447 2059 
L 1094 647 
Q 1138 419 1263 258 
Q 1388 97 1594 97 
z
" transform="scale(0.015625)"/>
     </defs>
     <use xlink:href="#Cmmi10-70" transform="translate(0 0.8125)"/>
    </g>
   </g>
  </g>
 </g>
 <defs>
  <clipPath id="pe3b5ffa626">
   <rect x="66.034254" y="16.64" width="328.731491" height="328.731491"/>
  </clipPath>
 </defs>
</svg>
