<?xml version="1.0" encoding="utf-8" standalone="no"?>
<!DOCTYPE svg PUBLIC "-//W3C//DTD SVG 1.1//EN"
  "http://www.w3.org/Graphics/SVG/1.1/DTD/svg11.dtd">
<svg xmlns:xlink="http://www.w3.org/1999/xlink" width="460.8pt" height="345.6pt" viewBox="0 0 460.8 345.6" xmlns="http://www.w3.org/2000/svg" version="1.1">
 <metadata>
  <rdf:RDF xmlns:dc="http://purl.org/dc/elements/1.1/" xmlns:cc="http://creativecommons.org/ns#" xmlns:rdf="http://www.w3.org/1999/02/22-rdf-syntax-ns#">
   <cc:Work>
    <dc:type rdf:resource="http://purl.org/dc/dcmitype/StillImage"/>
    <dc:date>2022-05-16T19:48:52.671139</dc:date>
    <dc:format>image/svg+xml</dc:format>
    <dc:creator>
     <cc:Agent>
      <dc:title>Matplotlib v3.5.1, https://matplotlib.org/</dc:title>
     </cc:Agent>
    </dc:creator>
   </cc:Work>
  </rdf:RDF>
 </metadata>
 <defs>
  <style type="text/css">*{stroke-linejoin: round; stroke-linecap: butt}</style>
 </defs>
 <g id="figure_1">
  <g id="patch_1">
   <path d="M 0 345.6 
L 460.8 345.6 
L 460.8 0 
L 0 0 
z
" style="fill: #ffffff"/>
  </g>
  <g id="axes_1">
   <g id="patch_2">
    <path d="M 0 345.6 
L 447.535 345.6 
L 447.535 16.64 
L 0 16.64 
z
" style="fill: #ffffff"/>
   </g>
   <g id="matplotlib.axis_1">
    <g id="xtick_1">
     <g id="line2d_1">
      <defs>
       <path id="md62f7566b0" d="M 0 0 
L 0 3.5 
" style="stroke: #000000; stroke-width: 0.8"/>
      </defs>
      <g>
       <use xlink:href="#md62f7566b0" x="41.708143" y="181.12" style="stroke: #000000; stroke-width: 0.8"/>
      </g>
     </g>
     <g id="text_1">
      <!-- −1.5 -->
      <g transform="translate(29.566737 195.718437)scale(0.1 -0.1)">
       <defs>
        <path id="DejaVuSans-2212" d="M 678 2272 
L 4684 2272 
L 4684 1741 
L 678 1741 
L 678 2272 
z
" transform="scale(0.015625)"/>
        <path id="DejaVuSans-31" d="M 794 531 
L 1825 531 
L 1825 4091 
L 703 3866 
L 703 4441 
L 1819 4666 
L 2450 4666 
L 2450 531 
L 3481 531 
L 3481 0 
L 794 0 
L 794 531 
z
" transform="scale(0.015625)"/>
        <path id="DejaVuSans-2e" d="M 684 794 
L 1344 794 
L 1344 0 
L 684 0 
L 684 794 
z
" transform="scale(0.015625)"/>
        <path id="DejaVuSans-35" d="M 691 4666 
L 3169 4666 
L 3169 4134 
L 1269 4134 
L 1269 2991 
Q 1406 3038 1543 3061 
Q 1681 3084 1819 3084 
Q 2600 3084 3056 2656 
Q 3513 2228 3513 1497 
Q 3513 744 3044 326 
Q 2575 -91 1722 -91 
Q 1428 -91 1123 -41 
Q 819 9 494 109 
L 494 744 
Q 775 591 1075 516 
Q 1375 441 1709 441 
Q 2250 441 2565 725 
Q 2881 1009 2881 1497 
Q 2881 1984 2565 2268 
Q 2250 2553 1709 2553 
Q 1456 2553 1204 2497 
Q 953 2441 691 2322 
L 691 4666 
z
" transform="scale(0.015625)"/>
       </defs>
       <use xlink:href="#DejaVuSans-2212"/>
       <use xlink:href="#DejaVuSans-31" x="83.789062"/>
       <use xlink:href="#DejaVuSans-2e" x="147.412109"/>
       <use xlink:href="#DejaVuSans-35" x="179.199219"/>
      </g>
     </g>
    </g>
    <g id="xtick_2">
     <g id="line2d_2">
      <g>
       <use xlink:href="#md62f7566b0" x="107.911546" y="181.12" style="stroke: #000000; stroke-width: 0.8"/>
      </g>
     </g>
     <g id="text_2">
      <!-- −1.0 -->
      <g transform="translate(95.77014 195.718437)scale(0.1 -0.1)">
       <defs>
        <path id="DejaVuSans-30" d="M 2034 4250 
Q 1547 4250 1301 3770 
Q 1056 3291 1056 2328 
Q 1056 1369 1301 889 
Q 1547 409 2034 409 
Q 2525 409 2770 889 
Q 3016 1369 3016 2328 
Q 3016 3291 2770 3770 
Q 2525 4250 2034 4250 
z
M 2034 4750 
Q 2819 4750 3233 4129 
Q 3647 3509 3647 2328 
Q 3647 1150 3233 529 
Q 2819 -91 2034 -91 
Q 1250 -91 836 529 
Q 422 1150 422 2328 
Q 422 3509 836 4129 
Q 1250 4750 2034 4750 
z
" transform="scale(0.015625)"/>
       </defs>
       <use xlink:href="#DejaVuSans-2212"/>
       <use xlink:href="#DejaVuSans-31" x="83.789062"/>
       <use xlink:href="#DejaVuSans-2e" x="147.412109"/>
       <use xlink:href="#DejaVuSans-30" x="179.199219"/>
      </g>
     </g>
    </g>
    <g id="xtick_3">
     <g id="line2d_3">
      <g>
       <use xlink:href="#md62f7566b0" x="174.114948" y="181.12" style="stroke: #000000; stroke-width: 0.8"/>
      </g>
     </g>
     <g id="text_3">
      <!-- −0.5 -->
      <g transform="translate(161.973542 195.718437)scale(0.1 -0.1)">
       <use xlink:href="#DejaVuSans-2212"/>
       <use xlink:href="#DejaVuSans-30" x="83.789062"/>
       <use xlink:href="#DejaVuSans-2e" x="147.412109"/>
       <use xlink:href="#DejaVuSans-35" x="179.199219"/>
      </g>
     </g>
    </g>
    <g id="xtick_4">
     <g id="line2d_4">
      <g>
       <use xlink:href="#md62f7566b0" x="240.318351" y="181.12" style="stroke: #000000; stroke-width: 0.8"/>
      </g>
     </g>
    </g>
    <g id="xtick_5">
     <g id="line2d_5">
      <g>
       <use xlink:href="#md62f7566b0" x="306.521753" y="181.12" style="stroke: #000000; stroke-width: 0.8"/>
      </g>
     </g>
     <g id="text_4">
      <!-- 0.5 -->
      <g transform="translate(298.57019 195.718437)scale(0.1 -0.1)">
       <use xlink:href="#DejaVuSans-30"/>
       <use xlink:href="#DejaVuSans-2e" x="63.623047"/>
       <use xlink:href="#DejaVuSans-35" x="95.410156"/>
      </g>
     </g>
    </g>
    <g id="xtick_6">
     <g id="line2d_6">
      <g>
       <use xlink:href="#md62f7566b0" x="372.725155" y="181.12" style="stroke: #000000; stroke-width: 0.8"/>
      </g>
     </g>
     <g id="text_5">
      <!-- 1.0 -->
      <g transform="translate(364.773593 195.718437)scale(0.1 -0.1)">
       <use xlink:href="#DejaVuSans-31"/>
       <use xlink:href="#DejaVuSans-2e" x="63.623047"/>
       <use xlink:href="#DejaVuSans-30" x="95.410156"/>
      </g>
     </g>
    </g>
    <g id="xtick_7">
     <g id="line2d_7">
      <g>
       <use xlink:href="#md62f7566b0" x="438.928558" y="181.12" style="stroke: #000000; stroke-width: 0.8"/>
      </g>
     </g>
     <g id="text_6">
      <!-- 1.5 -->
      <g transform="translate(430.976995 195.718437)scale(0.1 -0.1)">
       <use xlink:href="#DejaVuSans-31"/>
       <use xlink:href="#DejaVuSans-2e" x="63.623047"/>
       <use xlink:href="#DejaVuSans-35" x="95.410156"/>
      </g>
     </g>
    </g>
    <g id="xtick_8">
     <g id="line2d_8">
      <defs>
       <path id="mb1c35c09d8" d="M 0 0 
L 0 2 
" style="stroke: #000000; stroke-width: 0.6"/>
      </defs>
      <g>
       <use xlink:href="#mb1c35c09d8" x="1.986102" y="181.12" style="stroke: #000000; stroke-width: 0.6"/>
      </g>
     </g>
    </g>
    <g id="xtick_9">
     <g id="line2d_9">
      <g>
       <use xlink:href="#mb1c35c09d8" x="15.226783" y="181.12" style="stroke: #000000; stroke-width: 0.6"/>
      </g>
     </g>
    </g>
    <g id="xtick_10">
     <g id="line2d_10">
      <g>
       <use xlink:href="#mb1c35c09d8" x="28.467463" y="181.12" style="stroke: #000000; stroke-width: 0.6"/>
      </g>
     </g>
    </g>
    <g id="xtick_11">
     <g id="line2d_11">
      <g>
       <use xlink:href="#mb1c35c09d8" x="54.948824" y="181.12" style="stroke: #000000; stroke-width: 0.6"/>
      </g>
     </g>
    </g>
    <g id="xtick_12">
     <g id="line2d_12">
      <g>
       <use xlink:href="#mb1c35c09d8" x="68.189504" y="181.12" style="stroke: #000000; stroke-width: 0.6"/>
      </g>
     </g>
    </g>
    <g id="xtick_13">
     <g id="line2d_13">
      <g>
       <use xlink:href="#mb1c35c09d8" x="81.430185" y="181.12" style="stroke: #000000; stroke-width: 0.6"/>
      </g>
     </g>
    </g>
    <g id="xtick_14">
     <g id="line2d_14">
      <g>
       <use xlink:href="#mb1c35c09d8" x="94.670865" y="181.12" style="stroke: #000000; stroke-width: 0.6"/>
      </g>
     </g>
    </g>
    <g id="xtick_15">
     <g id="line2d_15">
      <g>
       <use xlink:href="#mb1c35c09d8" x="121.152226" y="181.12" style="stroke: #000000; stroke-width: 0.6"/>
      </g>
     </g>
    </g>
    <g id="xtick_16">
     <g id="line2d_16">
      <g>
       <use xlink:href="#mb1c35c09d8" x="134.392907" y="181.12" style="stroke: #000000; stroke-width: 0.6"/>
      </g>
     </g>
    </g>
    <g id="xtick_17">
     <g id="line2d_17">
      <g>
       <use xlink:href="#mb1c35c09d8" x="147.633587" y="181.12" style="stroke: #000000; stroke-width: 0.6"/>
      </g>
     </g>
    </g>
    <g id="xtick_18">
     <g id="line2d_18">
      <g>
       <use xlink:href="#mb1c35c09d8" x="160.874268" y="181.12" style="stroke: #000000; stroke-width: 0.6"/>
      </g>
     </g>
    </g>
    <g id="xtick_19">
     <g id="line2d_19">
      <g>
       <use xlink:href="#mb1c35c09d8" x="187.355629" y="181.12" style="stroke: #000000; stroke-width: 0.6"/>
      </g>
     </g>
    </g>
    <g id="xtick_20">
     <g id="line2d_20">
      <g>
       <use xlink:href="#mb1c35c09d8" x="200.596309" y="181.12" style="stroke: #000000; stroke-width: 0.6"/>
      </g>
     </g>
    </g>
    <g id="xtick_21">
     <g id="line2d_21">
      <g>
       <use xlink:href="#mb1c35c09d8" x="213.83699" y="181.12" style="stroke: #000000; stroke-width: 0.6"/>
      </g>
     </g>
    </g>
    <g id="xtick_22">
     <g id="line2d_22">
      <g>
       <use xlink:href="#mb1c35c09d8" x="227.07767" y="181.12" style="stroke: #000000; stroke-width: 0.6"/>
      </g>
     </g>
    </g>
    <g id="xtick_23">
     <g id="line2d_23">
      <g>
       <use xlink:href="#mb1c35c09d8" x="253.559031" y="181.12" style="stroke: #000000; stroke-width: 0.6"/>
      </g>
     </g>
    </g>
    <g id="xtick_24">
     <g id="line2d_24">
      <g>
       <use xlink:href="#mb1c35c09d8" x="266.799712" y="181.12" style="stroke: #000000; stroke-width: 0.6"/>
      </g>
     </g>
    </g>
    <g id="xtick_25">
     <g id="line2d_25">
      <g>
       <use xlink:href="#mb1c35c09d8" x="280.040392" y="181.12" style="stroke: #000000; stroke-width: 0.6"/>
      </g>
     </g>
    </g>
    <g id="xtick_26">
     <g id="line2d_26">
      <g>
       <use xlink:href="#mb1c35c09d8" x="293.281072" y="181.12" style="stroke: #000000; stroke-width: 0.6"/>
      </g>
     </g>
    </g>
    <g id="xtick_27">
     <g id="line2d_27">
      <g>
       <use xlink:href="#mb1c35c09d8" x="319.762433" y="181.12" style="stroke: #000000; stroke-width: 0.6"/>
      </g>
     </g>
    </g>
    <g id="xtick_28">
     <g id="line2d_28">
      <g>
       <use xlink:href="#mb1c35c09d8" x="333.003114" y="181.12" style="stroke: #000000; stroke-width: 0.6"/>
      </g>
     </g>
    </g>
    <g id="xtick_29">
     <g id="line2d_29">
      <g>
       <use xlink:href="#mb1c35c09d8" x="346.243794" y="181.12" style="stroke: #000000; stroke-width: 0.6"/>
      </g>
     </g>
    </g>
    <g id="xtick_30">
     <g id="line2d_30">
      <g>
       <use xlink:href="#mb1c35c09d8" x="359.484475" y="181.12" style="stroke: #000000; stroke-width: 0.6"/>
      </g>
     </g>
    </g>
    <g id="xtick_31">
     <g id="line2d_31">
      <g>
       <use xlink:href="#mb1c35c09d8" x="385.965836" y="181.12" style="stroke: #000000; stroke-width: 0.6"/>
      </g>
     </g>
    </g>
    <g id="xtick_32">
     <g id="line2d_32">
      <g>
       <use xlink:href="#mb1c35c09d8" x="399.206516" y="181.12" style="stroke: #000000; stroke-width: 0.6"/>
      </g>
     </g>
    </g>
    <g id="xtick_33">
     <g id="line2d_33">
      <g>
       <use xlink:href="#mb1c35c09d8" x="412.447197" y="181.12" style="stroke: #000000; stroke-width: 0.6"/>
      </g>
     </g>
    </g>
    <g id="xtick_34">
     <g id="line2d_34">
      <g>
       <use xlink:href="#mb1c35c09d8" x="425.687877" y="181.12" style="stroke: #000000; stroke-width: 0.6"/>
      </g>
     </g>
    </g>
    <g id="text_7">
     <!-- $ x $ -->
     <g transform="translate(455.535 181.12)scale(0.16 -0.16)">
      <defs>
       <path id="Cmmi10-78" d="M 500 184 
Q 613 97 819 97 
Q 1019 97 1172 289 
Q 1325 481 1381 709 
L 1672 1844 
Q 1741 2153 1741 2266 
Q 1741 2425 1652 2544 
Q 1563 2663 1403 2663 
Q 1200 2663 1022 2536 
Q 844 2409 722 2214 
Q 600 2019 550 1819 
Q 538 1778 500 1778 
L 422 1778 
Q 372 1778 372 1838 
L 372 1856 
Q 434 2094 584 2320 
Q 734 2547 951 2687 
Q 1169 2828 1416 2828 
Q 1650 2828 1839 2703 
Q 2028 2578 2106 2363 
Q 2216 2559 2386 2693 
Q 2556 2828 2759 2828 
Q 2897 2828 3040 2779 
Q 3184 2731 3275 2631 
Q 3366 2531 3366 2381 
Q 3366 2219 3261 2101 
Q 3156 1984 2994 1984 
Q 2891 1984 2822 2050 
Q 2753 2116 2753 2216 
Q 2753 2350 2845 2451 
Q 2938 2553 3066 2572 
Q 2950 2663 2747 2663 
Q 2541 2663 2389 2472 
Q 2238 2281 2175 2047 
L 1894 916 
Q 1825 659 1825 494 
Q 1825 331 1917 214 
Q 2009 97 2163 97 
Q 2463 97 2698 361 
Q 2934 625 3009 941 
Q 3022 978 3059 978 
L 3138 978 
Q 3163 978 3178 961 
Q 3194 944 3194 922 
Q 3194 916 3188 903 
Q 3097 522 2806 225 
Q 2516 -72 2150 -72 
Q 1916 -72 1727 54 
Q 1538 181 1459 397 
Q 1359 209 1182 68 
Q 1006 -72 806 -72 
Q 669 -72 523 -23 
Q 378 25 287 125 
Q 197 225 197 378 
Q 197 528 301 651 
Q 406 775 563 775 
Q 669 775 741 711 
Q 813 647 813 544 
Q 813 409 723 309 
Q 634 209 500 184 
z
" transform="scale(0.015625)"/>
      </defs>
      <use xlink:href="#Cmmi10-78" transform="translate(0 0.8125)"/>
     </g>
    </g>
   </g>
   <g id="matplotlib.axis_2">
    <g id="ytick_1">
     <g id="line2d_35">
      <defs>
       <path id="mfd402b5130" d="M 0 0 
L -3.5 0 
" style="stroke: #000000; stroke-width: 0.8"/>
      </defs>
      <g>
       <use xlink:href="#mfd402b5130" x="240.318351" y="316.812297" style="stroke: #000000; stroke-width: 0.8"/>
      </g>
     </g>
     <g id="text_8">
      <!-- −1.5 -->
      <g transform="translate(209.035538 320.611515)scale(0.1 -0.1)">
       <use xlink:href="#DejaVuSans-2212"/>
       <use xlink:href="#DejaVuSans-31" x="83.789062"/>
       <use xlink:href="#DejaVuSans-2e" x="147.412109"/>
       <use xlink:href="#DejaVuSans-35" x="179.199219"/>
      </g>
     </g>
    </g>
    <g id="ytick_2">
     <g id="line2d_36">
      <g>
       <use xlink:href="#mfd402b5130" x="240.318351" y="271.581531" style="stroke: #000000; stroke-width: 0.8"/>
      </g>
     </g>
     <g id="text_9">
      <!-- −1.0 -->
      <g transform="translate(209.035538 275.38075)scale(0.1 -0.1)">
       <use xlink:href="#DejaVuSans-2212"/>
       <use xlink:href="#DejaVuSans-31" x="83.789062"/>
       <use xlink:href="#DejaVuSans-2e" x="147.412109"/>
       <use xlink:href="#DejaVuSans-30" x="179.199219"/>
      </g>
     </g>
    </g>
    <g id="ytick_3">
     <g id="line2d_37">
      <g>
       <use xlink:href="#mfd402b5130" x="240.318351" y="226.350766" style="stroke: #000000; stroke-width: 0.8"/>
      </g>
     </g>
     <g id="text_10">
      <!-- −0.5 -->
      <g transform="translate(209.035538 230.149984)scale(0.1 -0.1)">
       <use xlink:href="#DejaVuSans-2212"/>
       <use xlink:href="#DejaVuSans-30" x="83.789062"/>
       <use xlink:href="#DejaVuSans-2e" x="147.412109"/>
       <use xlink:href="#DejaVuSans-35" x="179.199219"/>
      </g>
     </g>
    </g>
    <g id="ytick_4">
     <g id="line2d_38">
      <g>
       <use xlink:href="#mfd402b5130" x="240.318351" y="181.12" style="stroke: #000000; stroke-width: 0.8"/>
      </g>
     </g>
    </g>
    <g id="ytick_5">
     <g id="line2d_39">
      <g>
       <use xlink:href="#mfd402b5130" x="240.318351" y="135.889234" style="stroke: #000000; stroke-width: 0.8"/>
      </g>
     </g>
     <g id="text_11">
      <!-- 0.5 -->
      <g transform="translate(217.415226 139.688453)scale(0.1 -0.1)">
       <use xlink:href="#DejaVuSans-30"/>
       <use xlink:href="#DejaVuSans-2e" x="63.623047"/>
       <use xlink:href="#DejaVuSans-35" x="95.410156"/>
      </g>
     </g>
    </g>
    <g id="ytick_6">
     <g id="line2d_40">
      <g>
       <use xlink:href="#mfd402b5130" x="240.318351" y="90.658469" style="stroke: #000000; stroke-width: 0.8"/>
      </g>
     </g>
     <g id="text_12">
      <!-- 1.0 -->
      <g transform="translate(217.415226 94.457688)scale(0.1 -0.1)">
       <use xlink:href="#DejaVuSans-31"/>
       <use xlink:href="#DejaVuSans-2e" x="63.623047"/>
       <use xlink:href="#DejaVuSans-30" x="95.410156"/>
      </g>
     </g>
    </g>
    <g id="ytick_7">
     <g id="line2d_41">
      <g>
       <use xlink:href="#mfd402b5130" x="240.318351" y="45.427703" style="stroke: #000000; stroke-width: 0.8"/>
      </g>
     </g>
     <g id="text_13">
      <!-- 1.5 -->
      <g transform="translate(217.415226 49.226922)scale(0.1 -0.1)">
       <use xlink:href="#DejaVuSans-31"/>
       <use xlink:href="#DejaVuSans-2e" x="63.623047"/>
       <use xlink:href="#DejaVuSans-35" x="95.410156"/>
      </g>
     </g>
    </g>
    <g id="ytick_8">
     <g id="line2d_42">
      <defs>
       <path id="m382c9ef6ba" d="M 0 0 
L -2 0 
" style="stroke: #000000; stroke-width: 0.6"/>
      </defs>
      <g>
       <use xlink:href="#m382c9ef6ba" x="240.318351" y="343.950756" style="stroke: #000000; stroke-width: 0.6"/>
      </g>
     </g>
    </g>
    <g id="ytick_9">
     <g id="line2d_43">
      <g>
       <use xlink:href="#m382c9ef6ba" x="240.318351" y="334.904603" style="stroke: #000000; stroke-width: 0.6"/>
      </g>
     </g>
    </g>
    <g id="ytick_10">
     <g id="line2d_44">
      <g>
       <use xlink:href="#m382c9ef6ba" x="240.318351" y="325.85845" style="stroke: #000000; stroke-width: 0.6"/>
      </g>
     </g>
    </g>
    <g id="ytick_11">
     <g id="line2d_45">
      <g>
       <use xlink:href="#m382c9ef6ba" x="240.318351" y="307.766143" style="stroke: #000000; stroke-width: 0.6"/>
      </g>
     </g>
    </g>
    <g id="ytick_12">
     <g id="line2d_46">
      <g>
       <use xlink:href="#m382c9ef6ba" x="240.318351" y="298.71999" style="stroke: #000000; stroke-width: 0.6"/>
      </g>
     </g>
    </g>
    <g id="ytick_13">
     <g id="line2d_47">
      <g>
       <use xlink:href="#m382c9ef6ba" x="240.318351" y="289.673837" style="stroke: #000000; stroke-width: 0.6"/>
      </g>
     </g>
    </g>
    <g id="ytick_14">
     <g id="line2d_48">
      <g>
       <use xlink:href="#m382c9ef6ba" x="240.318351" y="280.627684" style="stroke: #000000; stroke-width: 0.6"/>
      </g>
     </g>
    </g>
    <g id="ytick_15">
     <g id="line2d_49">
      <g>
       <use xlink:href="#m382c9ef6ba" x="240.318351" y="262.535378" style="stroke: #000000; stroke-width: 0.6"/>
      </g>
     </g>
    </g>
    <g id="ytick_16">
     <g id="line2d_50">
      <g>
       <use xlink:href="#m382c9ef6ba" x="240.318351" y="253.489225" style="stroke: #000000; stroke-width: 0.6"/>
      </g>
     </g>
    </g>
    <g id="ytick_17">
     <g id="line2d_51">
      <g>
       <use xlink:href="#m382c9ef6ba" x="240.318351" y="244.443072" style="stroke: #000000; stroke-width: 0.6"/>
      </g>
     </g>
    </g>
    <g id="ytick_18">
     <g id="line2d_52">
      <g>
       <use xlink:href="#m382c9ef6ba" x="240.318351" y="235.396919" style="stroke: #000000; stroke-width: 0.6"/>
      </g>
     </g>
    </g>
    <g id="ytick_19">
     <g id="line2d_53">
      <g>
       <use xlink:href="#m382c9ef6ba" x="240.318351" y="217.304612" style="stroke: #000000; stroke-width: 0.6"/>
      </g>
     </g>
    </g>
    <g id="ytick_20">
     <g id="line2d_54">
      <g>
       <use xlink:href="#m382c9ef6ba" x="240.318351" y="208.258459" style="stroke: #000000; stroke-width: 0.6"/>
      </g>
     </g>
    </g>
    <g id="ytick_21">
     <g id="line2d_55">
      <g>
       <use xlink:href="#m382c9ef6ba" x="240.318351" y="199.212306" style="stroke: #000000; stroke-width: 0.6"/>
      </g>
     </g>
    </g>
    <g id="ytick_22">
     <g id="line2d_56">
      <g>
       <use xlink:href="#m382c9ef6ba" x="240.318351" y="190.166153" style="stroke: #000000; stroke-width: 0.6"/>
      </g>
     </g>
    </g>
    <g id="ytick_23">
     <g id="line2d_57">
      <g>
       <use xlink:href="#m382c9ef6ba" x="240.318351" y="172.073847" style="stroke: #000000; stroke-width: 0.6"/>
      </g>
     </g>
    </g>
    <g id="ytick_24">
     <g id="line2d_58">
      <g>
       <use xlink:href="#m382c9ef6ba" x="240.318351" y="163.027694" style="stroke: #000000; stroke-width: 0.6"/>
      </g>
     </g>
    </g>
    <g id="ytick_25">
     <g id="line2d_59">
      <g>
       <use xlink:href="#m382c9ef6ba" x="240.318351" y="153.981541" style="stroke: #000000; stroke-width: 0.6"/>
      </g>
     </g>
    </g>
    <g id="ytick_26">
     <g id="line2d_60">
      <g>
       <use xlink:href="#m382c9ef6ba" x="240.318351" y="144.935388" style="stroke: #000000; stroke-width: 0.6"/>
      </g>
     </g>
    </g>
    <g id="ytick_27">
     <g id="line2d_61">
      <g>
       <use xlink:href="#m382c9ef6ba" x="240.318351" y="126.843081" style="stroke: #000000; stroke-width: 0.6"/>
      </g>
     </g>
    </g>
    <g id="ytick_28">
     <g id="line2d_62">
      <g>
       <use xlink:href="#m382c9ef6ba" x="240.318351" y="117.796928" style="stroke: #000000; stroke-width: 0.6"/>
      </g>
     </g>
    </g>
    <g id="ytick_29">
     <g id="line2d_63">
      <g>
       <use xlink:href="#m382c9ef6ba" x="240.318351" y="108.750775" style="stroke: #000000; stroke-width: 0.6"/>
      </g>
     </g>
    </g>
    <g id="ytick_30">
     <g id="line2d_64">
      <g>
       <use xlink:href="#m382c9ef6ba" x="240.318351" y="99.704622" style="stroke: #000000; stroke-width: 0.6"/>
      </g>
     </g>
    </g>
    <g id="ytick_31">
     <g id="line2d_65">
      <g>
       <use xlink:href="#m382c9ef6ba" x="240.318351" y="81.612316" style="stroke: #000000; stroke-width: 0.6"/>
      </g>
     </g>
    </g>
    <g id="ytick_32">
     <g id="line2d_66">
      <g>
       <use xlink:href="#m382c9ef6ba" x="240.318351" y="72.566163" style="stroke: #000000; stroke-width: 0.6"/>
      </g>
     </g>
    </g>
    <g id="ytick_33">
     <g id="line2d_67">
      <g>
       <use xlink:href="#m382c9ef6ba" x="240.318351" y="63.52001" style="stroke: #000000; stroke-width: 0.6"/>
      </g>
     </g>
    </g>
    <g id="ytick_34">
     <g id="line2d_68">
      <g>
       <use xlink:href="#m382c9ef6ba" x="240.318351" y="54.473857" style="stroke: #000000; stroke-width: 0.6"/>
      </g>
     </g>
    </g>
    <g id="ytick_35">
     <g id="line2d_69">
      <g>
       <use xlink:href="#m382c9ef6ba" x="240.318351" y="36.38155" style="stroke: #000000; stroke-width: 0.6"/>
      </g>
     </g>
    </g>
    <g id="ytick_36">
     <g id="line2d_70">
      <g>
       <use xlink:href="#m382c9ef6ba" x="240.318351" y="27.335397" style="stroke: #000000; stroke-width: 0.6"/>
      </g>
     </g>
    </g>
    <g id="ytick_37">
     <g id="line2d_71">
      <g>
       <use xlink:href="#m382c9ef6ba" x="240.318351" y="18.289244" style="stroke: #000000; stroke-width: 0.6"/>
      </g>
     </g>
    </g>
    <g id="text_14">
     <!-- $ z $ -->
     <g transform="translate(236.558351 5.3125)scale(0.16 -0.16)">
      <defs>
       <path id="Cmmi10-7a" d="M 313 -72 
Q 263 -72 263 -13 
Q 263 19 275 31 
Q 447 328 689 598 
Q 931 869 1239 1145 
Q 1547 1422 1858 1700 
Q 2169 1978 2363 2194 
L 2338 2194 
Q 2197 2194 1925 2284 
Q 1653 2375 1497 2375 
Q 1328 2375 1168 2301 
Q 1009 2228 966 2075 
Q 956 2028 916 2028 
L 838 2028 
Q 788 2028 788 2094 
L 788 2113 
Q 838 2300 952 2462 
Q 1066 2625 1233 2726 
Q 1400 2828 1581 2828 
Q 1709 2828 1793 2770 
Q 1878 2713 1990 2591 
Q 2103 2469 2173 2416 
Q 2244 2363 2350 2363 
Q 2491 2363 2602 2491 
Q 2713 2619 2822 2809 
Q 2841 2828 2869 2828 
L 2944 2828 
Q 2966 2828 2980 2812 
Q 2994 2797 2994 2772 
Q 2994 2750 2981 2731 
Q 2809 2434 2579 2176 
Q 2350 1919 1979 1586 
Q 1609 1253 1354 1023 
Q 1100 794 878 550 
Q 928 563 1013 563 
Q 1169 563 1439 473 
Q 1709 384 1856 384 
Q 2016 384 2178 453 
Q 2341 522 2459 647 
Q 2578 772 2619 934 
Q 2634 978 2669 978 
L 2747 978 
Q 2772 978 2787 958 
Q 2803 938 2803 916 
Q 2803 909 2797 897 
Q 2738 653 2591 433 
Q 2444 213 2230 70 
Q 2016 -72 1772 -72 
Q 1650 -72 1565 -15 
Q 1481 41 1367 164 
Q 1253 288 1181 342 
Q 1109 397 1006 397 
Q 688 397 434 -50 
Q 413 -72 391 -72 
L 313 -72 
z
" transform="scale(0.015625)"/>
      </defs>
      <use xlink:href="#Cmmi10-7a" transform="translate(0 0.8125)"/>
     </g>
    </g>
   </g>
   <g id="patch_3">
    <path d="M 41.708143 316.812297 
Q 25.157293 308.014085 10.580874 300.265455 
" clip-path="url(#p11dcf807a4)" style="fill: none; stroke: #0000ff; stroke-width: 2; stroke-linecap: round"/>
    <path d="M 17.063864 309.374288 
L 10.580874 300.265455 
L 21.757734 300.544363 
L 17.063864 309.374288 
z
" clip-path="url(#p11dcf807a4)" style="fill: #0000ff; stroke: #0000ff; stroke-width: 2; stroke-linecap: round"/>
   </g>
   <g id="patch_4">
    <path d="M 41.708143 282.889222 
Q 25.157293 271.658448 10.456743 261.683216 
" clip-path="url(#p11dcf807a4)" style="fill: none; stroke: #0000ff; stroke-width: 2; stroke-linecap: round"/>
    <path d="M 15.924058 271.435573 
L 10.456743 261.683216 
L 21.539017 263.160778 
L 15.924058 271.435573 
z
" clip-path="url(#p11dcf807a4)" style="fill: #0000ff; stroke: #0000ff; stroke-width: 2; stroke-linecap: round"/>
   </g>
   <g id="patch_5">
    <path d="M 41.708143 248.966148 
Q 25.157293 238.763585 10.509913 229.734392 
" clip-path="url(#p11dcf807a4)" style="fill: none; stroke: #0000ff; stroke-width: 2; stroke-linecap: round"/>
    <path d="M 16.398757 239.238155 
L 10.509913 229.734392 
L 21.64623 230.725575 
L 16.398757 239.238155 
z
" clip-path="url(#p11dcf807a4)" style="fill: #0000ff; stroke: #0000ff; stroke-width: 2; stroke-linecap: round"/>
   </g>
   <g id="patch_6">
    <path d="M 41.708143 215.043074 
Q 25.157293 209.012652 10.707397 203.747728 
" clip-path="url(#p11dcf807a4)" style="fill: none; stroke: #0000ff; stroke-width: 2; stroke-linecap: round"/>
    <path d="M 18.391448 211.869019 
L 10.707397 203.747728 
L 21.81486 202.473262 
L 18.391448 211.869019 
z
" clip-path="url(#p11dcf807a4)" style="fill: #0000ff; stroke: #0000ff; stroke-width: 2; stroke-linecap: round"/>
   </g>
   <g id="patch_7">
    <path d="M 41.708143 181.12 
Q 25.157293 181.12 10.84251 181.12 
" clip-path="url(#p11dcf807a4)" style="fill: none; stroke: #0000ff; stroke-width: 2; stroke-linecap: round"/>
    <path d="M 20.84251 186.12 
L 10.84251 181.12 
L 20.84251 176.12 
L 20.84251 186.12 
z
" clip-path="url(#p11dcf807a4)" style="fill: #0000ff; stroke: #0000ff; stroke-width: 2; stroke-linecap: round"/>
   </g>
   <g id="patch_8">
    <path d="M 41.708143 147.196926 
Q 25.157293 153.227348 10.707397 158.492272 
" clip-path="url(#p11dcf807a4)" style="fill: none; stroke: #0000ff; stroke-width: 2; stroke-linecap: round"/>
    <path d="M 21.81486 159.766738 
L 10.707397 158.492272 
L 18.391448 150.370981 
L 21.81486 159.766738 
z
" clip-path="url(#p11dcf807a4)" style="fill: #0000ff; stroke: #0000ff; stroke-width: 2; stroke-linecap: round"/>
   </g>
   <g id="patch_9">
    <path d="M 41.708143 113.273852 
Q 25.157293 123.476415 10.509913 132.505608 
" clip-path="url(#p11dcf807a4)" style="fill: none; stroke: #0000ff; stroke-width: 2; stroke-linecap: round"/>
    <path d="M 21.64623 131.514425 
L 10.509913 132.505608 
L 16.398757 123.001845 
L 21.64623 131.514425 
z
" clip-path="url(#p11dcf807a4)" style="fill: #0000ff; stroke: #0000ff; stroke-width: 2; stroke-linecap: round"/>
   </g>
   <g id="patch_10">
    <path d="M 41.708143 79.350778 
Q 25.157293 90.581552 10.456743 100.556784 
" clip-path="url(#p11dcf807a4)" style="fill: none; stroke: #0000ff; stroke-width: 2; stroke-linecap: round"/>
    <path d="M 21.539017 99.079222 
L 10.456743 100.556784 
L 15.924058 90.804427 
L 21.539017 99.079222 
z
" clip-path="url(#p11dcf807a4)" style="fill: #0000ff; stroke: #0000ff; stroke-width: 2; stroke-linecap: round"/>
   </g>
   <g id="patch_11">
    <path d="M 41.708143 45.427703 
Q 25.157293 54.225915 10.580874 61.974545 
" clip-path="url(#p11dcf807a4)" style="fill: none; stroke: #0000ff; stroke-width: 2; stroke-linecap: round"/>
    <path d="M 21.757734 61.695637 
L 10.580874 61.974545 
L 17.063864 52.865712 
L 21.757734 61.695637 
z
" clip-path="url(#p11dcf807a4)" style="fill: #0000ff; stroke: #0000ff; stroke-width: 2; stroke-linecap: round"/>
   </g>
   <g id="patch_12">
    <path d="M 91.360695 316.812297 
Q 74.809845 305.581522 60.109294 295.60629 
" clip-path="url(#p11dcf807a4)" style="fill: none; stroke: #0000ff; stroke-width: 2; stroke-linecap: round"/>
    <path d="M 65.576609 305.358647 
L 60.109294 295.60629 
L 71.191569 297.083852 
L 65.576609 305.358647 
z
" clip-path="url(#p11dcf807a4)" style="fill: #0000ff; stroke: #0000ff; stroke-width: 2; stroke-linecap: round"/>
   </g>
   <g id="patch_13">
    <path d="M 91.360695 282.889222 
Q 74.809845 272.103997 60.132404 262.539565 
" clip-path="url(#p11dcf807a4)" style="fill: none; stroke: #0000ff; stroke-width: 2; stroke-linecap: round"/>
    <path d="M 65.780775 272.188187 
L 60.132404 262.539565 
L 71.240324 263.810041 
L 65.780775 272.188187 
z
" clip-path="url(#p11dcf807a4)" style="fill: #0000ff; stroke: #0000ff; stroke-width: 2; stroke-linecap: round"/>
   </g>
   <g id="patch_14">
    <path d="M 91.360695 248.966148 
Q 74.809845 240.51771 60.250597 233.085892 
" clip-path="url(#p11dcf807a4)" style="fill: none; stroke: #0000ff; stroke-width: 2; stroke-linecap: round"/>
    <path d="M 66.884084 242.085717 
L 60.250597 233.085892 
L 71.430549 233.178998 
L 66.884084 242.085717 
z
" clip-path="url(#p11dcf807a4)" style="fill: #0000ff; stroke: #0000ff; stroke-width: 2; stroke-linecap: round"/>
   </g>
   <g id="patch_15">
    <path d="M 91.360695 215.043074 
Q 74.809845 210.412894 60.412384 206.385134 
" clip-path="url(#p11dcf807a4)" style="fill: none; stroke: #0000ff; stroke-width: 2; stroke-linecap: round"/>
    <path d="M 68.695582 213.894371 
L 60.412384 206.385134 
L 71.389692 204.264118 
L 68.695582 213.894371 
z
" clip-path="url(#p11dcf807a4)" style="fill: #0000ff; stroke: #0000ff; stroke-width: 2; stroke-linecap: round"/>
   </g>
   <g id="patch_16">
    <path d="M 91.360695 181.12 
Q 74.809845 181.12 60.495062 181.12 
" clip-path="url(#p11dcf807a4)" style="fill: none; stroke: #0000ff; stroke-width: 2; stroke-linecap: round"/>
    <path d="M 70.495062 186.12 
L 60.495062 181.12 
L 70.495062 176.12 
L 70.495062 186.12 
z
" clip-path="url(#p11dcf807a4)" style="fill: #0000ff; stroke: #0000ff; stroke-width: 2; stroke-linecap: round"/>
   </g>
   <g id="patch_17">
    <path d="M 91.360695 147.196926 
Q 74.809845 151.827106 60.412384 155.854866 
" clip-path="url(#p11dcf807a4)" style="fill: none; stroke: #0000ff; stroke-width: 2; stroke-linecap: round"/>
    <path d="M 71.389692 157.975882 
L 60.412384 155.854866 
L 68.695582 148.345629 
L 71.389692 157.975882 
z
" clip-path="url(#p11dcf807a4)" style="fill: #0000ff; stroke: #0000ff; stroke-width: 2; stroke-linecap: round"/>
   </g>
   <g id="patch_18">
    <path d="M 91.360695 113.273852 
Q 74.809845 121.72229 60.250597 129.154108 
" clip-path="url(#p11dcf807a4)" style="fill: none; stroke: #0000ff; stroke-width: 2; stroke-linecap: round"/>
    <path d="M 71.430549 129.061002 
L 60.250597 129.154108 
L 66.884084 120.154283 
L 71.430549 129.061002 
z
" clip-path="url(#p11dcf807a4)" style="fill: #0000ff; stroke: #0000ff; stroke-width: 2; stroke-linecap: round"/>
   </g>
   <g id="patch_19">
    <path d="M 91.360695 79.350778 
Q 74.809845 90.136003 60.132404 99.700435 
" clip-path="url(#p11dcf807a4)" style="fill: none; stroke: #0000ff; stroke-width: 2; stroke-linecap: round"/>
    <path d="M 71.240324 98.429959 
L 60.132404 99.700435 
L 65.780775 90.051813 
L 71.240324 98.429959 
z
" clip-path="url(#p11dcf807a4)" style="fill: #0000ff; stroke: #0000ff; stroke-width: 2; stroke-linecap: round"/>
   </g>
   <g id="patch_20">
    <path d="M 91.360695 45.427703 
Q 74.809845 56.658478 60.109294 66.63371 
" clip-path="url(#p11dcf807a4)" style="fill: none; stroke: #0000ff; stroke-width: 2; stroke-linecap: round"/>
    <path d="M 71.191569 65.156148 
L 60.109294 66.63371 
L 65.576609 56.881353 
L 71.191569 65.156148 
z
" clip-path="url(#p11dcf807a4)" style="fill: #0000ff; stroke: #0000ff; stroke-width: 2; stroke-linecap: round"/>
   </g>
   <g id="patch_21">
    <path d="M 141.013247 316.812297 
Q 124.462396 306.609733 109.815017 297.58054 
" clip-path="url(#p11dcf807a4)" style="fill: none; stroke: #0000ff; stroke-width: 2; stroke-linecap: round"/>
    <path d="M 115.703861 307.084304 
L 109.815017 297.58054 
L 120.951334 298.571723 
L 115.703861 307.084304 
z
" clip-path="url(#p11dcf807a4)" style="fill: #0000ff; stroke: #0000ff; stroke-width: 2; stroke-linecap: round"/>
   </g>
   <g id="patch_22">
    <path d="M 141.013247 282.889222 
Q 124.462396 274.440784 109.903149 267.008966 
" clip-path="url(#p11dcf807a4)" style="fill: none; stroke: #0000ff; stroke-width: 2; stroke-linecap: round"/>
    <path d="M 116.536636 276.008792 
L 109.903149 267.008966 
L 121.083101 267.102072 
L 116.536636 276.008792 
z
" clip-path="url(#p11dcf807a4)" style="fill: #0000ff; stroke: #0000ff; stroke-width: 2; stroke-linecap: round"/>
   </g>
   <g id="patch_23">
    <path d="M 141.013247 248.966148 
Q 124.462396 242.935726 110.012501 237.670802 
" clip-path="url(#p11dcf807a4)" style="fill: none; stroke: #0000ff; stroke-width: 2; stroke-linecap: round"/>
    <path d="M 117.696552 245.792093 
L 110.012501 237.670802 
L 121.119964 236.396336 
L 117.696552 245.792093 
z
" clip-path="url(#p11dcf807a4)" style="fill: #0000ff; stroke: #0000ff; stroke-width: 2; stroke-linecap: round"/>
   </g>
   <g id="patch_24">
    <path d="M 141.013247 215.043074 
Q 124.462396 211.904548 110.108463 209.182622 
" clip-path="url(#p11dcf807a4)" style="fill: none; stroke: #0000ff; stroke-width: 2; stroke-linecap: round"/>
    <path d="M 119.001829 215.958169 
L 110.108463 209.182622 
L 120.86492 206.133257 
L 119.001829 215.958169 
z
" clip-path="url(#p11dcf807a4)" style="fill: #0000ff; stroke: #0000ff; stroke-width: 2; stroke-linecap: round"/>
   </g>
   <g id="patch_25">
    <path d="M 141.013247 181.12 
Q 124.462396 181.12 110.147614 181.12 
" clip-path="url(#p11dcf807a4)" style="fill: none; stroke: #0000ff; stroke-width: 2; stroke-linecap: round"/>
    <path d="M 120.147614 186.12 
L 110.147614 181.12 
L 120.147614 176.12 
L 120.147614 186.12 
z
" clip-path="url(#p11dcf807a4)" style="fill: #0000ff; stroke: #0000ff; stroke-width: 2; stroke-linecap: round"/>
   </g>
   <g id="patch_26">
    <path d="M 141.013247 147.196926 
Q 124.462396 150.335452 110.108463 153.057378 
" clip-path="url(#p11dcf807a4)" style="fill: none; stroke: #0000ff; stroke-width: 2; stroke-linecap: round"/>
    <path d="M 120.86492 156.106743 
L 110.108463 153.057378 
L 119.001829 146.281831 
L 120.86492 156.106743 
z
" clip-path="url(#p11dcf807a4)" style="fill: #0000ff; stroke: #0000ff; stroke-width: 2; stroke-linecap: round"/>
   </g>
   <g id="patch_27">
    <path d="M 141.013247 113.273852 
Q 124.462396 119.304274 110.012501 124.569198 
" clip-path="url(#p11dcf807a4)" style="fill: none; stroke: #0000ff; stroke-width: 2; stroke-linecap: round"/>
    <path d="M 121.119964 125.843664 
L 110.012501 124.569198 
L 117.696552 116.447907 
L 121.119964 125.843664 
z
" clip-path="url(#p11dcf807a4)" style="fill: #0000ff; stroke: #0000ff; stroke-width: 2; stroke-linecap: round"/>
   </g>
   <g id="patch_28">
    <path d="M 141.013247 79.350778 
Q 124.462396 87.799216 109.903149 95.231034 
" clip-path="url(#p11dcf807a4)" style="fill: none; stroke: #0000ff; stroke-width: 2; stroke-linecap: round"/>
    <path d="M 121.083101 95.137928 
L 109.903149 95.231034 
L 116.536636 86.231208 
L 121.083101 95.137928 
z
" clip-path="url(#p11dcf807a4)" style="fill: #0000ff; stroke: #0000ff; stroke-width: 2; stroke-linecap: round"/>
   </g>
   <g id="patch_29">
    <path d="M 141.013247 45.427703 
Q 124.462396 55.630267 109.815017 64.65946 
" clip-path="url(#p11dcf807a4)" style="fill: none; stroke: #0000ff; stroke-width: 2; stroke-linecap: round"/>
    <path d="M 120.951334 63.668277 
L 109.815017 64.65946 
L 115.703861 55.155696 
L 120.951334 63.668277 
z
" clip-path="url(#p11dcf807a4)" style="fill: #0000ff; stroke: #0000ff; stroke-width: 2; stroke-linecap: round"/>
   </g>
   <g id="patch_30">
    <path d="M 190.665799 316.812297 
Q 174.114948 310.781875 159.665053 305.516951 
" clip-path="url(#p11dcf807a4)" style="fill: none; stroke: #0000ff; stroke-width: 2; stroke-linecap: round"/>
    <path d="M 167.349104 313.638241 
L 159.665053 305.516951 
L 170.772516 304.242484 
L 167.349104 313.638241 
z
" clip-path="url(#p11dcf807a4)" style="fill: #0000ff; stroke: #0000ff; stroke-width: 2; stroke-linecap: round"/>
   </g>
   <g id="patch_31">
    <path d="M 190.665799 282.889222 
Q 174.114948 278.259042 159.717488 274.231283 
" clip-path="url(#p11dcf807a4)" style="fill: none; stroke: #0000ff; stroke-width: 2; stroke-linecap: round"/>
    <path d="M 168.000686 281.740519 
L 159.717488 274.231283 
L 170.694796 272.110266 
L 168.000686 281.740519 
z
" clip-path="url(#p11dcf807a4)" style="fill: #0000ff; stroke: #0000ff; stroke-width: 2; stroke-linecap: round"/>
   </g>
   <g id="patch_32">
    <path d="M 190.665799 248.966148 
Q 174.114948 245.827622 159.761015 243.105696 
" clip-path="url(#p11dcf807a4)" style="fill: none; stroke: #0000ff; stroke-width: 2; stroke-linecap: round"/>
    <path d="M 168.654381 249.881243 
L 159.761015 243.105696 
L 170.517472 240.056331 
L 168.654381 249.881243 
z
" clip-path="url(#p11dcf807a4)" style="fill: #0000ff; stroke: #0000ff; stroke-width: 2; stroke-linecap: round"/>
   </g>
   <g id="patch_33">
    <path d="M 190.665799 215.043074 
Q 174.114948 213.458166 159.789983 212.086408 
" clip-path="url(#p11dcf807a4)" style="fill: none; stroke: #0000ff; stroke-width: 2; stroke-linecap: round"/>
    <path d="M 169.267827 218.016878 
L 159.789983 212.086408 
L 170.221066 208.062415 
L 169.267827 218.016878 
z
" clip-path="url(#p11dcf807a4)" style="fill: #0000ff; stroke: #0000ff; stroke-width: 2; stroke-linecap: round"/>
   </g>
   <g id="patch_34">
    <path d="M 190.665799 181.12 
Q 174.114948 181.12 159.800166 181.12 
" clip-path="url(#p11dcf807a4)" style="fill: none; stroke: #0000ff; stroke-width: 2; stroke-linecap: round"/>
    <path d="M 169.800166 186.12 
L 159.800166 181.12 
L 169.800166 176.12 
L 169.800166 186.12 
z
" clip-path="url(#p11dcf807a4)" style="fill: #0000ff; stroke: #0000ff; stroke-width: 2; stroke-linecap: round"/>
   </g>
   <g id="patch_35">
    <path d="M 190.665799 147.196926 
Q 174.114948 148.781834 159.789983 150.153592 
" clip-path="url(#p11dcf807a4)" style="fill: none; stroke: #0000ff; stroke-width: 2; stroke-linecap: round"/>
    <path d="M 170.221066 154.177585 
L 159.789983 150.153592 
L 169.267827 144.223122 
L 170.221066 154.177585 
z
" clip-path="url(#p11dcf807a4)" style="fill: #0000ff; stroke: #0000ff; stroke-width: 2; stroke-linecap: round"/>
   </g>
   <g id="patch_36">
    <path d="M 190.665799 113.273852 
Q 174.114948 116.412378 159.761015 119.134304 
" clip-path="url(#p11dcf807a4)" style="fill: none; stroke: #0000ff; stroke-width: 2; stroke-linecap: round"/>
    <path d="M 170.517472 122.183669 
L 159.761015 119.134304 
L 168.654381 112.358757 
L 170.517472 122.183669 
z
" clip-path="url(#p11dcf807a4)" style="fill: #0000ff; stroke: #0000ff; stroke-width: 2; stroke-linecap: round"/>
   </g>
   <g id="patch_37">
    <path d="M 190.665799 79.350778 
Q 174.114948 83.980958 159.717488 88.008717 
" clip-path="url(#p11dcf807a4)" style="fill: none; stroke: #0000ff; stroke-width: 2; stroke-linecap: round"/>
    <path d="M 170.694796 90.129734 
L 159.717488 88.008717 
L 168.000686 80.499481 
L 170.694796 90.129734 
z
" clip-path="url(#p11dcf807a4)" style="fill: #0000ff; stroke: #0000ff; stroke-width: 2; stroke-linecap: round"/>
   </g>
   <g id="patch_38">
    <path d="M 190.665799 45.427703 
Q 174.114948 51.458125 159.665053 56.723049 
" clip-path="url(#p11dcf807a4)" style="fill: none; stroke: #0000ff; stroke-width: 2; stroke-linecap: round"/>
    <path d="M 170.772516 57.997516 
L 159.665053 56.723049 
L 167.349104 48.601759 
L 170.772516 57.997516 
z
" clip-path="url(#p11dcf807a4)" style="fill: #0000ff; stroke: #0000ff; stroke-width: 2; stroke-linecap: round"/>
   </g>
   <g id="patch_39">
    <path d="M 240.318351 316.812297 
Q 223.7675 316.812297 209.452717 316.812297 
" clip-path="url(#p11dcf807a4)" style="fill: none; stroke: #0000ff; stroke-width: 2; stroke-linecap: round"/>
    <path d="M 219.452717 321.812297 
L 209.452717 316.812297 
L 219.452717 311.812297 
L 219.452717 321.812297 
z
" clip-path="url(#p11dcf807a4)" style="fill: #0000ff; stroke: #0000ff; stroke-width: 2; stroke-linecap: round"/>
   </g>
   <g id="patch_40">
    <path d="M 240.318351 282.889222 
Q 223.7675 282.889222 209.452717 282.889222 
" clip-path="url(#p11dcf807a4)" style="fill: none; stroke: #0000ff; stroke-width: 2; stroke-linecap: round"/>
    <path d="M 219.452717 287.889222 
L 209.452717 282.889222 
L 219.452717 277.889222 
L 219.452717 287.889222 
z
" clip-path="url(#p11dcf807a4)" style="fill: #0000ff; stroke: #0000ff; stroke-width: 2; stroke-linecap: round"/>
   </g>
   <g id="patch_41">
    <path d="M 240.318351 248.966148 
Q 223.7675 248.966148 209.452717 248.966148 
" clip-path="url(#p11dcf807a4)" style="fill: none; stroke: #0000ff; stroke-width: 2; stroke-linecap: round"/>
    <path d="M 219.452717 253.966148 
L 209.452717 248.966148 
L 219.452717 243.966148 
L 219.452717 253.966148 
z
" clip-path="url(#p11dcf807a4)" style="fill: #0000ff; stroke: #0000ff; stroke-width: 2; stroke-linecap: round"/>
   </g>
   <g id="patch_42">
    <path d="M 240.318351 215.043074 
Q 223.7675 215.043074 209.452717 215.043074 
" clip-path="url(#p11dcf807a4)" style="fill: none; stroke: #0000ff; stroke-width: 2; stroke-linecap: round"/>
    <path d="M 219.452717 220.043074 
L 209.452717 215.043074 
L 219.452717 210.043074 
L 219.452717 220.043074 
z
" clip-path="url(#p11dcf807a4)" style="fill: #0000ff; stroke: #0000ff; stroke-width: 2; stroke-linecap: round"/>
   </g>
   <g id="patch_43">
    <path d="M 240.318351 181.12 
Q 223.7675 181.12 209.452717 181.12 
" clip-path="url(#p11dcf807a4)" style="fill: none; stroke: #0000ff; stroke-width: 2; stroke-linecap: round"/>
    <path d="M 219.452717 186.12 
L 209.452717 181.12 
L 219.452717 176.12 
L 219.452717 186.12 
z
" clip-path="url(#p11dcf807a4)" style="fill: #0000ff; stroke: #0000ff; stroke-width: 2; stroke-linecap: round"/>
   </g>
   <g id="patch_44">
    <path d="M 240.318351 147.196926 
Q 223.7675 147.196926 209.452717 147.196926 
" clip-path="url(#p11dcf807a4)" style="fill: none; stroke: #0000ff; stroke-width: 2; stroke-linecap: round"/>
    <path d="M 219.452717 152.196926 
L 209.452717 147.196926 
L 219.452717 142.196926 
L 219.452717 152.196926 
z
" clip-path="url(#p11dcf807a4)" style="fill: #0000ff; stroke: #0000ff; stroke-width: 2; stroke-linecap: round"/>
   </g>
   <g id="patch_45">
    <path d="M 240.318351 113.273852 
Q 223.7675 113.273852 209.452717 113.273852 
" clip-path="url(#p11dcf807a4)" style="fill: none; stroke: #0000ff; stroke-width: 2; stroke-linecap: round"/>
    <path d="M 219.452717 118.273852 
L 209.452717 113.273852 
L 219.452717 108.273852 
L 219.452717 118.273852 
z
" clip-path="url(#p11dcf807a4)" style="fill: #0000ff; stroke: #0000ff; stroke-width: 2; stroke-linecap: round"/>
   </g>
   <g id="patch_46">
    <path d="M 240.318351 79.350778 
Q 223.7675 79.350778 209.452717 79.350778 
" clip-path="url(#p11dcf807a4)" style="fill: none; stroke: #0000ff; stroke-width: 2; stroke-linecap: round"/>
    <path d="M 219.452717 84.350778 
L 209.452717 79.350778 
L 219.452717 74.350778 
L 219.452717 84.350778 
z
" clip-path="url(#p11dcf807a4)" style="fill: #0000ff; stroke: #0000ff; stroke-width: 2; stroke-linecap: round"/>
   </g>
   <g id="patch_47">
    <path d="M 240.318351 45.427703 
Q 223.7675 45.427703 209.452717 45.427703 
" clip-path="url(#p11dcf807a4)" style="fill: none; stroke: #0000ff; stroke-width: 2; stroke-linecap: round"/>
    <path d="M 219.452717 50.427703 
L 209.452717 45.427703 
L 219.452717 40.427703 
L 219.452717 50.427703 
z
" clip-path="url(#p11dcf807a4)" style="fill: #0000ff; stroke: #0000ff; stroke-width: 2; stroke-linecap: round"/>
   </g>
   <g id="patch_48">
    <path d="M 289.970902 316.812297 
Q 273.420052 322.842719 258.970156 328.107642 
" clip-path="url(#p11dcf807a4)" style="fill: none; stroke: #0000ff; stroke-width: 2; stroke-linecap: round"/>
    <path d="M 270.077619 329.382109 
L 258.970156 328.107642 
L 266.654207 319.986352 
L 270.077619 329.382109 
z
" clip-path="url(#p11dcf807a4)" style="fill: #0000ff; stroke: #0000ff; stroke-width: 2; stroke-linecap: round"/>
   </g>
   <g id="patch_49">
    <path d="M 289.970902 282.889222 
Q 273.420052 287.519403 259.022591 291.547162 
" clip-path="url(#p11dcf807a4)" style="fill: none; stroke: #0000ff; stroke-width: 2; stroke-linecap: round"/>
    <path d="M 269.999899 293.668179 
L 259.022591 291.547162 
L 267.305789 284.037926 
L 269.999899 293.668179 
z
" clip-path="url(#p11dcf807a4)" style="fill: #0000ff; stroke: #0000ff; stroke-width: 2; stroke-linecap: round"/>
   </g>
   <g id="patch_50">
    <path d="M 289.970902 248.966148 
Q 273.420052 252.104674 259.066118 254.826601 
" clip-path="url(#p11dcf807a4)" style="fill: none; stroke: #0000ff; stroke-width: 2; stroke-linecap: round"/>
    <path d="M 269.822576 257.875965 
L 259.066118 254.826601 
L 267.959484 248.051054 
L 269.822576 257.875965 
z
" clip-path="url(#p11dcf807a4)" style="fill: #0000ff; stroke: #0000ff; stroke-width: 2; stroke-linecap: round"/>
   </g>
   <g id="patch_51">
    <path d="M 289.970902 215.043074 
Q 273.420052 216.627982 259.095087 217.99974 
" clip-path="url(#p11dcf807a4)" style="fill: none; stroke: #0000ff; stroke-width: 2; stroke-linecap: round"/>
    <path d="M 269.526169 222.023733 
L 259.095087 217.99974 
L 268.572931 212.06927 
L 269.526169 222.023733 
z
" clip-path="url(#p11dcf807a4)" style="fill: #0000ff; stroke: #0000ff; stroke-width: 2; stroke-linecap: round"/>
   </g>
   <g id="patch_52">
    <path d="M 289.970902 181.12 
Q 273.420052 181.12 259.105269 181.12 
" clip-path="url(#p11dcf807a4)" style="fill: none; stroke: #0000ff; stroke-width: 2; stroke-linecap: round"/>
    <path d="M 269.105269 186.12 
L 259.105269 181.12 
L 269.105269 176.12 
L 269.105269 186.12 
z
" clip-path="url(#p11dcf807a4)" style="fill: #0000ff; stroke: #0000ff; stroke-width: 2; stroke-linecap: round"/>
   </g>
   <g id="patch_53">
    <path d="M 289.970902 147.196926 
Q 273.420052 145.612018 259.095087 144.24026 
" clip-path="url(#p11dcf807a4)" style="fill: none; stroke: #0000ff; stroke-width: 2; stroke-linecap: round"/>
    <path d="M 268.572931 150.17073 
L 259.095087 144.24026 
L 269.526169 140.216267 
L 268.572931 150.17073 
z
" clip-path="url(#p11dcf807a4)" style="fill: #0000ff; stroke: #0000ff; stroke-width: 2; stroke-linecap: round"/>
   </g>
   <g id="patch_54">
    <path d="M 289.970902 113.273852 
Q 273.420052 110.135326 259.066118 107.413399 
" clip-path="url(#p11dcf807a4)" style="fill: none; stroke: #0000ff; stroke-width: 2; stroke-linecap: round"/>
    <path d="M 267.959484 114.188946 
L 259.066118 107.413399 
L 269.822576 104.364035 
L 267.959484 114.188946 
z
" clip-path="url(#p11dcf807a4)" style="fill: #0000ff; stroke: #0000ff; stroke-width: 2; stroke-linecap: round"/>
   </g>
   <g id="patch_55">
    <path d="M 289.970902 79.350778 
Q 273.420052 74.720597 259.022591 70.692838 
" clip-path="url(#p11dcf807a4)" style="fill: none; stroke: #0000ff; stroke-width: 2; stroke-linecap: round"/>
    <path d="M 267.305789 78.202074 
L 259.022591 70.692838 
L 269.999899 68.571821 
L 267.305789 78.202074 
z
" clip-path="url(#p11dcf807a4)" style="fill: #0000ff; stroke: #0000ff; stroke-width: 2; stroke-linecap: round"/>
   </g>
   <g id="patch_56">
    <path d="M 289.970902 45.427703 
Q 273.420052 39.397281 258.970156 34.132358 
" clip-path="url(#p11dcf807a4)" style="fill: none; stroke: #0000ff; stroke-width: 2; stroke-linecap: round"/>
    <path d="M 266.654207 42.253648 
L 258.970156 34.132358 
L 270.077619 32.857891 
L 266.654207 42.253648 
z
" clip-path="url(#p11dcf807a4)" style="fill: #0000ff; stroke: #0000ff; stroke-width: 2; stroke-linecap: round"/>
   </g>
   <g id="patch_57">
    <path d="M 339.623454 316.812297 
Q 323.072604 327.01486 308.425224 336.044053 
" clip-path="url(#p11dcf807a4)" style="fill: none; stroke: #0000ff; stroke-width: 2; stroke-linecap: round"/>
    <path d="M 319.561541 335.05287 
L 308.425224 336.044053 
L 314.314068 326.54029 
L 319.561541 335.05287 
z
" clip-path="url(#p11dcf807a4)" style="fill: #0000ff; stroke: #0000ff; stroke-width: 2; stroke-linecap: round"/>
   </g>
   <g id="patch_58">
    <path d="M 339.623454 282.889222 
Q 323.072604 291.337661 308.513356 298.769478 
" clip-path="url(#p11dcf807a4)" style="fill: none; stroke: #0000ff; stroke-width: 2; stroke-linecap: round"/>
    <path d="M 319.693308 298.676373 
L 308.513356 298.769478 
L 315.146843 289.769653 
L 319.693308 298.676373 
z
" clip-path="url(#p11dcf807a4)" style="fill: #0000ff; stroke: #0000ff; stroke-width: 2; stroke-linecap: round"/>
   </g>
   <g id="patch_59">
    <path d="M 339.623454 248.966148 
Q 323.072604 254.99657 308.622708 260.261494 
" clip-path="url(#p11dcf807a4)" style="fill: none; stroke: #0000ff; stroke-width: 2; stroke-linecap: round"/>
    <path d="M 319.730171 261.535961 
L 308.622708 260.261494 
L 316.306759 252.140204 
L 319.730171 261.535961 
z
" clip-path="url(#p11dcf807a4)" style="fill: #0000ff; stroke: #0000ff; stroke-width: 2; stroke-linecap: round"/>
   </g>
   <g id="patch_60">
    <path d="M 339.623454 215.043074 
Q 323.072604 218.1816 308.71867 220.903526 
" clip-path="url(#p11dcf807a4)" style="fill: none; stroke: #0000ff; stroke-width: 2; stroke-linecap: round"/>
    <path d="M 319.475127 223.952891 
L 308.71867 220.903526 
L 317.612036 214.12798 
L 319.475127 223.952891 
z
" clip-path="url(#p11dcf807a4)" style="fill: #0000ff; stroke: #0000ff; stroke-width: 2; stroke-linecap: round"/>
   </g>
   <g id="patch_61">
    <path d="M 339.623454 181.12 
Q 323.072604 181.12 308.757821 181.12 
" clip-path="url(#p11dcf807a4)" style="fill: none; stroke: #0000ff; stroke-width: 2; stroke-linecap: round"/>
    <path d="M 318.757821 186.12 
L 308.757821 181.12 
L 318.757821 176.12 
L 318.757821 186.12 
z
" clip-path="url(#p11dcf807a4)" style="fill: #0000ff; stroke: #0000ff; stroke-width: 2; stroke-linecap: round"/>
   </g>
   <g id="patch_62">
    <path d="M 339.623454 147.196926 
Q 323.072604 144.0584 308.71867 141.336474 
" clip-path="url(#p11dcf807a4)" style="fill: none; stroke: #0000ff; stroke-width: 2; stroke-linecap: round"/>
    <path d="M 317.612036 148.11202 
L 308.71867 141.336474 
L 319.475127 138.287109 
L 317.612036 148.11202 
z
" clip-path="url(#p11dcf807a4)" style="fill: #0000ff; stroke: #0000ff; stroke-width: 2; stroke-linecap: round"/>
   </g>
   <g id="patch_63">
    <path d="M 339.623454 113.273852 
Q 323.072604 107.24343 308.622708 101.978506 
" clip-path="url(#p11dcf807a4)" style="fill: none; stroke: #0000ff; stroke-width: 2; stroke-linecap: round"/>
    <path d="M 316.306759 110.099796 
L 308.622708 101.978506 
L 319.730171 100.704039 
L 316.306759 110.099796 
z
" clip-path="url(#p11dcf807a4)" style="fill: #0000ff; stroke: #0000ff; stroke-width: 2; stroke-linecap: round"/>
   </g>
   <g id="patch_64">
    <path d="M 339.623454 79.350778 
Q 323.072604 70.902339 308.513356 63.470522 
" clip-path="url(#p11dcf807a4)" style="fill: none; stroke: #0000ff; stroke-width: 2; stroke-linecap: round"/>
    <path d="M 315.146843 72.470347 
L 308.513356 63.470522 
L 319.693308 63.563627 
L 315.146843 72.470347 
z
" clip-path="url(#p11dcf807a4)" style="fill: #0000ff; stroke: #0000ff; stroke-width: 2; stroke-linecap: round"/>
   </g>
   <g id="patch_65">
    <path d="M 339.623454 45.427703 
Q 323.072604 35.22514 308.425224 26.195947 
" clip-path="url(#p11dcf807a4)" style="fill: none; stroke: #0000ff; stroke-width: 2; stroke-linecap: round"/>
    <path d="M 314.314068 35.69971 
L 308.425224 26.195947 
L 319.561541 27.18713 
L 314.314068 35.69971 
z
" clip-path="url(#p11dcf807a4)" style="fill: #0000ff; stroke: #0000ff; stroke-width: 2; stroke-linecap: round"/>
   </g>
   <g id="patch_66">
    <path d="M 389.276006 316.812297 
Q 372.725155 328.043071 358.024605 338.018303 
" clip-path="url(#p11dcf807a4)" style="fill: none; stroke: #0000ff; stroke-width: 2; stroke-linecap: round"/>
    <path d="M 369.10688 336.540741 
L 358.024605 338.018303 
L 363.49192 328.265946 
L 369.10688 336.540741 
z
" clip-path="url(#p11dcf807a4)" style="fill: #0000ff; stroke: #0000ff; stroke-width: 2; stroke-linecap: round"/>
   </g>
   <g id="patch_67">
    <path d="M 389.276006 282.889222 
Q 372.725155 293.674447 358.047715 303.23888 
" clip-path="url(#p11dcf807a4)" style="fill: none; stroke: #0000ff; stroke-width: 2; stroke-linecap: round"/>
    <path d="M 369.155635 301.968404 
L 358.047715 303.23888 
L 363.696086 293.590258 
L 369.155635 301.968404 
z
" clip-path="url(#p11dcf807a4)" style="fill: #0000ff; stroke: #0000ff; stroke-width: 2; stroke-linecap: round"/>
   </g>
   <g id="patch_68">
    <path d="M 389.276006 248.966148 
Q 372.725155 257.414587 358.165908 264.846404 
" clip-path="url(#p11dcf807a4)" style="fill: none; stroke: #0000ff; stroke-width: 2; stroke-linecap: round"/>
    <path d="M 369.34586 264.753299 
L 358.165908 264.846404 
L 364.799395 255.846579 
L 369.34586 264.753299 
z
" clip-path="url(#p11dcf807a4)" style="fill: #0000ff; stroke: #0000ff; stroke-width: 2; stroke-linecap: round"/>
   </g>
   <g id="patch_69">
    <path d="M 389.276006 215.043074 
Q 372.725155 219.673255 358.327695 223.701014 
" clip-path="url(#p11dcf807a4)" style="fill: none; stroke: #0000ff; stroke-width: 2; stroke-linecap: round"/>
    <path d="M 369.305003 225.82203 
L 358.327695 223.701014 
L 366.610893 216.191778 
L 369.305003 225.82203 
z
" clip-path="url(#p11dcf807a4)" style="fill: #0000ff; stroke: #0000ff; stroke-width: 2; stroke-linecap: round"/>
   </g>
   <g id="patch_70">
    <path d="M 389.276006 181.12 
Q 372.725155 181.12 358.410373 181.12 
" clip-path="url(#p11dcf807a4)" style="fill: none; stroke: #0000ff; stroke-width: 2; stroke-linecap: round"/>
    <path d="M 368.410373 186.12 
L 358.410373 181.12 
L 368.410373 176.12 
L 368.410373 186.12 
z
" clip-path="url(#p11dcf807a4)" style="fill: #0000ff; stroke: #0000ff; stroke-width: 2; stroke-linecap: round"/>
   </g>
   <g id="patch_71">
    <path d="M 389.276006 147.196926 
Q 372.725155 142.566745 358.327695 138.538986 
" clip-path="url(#p11dcf807a4)" style="fill: none; stroke: #0000ff; stroke-width: 2; stroke-linecap: round"/>
    <path d="M 366.610893 146.048222 
L 358.327695 138.538986 
L 369.305003 136.41797 
L 366.610893 146.048222 
z
" clip-path="url(#p11dcf807a4)" style="fill: #0000ff; stroke: #0000ff; stroke-width: 2; stroke-linecap: round"/>
   </g>
   <g id="patch_72">
    <path d="M 389.276006 113.273852 
Q 372.725155 104.825413 358.165908 97.393596 
" clip-path="url(#p11dcf807a4)" style="fill: none; stroke: #0000ff; stroke-width: 2; stroke-linecap: round"/>
    <path d="M 364.799395 106.393421 
L 358.165908 97.393596 
L 369.34586 97.486701 
L 364.799395 106.393421 
z
" clip-path="url(#p11dcf807a4)" style="fill: #0000ff; stroke: #0000ff; stroke-width: 2; stroke-linecap: round"/>
   </g>
   <g id="patch_73">
    <path d="M 389.276006 79.350778 
Q 372.725155 68.565553 358.047715 59.00112 
" clip-path="url(#p11dcf807a4)" style="fill: none; stroke: #0000ff; stroke-width: 2; stroke-linecap: round"/>
    <path d="M 363.696086 68.649742 
L 358.047715 59.00112 
L 369.155635 60.271596 
L 363.696086 68.649742 
z
" clip-path="url(#p11dcf807a4)" style="fill: #0000ff; stroke: #0000ff; stroke-width: 2; stroke-linecap: round"/>
   </g>
   <g id="patch_74">
    <path d="M 389.276006 45.427703 
Q 372.725155 34.196929 358.024605 24.221697 
" clip-path="url(#p11dcf807a4)" style="fill: none; stroke: #0000ff; stroke-width: 2; stroke-linecap: round"/>
    <path d="M 363.49192 33.974054 
L 358.024605 24.221697 
L 369.10688 25.699259 
L 363.49192 33.974054 
z
" clip-path="url(#p11dcf807a4)" style="fill: #0000ff; stroke: #0000ff; stroke-width: 2; stroke-linecap: round"/>
   </g>
   <g id="patch_75">
    <path d="M 438.928558 316.812297 
Q 422.377707 325.610508 407.801288 333.359138 
" clip-path="url(#p11dcf807a4)" style="fill: none; stroke: #0000ff; stroke-width: 2; stroke-linecap: round"/>
    <path d="M 418.978148 333.08023 
L 407.801288 333.359138 
L 414.284278 324.250305 
L 418.978148 333.08023 
z
" clip-path="url(#p11dcf807a4)" style="fill: #0000ff; stroke: #0000ff; stroke-width: 2; stroke-linecap: round"/>
   </g>
   <g id="patch_76">
    <path d="M 438.928558 282.889222 
Q 422.377707 294.119997 407.677157 304.095229 
" clip-path="url(#p11dcf807a4)" style="fill: none; stroke: #0000ff; stroke-width: 2; stroke-linecap: round"/>
    <path d="M 418.759431 302.617667 
L 407.677157 304.095229 
L 413.144472 294.342872 
L 418.759431 302.617667 
z
" clip-path="url(#p11dcf807a4)" style="fill: #0000ff; stroke: #0000ff; stroke-width: 2; stroke-linecap: round"/>
   </g>
   <g id="patch_77">
    <path d="M 438.928558 248.966148 
Q 422.377707 259.168712 407.730327 268.197905 
" clip-path="url(#p11dcf807a4)" style="fill: none; stroke: #0000ff; stroke-width: 2; stroke-linecap: round"/>
    <path d="M 418.866644 267.206722 
L 407.730327 268.197905 
L 413.619171 258.694141 
L 418.866644 267.206722 
z
" clip-path="url(#p11dcf807a4)" style="fill: #0000ff; stroke: #0000ff; stroke-width: 2; stroke-linecap: round"/>
   </g>
   <g id="patch_78">
    <path d="M 438.928558 215.043074 
Q 422.377707 221.073496 407.927812 226.33842 
" clip-path="url(#p11dcf807a4)" style="fill: none; stroke: #0000ff; stroke-width: 2; stroke-linecap: round"/>
    <path d="M 419.035275 227.612887 
L 407.927812 226.33842 
L 415.611863 218.21713 
L 419.035275 227.612887 
z
" clip-path="url(#p11dcf807a4)" style="fill: #0000ff; stroke: #0000ff; stroke-width: 2; stroke-linecap: round"/>
   </g>
   <g id="patch_79">
    <path d="M 438.928558 181.12 
Q 422.377707 181.12 408.062924 181.12 
" clip-path="url(#p11dcf807a4)" style="fill: none; stroke: #0000ff; stroke-width: 2; stroke-linecap: round"/>
    <path d="M 418.062924 186.12 
L 408.062924 181.12 
L 418.062924 176.12 
L 418.062924 186.12 
z
" clip-path="url(#p11dcf807a4)" style="fill: #0000ff; stroke: #0000ff; stroke-width: 2; stroke-linecap: round"/>
   </g>
   <g id="patch_80">
    <path d="M 438.928558 147.196926 
Q 422.377707 141.166504 407.927812 135.90158 
" clip-path="url(#p11dcf807a4)" style="fill: none; stroke: #0000ff; stroke-width: 2; stroke-linecap: round"/>
    <path d="M 415.611863 144.02287 
L 407.927812 135.90158 
L 419.035275 134.627113 
L 415.611863 144.02287 
z
" clip-path="url(#p11dcf807a4)" style="fill: #0000ff; stroke: #0000ff; stroke-width: 2; stroke-linecap: round"/>
   </g>
   <g id="patch_81">
    <path d="M 438.928558 113.273852 
Q 422.377707 103.071288 407.730327 94.042095 
" clip-path="url(#p11dcf807a4)" style="fill: none; stroke: #0000ff; stroke-width: 2; stroke-linecap: round"/>
    <path d="M 413.619171 103.545859 
L 407.730327 94.042095 
L 418.866644 95.033278 
L 413.619171 103.545859 
z
" clip-path="url(#p11dcf807a4)" style="fill: #0000ff; stroke: #0000ff; stroke-width: 2; stroke-linecap: round"/>
   </g>
   <g id="patch_82">
    <path d="M 438.928558 79.350778 
Q 422.377707 68.120003 407.677157 58.144771 
" clip-path="url(#p11dcf807a4)" style="fill: none; stroke: #0000ff; stroke-width: 2; stroke-linecap: round"/>
    <path d="M 413.144472 67.897128 
L 407.677157 58.144771 
L 418.759431 59.622333 
L 413.144472 67.897128 
z
" clip-path="url(#p11dcf807a4)" style="fill: #0000ff; stroke: #0000ff; stroke-width: 2; stroke-linecap: round"/>
   </g>
   <g id="patch_83">
    <path d="M 438.928558 45.427703 
Q 422.377707 36.629492 407.801288 28.880862 
" clip-path="url(#p11dcf807a4)" style="fill: none; stroke: #0000ff; stroke-width: 2; stroke-linecap: round"/>
    <path d="M 414.284278 37.989695 
L 407.801288 28.880862 
L 418.978148 29.15977 
L 414.284278 37.989695 
z
" clip-path="url(#p11dcf807a4)" style="fill: #0000ff; stroke: #0000ff; stroke-width: 2; stroke-linecap: round"/>
   </g>
   <g id="patch_84">
    <path d="M 240.318351 345.6 
L 240.318351 16.64 
" style="fill: none; stroke: #000000; stroke-width: 0.8; stroke-linejoin: miter; stroke-linecap: square"/>
   </g>
   <g id="patch_85">
    <path d="M 0 181.12 
L 447.535 181.12 
" style="fill: none; stroke: #000000; stroke-width: 0.8; stroke-linejoin: miter; stroke-linecap: square"/>
   </g>
  </g>
 </g>
 <defs>
  <clipPath id="p11dcf807a4">
   <rect x="0" y="16.64" width="447.535" height="328.96"/>
  </clipPath>
 </defs>
</svg>
