<?xml version="1.0" encoding="utf-8" standalone="no"?>
<!DOCTYPE svg PUBLIC "-//W3C//DTD SVG 1.1//EN"
  "http://www.w3.org/Graphics/SVG/1.1/DTD/svg11.dtd">
<svg xmlns:xlink="http://www.w3.org/1999/xlink" width="460.8pt" height="345.6pt" viewBox="0 0 460.8 345.6" xmlns="http://www.w3.org/2000/svg" version="1.1">
 <metadata>
  <rdf:RDF xmlns:dc="http://purl.org/dc/elements/1.1/" xmlns:cc="http://creativecommons.org/ns#" xmlns:rdf="http://www.w3.org/1999/02/22-rdf-syntax-ns#">
   <cc:Work>
    <dc:type rdf:resource="http://purl.org/dc/dcmitype/StillImage"/>
    <dc:date>2022-05-16T19:49:18.303299</dc:date>
    <dc:format>image/svg+xml</dc:format>
    <dc:creator>
     <cc:Agent>
      <dc:title>Matplotlib v3.5.1, https://matplotlib.org/</dc:title>
     </cc:Agent>
    </dc:creator>
   </cc:Work>
  </rdf:RDF>
 </metadata>
 <defs>
  <style type="text/css">*{stroke-linejoin: round; stroke-linecap: butt}</style>
 </defs>
 <g id="figure_1">
  <g id="patch_1">
   <path d="M 0 345.6 
L 460.8 345.6 
L 460.8 0 
L 0 0 
z
" style="fill: #ffffff"/>
  </g>
  <g id="axes_1">
   <g id="patch_2">
    <path d="M 148.217115 345.371416 
L 312.582885 345.371416 
L 312.582885 16.64 
L 148.217115 16.64 
z
" style="fill: #ffffff"/>
   </g>
   <g id="matplotlib.axis_1">
    <g id="xtick_1">
     <g id="line2d_1">
      <defs>
       <path id="mf13fd455da" d="M 0 0 
L 0 3.5 
" style="stroke: #000000; stroke-width: 0.8"/>
      </defs>
      <g>
       <use xlink:href="#mf13fd455da" x="151.377976" y="181.005708" style="stroke: #000000; stroke-width: 0.8"/>
      </g>
     </g>
    </g>
    <g id="xtick_2">
     <g id="line2d_2">
      <g>
       <use xlink:href="#mf13fd455da" x="171.133479" y="181.005708" style="stroke: #000000; stroke-width: 0.8"/>
      </g>
     </g>
     <g id="text_1">
      <!-- 1 -->
      <g transform="translate(167.952229 195.604146)scale(0.1 -0.1)">
       <defs>
        <path id="DejaVuSans-31" d="M 794 531 
L 1825 531 
L 1825 4091 
L 703 3866 
L 703 4441 
L 1819 4666 
L 2450 4666 
L 2450 531 
L 3481 531 
L 3481 0 
L 794 0 
L 794 531 
z
" transform="scale(0.015625)"/>
       </defs>
       <use xlink:href="#DejaVuSans-31"/>
      </g>
     </g>
    </g>
    <g id="xtick_3">
     <g id="line2d_3">
      <g>
       <use xlink:href="#mf13fd455da" x="190.888983" y="181.005708" style="stroke: #000000; stroke-width: 0.8"/>
      </g>
     </g>
     <g id="text_2">
      <!-- 2 -->
      <g transform="translate(187.707733 195.604146)scale(0.1 -0.1)">
       <defs>
        <path id="DejaVuSans-32" d="M 1228 531 
L 3431 531 
L 3431 0 
L 469 0 
L 469 531 
Q 828 903 1448 1529 
Q 2069 2156 2228 2338 
Q 2531 2678 2651 2914 
Q 2772 3150 2772 3378 
Q 2772 3750 2511 3984 
Q 2250 4219 1831 4219 
Q 1534 4219 1204 4116 
Q 875 4013 500 3803 
L 500 4441 
Q 881 4594 1212 4672 
Q 1544 4750 1819 4750 
Q 2544 4750 2975 4387 
Q 3406 4025 3406 3419 
Q 3406 3131 3298 2873 
Q 3191 2616 2906 2266 
Q 2828 2175 2409 1742 
Q 1991 1309 1228 531 
z
" transform="scale(0.015625)"/>
       </defs>
       <use xlink:href="#DejaVuSans-32"/>
      </g>
     </g>
    </g>
    <g id="xtick_4">
     <g id="line2d_4">
      <g>
       <use xlink:href="#mf13fd455da" x="210.644486" y="181.005708" style="stroke: #000000; stroke-width: 0.8"/>
      </g>
     </g>
     <g id="text_3">
      <!-- 3 -->
      <g transform="translate(207.463236 195.604146)scale(0.1 -0.1)">
       <defs>
        <path id="DejaVuSans-33" d="M 2597 2516 
Q 3050 2419 3304 2112 
Q 3559 1806 3559 1356 
Q 3559 666 3084 287 
Q 2609 -91 1734 -91 
Q 1441 -91 1130 -33 
Q 819 25 488 141 
L 488 750 
Q 750 597 1062 519 
Q 1375 441 1716 441 
Q 2309 441 2620 675 
Q 2931 909 2931 1356 
Q 2931 1769 2642 2001 
Q 2353 2234 1838 2234 
L 1294 2234 
L 1294 2753 
L 1863 2753 
Q 2328 2753 2575 2939 
Q 2822 3125 2822 3475 
Q 2822 3834 2567 4026 
Q 2313 4219 1838 4219 
Q 1578 4219 1281 4162 
Q 984 4106 628 3988 
L 628 4550 
Q 988 4650 1302 4700 
Q 1616 4750 1894 4750 
Q 2613 4750 3031 4423 
Q 3450 4097 3450 3541 
Q 3450 3153 3228 2886 
Q 3006 2619 2597 2516 
z
" transform="scale(0.015625)"/>
       </defs>
       <use xlink:href="#DejaVuSans-33"/>
      </g>
     </g>
    </g>
    <g id="xtick_5">
     <g id="line2d_5">
      <g>
       <use xlink:href="#mf13fd455da" x="230.39999" y="181.005708" style="stroke: #000000; stroke-width: 0.8"/>
      </g>
     </g>
     <g id="text_4">
      <!-- 4 -->
      <g transform="translate(227.21874 195.604146)scale(0.1 -0.1)">
       <defs>
        <path id="DejaVuSans-34" d="M 2419 4116 
L 825 1625 
L 2419 1625 
L 2419 4116 
z
M 2253 4666 
L 3047 4666 
L 3047 1625 
L 3713 1625 
L 3713 1100 
L 3047 1100 
L 3047 0 
L 2419 0 
L 2419 1100 
L 313 1100 
L 313 1709 
L 2253 4666 
z
" transform="scale(0.015625)"/>
       </defs>
       <use xlink:href="#DejaVuSans-34"/>
      </g>
     </g>
    </g>
    <g id="xtick_6">
     <g id="line2d_6">
      <g>
       <use xlink:href="#mf13fd455da" x="250.155494" y="181.005708" style="stroke: #000000; stroke-width: 0.8"/>
      </g>
     </g>
     <g id="text_5">
      <!-- 5 -->
      <g transform="translate(246.974244 195.604146)scale(0.1 -0.1)">
       <defs>
        <path id="DejaVuSans-35" d="M 691 4666 
L 3169 4666 
L 3169 4134 
L 1269 4134 
L 1269 2991 
Q 1406 3038 1543 3061 
Q 1681 3084 1819 3084 
Q 2600 3084 3056 2656 
Q 3513 2228 3513 1497 
Q 3513 744 3044 326 
Q 2575 -91 1722 -91 
Q 1428 -91 1123 -41 
Q 819 9 494 109 
L 494 744 
Q 775 591 1075 516 
Q 1375 441 1709 441 
Q 2250 441 2565 725 
Q 2881 1009 2881 1497 
Q 2881 1984 2565 2268 
Q 2250 2553 1709 2553 
Q 1456 2553 1204 2497 
Q 953 2441 691 2322 
L 691 4666 
z
" transform="scale(0.015625)"/>
       </defs>
       <use xlink:href="#DejaVuSans-35"/>
      </g>
     </g>
    </g>
    <g id="xtick_7">
     <g id="line2d_7">
      <g>
       <use xlink:href="#mf13fd455da" x="269.910997" y="181.005708" style="stroke: #000000; stroke-width: 0.8"/>
      </g>
     </g>
     <g id="text_6">
      <!-- 6 -->
      <g transform="translate(266.729747 195.604146)scale(0.1 -0.1)">
       <defs>
        <path id="DejaVuSans-36" d="M 2113 2584 
Q 1688 2584 1439 2293 
Q 1191 2003 1191 1497 
Q 1191 994 1439 701 
Q 1688 409 2113 409 
Q 2538 409 2786 701 
Q 3034 994 3034 1497 
Q 3034 2003 2786 2293 
Q 2538 2584 2113 2584 
z
M 3366 4563 
L 3366 3988 
Q 3128 4100 2886 4159 
Q 2644 4219 2406 4219 
Q 1781 4219 1451 3797 
Q 1122 3375 1075 2522 
Q 1259 2794 1537 2939 
Q 1816 3084 2150 3084 
Q 2853 3084 3261 2657 
Q 3669 2231 3669 1497 
Q 3669 778 3244 343 
Q 2819 -91 2113 -91 
Q 1303 -91 875 529 
Q 447 1150 447 2328 
Q 447 3434 972 4092 
Q 1497 4750 2381 4750 
Q 2619 4750 2861 4703 
Q 3103 4656 3366 4563 
z
" transform="scale(0.015625)"/>
       </defs>
       <use xlink:href="#DejaVuSans-36"/>
      </g>
     </g>
    </g>
    <g id="xtick_8">
     <g id="line2d_8">
      <g>
       <use xlink:href="#mf13fd455da" x="289.666501" y="181.005708" style="stroke: #000000; stroke-width: 0.8"/>
      </g>
     </g>
     <g id="text_7">
      <!-- 7 -->
      <g transform="translate(286.485251 195.604146)scale(0.1 -0.1)">
       <defs>
        <path id="DejaVuSans-37" d="M 525 4666 
L 3525 4666 
L 3525 4397 
L 1831 0 
L 1172 0 
L 2766 4134 
L 525 4134 
L 525 4666 
z
" transform="scale(0.015625)"/>
       </defs>
       <use xlink:href="#DejaVuSans-37"/>
      </g>
     </g>
    </g>
    <g id="xtick_9">
     <g id="line2d_9">
      <g>
       <use xlink:href="#mf13fd455da" x="309.422005" y="181.005708" style="stroke: #000000; stroke-width: 0.8"/>
      </g>
     </g>
     <g id="text_8">
      <!-- 8 -->
      <g transform="translate(306.240755 195.604146)scale(0.1 -0.1)">
       <defs>
        <path id="DejaVuSans-38" d="M 2034 2216 
Q 1584 2216 1326 1975 
Q 1069 1734 1069 1313 
Q 1069 891 1326 650 
Q 1584 409 2034 409 
Q 2484 409 2743 651 
Q 3003 894 3003 1313 
Q 3003 1734 2745 1975 
Q 2488 2216 2034 2216 
z
M 1403 2484 
Q 997 2584 770 2862 
Q 544 3141 544 3541 
Q 544 4100 942 4425 
Q 1341 4750 2034 4750 
Q 2731 4750 3128 4425 
Q 3525 4100 3525 3541 
Q 3525 3141 3298 2862 
Q 3072 2584 2669 2484 
Q 3125 2378 3379 2068 
Q 3634 1759 3634 1313 
Q 3634 634 3220 271 
Q 2806 -91 2034 -91 
Q 1263 -91 848 271 
Q 434 634 434 1313 
Q 434 1759 690 2068 
Q 947 2378 1403 2484 
z
M 1172 3481 
Q 1172 3119 1398 2916 
Q 1625 2713 2034 2713 
Q 2441 2713 2670 2916 
Q 2900 3119 2900 3481 
Q 2900 3844 2670 4047 
Q 2441 4250 2034 4250 
Q 1625 4250 1398 4047 
Q 1172 3844 1172 3481 
z
" transform="scale(0.015625)"/>
       </defs>
       <use xlink:href="#DejaVuSans-38"/>
      </g>
     </g>
    </g>
    <g id="xtick_10">
     <g id="line2d_10">
      <defs>
       <path id="m93fa4c2f6d" d="M 0 0 
L 0 2 
" style="stroke: #000000; stroke-width: 0.6"/>
      </defs>
      <g>
       <use xlink:href="#m93fa4c2f6d" x="155.329076" y="181.005708" style="stroke: #000000; stroke-width: 0.6"/>
      </g>
     </g>
    </g>
    <g id="xtick_11">
     <g id="line2d_11">
      <g>
       <use xlink:href="#m93fa4c2f6d" x="159.280177" y="181.005708" style="stroke: #000000; stroke-width: 0.6"/>
      </g>
     </g>
    </g>
    <g id="xtick_12">
     <g id="line2d_12">
      <g>
       <use xlink:href="#m93fa4c2f6d" x="163.231278" y="181.005708" style="stroke: #000000; stroke-width: 0.6"/>
      </g>
     </g>
    </g>
    <g id="xtick_13">
     <g id="line2d_13">
      <g>
       <use xlink:href="#m93fa4c2f6d" x="167.182378" y="181.005708" style="stroke: #000000; stroke-width: 0.6"/>
      </g>
     </g>
    </g>
    <g id="xtick_14">
     <g id="line2d_14">
      <g>
       <use xlink:href="#m93fa4c2f6d" x="175.08458" y="181.005708" style="stroke: #000000; stroke-width: 0.6"/>
      </g>
     </g>
    </g>
    <g id="xtick_15">
     <g id="line2d_15">
      <g>
       <use xlink:href="#m93fa4c2f6d" x="179.035681" y="181.005708" style="stroke: #000000; stroke-width: 0.6"/>
      </g>
     </g>
    </g>
    <g id="xtick_16">
     <g id="line2d_16">
      <g>
       <use xlink:href="#m93fa4c2f6d" x="182.986781" y="181.005708" style="stroke: #000000; stroke-width: 0.6"/>
      </g>
     </g>
    </g>
    <g id="xtick_17">
     <g id="line2d_17">
      <g>
       <use xlink:href="#m93fa4c2f6d" x="186.937882" y="181.005708" style="stroke: #000000; stroke-width: 0.6"/>
      </g>
     </g>
    </g>
    <g id="xtick_18">
     <g id="line2d_18">
      <g>
       <use xlink:href="#m93fa4c2f6d" x="194.840084" y="181.005708" style="stroke: #000000; stroke-width: 0.6"/>
      </g>
     </g>
    </g>
    <g id="xtick_19">
     <g id="line2d_19">
      <g>
       <use xlink:href="#m93fa4c2f6d" x="198.791184" y="181.005708" style="stroke: #000000; stroke-width: 0.6"/>
      </g>
     </g>
    </g>
    <g id="xtick_20">
     <g id="line2d_20">
      <g>
       <use xlink:href="#m93fa4c2f6d" x="202.742285" y="181.005708" style="stroke: #000000; stroke-width: 0.6"/>
      </g>
     </g>
    </g>
    <g id="xtick_21">
     <g id="line2d_21">
      <g>
       <use xlink:href="#m93fa4c2f6d" x="206.693386" y="181.005708" style="stroke: #000000; stroke-width: 0.6"/>
      </g>
     </g>
    </g>
    <g id="xtick_22">
     <g id="line2d_22">
      <g>
       <use xlink:href="#m93fa4c2f6d" x="214.595587" y="181.005708" style="stroke: #000000; stroke-width: 0.6"/>
      </g>
     </g>
    </g>
    <g id="xtick_23">
     <g id="line2d_23">
      <g>
       <use xlink:href="#m93fa4c2f6d" x="218.546688" y="181.005708" style="stroke: #000000; stroke-width: 0.6"/>
      </g>
     </g>
    </g>
    <g id="xtick_24">
     <g id="line2d_24">
      <g>
       <use xlink:href="#m93fa4c2f6d" x="222.497789" y="181.005708" style="stroke: #000000; stroke-width: 0.6"/>
      </g>
     </g>
    </g>
    <g id="xtick_25">
     <g id="line2d_25">
      <g>
       <use xlink:href="#m93fa4c2f6d" x="226.448889" y="181.005708" style="stroke: #000000; stroke-width: 0.6"/>
      </g>
     </g>
    </g>
    <g id="xtick_26">
     <g id="line2d_26">
      <g>
       <use xlink:href="#m93fa4c2f6d" x="234.351091" y="181.005708" style="stroke: #000000; stroke-width: 0.6"/>
      </g>
     </g>
    </g>
    <g id="xtick_27">
     <g id="line2d_27">
      <g>
       <use xlink:href="#m93fa4c2f6d" x="238.302192" y="181.005708" style="stroke: #000000; stroke-width: 0.6"/>
      </g>
     </g>
    </g>
    <g id="xtick_28">
     <g id="line2d_28">
      <g>
       <use xlink:href="#m93fa4c2f6d" x="242.253292" y="181.005708" style="stroke: #000000; stroke-width: 0.6"/>
      </g>
     </g>
    </g>
    <g id="xtick_29">
     <g id="line2d_29">
      <g>
       <use xlink:href="#m93fa4c2f6d" x="246.204393" y="181.005708" style="stroke: #000000; stroke-width: 0.6"/>
      </g>
     </g>
    </g>
    <g id="xtick_30">
     <g id="line2d_30">
      <g>
       <use xlink:href="#m93fa4c2f6d" x="254.106594" y="181.005708" style="stroke: #000000; stroke-width: 0.6"/>
      </g>
     </g>
    </g>
    <g id="xtick_31">
     <g id="line2d_31">
      <g>
       <use xlink:href="#m93fa4c2f6d" x="258.057695" y="181.005708" style="stroke: #000000; stroke-width: 0.6"/>
      </g>
     </g>
    </g>
    <g id="xtick_32">
     <g id="line2d_32">
      <g>
       <use xlink:href="#m93fa4c2f6d" x="262.008796" y="181.005708" style="stroke: #000000; stroke-width: 0.6"/>
      </g>
     </g>
    </g>
    <g id="xtick_33">
     <g id="line2d_33">
      <g>
       <use xlink:href="#m93fa4c2f6d" x="265.959897" y="181.005708" style="stroke: #000000; stroke-width: 0.6"/>
      </g>
     </g>
    </g>
    <g id="xtick_34">
     <g id="line2d_34">
      <g>
       <use xlink:href="#m93fa4c2f6d" x="273.862098" y="181.005708" style="stroke: #000000; stroke-width: 0.6"/>
      </g>
     </g>
    </g>
    <g id="xtick_35">
     <g id="line2d_35">
      <g>
       <use xlink:href="#m93fa4c2f6d" x="277.813199" y="181.005708" style="stroke: #000000; stroke-width: 0.6"/>
      </g>
     </g>
    </g>
    <g id="xtick_36">
     <g id="line2d_36">
      <g>
       <use xlink:href="#m93fa4c2f6d" x="281.7643" y="181.005708" style="stroke: #000000; stroke-width: 0.6"/>
      </g>
     </g>
    </g>
    <g id="xtick_37">
     <g id="line2d_37">
      <g>
       <use xlink:href="#m93fa4c2f6d" x="285.7154" y="181.005708" style="stroke: #000000; stroke-width: 0.6"/>
      </g>
     </g>
    </g>
    <g id="xtick_38">
     <g id="line2d_38">
      <g>
       <use xlink:href="#m93fa4c2f6d" x="293.617602" y="181.005708" style="stroke: #000000; stroke-width: 0.6"/>
      </g>
     </g>
    </g>
    <g id="xtick_39">
     <g id="line2d_39">
      <g>
       <use xlink:href="#m93fa4c2f6d" x="297.568703" y="181.005708" style="stroke: #000000; stroke-width: 0.6"/>
      </g>
     </g>
    </g>
    <g id="xtick_40">
     <g id="line2d_40">
      <g>
       <use xlink:href="#m93fa4c2f6d" x="301.519803" y="181.005708" style="stroke: #000000; stroke-width: 0.6"/>
      </g>
     </g>
    </g>
    <g id="xtick_41">
     <g id="line2d_41">
      <g>
       <use xlink:href="#m93fa4c2f6d" x="305.470904" y="181.005708" style="stroke: #000000; stroke-width: 0.6"/>
      </g>
     </g>
    </g>
    <g id="text_9">
     <!-- $ x $ -->
     <g transform="translate(320.582885 181.005708)scale(0.16 -0.16)">
      <defs>
       <path id="Cmmi10-78" d="M 500 184 
Q 613 97 819 97 
Q 1019 97 1172 289 
Q 1325 481 1381 709 
L 1672 1844 
Q 1741 2153 1741 2266 
Q 1741 2425 1652 2544 
Q 1563 2663 1403 2663 
Q 1200 2663 1022 2536 
Q 844 2409 722 2214 
Q 600 2019 550 1819 
Q 538 1778 500 1778 
L 422 1778 
Q 372 1778 372 1838 
L 372 1856 
Q 434 2094 584 2320 
Q 734 2547 951 2687 
Q 1169 2828 1416 2828 
Q 1650 2828 1839 2703 
Q 2028 2578 2106 2363 
Q 2216 2559 2386 2693 
Q 2556 2828 2759 2828 
Q 2897 2828 3040 2779 
Q 3184 2731 3275 2631 
Q 3366 2531 3366 2381 
Q 3366 2219 3261 2101 
Q 3156 1984 2994 1984 
Q 2891 1984 2822 2050 
Q 2753 2116 2753 2216 
Q 2753 2350 2845 2451 
Q 2938 2553 3066 2572 
Q 2950 2663 2747 2663 
Q 2541 2663 2389 2472 
Q 2238 2281 2175 2047 
L 1894 916 
Q 1825 659 1825 494 
Q 1825 331 1917 214 
Q 2009 97 2163 97 
Q 2463 97 2698 361 
Q 2934 625 3009 941 
Q 3022 978 3059 978 
L 3138 978 
Q 3163 978 3178 961 
Q 3194 944 3194 922 
Q 3194 916 3188 903 
Q 3097 522 2806 225 
Q 2516 -72 2150 -72 
Q 1916 -72 1727 54 
Q 1538 181 1459 397 
Q 1359 209 1182 68 
Q 1006 -72 806 -72 
Q 669 -72 523 -23 
Q 378 25 287 125 
Q 197 225 197 378 
Q 197 528 301 651 
Q 406 775 563 775 
Q 669 775 741 711 
Q 813 647 813 544 
Q 813 409 723 309 
Q 634 209 500 184 
z
" transform="scale(0.015625)"/>
      </defs>
      <use xlink:href="#Cmmi10-78" transform="translate(0 0.8125)"/>
     </g>
    </g>
   </g>
   <g id="matplotlib.axis_2">
    <g id="ytick_1">
     <g id="line2d_42">
      <defs>
       <path id="m56adff37f7" d="M 0 0 
L -3.5 0 
" style="stroke: #000000; stroke-width: 0.8"/>
      </defs>
      <g>
       <use xlink:href="#m56adff37f7" x="151.377976" y="339.049737" style="stroke: #000000; stroke-width: 0.8"/>
      </g>
     </g>
     <g id="text_10">
      <!-- −8 -->
      <g transform="translate(129.635788 342.848956)scale(0.1 -0.1)">
       <defs>
        <path id="DejaVuSans-2212" d="M 678 2272 
L 4684 2272 
L 4684 1741 
L 678 1741 
L 678 2272 
z
" transform="scale(0.015625)"/>
       </defs>
       <use xlink:href="#DejaVuSans-2212"/>
       <use xlink:href="#DejaVuSans-38" x="83.789062"/>
      </g>
     </g>
    </g>
    <g id="ytick_2">
     <g id="line2d_43">
      <g>
       <use xlink:href="#m56adff37f7" x="151.377976" y="299.53873" style="stroke: #000000; stroke-width: 0.8"/>
      </g>
     </g>
     <g id="text_11">
      <!-- −6 -->
      <g transform="translate(129.635788 303.337949)scale(0.1 -0.1)">
       <use xlink:href="#DejaVuSans-2212"/>
       <use xlink:href="#DejaVuSans-36" x="83.789062"/>
      </g>
     </g>
    </g>
    <g id="ytick_3">
     <g id="line2d_44">
      <g>
       <use xlink:href="#m56adff37f7" x="151.377976" y="260.027723" style="stroke: #000000; stroke-width: 0.8"/>
      </g>
     </g>
     <g id="text_12">
      <!-- −4 -->
      <g transform="translate(129.635788 263.826941)scale(0.1 -0.1)">
       <use xlink:href="#DejaVuSans-2212"/>
       <use xlink:href="#DejaVuSans-34" x="83.789062"/>
      </g>
     </g>
    </g>
    <g id="ytick_4">
     <g id="line2d_45">
      <g>
       <use xlink:href="#m56adff37f7" x="151.377976" y="220.516715" style="stroke: #000000; stroke-width: 0.8"/>
      </g>
     </g>
     <g id="text_13">
      <!-- −2 -->
      <g transform="translate(129.635788 224.315934)scale(0.1 -0.1)">
       <use xlink:href="#DejaVuSans-2212"/>
       <use xlink:href="#DejaVuSans-32" x="83.789062"/>
      </g>
     </g>
    </g>
    <g id="ytick_5">
     <g id="line2d_46">
      <g>
       <use xlink:href="#m56adff37f7" x="151.377976" y="181.005708" style="stroke: #000000; stroke-width: 0.8"/>
      </g>
     </g>
    </g>
    <g id="ytick_6">
     <g id="line2d_47">
      <g>
       <use xlink:href="#m56adff37f7" x="151.377976" y="141.494701" style="stroke: #000000; stroke-width: 0.8"/>
      </g>
     </g>
     <g id="text_14">
      <!-- 2 -->
      <g transform="translate(138.015476 145.29392)scale(0.1 -0.1)">
       <use xlink:href="#DejaVuSans-32"/>
      </g>
     </g>
    </g>
    <g id="ytick_7">
     <g id="line2d_48">
      <g>
       <use xlink:href="#m56adff37f7" x="151.377976" y="101.983694" style="stroke: #000000; stroke-width: 0.8"/>
      </g>
     </g>
     <g id="text_15">
      <!-- 4 -->
      <g transform="translate(138.015476 105.782912)scale(0.1 -0.1)">
       <use xlink:href="#DejaVuSans-34"/>
      </g>
     </g>
    </g>
    <g id="ytick_8">
     <g id="line2d_49">
      <g>
       <use xlink:href="#m56adff37f7" x="151.377976" y="62.472686" style="stroke: #000000; stroke-width: 0.8"/>
      </g>
     </g>
     <g id="text_16">
      <!-- 6 -->
      <g transform="translate(138.015476 66.271905)scale(0.1 -0.1)">
       <use xlink:href="#DejaVuSans-36"/>
      </g>
     </g>
    </g>
    <g id="ytick_9">
     <g id="line2d_50">
      <g>
       <use xlink:href="#m56adff37f7" x="151.377976" y="22.961679" style="stroke: #000000; stroke-width: 0.8"/>
      </g>
     </g>
     <g id="text_17">
      <!-- 8 -->
      <g transform="translate(138.015476 26.760898)scale(0.1 -0.1)">
       <use xlink:href="#DejaVuSans-38"/>
      </g>
     </g>
    </g>
    <g id="ytick_10">
     <g id="line2d_51">
      <defs>
       <path id="m9b1bf34bc0" d="M 0 0 
L -2 0 
" style="stroke: #000000; stroke-width: 0.6"/>
      </defs>
      <g>
       <use xlink:href="#m9b1bf34bc0" x="151.377976" y="329.171985" style="stroke: #000000; stroke-width: 0.6"/>
      </g>
     </g>
    </g>
    <g id="ytick_11">
     <g id="line2d_52">
      <g>
       <use xlink:href="#m9b1bf34bc0" x="151.377976" y="319.294234" style="stroke: #000000; stroke-width: 0.6"/>
      </g>
     </g>
    </g>
    <g id="ytick_12">
     <g id="line2d_53">
      <g>
       <use xlink:href="#m9b1bf34bc0" x="151.377976" y="309.416482" style="stroke: #000000; stroke-width: 0.6"/>
      </g>
     </g>
    </g>
    <g id="ytick_13">
     <g id="line2d_54">
      <g>
       <use xlink:href="#m9b1bf34bc0" x="151.377976" y="289.660978" style="stroke: #000000; stroke-width: 0.6"/>
      </g>
     </g>
    </g>
    <g id="ytick_14">
     <g id="line2d_55">
      <g>
       <use xlink:href="#m9b1bf34bc0" x="151.377976" y="279.783226" style="stroke: #000000; stroke-width: 0.6"/>
      </g>
     </g>
    </g>
    <g id="ytick_15">
     <g id="line2d_56">
      <g>
       <use xlink:href="#m9b1bf34bc0" x="151.377976" y="269.905475" style="stroke: #000000; stroke-width: 0.6"/>
      </g>
     </g>
    </g>
    <g id="ytick_16">
     <g id="line2d_57">
      <g>
       <use xlink:href="#m9b1bf34bc0" x="151.377976" y="250.149971" style="stroke: #000000; stroke-width: 0.6"/>
      </g>
     </g>
    </g>
    <g id="ytick_17">
     <g id="line2d_58">
      <g>
       <use xlink:href="#m9b1bf34bc0" x="151.377976" y="240.272219" style="stroke: #000000; stroke-width: 0.6"/>
      </g>
     </g>
    </g>
    <g id="ytick_18">
     <g id="line2d_59">
      <g>
       <use xlink:href="#m9b1bf34bc0" x="151.377976" y="230.394467" style="stroke: #000000; stroke-width: 0.6"/>
      </g>
     </g>
    </g>
    <g id="ytick_19">
     <g id="line2d_60">
      <g>
       <use xlink:href="#m9b1bf34bc0" x="151.377976" y="210.638964" style="stroke: #000000; stroke-width: 0.6"/>
      </g>
     </g>
    </g>
    <g id="ytick_20">
     <g id="line2d_61">
      <g>
       <use xlink:href="#m9b1bf34bc0" x="151.377976" y="200.761212" style="stroke: #000000; stroke-width: 0.6"/>
      </g>
     </g>
    </g>
    <g id="ytick_21">
     <g id="line2d_62">
      <g>
       <use xlink:href="#m9b1bf34bc0" x="151.377976" y="190.88346" style="stroke: #000000; stroke-width: 0.6"/>
      </g>
     </g>
    </g>
    <g id="ytick_22">
     <g id="line2d_63">
      <g>
       <use xlink:href="#m9b1bf34bc0" x="151.377976" y="171.127956" style="stroke: #000000; stroke-width: 0.6"/>
      </g>
     </g>
    </g>
    <g id="ytick_23">
     <g id="line2d_64">
      <g>
       <use xlink:href="#m9b1bf34bc0" x="151.377976" y="161.250204" style="stroke: #000000; stroke-width: 0.6"/>
      </g>
     </g>
    </g>
    <g id="ytick_24">
     <g id="line2d_65">
      <g>
       <use xlink:href="#m9b1bf34bc0" x="151.377976" y="151.372453" style="stroke: #000000; stroke-width: 0.6"/>
      </g>
     </g>
    </g>
    <g id="ytick_25">
     <g id="line2d_66">
      <g>
       <use xlink:href="#m9b1bf34bc0" x="151.377976" y="131.616949" style="stroke: #000000; stroke-width: 0.6"/>
      </g>
     </g>
    </g>
    <g id="ytick_26">
     <g id="line2d_67">
      <g>
       <use xlink:href="#m9b1bf34bc0" x="151.377976" y="121.739197" style="stroke: #000000; stroke-width: 0.6"/>
      </g>
     </g>
    </g>
    <g id="ytick_27">
     <g id="line2d_68">
      <g>
       <use xlink:href="#m9b1bf34bc0" x="151.377976" y="111.861445" style="stroke: #000000; stroke-width: 0.6"/>
      </g>
     </g>
    </g>
    <g id="ytick_28">
     <g id="line2d_69">
      <g>
       <use xlink:href="#m9b1bf34bc0" x="151.377976" y="92.105942" style="stroke: #000000; stroke-width: 0.6"/>
      </g>
     </g>
    </g>
    <g id="ytick_29">
     <g id="line2d_70">
      <g>
       <use xlink:href="#m9b1bf34bc0" x="151.377976" y="82.22819" style="stroke: #000000; stroke-width: 0.6"/>
      </g>
     </g>
    </g>
    <g id="ytick_30">
     <g id="line2d_71">
      <g>
       <use xlink:href="#m9b1bf34bc0" x="151.377976" y="72.350438" style="stroke: #000000; stroke-width: 0.6"/>
      </g>
     </g>
    </g>
    <g id="ytick_31">
     <g id="line2d_72">
      <g>
       <use xlink:href="#m9b1bf34bc0" x="151.377976" y="52.594934" style="stroke: #000000; stroke-width: 0.6"/>
      </g>
     </g>
    </g>
    <g id="ytick_32">
     <g id="line2d_73">
      <g>
       <use xlink:href="#m9b1bf34bc0" x="151.377976" y="42.717183" style="stroke: #000000; stroke-width: 0.6"/>
      </g>
     </g>
    </g>
    <g id="ytick_33">
     <g id="line2d_74">
      <g>
       <use xlink:href="#m9b1bf34bc0" x="151.377976" y="32.839431" style="stroke: #000000; stroke-width: 0.6"/>
      </g>
     </g>
    </g>
    <g id="text_18">
     <!-- $ z $ -->
     <g transform="translate(147.617976 5.3125)scale(0.16 -0.16)">
      <defs>
       <path id="Cmmi10-7a" d="M 313 -72 
Q 263 -72 263 -13 
Q 263 19 275 31 
Q 447 328 689 598 
Q 931 869 1239 1145 
Q 1547 1422 1858 1700 
Q 2169 1978 2363 2194 
L 2338 2194 
Q 2197 2194 1925 2284 
Q 1653 2375 1497 2375 
Q 1328 2375 1168 2301 
Q 1009 2228 966 2075 
Q 956 2028 916 2028 
L 838 2028 
Q 788 2028 788 2094 
L 788 2113 
Q 838 2300 952 2462 
Q 1066 2625 1233 2726 
Q 1400 2828 1581 2828 
Q 1709 2828 1793 2770 
Q 1878 2713 1990 2591 
Q 2103 2469 2173 2416 
Q 2244 2363 2350 2363 
Q 2491 2363 2602 2491 
Q 2713 2619 2822 2809 
Q 2841 2828 2869 2828 
L 2944 2828 
Q 2966 2828 2980 2812 
Q 2994 2797 2994 2772 
Q 2994 2750 2981 2731 
Q 2809 2434 2579 2176 
Q 2350 1919 1979 1586 
Q 1609 1253 1354 1023 
Q 1100 794 878 550 
Q 928 563 1013 563 
Q 1169 563 1439 473 
Q 1709 384 1856 384 
Q 2016 384 2178 453 
Q 2341 522 2459 647 
Q 2578 772 2619 934 
Q 2634 978 2669 978 
L 2747 978 
Q 2772 978 2787 958 
Q 2803 938 2803 916 
Q 2803 909 2797 897 
Q 2738 653 2591 433 
Q 2444 213 2230 70 
Q 2016 -72 1772 -72 
Q 1650 -72 1565 -15 
Q 1481 41 1367 164 
Q 1253 288 1181 342 
Q 1109 397 1006 397 
Q 688 397 434 -50 
Q 413 -72 391 -72 
L 313 -72 
z
" transform="scale(0.015625)"/>
      </defs>
      <use xlink:href="#Cmmi10-7a" transform="translate(0 0.8125)"/>
     </g>
    </g>
   </g>
   <g id="line2d_75">
    <path d="M 151.377995 180.985953 
L 151.380131 178.850491 
L 151.382266 176.715028 
L 151.384402 174.579566 
L 151.386537 172.444104 
L 151.388673 170.308642 
L 151.390808 168.17318 
L 151.392944 166.037718 
L 151.395079 163.902256 
L 151.397214 161.766794 
L 151.39935 159.631332 
L 151.401485 157.49587 
L 151.403621 155.360408 
L 151.405756 153.224945 
L 151.407892 151.089483 
L 151.410027 148.954021 
L 151.412163 146.818559 
L 151.414298 144.683097 
L 151.416434 142.547635 
L 151.418569 140.412173 
L 151.420705 138.276711 
L 151.42284 136.141249 
L 151.424975 134.005787 
L 151.427111 131.870325 
L 151.429246 129.734862 
L 151.431382 127.5994 
L 151.433517 125.463938 
L 151.435653 123.328476 
L 151.437788 121.193014 
L 151.439924 119.057552 
L 151.442059 116.92209 
L 151.444195 114.786628 
L 151.44633 112.651166 
L 151.448466 110.515704 
L 151.450601 108.380242 
L 151.452737 106.244779 
L 151.454872 104.109317 
L 151.457007 101.973855 
L 151.459143 99.838393 
L 151.461278 97.702931 
L 151.463414 95.567469 
L 151.465549 93.432007 
L 151.467685 91.296545 
L 151.46982 89.161083 
L 151.471956 87.025621 
L 151.474091 84.890159 
L 151.476227 82.754697 
L 151.478362 80.619234 
L 151.480498 78.483772 
L 151.482633 76.34831 
L 151.484768 74.212848 
L 151.486904 72.077386 
L 151.489039 69.941924 
L 151.491175 67.806462 
L 151.49331 65.671 
L 151.495446 63.535538 
L 151.497581 61.400076 
L 151.499717 59.264614 
L 151.501852 57.129151 
L 151.503988 54.993689 
L 151.506123 52.858227 
L 151.508259 50.722765 
L 151.510394 48.587303 
L 151.512529 46.451841 
L 151.514665 44.316379 
L 151.5168 42.180917 
L 151.518936 40.045455 
L 151.521071 37.909993 
L 151.523207 35.774531 
L 151.525342 33.639068 
L 151.527478 31.503606 
L 151.529613 29.368144 
L 151.531749 27.232682 
L 151.533884 25.09722 
L 151.53602 22.961758 
" clip-path="url(#pf51baa8dbc)" style="fill: none; stroke: #ff0000; stroke-linecap: square"/>
   </g>
   <g id="line2d_76">
    <path d="M 151.385549 180.987462 
L 152.204235 179.015165 
L 153.022921 177.042868 
L 153.841607 175.07057 
L 154.660293 173.098273 
L 155.478978 171.125976 
L 156.297664 169.153679 
L 157.11635 167.181381 
L 157.935036 165.209084 
L 158.753722 163.236787 
L 159.572408 161.26449 
L 160.391093 159.292192 
L 161.209779 157.319895 
L 162.028465 155.347598 
L 162.847151 153.375301 
L 163.665837 151.403003 
L 164.484523 149.430706 
L 165.303208 147.458409 
L 166.121894 145.486112 
L 166.94058 143.513814 
L 167.759266 141.541517 
L 168.577952 139.56922 
L 169.396637 137.596923 
L 170.215323 135.624625 
L 171.034009 133.652328 
L 171.852695 131.680031 
L 172.671381 129.707734 
L 173.490067 127.735437 
L 174.308752 125.763139 
L 175.127438 123.790842 
L 175.946124 121.818545 
L 176.76481 119.846248 
L 177.583496 117.87395 
L 178.402182 115.901653 
L 179.220867 113.929356 
L 180.039553 111.957059 
L 180.858239 109.984761 
L 181.676925 108.012464 
L 182.495611 106.040167 
L 183.314296 104.06787 
L 184.132982 102.095572 
L 184.951668 100.123275 
L 185.770354 98.150978 
L 186.58904 96.178681 
L 187.407726 94.206383 
L 188.226411 92.234086 
L 189.045097 90.261789 
L 189.863783 88.289492 
L 190.682469 86.317194 
L 191.501155 84.344897 
L 192.319841 82.3726 
L 193.138526 80.400303 
L 193.957212 78.428005 
L 194.775898 76.455708 
L 195.594584 74.483411 
L 196.41327 72.511114 
L 197.231955 70.538816 
L 198.050641 68.566519 
L 198.869327 66.594222 
L 199.688013 64.621925 
L 200.506699 62.649627 
L 201.325385 60.67733 
L 202.14407 58.705033 
L 202.962756 56.732736 
L 203.781442 54.760438 
L 204.600128 52.788141 
L 205.418814 50.815844 
L 206.2375 48.843547 
L 207.056185 46.87125 
L 207.874871 44.898952 
L 208.693557 42.926655 
L 209.512243 40.954358 
L 210.330929 38.982061 
L 211.149614 37.009763 
L 211.9683 35.037466 
" clip-path="url(#pf51baa8dbc)" style="fill: none; stroke: #ff0000; stroke-linecap: square"/>
   </g>
   <g id="line2d_77">
    <path d="M 151.391952 180.991746 
L 152.902707 179.482501 
L 154.413462 177.973255 
L 155.924218 176.46401 
L 157.434973 174.954765 
L 158.945728 173.445519 
L 160.456484 171.936274 
L 161.967239 170.427029 
L 163.477994 168.917784 
L 164.988749 167.408538 
L 166.499505 165.899293 
L 168.01026 164.390048 
L 169.521015 162.880802 
L 171.031771 161.371557 
L 172.542526 159.862312 
L 174.053281 158.353067 
L 175.564036 156.843821 
L 177.074792 155.334576 
L 178.585547 153.825331 
L 180.096302 152.316085 
L 181.607058 150.80684 
L 183.117813 149.297595 
L 184.628568 147.788349 
L 186.139323 146.279104 
L 187.650079 144.769859 
L 189.160834 143.260614 
L 190.671589 141.751368 
L 192.182345 140.242123 
L 193.6931 138.732878 
L 195.203855 137.223632 
L 196.714611 135.714387 
L 198.225366 134.205142 
L 199.736121 132.695897 
L 201.246876 131.186651 
L 202.757632 129.677406 
L 204.268387 128.168161 
L 205.779142 126.658915 
L 207.289898 125.14967 
L 208.800653 123.640425 
L 210.311408 122.13118 
L 211.822163 120.621934 
L 213.332919 119.112689 
L 214.843674 117.603444 
L 216.354429 116.094198 
L 217.865185 114.584953 
L 219.37594 113.075708 
L 220.886695 111.566462 
L 222.39745 110.057217 
L 223.908206 108.547972 
L 225.418961 107.038727 
L 226.929716 105.529481 
L 228.440472 104.020236 
L 229.951227 102.510991 
L 231.461982 101.001745 
L 232.972737 99.4925 
L 234.483493 97.983255 
L 235.994248 96.47401 
L 237.505003 94.964764 
L 239.015759 93.455519 
L 240.526514 91.946274 
L 242.037269 90.437028 
L 243.548025 88.927783 
L 245.05878 87.418538 
L 246.569535 85.909293 
L 248.08029 84.400047 
L 249.591046 82.890802 
L 251.101801 81.381557 
L 252.612556 79.872311 
L 254.123312 78.363066 
L 255.634067 76.853821 
L 257.144822 75.344576 
L 258.655577 73.83533 
L 260.166333 72.326085 
L 261.677088 70.81684 
L 263.187843 69.307594 
" clip-path="url(#pf51baa8dbc)" style="fill: none; stroke: #ff0000; stroke-linecap: square"/>
   </g>
   <g id="line2d_78">
    <path d="M 151.396229 180.998153 
L 153.369344 180.181439 
L 155.342459 179.364726 
L 157.315574 178.548013 
L 159.288689 177.7313 
L 161.261804 176.914587 
L 163.234919 176.097874 
L 165.208034 175.281161 
L 167.181149 174.464448 
L 169.154264 173.647735 
L 171.127379 172.831021 
L 173.100494 172.014308 
L 175.073608 171.197595 
L 177.046723 170.380882 
L 179.019838 169.564169 
L 180.992953 168.747456 
L 182.966068 167.930743 
L 184.939183 167.11403 
L 186.912298 166.297316 
L 188.885413 165.480603 
L 190.858528 164.66389 
L 192.831643 163.847177 
L 194.804758 163.030464 
L 196.777873 162.213751 
L 198.750988 161.397038 
L 200.724103 160.580325 
L 202.697218 159.763612 
L 204.670333 158.946898 
L 206.643448 158.130185 
L 208.616563 157.313472 
L 210.589677 156.496759 
L 212.562792 155.680046 
L 214.535907 154.863333 
L 216.509022 154.04662 
L 218.482137 153.229907 
L 220.455252 152.413193 
L 222.428367 151.59648 
L 224.401482 150.779767 
L 226.374597 149.963054 
L 228.347712 149.146341 
L 230.320827 148.329628 
L 232.293942 147.512915 
L 234.267057 146.696202 
L 236.240172 145.879489 
L 238.213287 145.062775 
L 240.186402 144.246062 
L 242.159517 143.429349 
L 244.132631 142.612636 
L 246.105746 141.795923 
L 248.078861 140.97921 
L 250.051976 140.162497 
L 252.025091 139.345784 
L 253.998206 138.52907 
L 255.971321 137.712357 
L 257.944436 136.895644 
L 259.917551 136.078931 
L 261.890666 135.262218 
L 263.863781 134.445505 
L 265.836896 133.628792 
L 267.810011 132.812079 
L 269.783126 131.995366 
L 271.756241 131.178652 
L 273.729356 130.361939 
L 275.702471 129.545226 
L 277.675586 128.728513 
L 279.6487 127.9118 
L 281.621815 127.095087 
L 283.59493 126.278374 
L 285.568045 125.461661 
L 287.54116 124.644947 
L 289.514275 123.828234 
L 291.48739 123.011521 
L 293.460505 122.194808 
L 295.43362 121.378095 
L 297.406735 120.561382 
" clip-path="url(#pf51baa8dbc)" style="fill: none; stroke: #ff0000; stroke-linecap: square"/>
   </g>
   <g id="line2d_79">
    <path d="M 151.397731 181.005708 
L 153.533194 181.005708 
L 155.668657 181.005708 
L 157.804121 181.005708 
L 159.939584 181.005708 
L 162.075047 181.005708 
L 164.21051 181.005708 
L 166.345973 181.005708 
L 168.481436 181.005708 
L 170.616899 181.005708 
L 172.752363 181.005708 
L 174.887826 181.005708 
L 177.023289 181.005708 
L 179.158752 181.005708 
L 181.294215 181.005708 
L 183.429678 181.005708 
L 185.565142 181.005708 
L 187.700605 181.005708 
L 189.836068 181.005708 
L 191.971531 181.005708 
L 194.106994 181.005708 
L 196.242457 181.005708 
L 198.377921 181.005708 
L 200.513384 181.005708 
L 202.648847 181.005708 
L 204.78431 181.005708 
L 206.919773 181.005708 
L 209.055236 181.005708 
L 211.190699 181.005708 
L 213.326163 181.005708 
L 215.461626 181.005708 
L 217.597089 181.005708 
L 219.732552 181.005708 
L 221.868015 181.005708 
L 224.003478 181.005708 
L 226.138942 181.005708 
L 228.274405 181.005708 
L 230.409868 181.005708 
L 232.545331 181.005708 
L 234.680794 181.005708 
L 236.816257 181.005708 
L 238.951721 181.005708 
L 241.087184 181.005708 
L 243.222647 181.005708 
L 245.35811 181.005708 
L 247.493573 181.005708 
L 249.629036 181.005708 
L 251.764499 181.005708 
L 253.899963 181.005708 
L 256.035426 181.005708 
L 258.170889 181.005708 
L 260.306352 181.005708 
L 262.441815 181.005708 
L 264.577278 181.005708 
L 266.712742 181.005708 
L 268.848205 181.005708 
L 270.983668 181.005708 
L 273.119131 181.005708 
L 275.254594 181.005708 
L 277.390057 181.005708 
L 279.52552 181.005708 
L 281.660984 181.005708 
L 283.796447 181.005708 
L 285.93191 181.005708 
L 288.067373 181.005708 
L 290.202836 181.005708 
L 292.338299 181.005708 
L 294.473763 181.005708 
L 296.609226 181.005708 
L 298.744689 181.005708 
L 300.880152 181.005708 
L 303.015615 181.005708 
L 305.151078 181.005708 
L 307.286542 181.005708 
L 309.422005 181.005708 
" clip-path="url(#pf51baa8dbc)" style="fill: none; stroke: #ff0000; stroke-linecap: square"/>
   </g>
   <g id="line2d_80">
    <path d="M 151.396229 181.013264 
L 153.369344 181.829977 
L 155.342459 182.64669 
L 157.315574 183.463403 
L 159.288689 184.280116 
L 161.261804 185.096829 
L 163.234919 185.913542 
L 165.208034 186.730255 
L 167.181149 187.546969 
L 169.154264 188.363682 
L 171.127379 189.180395 
L 173.100494 189.997108 
L 175.073608 190.813821 
L 177.046723 191.630534 
L 179.019838 192.447247 
L 180.992953 193.26396 
L 182.966068 194.080674 
L 184.939183 194.897387 
L 186.912298 195.7141 
L 188.885413 196.530813 
L 190.858528 197.347526 
L 192.831643 198.164239 
L 194.804758 198.980952 
L 196.777873 199.797665 
L 198.750988 200.614378 
L 200.724103 201.431092 
L 202.697218 202.247805 
L 204.670333 203.064518 
L 206.643448 203.881231 
L 208.616563 204.697944 
L 210.589677 205.514657 
L 212.562792 206.33137 
L 214.535907 207.148083 
L 216.509022 207.964797 
L 218.482137 208.78151 
L 220.455252 209.598223 
L 222.428367 210.414936 
L 224.401482 211.231649 
L 226.374597 212.048362 
L 228.347712 212.865075 
L 230.320827 213.681788 
L 232.293942 214.498501 
L 234.267057 215.315215 
L 236.240172 216.131928 
L 238.213287 216.948641 
L 240.186402 217.765354 
L 242.159517 218.582067 
L 244.132631 219.39878 
L 246.105746 220.215493 
L 248.078861 221.032206 
L 250.051976 221.84892 
L 252.025091 222.665633 
L 253.998206 223.482346 
L 255.971321 224.299059 
L 257.944436 225.115772 
L 259.917551 225.932485 
L 261.890666 226.749198 
L 263.863781 227.565911 
L 265.836896 228.382624 
L 267.810011 229.199338 
L 269.783126 230.016051 
L 271.756241 230.832764 
L 273.729356 231.649477 
L 275.702471 232.46619 
L 277.675586 233.282903 
L 279.6487 234.099616 
L 281.621815 234.916329 
L 283.59493 235.733043 
L 285.568045 236.549756 
L 287.54116 237.366469 
L 289.514275 238.183182 
L 291.48739 238.999895 
L 293.460505 239.816608 
L 295.43362 240.633321 
L 297.406735 241.450034 
" clip-path="url(#pf51baa8dbc)" style="fill: none; stroke: #ff0000; stroke-linecap: square"/>
   </g>
   <g id="line2d_81">
    <path d="M 151.391952 181.01967 
L 152.902707 182.528916 
L 154.413462 184.038161 
L 155.924218 185.547406 
L 157.434973 187.056652 
L 158.945728 188.565897 
L 160.456484 190.075142 
L 161.967239 191.584387 
L 163.477994 193.093633 
L 164.988749 194.602878 
L 166.499505 196.112123 
L 168.01026 197.621369 
L 169.521015 199.130614 
L 171.031771 200.639859 
L 172.542526 202.149104 
L 174.053281 203.65835 
L 175.564036 205.167595 
L 177.074792 206.67684 
L 178.585547 208.186086 
L 180.096302 209.695331 
L 181.607058 211.204576 
L 183.117813 212.713821 
L 184.628568 214.223067 
L 186.139323 215.732312 
L 187.650079 217.241557 
L 189.160834 218.750803 
L 190.671589 220.260048 
L 192.182345 221.769293 
L 193.6931 223.278539 
L 195.203855 224.787784 
L 196.714611 226.297029 
L 198.225366 227.806274 
L 199.736121 229.31552 
L 201.246876 230.824765 
L 202.757632 232.33401 
L 204.268387 233.843256 
L 205.779142 235.352501 
L 207.289898 236.861746 
L 208.800653 238.370991 
L 210.311408 239.880237 
L 211.822163 241.389482 
L 213.332919 242.898727 
L 214.843674 244.407973 
L 216.354429 245.917218 
L 217.865185 247.426463 
L 219.37594 248.935708 
L 220.886695 250.444954 
L 222.39745 251.954199 
L 223.908206 253.463444 
L 225.418961 254.97269 
L 226.929716 256.481935 
L 228.440472 257.99118 
L 229.951227 259.500425 
L 231.461982 261.009671 
L 232.972737 262.518916 
L 234.483493 264.028161 
L 235.994248 265.537407 
L 237.505003 267.046652 
L 239.015759 268.555897 
L 240.526514 270.065143 
L 242.037269 271.574388 
L 243.548025 273.083633 
L 245.05878 274.592878 
L 246.569535 276.102124 
L 248.08029 277.611369 
L 249.591046 279.120614 
L 251.101801 280.62986 
L 252.612556 282.139105 
L 254.123312 283.64835 
L 255.634067 285.157595 
L 257.144822 286.666841 
L 258.655577 288.176086 
L 260.166333 289.685331 
L 261.677088 291.194577 
L 263.187843 292.703822 
" clip-path="url(#pf51baa8dbc)" style="fill: none; stroke: #ff0000; stroke-linecap: square"/>
   </g>
   <g id="line2d_82">
    <path d="M 151.385549 181.023954 
L 152.204235 182.996251 
L 153.022921 184.968549 
L 153.841607 186.940846 
L 154.660293 188.913143 
L 155.478978 190.88544 
L 156.297664 192.857738 
L 157.11635 194.830035 
L 157.935036 196.802332 
L 158.753722 198.774629 
L 159.572408 200.746927 
L 160.391093 202.719224 
L 161.209779 204.691521 
L 162.028465 206.663818 
L 162.847151 208.636116 
L 163.665837 210.608413 
L 164.484523 212.58071 
L 165.303208 214.553007 
L 166.121894 216.525305 
L 166.94058 218.497602 
L 167.759266 220.469899 
L 168.577952 222.442196 
L 169.396637 224.414494 
L 170.215323 226.386791 
L 171.034009 228.359088 
L 171.852695 230.331385 
L 172.671381 232.303682 
L 173.490067 234.27598 
L 174.308752 236.248277 
L 175.127438 238.220574 
L 175.946124 240.192871 
L 176.76481 242.165169 
L 177.583496 244.137466 
L 178.402182 246.109763 
L 179.220867 248.08206 
L 180.039553 250.054358 
L 180.858239 252.026655 
L 181.676925 253.998952 
L 182.495611 255.971249 
L 183.314296 257.943547 
L 184.132982 259.915844 
L 184.951668 261.888141 
L 185.770354 263.860438 
L 186.58904 265.832736 
L 187.407726 267.805033 
L 188.226411 269.77733 
L 189.045097 271.749627 
L 189.863783 273.721925 
L 190.682469 275.694222 
L 191.501155 277.666519 
L 192.319841 279.638816 
L 193.138526 281.611114 
L 193.957212 283.583411 
L 194.775898 285.555708 
L 195.594584 287.528005 
L 196.41327 289.500303 
L 197.231955 291.4726 
L 198.050641 293.444897 
L 198.869327 295.417194 
L 199.688013 297.389492 
L 200.506699 299.361789 
L 201.325385 301.334086 
L 202.14407 303.306383 
L 202.962756 305.278681 
L 203.781442 307.250978 
L 204.600128 309.223275 
L 205.418814 311.195572 
L 206.2375 313.167869 
L 207.056185 315.140167 
L 207.874871 317.112464 
L 208.693557 319.084761 
L 209.512243 321.057058 
L 210.330929 323.029356 
L 211.149614 325.001653 
L 211.9683 326.97395 
" clip-path="url(#pf51baa8dbc)" style="fill: none; stroke: #ff0000; stroke-linecap: square"/>
   </g>
   <g id="line2d_83">
    <path d="M 151.377995 181.025464 
L 151.380131 183.160926 
L 151.382266 185.296388 
L 151.384402 187.43185 
L 151.386537 189.567312 
L 151.388673 191.702774 
L 151.390808 193.838236 
L 151.392944 195.973698 
L 151.395079 198.10916 
L 151.397214 200.244622 
L 151.39935 202.380085 
L 151.401485 204.515547 
L 151.403621 206.651009 
L 151.405756 208.786471 
L 151.407892 210.921933 
L 151.410027 213.057395 
L 151.412163 215.192857 
L 151.414298 217.328319 
L 151.416434 219.463781 
L 151.418569 221.599243 
L 151.420705 223.734705 
L 151.42284 225.870167 
L 151.424975 228.00563 
L 151.427111 230.141092 
L 151.429246 232.276554 
L 151.431382 234.412016 
L 151.433517 236.547478 
L 151.435653 238.68294 
L 151.437788 240.818402 
L 151.439924 242.953864 
L 151.442059 245.089326 
L 151.444195 247.224788 
L 151.44633 249.36025 
L 151.448466 251.495713 
L 151.450601 253.631175 
L 151.452737 255.766637 
L 151.454872 257.902099 
L 151.457007 260.037561 
L 151.459143 262.173023 
L 151.461278 264.308485 
L 151.463414 266.443947 
L 151.465549 268.579409 
L 151.467685 270.714871 
L 151.46982 272.850333 
L 151.471956 274.985796 
L 151.474091 277.121258 
L 151.476227 279.25672 
L 151.478362 281.392182 
L 151.480498 283.527644 
L 151.482633 285.663106 
L 151.484768 287.798568 
L 151.486904 289.93403 
L 151.489039 292.069492 
L 151.491175 294.204954 
L 151.49331 296.340416 
L 151.495446 298.475879 
L 151.497581 300.611341 
L 151.499717 302.746803 
L 151.501852 304.882265 
L 151.503988 307.017727 
L 151.506123 309.153189 
L 151.508259 311.288651 
L 151.510394 313.424113 
L 151.512529 315.559575 
L 151.514665 317.695037 
L 151.5168 319.830499 
L 151.518936 321.965962 
L 151.521071 324.101424 
L 151.523207 326.236886 
L 151.525342 328.372348 
L 151.527478 330.50781 
L 151.529613 332.643272 
L 151.531749 334.778734 
L 151.533884 336.914196 
L 151.53602 339.049658 
" clip-path="url(#pf51baa8dbc)" style="fill: none; stroke: #ff0000; stroke-linecap: square"/>
   </g>
   <g id="line2d_84">
    <path d="M 151.377995 180.985953 
L 151.378833 180.985971 
L 151.37967 180.986025 
L 151.380503 180.986115 
L 151.381332 180.98624 
L 151.382154 180.9864 
L 151.38297 180.986594 
L 151.383776 180.986823 
L 151.384571 180.987086 
L 151.385355 180.987383 
L 151.386126 180.987712 
L 151.386882 180.988074 
L 151.387622 180.988468 
L 151.388344 180.988892 
L 151.389048 180.989347 
L 151.389732 180.989832 
L 151.390395 180.990345 
L 151.391036 180.990885 
L 151.391652 180.991453 
L 151.392245 180.992045 
L 151.392811 180.992663 
L 151.393351 180.993304 
L 151.393864 180.993967 
L 151.394347 180.994652 
L 151.394802 180.995356 
L 151.395226 180.996079 
L 151.395618 180.996819 
L 151.39598 180.997576 
L 151.396308 180.998347 
L 151.396604 180.999131 
L 151.396866 180.999927 
L 151.397094 181.000733 
L 151.397288 181.001549 
L 151.397447 181.002372 
L 151.397571 181.0032 
L 151.39766 181.004034 
L 151.397713 181.00487 
L 151.397731 181.005708 
L 151.397713 181.006546 
L 151.39766 181.007382 
L 151.397571 181.008216 
L 151.397447 181.009045 
L 151.397288 181.009868 
L 151.397094 181.010683 
L 151.396866 181.011489 
L 151.396604 181.012285 
L 151.396308 181.01307 
L 151.39598 181.013841 
L 151.395618 181.014597 
L 151.395226 181.015337 
L 151.394802 181.01606 
L 151.394347 181.016765 
L 151.393864 181.017449 
L 151.393351 181.018112 
L 151.392811 181.018753 
L 151.392245 181.019371 
L 151.391652 181.019964 
L 151.391036 181.020531 
L 151.390395 181.021072 
L 151.389732 181.021585 
L 151.389048 181.022069 
L 151.388344 181.022524 
L 151.387622 181.022948 
L 151.386882 181.023342 
L 151.386126 181.023704 
L 151.385355 181.024033 
L 151.384571 181.02433 
L 151.383776 181.024593 
L 151.38297 181.024822 
L 151.382154 181.025017 
L 151.381332 181.025176 
L 151.380503 181.025301 
L 151.37967 181.025391 
L 151.378833 181.025445 
L 151.377995 181.025464 
" clip-path="url(#pf51baa8dbc)" style="fill: none; stroke: #008000; stroke-linecap: square"/>
   </g>
   <g id="line2d_85">
    <path d="M 151.397748 161.232928 
L 152.236377 161.25156 
L 153.073461 161.305745 
L 153.907494 161.395386 
L 154.736973 161.52032 
L 155.560408 161.680324 
L 156.376315 161.875109 
L 157.183226 162.104325 
L 157.979689 162.367559 
L 158.76427 162.664338 
L 159.535558 162.994127 
L 160.292164 163.356333 
L 161.032726 163.750303 
L 161.755912 164.17533 
L 162.46042 164.630647 
L 163.144983 165.115436 
L 163.808367 165.628823 
L 164.449379 166.169886 
L 165.066866 166.73765 
L 165.659716 167.331093 
L 166.226862 167.949147 
L 166.767283 168.5907 
L 167.280007 169.254597 
L 167.764111 169.939644 
L 168.218724 170.644607 
L 168.643027 171.368218 
L 169.036256 172.109174 
L 169.397705 172.866141 
L 169.726723 173.637758 
L 170.022717 174.422636 
L 170.285154 175.219362 
L 170.513563 176.026502 
L 170.707532 176.842603 
L 170.866713 177.666197 
L 170.990818 178.495802 
L 171.079624 179.329923 
L 171.132972 180.167061 
L 171.150765 181.005708 
L 171.132972 181.844355 
L 171.079624 182.681493 
L 170.990818 183.515615 
L 170.866713 184.345219 
L 170.707532 185.168813 
L 170.513563 185.984914 
L 170.285154 186.792054 
L 170.022717 187.58878 
L 169.726723 188.373658 
L 169.397705 189.145275 
L 169.036256 189.902243 
L 168.643027 190.643199 
L 168.218724 191.366809 
L 167.764111 192.071772 
L 167.280007 192.756819 
L 166.767283 193.420716 
L 166.226862 194.062269 
L 165.659716 194.680324 
L 165.066866 195.273767 
L 164.449379 195.84153 
L 163.808367 196.382593 
L 163.144983 196.895981 
L 162.46042 197.380769 
L 161.755912 197.836087 
L 161.032726 198.261113 
L 160.292164 198.655084 
L 159.535558 199.017289 
L 158.76427 199.347078 
L 157.979689 199.643857 
L 157.183226 199.907091 
L 156.376315 200.136307 
L 155.560408 200.331092 
L 154.736973 200.491096 
L 153.907494 200.616031 
L 153.073461 200.705671 
L 152.236377 200.759856 
L 151.397748 200.778488 
" clip-path="url(#pf51baa8dbc)" style="fill: none; stroke: #008000; stroke-linecap: square"/>
   </g>
   <g id="line2d_86">
    <path d="M 151.417501 141.479904 
L 153.093921 141.517149 
L 154.767253 141.625465 
L 156.434484 141.804656 
L 158.092615 142.0544 
L 159.738661 142.374248 
L 161.36966 142.763624 
L 162.982676 143.221827 
L 164.574806 143.748032 
L 166.143185 144.341293 
L 167.68499 145.000541 
L 169.197446 145.724591 
L 170.677831 146.512139 
L 172.12348 147.361767 
L 173.531793 148.271947 
L 174.900233 149.24104 
L 176.226339 150.267302 
L 177.507723 151.348887 
L 178.742079 152.483847 
L 179.927187 153.67014 
L 181.060912 154.905631 
L 182.141215 156.188096 
L 183.16615 157.515227 
L 184.133875 158.884636 
L 185.042646 160.293858 
L 185.890828 161.740356 
L 186.676895 163.221528 
L 187.399431 164.734707 
L 188.057138 166.27717 
L 188.64883 167.846142 
L 189.173443 169.438797 
L 189.630032 171.052271 
L 190.017777 172.683658 
L 190.335978 174.330023 
L 190.584064 175.988403 
L 190.761588 177.655813 
L 190.868231 179.329252 
L 190.903799 181.005708 
L 190.868231 182.682164 
L 190.761588 184.355603 
L 190.584064 186.023013 
L 190.335978 187.681393 
L 190.017777 189.327758 
L 189.630032 190.959146 
L 189.173443 192.572619 
L 188.64883 194.165275 
L 188.057138 195.734246 
L 187.399431 197.276709 
L 186.676895 198.789889 
L 185.890828 200.27106 
L 185.042646 201.717559 
L 184.133875 203.12678 
L 183.16615 204.496189 
L 182.141215 205.82332 
L 181.060912 207.105786 
L 179.927187 208.341276 
L 178.742079 209.527569 
L 177.507723 210.66253 
L 176.226339 211.744114 
L 174.900233 212.770377 
L 173.531793 213.73947 
L 172.12348 214.649649 
L 170.677831 215.499278 
L 169.197446 216.286825 
L 167.68499 217.010875 
L 166.143185 217.670123 
L 164.574806 218.263384 
L 162.982676 218.789589 
L 161.36966 219.247792 
L 159.738661 219.637168 
L 158.092615 219.957016 
L 156.434484 220.20676 
L 154.767253 220.385951 
L 153.093921 220.494267 
L 151.417501 220.531512 
" clip-path="url(#pf51baa8dbc)" style="fill: none; stroke: #008000; stroke-linecap: square"/>
   </g>
   <g id="line2d_87">
    <path d="M 151.437254 121.72688 
L 153.951465 121.782738 
L 156.461044 121.945185 
L 158.961475 122.213927 
L 161.448257 122.588481 
L 163.916915 123.068173 
L 166.363006 123.652139 
L 168.782126 124.339329 
L 171.169924 125.128505 
L 173.5221 126.018248 
L 175.834422 127.006956 
L 178.102728 128.092849 
L 180.322935 129.273974 
L 182.491048 130.548204 
L 184.603165 131.913246 
L 186.655483 133.366644 
L 188.64431 134.905781 
L 190.566067 136.527887 
L 192.417293 138.230044 
L 194.194658 140.009187 
L 195.894962 141.862115 
L 197.515146 143.785492 
L 199.052294 145.775857 
L 200.503638 147.829628 
L 201.866567 149.943108 
L 203.138629 152.112494 
L 204.317533 154.333882 
L 205.401157 156.603272 
L 206.387552 158.916582 
L 207.274942 161.269647 
L 208.061731 163.658232 
L 208.746501 166.078039 
L 209.328021 168.524713 
L 209.805244 170.993849 
L 210.177311 173.481004 
L 210.443553 175.981702 
L 210.603489 178.491443 
L 210.656834 181.005708 
L 210.603489 183.519973 
L 210.443553 186.029714 
L 210.177311 188.530412 
L 209.805244 191.017567 
L 209.328021 193.486704 
L 208.746501 195.933377 
L 208.061731 198.353184 
L 207.274942 200.741769 
L 206.387552 203.094834 
L 205.401157 205.408144 
L 204.317533 207.677534 
L 203.138629 209.898922 
L 201.866567 212.068308 
L 200.503638 214.181788 
L 199.052294 216.235559 
L 197.515146 218.225924 
L 195.894962 220.149302 
L 194.194658 222.002229 
L 192.417293 223.781372 
L 190.566067 225.483529 
L 188.64431 227.105635 
L 186.655483 228.644773 
L 184.603165 230.09817 
L 182.491048 231.463212 
L 180.322935 232.737442 
L 178.102728 233.918567 
L 175.834422 235.00446 
L 173.5221 235.993168 
L 171.169924 236.882911 
L 168.782126 237.672087 
L 166.363006 238.359277 
L 163.916915 238.943244 
L 161.448257 239.422935 
L 158.961475 239.797489 
L 156.461044 240.066232 
L 153.951465 240.228678 
L 151.437254 240.284537 
" clip-path="url(#pf51baa8dbc)" style="fill: none; stroke: #008000; stroke-linecap: square"/>
   </g>
   <g id="line2d_88">
    <path d="M 151.457007 101.973855 
L 154.809009 102.048327 
L 158.154836 102.264904 
L 161.488466 102.623197 
L 164.803899 103.122561 
L 168.095168 103.762097 
L 171.356351 104.540654 
L 174.581577 105.456831 
L 177.765041 106.508978 
L 180.901015 107.695203 
L 183.983854 109.01337 
L 187.00801 110.461108 
L 189.96804 112.035809 
L 192.858616 113.734641 
L 195.674537 115.554546 
L 198.410734 117.492248 
L 201.062282 119.544259 
L 203.62441 121.706888 
L 206.092506 123.976241 
L 208.462129 126.348234 
L 210.729012 128.818598 
L 212.889078 131.382888 
L 214.938437 134.036487 
L 216.873402 136.77462 
L 218.690489 139.592359 
L 220.38643 142.484633 
L 221.958171 145.446236 
L 223.402883 148.471838 
L 224.717967 151.555994 
L 225.901055 154.693152 
L 226.950019 157.877667 
L 227.86297 161.103808 
L 228.638265 164.365767 
L 229.27451 167.657675 
L 229.770558 170.973606 
L 230.125517 174.307592 
L 230.338748 177.653634 
L 230.409868 181.005708 
L 230.338748 184.357783 
L 230.125517 187.703824 
L 229.770558 191.037811 
L 229.27451 194.353742 
L 228.638265 197.645649 
L 227.86297 200.907608 
L 226.950019 204.133749 
L 225.901055 207.318264 
L 224.717967 210.455423 
L 223.402883 213.539578 
L 221.958171 216.56518 
L 220.38643 219.526783 
L 218.690489 222.419057 
L 216.873402 225.236796 
L 214.938437 227.974929 
L 212.889078 230.628529 
L 210.729012 233.192818 
L 208.462129 235.663182 
L 206.092506 238.035175 
L 203.62441 240.304528 
L 201.062282 242.467157 
L 198.410734 244.519169 
L 195.674537 246.45687 
L 192.858616 248.276775 
L 189.96804 249.975607 
L 187.00801 251.550308 
L 183.983854 252.998046 
L 180.901015 254.316213 
L 177.765041 255.502438 
L 174.581577 256.554586 
L 171.356351 257.470762 
L 168.095168 258.249319 
L 164.803899 258.888855 
L 161.488466 259.388219 
L 158.154836 259.746512 
L 154.809009 259.963089 
L 151.457007 260.037561 
" clip-path="url(#pf51baa8dbc)" style="fill: none; stroke: #008000; stroke-linecap: square"/>
   </g>
   <g id="line2d_89">
    <path d="M 151.47676 82.220831 
L 155.666553 82.313916 
L 159.848627 82.584624 
L 164.015456 83.032468 
L 168.159541 83.656641 
L 172.273422 84.456021 
L 176.349696 85.429169 
L 180.381027 86.574332 
L 184.360159 87.889451 
L 188.27993 89.372158 
L 192.133286 91.019785 
L 195.913292 92.829366 
L 199.613144 94.797645 
L 203.226184 96.921078 
L 206.745909 99.195845 
L 210.165984 101.617852 
L 213.480254 104.182738 
L 216.682754 106.885889 
L 219.76772 109.722438 
L 222.7296 112.687281 
L 225.563063 115.775082 
L 228.263009 118.980284 
L 230.82458 122.297117 
L 233.243165 125.719612 
L 235.514411 129.24161 
L 237.634231 132.856771 
L 239.598809 136.55859 
L 241.404609 140.340404 
L 243.048382 144.195405 
L 244.527168 148.116658 
L 245.838307 152.097103 
L 246.979439 156.129576 
L 247.94851 160.206822 
L 248.743775 164.3215 
L 249.363804 168.466207 
L 249.807481 172.633482 
L 250.074007 176.815824 
L 250.162902 181.005708 
L 250.074007 185.195592 
L 249.807481 189.377935 
L 249.363804 193.545209 
L 248.743775 197.689916 
L 247.94851 201.804594 
L 246.979439 205.88184 
L 245.838307 209.914314 
L 244.527168 213.894759 
L 243.048382 217.816011 
L 241.404609 221.671013 
L 239.598809 225.452826 
L 237.634231 229.154645 
L 235.514411 232.769806 
L 233.243165 236.291804 
L 230.82458 239.714299 
L 228.263009 243.031133 
L 225.563063 246.236334 
L 222.7296 249.324135 
L 219.76772 252.288978 
L 216.682754 255.125528 
L 213.480254 257.828678 
L 210.165984 260.393565 
L 206.745909 262.815571 
L 203.226184 265.090338 
L 199.613144 267.213772 
L 195.913292 269.18205 
L 192.133286 270.991631 
L 188.27993 272.639258 
L 184.360159 274.121965 
L 180.381027 275.437084 
L 176.349696 276.582247 
L 172.273422 277.555395 
L 168.159541 278.354775 
L 164.015456 278.978948 
L 159.848627 279.426792 
L 155.666553 279.6975 
L 151.47676 279.790585 
" clip-path="url(#pf51baa8dbc)" style="fill: none; stroke: #008000; stroke-linecap: square"/>
   </g>
   <g id="line2d_90">
    <path d="M 151.496513 62.467807 
L 156.524097 62.579505 
L 161.542419 62.904344 
L 166.542447 63.441739 
L 171.515182 64.190722 
L 176.451676 65.149946 
L 181.343042 66.317684 
L 186.180477 67.691834 
L 190.955276 69.269924 
L 195.658845 71.049113 
L 200.282718 73.0262 
L 204.818574 75.197625 
L 209.258249 77.55948 
L 213.593752 80.107516 
L 217.817281 82.837145 
L 221.921235 85.743456 
L 225.898226 88.821217 
L 229.741098 92.064889 
L 233.442933 95.468635 
L 236.997071 99.026328 
L 240.397113 102.731566 
L 243.636941 106.57768 
L 246.710724 110.557747 
L 249.612929 114.664604 
L 252.338333 118.890861 
L 254.882032 123.22891 
L 257.239447 127.670944 
L 259.406335 132.208969 
L 261.378796 136.834817 
L 263.153281 141.540163 
L 264.726595 146.316538 
L 266.095908 151.155345 
L 267.258754 156.047876 
L 268.213041 160.985326 
L 268.957051 165.958808 
L 269.489445 170.959371 
L 269.809266 175.978015 
L 269.915936 181.005708 
L 269.809266 186.033401 
L 269.489445 191.052045 
L 268.957051 196.052608 
L 268.213041 201.02609 
L 267.258754 205.96354 
L 266.095908 210.856071 
L 264.726595 215.694879 
L 263.153281 220.471253 
L 261.378796 225.176599 
L 259.406335 229.802447 
L 257.239447 234.340472 
L 254.882032 238.782506 
L 252.338333 243.120556 
L 249.612929 247.346812 
L 246.710724 251.45367 
L 243.636941 255.433737 
L 240.397113 259.27985 
L 236.997071 262.985088 
L 233.442933 266.542781 
L 229.741098 269.946527 
L 225.898226 273.190199 
L 221.921235 276.267961 
L 217.817281 279.174271 
L 213.593752 281.903901 
L 209.258249 284.451936 
L 204.818574 286.813792 
L 200.282718 288.985217 
L 195.658845 290.962303 
L 190.955276 292.741492 
L 186.180477 294.319582 
L 181.343042 295.693733 
L 176.451676 296.861471 
L 171.515182 297.820694 
L 166.542447 298.569678 
L 161.542419 299.107072 
L 156.524097 299.431911 
L 151.496513 299.54361 
" clip-path="url(#pf51baa8dbc)" style="fill: none; stroke: #008000; stroke-linecap: square"/>
   </g>
   <g id="line2d_91">
    <path d="M 151.516267 42.714782 
L 157.381641 42.845094 
L 163.23621 43.224064 
L 169.069438 43.851009 
L 174.870824 44.724802 
L 180.629929 45.84387 
L 186.336387 47.206199 
L 191.979928 48.809336 
L 197.550394 50.650397 
L 203.03776 52.726069 
L 208.43215 55.032614 
L 213.723856 57.565883 
L 218.903353 60.321316 
L 223.96132 63.293953 
L 228.888653 66.478445 
L 233.676485 69.86906 
L 238.316198 73.459696 
L 242.799441 77.24389 
L 247.118147 81.214832 
L 251.264542 85.365376 
L 255.231163 89.68805 
L 259.010873 94.175075 
L 262.596867 98.818377 
L 265.982692 103.609596 
L 269.162255 108.540111 
L 272.129833 113.601048 
L 274.880085 118.783298 
L 277.408061 124.077535 
L 279.709211 129.474229 
L 281.779394 134.963668 
L 283.614883 140.535973 
L 285.212377 146.181114 
L 286.568998 151.888931 
L 287.682306 157.649152 
L 288.550297 163.451409 
L 289.171409 169.285261 
L 289.544524 175.140206 
L 289.66897 181.005708 
L 289.544524 186.87121 
L 289.171409 192.726156 
L 288.550297 198.560007 
L 287.682306 204.362264 
L 286.568998 210.122485 
L 285.212377 215.830303 
L 283.614883 221.475443 
L 281.779394 227.047748 
L 279.709211 232.537187 
L 277.408061 237.933881 
L 274.880085 243.228118 
L 272.129833 248.410368 
L 269.162255 253.471305 
L 265.982692 258.40182 
L 262.596867 263.19304 
L 259.010873 267.836341 
L 255.231163 272.323366 
L 251.264542 276.646041 
L 247.118147 280.796584 
L 242.799441 284.767526 
L 238.316198 288.551721 
L 233.676485 292.142357 
L 228.888653 295.532972 
L 223.96132 298.717463 
L 218.903353 301.690101 
L 213.723856 304.445533 
L 208.43215 306.978802 
L 203.03776 309.285348 
L 197.550394 311.361019 
L 191.979928 313.20208 
L 186.336387 314.805218 
L 180.629929 316.167546 
L 174.870824 317.286614 
L 169.069438 318.160407 
L 163.23621 318.787353 
L 157.381641 319.166322 
L 151.516267 319.296634 
" clip-path="url(#pf51baa8dbc)" style="fill: none; stroke: #008000; stroke-linecap: square"/>
   </g>
   <g id="line2d_92">
    <path d="M 151.53602 22.961758 
L 158.239185 23.110683 
L 164.930002 23.543783 
L 171.596428 24.26028 
L 178.226466 25.258882 
L 184.808183 26.537794 
L 191.329732 28.094713 
L 197.779378 29.926838 
L 204.145511 32.03087 
L 210.416675 34.403024 
L 216.581583 37.039029 
L 222.629138 39.934141 
L 228.548458 43.083151 
L 234.328888 46.48039 
L 239.960026 50.119744 
L 245.431735 53.994664 
L 250.734169 58.098174 
L 255.857785 62.422891 
L 260.79336 66.961029 
L 265.532013 71.704423 
L 270.065213 76.644534 
L 274.384804 81.772471 
L 278.48301 87.079006 
L 282.352456 92.554588 
L 285.986177 98.189362 
L 289.377634 103.973187 
L 292.520723 109.895653 
L 295.409787 115.9461 
L 298.039625 122.113641 
L 300.405506 128.387174 
L 302.503172 134.755408 
L 304.328845 141.206882 
L 305.879242 147.729986 
L 307.151572 154.312978 
L 308.143544 160.944011 
L 308.853374 167.61115 
L 309.279783 174.302397 
L 309.422005 181.005708 
L 309.279783 187.709019 
L 308.853374 194.400266 
L 308.143544 201.067405 
L 307.151572 207.698438 
L 305.879242 214.281431 
L 304.328845 220.804534 
L 302.503172 227.256008 
L 300.405506 233.624243 
L 298.039625 239.897775 
L 295.409787 246.065316 
L 292.520723 252.115764 
L 289.377634 258.038229 
L 285.986177 263.822054 
L 282.352456 269.456828 
L 278.48301 274.93241 
L 274.384804 280.238945 
L 270.065213 285.366882 
L 265.532013 290.306993 
L 260.79336 295.050387 
L 255.857785 299.588526 
L 250.734169 303.913242 
L 245.431735 308.016753 
L 239.960026 311.891672 
L 234.328888 315.531026 
L 228.548458 318.928265 
L 222.629138 322.077275 
L 216.581583 324.972388 
L 210.416675 327.608393 
L 204.145511 329.980546 
L 197.779378 332.084578 
L 191.329732 333.916703 
L 184.808183 335.473622 
L 178.226466 336.752534 
L 171.596428 337.751136 
L 164.930002 338.467633 
L 158.239185 338.900733 
L 151.53602 339.049658 
" clip-path="url(#pf51baa8dbc)" style="fill: none; stroke: #008000; stroke-linecap: square"/>
   </g>
   <g id="patch_3">
    <path d="M 151.377976 345.371416 
L 151.377976 16.64 
" style="fill: none; stroke: #000000; stroke-width: 0.8; stroke-linejoin: miter; stroke-linecap: square"/>
   </g>
   <g id="patch_4">
    <path d="M 148.217115 181.005708 
L 312.582885 181.005708 
" style="fill: none; stroke: #000000; stroke-width: 0.8; stroke-linejoin: miter; stroke-linecap: square"/>
   </g>
  </g>
 </g>
 <defs>
  <clipPath id="pf51baa8dbc">
   <rect x="148.217115" y="16.64" width="164.36577" height="328.731416"/>
  </clipPath>
 </defs>
</svg>
