<?xml version="1.0" encoding="utf-8" standalone="no"?>
<!DOCTYPE svg PUBLIC "-//W3C//DTD SVG 1.1//EN"
  "http://www.w3.org/Graphics/SVG/1.1/DTD/svg11.dtd">
<svg xmlns:xlink="http://www.w3.org/1999/xlink" width="460.8pt" height="345.6pt" viewBox="0 0 460.8 345.6" xmlns="http://www.w3.org/2000/svg" version="1.1">
 <metadata>
  <rdf:RDF xmlns:dc="http://purl.org/dc/elements/1.1/" xmlns:cc="http://creativecommons.org/ns#" xmlns:rdf="http://www.w3.org/1999/02/22-rdf-syntax-ns#">
   <cc:Work>
    <dc:type rdf:resource="http://purl.org/dc/dcmitype/StillImage"/>
    <dc:date>2022-05-16T19:35:02.637562</dc:date>
    <dc:format>image/svg+xml</dc:format>
    <dc:creator>
     <cc:Agent>
      <dc:title>Matplotlib v3.5.1, https://matplotlib.org/</dc:title>
     </cc:Agent>
    </dc:creator>
   </cc:Work>
  </rdf:RDF>
 </metadata>
 <defs>
  <style type="text/css">*{stroke-linejoin: round; stroke-linecap: butt}</style>
 </defs>
 <g id="figure_1">
  <g id="patch_1">
   <path d="M 0 345.6 
L 460.8 345.6 
L 460.8 0 
L 0 0 
z
" style="fill: #ffffff"/>
  </g>
  <g id="axes_1">
   <g id="patch_2">
    <path d="M 162.339342 345.6 
L 298.460658 345.6 
L 298.460658 0 
L 162.339342 0 
z
" style="fill: #ffffff"/>
   </g>
   <g id="matplotlib.axis_1"/>
   <g id="matplotlib.axis_2"/>
   <g id="patch_3">
    <path d="M 180.463825 24.683831 
Q 194.56216 65.507654 207.930579 104.217897 
" clip-path="url(#pa68375aeb4)" style="fill: none; stroke: #00ff00; stroke-width: 2; stroke-linecap: round"/>
    <path d="M 209.392404 93.133535 
L 207.930579 104.217897 
L 199.940185 96.397819 
L 209.392404 93.133535 
z
" clip-path="url(#pa68375aeb4)" style="fill: #00ff00; stroke: #00ff00; stroke-width: 2; stroke-linecap: round"/>
   </g>
   <g id="patch_4">
    <path d="M 214.730087 123.855745 
Q 231.565125 172.321149 247.666444 218.674291 
" clip-path="url(#pa68375aeb4)" style="fill: none; stroke: #00ff00; stroke-width: 2; stroke-linecap: round"/>
    <path d="M 249.108313 207.587316 
L 247.666444 218.674291 
L 239.661985 210.868611 
L 249.108313 207.587316 
z
" clip-path="url(#pa68375aeb4)" style="fill: #00ff00; stroke: #00ff00; stroke-width: 2; stroke-linecap: round"/>
   </g>
   <g id="patch_5">
    <path d="M 254.512351 238.295995 
Q 269.006488 279.613495 282.760436 318.82099 
" clip-path="url(#pa68375aeb4)" style="fill: none; stroke: #000000; stroke-width: 2; stroke-linecap: round"/>
    <path d="M 284.168332 307.729649 
L 282.760436 318.82099 
L 274.732101 311.039869 
L 284.168332 307.729649 
z
" clip-path="url(#pa68375aeb4)" style="stroke: #000000; stroke-width: 2; stroke-linecap: round"/>
   </g>
   <g id="patch_6">
    <path d="M 177.436916 25.191778 
C 179.896094 25.191778 182.254882 24.214736 183.993784 22.475834 
C 185.732686 20.736932 186.709728 18.378144 186.709728 15.918966 
C 186.709728 13.459787 185.732686 11.100999 183.993784 9.362098 
C 182.254882 7.623196 179.896094 6.646154 177.436916 6.646154 
C 174.977737 6.646154 172.618949 7.623196 170.880047 9.362098 
C 169.141146 11.100999 168.164104 13.459787 168.164104 15.918966 
C 168.164104 18.378144 169.141146 20.736932 170.880047 22.475834 
C 172.618949 24.214736 174.977737 25.191778 177.436916 25.191778 
z
" style="fill: #fec7b8; stroke: #000000; stroke-linejoin: miter"/>
   </g>
   <g id="patch_7">
    <path d="M 211.687404 124.369155 
C 214.146582 124.369155 216.50537 123.392113 218.244272 121.653211 
C 219.983174 119.914309 220.960216 117.555521 220.960216 115.096343 
C 220.960216 112.637164 219.983174 110.278376 218.244272 108.539474 
C 216.50537 106.800572 214.146582 105.82353 211.687404 105.82353 
C 209.228225 105.82353 206.869437 106.800572 205.130536 108.539474 
C 203.391634 110.278376 202.414592 112.637164 202.414592 115.096343 
C 202.414592 117.555521 203.391634 119.914309 205.130536 121.653211 
C 206.869437 123.392113 209.228225 124.369155 211.687404 124.369155 
z
" style="fill: #fec7b8; stroke: #000000; stroke-linejoin: miter"/>
   </g>
   <g id="patch_8">
    <path d="M 251.442847 238.818768 
C 253.902025 238.818768 256.260813 237.841726 257.999715 236.102824 
C 259.738617 234.363922 260.715659 232.005134 260.715659 229.545956 
C 260.715659 227.086777 259.738617 224.727989 257.999715 222.989088 
C 256.260813 221.250186 253.902025 220.273144 251.442847 220.273144 
C 248.983668 220.273144 246.62488 221.250186 244.885978 222.989088 
C 243.147077 224.727989 242.170035 227.086777 242.170035 229.545956 
C 242.170035 232.005134 243.147077 234.363922 244.885978 236.102824 
C 246.62488 237.841726 248.983668 238.818768 251.442847 238.818768 
z
" style="fill: #fec7b8; stroke: #000000; stroke-linejoin: miter"/>
   </g>
   <g id="patch_9">
    <path d="M 286.570129 338.953846 
C 289.029307 338.953846 291.388095 337.976804 293.126997 336.237902 
C 294.865899 334.499001 295.842941 332.140213 295.842941 329.681034 
C 295.842941 327.221856 294.865899 324.863068 293.126997 323.124166 
C 291.388095 321.385264 289.029307 320.408222 286.570129 320.408222 
C 284.11095 320.408222 281.752162 321.385264 280.01326 323.124166 
C 278.274359 324.863068 277.297317 327.221856 277.297317 329.681034 
C 277.297317 332.140213 278.274359 334.499001 280.01326 336.237902 
C 281.752162 337.976804 284.11095 338.953846 286.570129 338.953846 
z
" style="fill: #fec7b8; stroke: #000000; stroke-linejoin: miter"/>
   </g>
   <g id="patch_10">
    <path d="M 177.436916 40.878679 
C 180.746612 40.878679 183.921198 39.563723 186.261507 37.223414 
C 188.601816 34.883105 189.916772 31.708519 189.916772 28.398822 
C 189.916772 25.089126 188.601816 21.91454 186.261507 19.574231 
C 183.921198 17.233922 180.746612 15.918966 177.436916 15.918966 
C 174.127219 15.918966 170.952633 17.233922 168.612325 19.574231 
C 166.272016 21.91454 164.957059 25.089126 164.957059 28.398822 
C 164.957059 31.708519 166.272016 34.883105 168.612325 37.223414 
C 170.952633 39.563723 174.127219 40.878679 177.436916 40.878679 
L 177.436916 40.878679 
z
" clip-path="url(#pa68375aeb4)" style="fill: none; stroke: #000000; stroke-linejoin: miter"/>
   </g>
   <g id="text_1">
    <!-- 0 -->
    <g transform="translate(174.255666 18.678341)scale(0.1 -0.1)">
     <defs>
      <path id="DejaVuSans-30" d="M 2034 4250 
Q 1547 4250 1301 3770 
Q 1056 3291 1056 2328 
Q 1056 1369 1301 889 
Q 1547 409 2034 409 
Q 2525 409 2770 889 
Q 3016 1369 3016 2328 
Q 3016 3291 2770 3770 
Q 2525 4250 2034 4250 
z
M 2034 4750 
Q 2819 4750 3233 4129 
Q 3647 3509 3647 2328 
Q 3647 1150 3233 529 
Q 2819 -91 2034 -91 
Q 1250 -91 836 529 
Q 422 1150 422 2328 
Q 422 3509 836 4129 
Q 1250 4750 2034 4750 
z
" transform="scale(0.015625)"/>
     </defs>
     <use xlink:href="#DejaVuSans-30"/>
    </g>
   </g>
   <g id="text_2">
    <!-- 1 -->
    <g transform="translate(208.506154 117.855718)scale(0.1 -0.1)">
     <defs>
      <path id="DejaVuSans-31" d="M 794 531 
L 1825 531 
L 1825 4091 
L 703 3866 
L 703 4441 
L 1819 4666 
L 2450 4666 
L 2450 531 
L 3481 531 
L 3481 0 
L 794 0 
L 794 531 
z
" transform="scale(0.015625)"/>
     </defs>
     <use xlink:href="#DejaVuSans-31"/>
    </g>
   </g>
   <g id="text_3">
    <!-- 2 -->
    <g transform="translate(248.261597 232.305331)scale(0.1 -0.1)">
     <defs>
      <path id="DejaVuSans-32" d="M 1228 531 
L 3431 531 
L 3431 0 
L 469 0 
L 469 531 
Q 828 903 1448 1529 
Q 2069 2156 2228 2338 
Q 2531 2678 2651 2914 
Q 2772 3150 2772 3378 
Q 2772 3750 2511 3984 
Q 2250 4219 1831 4219 
Q 1534 4219 1204 4116 
Q 875 4013 500 3803 
L 500 4441 
Q 881 4594 1212 4672 
Q 1544 4750 1819 4750 
Q 2544 4750 2975 4387 
Q 3406 4025 3406 3419 
Q 3406 3131 3298 2873 
Q 3191 2616 2906 2266 
Q 2828 2175 2409 1742 
Q 1991 1309 1228 531 
z
" transform="scale(0.015625)"/>
     </defs>
     <use xlink:href="#DejaVuSans-32"/>
    </g>
   </g>
   <g id="text_4">
    <!-- 3 -->
    <g transform="translate(283.388879 332.440409)scale(0.1 -0.1)">
     <defs>
      <path id="DejaVuSans-33" d="M 2597 2516 
Q 3050 2419 3304 2112 
Q 3559 1806 3559 1356 
Q 3559 666 3084 287 
Q 2609 -91 1734 -91 
Q 1441 -91 1130 -33 
Q 819 25 488 141 
L 488 750 
Q 750 597 1062 519 
Q 1375 441 1716 441 
Q 2309 441 2620 675 
Q 2931 909 2931 1356 
Q 2931 1769 2642 2001 
Q 2353 2234 1838 2234 
L 1294 2234 
L 1294 2753 
L 1863 2753 
Q 2328 2753 2575 2939 
Q 2822 3125 2822 3475 
Q 2822 3834 2567 4026 
Q 2313 4219 1838 4219 
Q 1578 4219 1281 4162 
Q 984 4106 628 3988 
L 628 4550 
Q 988 4650 1302 4700 
Q 1616 4750 1894 4750 
Q 2613 4750 3031 4423 
Q 3450 4097 3450 3541 
Q 3450 3153 3228 2886 
Q 3006 2619 2597 2516 
z
" transform="scale(0.015625)"/>
     </defs>
     <use xlink:href="#DejaVuSans-33"/>
    </g>
   </g>
  </g>
 </g>
 <defs>
  <clipPath id="pa68375aeb4">
   <rect x="162.339342" y="0" width="136.121317" height="345.6"/>
  </clipPath>
 </defs>
</svg>
