<?xml version="1.0" encoding="utf-8" standalone="no"?>
<!DOCTYPE svg PUBLIC "-//W3C//DTD SVG 1.1//EN"
  "http://www.w3.org/Graphics/SVG/1.1/DTD/svg11.dtd">
<svg xmlns:xlink="http://www.w3.org/1999/xlink" width="460.8pt" height="345.6pt" viewBox="0 0 460.8 345.6" xmlns="http://www.w3.org/2000/svg" version="1.1">
 <metadata>
  <rdf:RDF xmlns:dc="http://purl.org/dc/elements/1.1/" xmlns:cc="http://creativecommons.org/ns#" xmlns:rdf="http://www.w3.org/1999/02/22-rdf-syntax-ns#">
   <cc:Work>
    <dc:type rdf:resource="http://purl.org/dc/dcmitype/StillImage"/>
    <dc:date>2022-05-16T19:21:56.827637</dc:date>
    <dc:format>image/svg+xml</dc:format>
    <dc:creator>
     <cc:Agent>
      <dc:title>Matplotlib v3.5.1, https://matplotlib.org/</dc:title>
     </cc:Agent>
    </dc:creator>
   </cc:Work>
  </rdf:RDF>
 </metadata>
 <defs>
  <style type="text/css">*{stroke-linejoin: round; stroke-linecap: butt}</style>
 </defs>
 <g id="figure_1">
  <g id="patch_1">
   <path d="M 0 345.6 
L 460.8 345.6 
L 460.8 0 
L 0 0 
z
" style="fill: #ffffff"/>
  </g>
  <g id="axes_1">
   <g id="patch_2">
    <path d="M 0 331.2 
L 460.8 331.2 
L 460.8 14.4 
L 0 14.4 
z
" style="fill: #ffffff"/>
   </g>
   <g id="line2d_1">
    <path d="M 299.630769 311.261538 
L 161.169231 172.8 
" clip-path="url(#p1fa0ceb2a8)" style="fill: none; stroke: #000000; stroke-linecap: square"/>
   </g>
   <g id="line2d_2">
    <path d="M 299.630769 311.261538 
L 438.092308 172.8 
" clip-path="url(#p1fa0ceb2a8)" style="fill: none; stroke: #000000; stroke-linecap: square"/>
   </g>
   <g id="line2d_3">
    <path d="M 161.169231 172.8 
L 22.707692 34.338462 
" clip-path="url(#p1fa0ceb2a8)" style="fill: none; stroke: #000000; stroke-linecap: square"/>
   </g>
   <g id="line2d_4">
    <path d="M 161.169231 172.8 
L 299.630769 34.338462 
" clip-path="url(#p1fa0ceb2a8)" style="fill: none; stroke: #000000; stroke-linecap: square"/>
   </g>
   <g id="line2d_5">
    <path d="M 438.092308 172.8 
L 299.630769 34.338462 
" clip-path="url(#p1fa0ceb2a8)" style="fill: none; stroke: #000000; stroke-linecap: square"/>
   </g>
   <g id="patch_3">
    <path d="M 299.630769 325.107692 
C 303.302812 325.107692 306.824952 323.648774 309.421479 321.052248 
C 312.018005 318.455721 313.476923 314.933581 313.476923 311.261538 
C 313.476923 307.589496 312.018005 304.067356 309.421479 301.470829 
C 306.824952 298.874303 303.302812 297.415385 299.630769 297.415385 
C 295.958726 297.415385 292.436586 298.874303 289.84006 301.470829 
C 287.243534 304.067356 285.784615 307.589496 285.784615 311.261538 
C 285.784615 314.933581 287.243534 318.455721 289.84006 321.052248 
C 292.436586 323.648774 295.958726 325.107692 299.630769 325.107692 
z
" clip-path="url(#p1fa0ceb2a8)" style="fill: #ffffff; stroke: #0000ff; stroke-linejoin: miter"/>
   </g>
   <g id="patch_4">
    <path d="M 161.169231 186.646154 
C 164.841274 186.646154 168.363414 185.187236 170.95994 182.590709 
C 173.556466 179.994183 175.015385 176.472043 175.015385 172.8 
C 175.015385 169.127957 173.556466 165.605817 170.95994 163.009291 
C 168.363414 160.412764 164.841274 158.953846 161.169231 158.953846 
C 157.497188 158.953846 153.975048 160.412764 151.378521 163.009291 
C 148.781995 165.605817 147.323077 169.127957 147.323077 172.8 
C 147.323077 176.472043 148.781995 179.994183 151.378521 182.590709 
C 153.975048 185.187236 157.497188 186.646154 161.169231 186.646154 
z
" clip-path="url(#p1fa0ceb2a8)" style="fill: #ffffff; stroke: #0000ff; stroke-linejoin: miter"/>
   </g>
   <g id="patch_5">
    <path d="M 438.092308 186.646154 
C 441.764351 186.646154 445.286491 185.187236 447.883017 182.590709 
C 450.479543 179.994183 451.938462 176.472043 451.938462 172.8 
C 451.938462 169.127957 450.479543 165.605817 447.883017 163.009291 
C 445.286491 160.412764 441.764351 158.953846 438.092308 158.953846 
C 434.420265 158.953846 430.898125 160.412764 428.301598 163.009291 
C 425.705072 165.605817 424.246154 169.127957 424.246154 172.8 
C 424.246154 176.472043 425.705072 179.994183 428.301598 182.590709 
C 430.898125 185.187236 434.420265 186.646154 438.092308 186.646154 
z
" clip-path="url(#p1fa0ceb2a8)" style="fill: #ffffff; stroke: #0000ff; stroke-linejoin: miter"/>
   </g>
   <g id="patch_6">
    <path d="M 22.707692 48.184615 
C 26.379735 48.184615 29.901875 46.725697 32.498402 44.129171 
C 35.094928 41.532644 36.553846 38.010504 36.553846 34.338462 
C 36.553846 30.666419 35.094928 27.144279 32.498402 24.547752 
C 29.901875 21.951226 26.379735 20.492308 22.707692 20.492308 
C 19.035649 20.492308 15.513509 21.951226 12.916983 24.547752 
C 10.320457 27.144279 8.861538 30.666419 8.861538 34.338462 
C 8.861538 38.010504 10.320457 41.532644 12.916983 44.129171 
C 15.513509 46.725697 19.035649 48.184615 22.707692 48.184615 
z
" clip-path="url(#p1fa0ceb2a8)" style="fill: #ffffff; stroke: #0000ff; stroke-linejoin: miter"/>
   </g>
   <g id="patch_7">
    <path d="M 299.630769 48.184615 
C 303.302812 48.184615 306.824952 46.725697 309.421479 44.129171 
C 312.018005 41.532644 313.476923 38.010504 313.476923 34.338462 
C 313.476923 30.666419 312.018005 27.144279 309.421479 24.547752 
C 306.824952 21.951226 303.302812 20.492308 299.630769 20.492308 
C 295.958726 20.492308 292.436586 21.951226 289.84006 24.547752 
C 287.243534 27.144279 285.784615 30.666419 285.784615 34.338462 
C 285.784615 38.010504 287.243534 41.532644 289.84006 44.129171 
C 292.436586 46.725697 295.958726 48.184615 299.630769 48.184615 
z
" clip-path="url(#p1fa0ceb2a8)" style="fill: #ffffff; stroke: #0000ff; stroke-linejoin: miter"/>
   </g>
   <g id="matplotlib.axis_1"/>
   <g id="matplotlib.axis_2"/>
   <g id="text_1">
    <!-- 3 -->
    <g style="fill: #0000ff" transform="translate(296.449519 314.020913)scale(0.1 -0.1)">
     <defs>
      <path id="DejaVuSans-33" d="M 2597 2516 
Q 3050 2419 3304 2112 
Q 3559 1806 3559 1356 
Q 3559 666 3084 287 
Q 2609 -91 1734 -91 
Q 1441 -91 1130 -33 
Q 819 25 488 141 
L 488 750 
Q 750 597 1062 519 
Q 1375 441 1716 441 
Q 2309 441 2620 675 
Q 2931 909 2931 1356 
Q 2931 1769 2642 2001 
Q 2353 2234 1838 2234 
L 1294 2234 
L 1294 2753 
L 1863 2753 
Q 2328 2753 2575 2939 
Q 2822 3125 2822 3475 
Q 2822 3834 2567 4026 
Q 2313 4219 1838 4219 
Q 1578 4219 1281 4162 
Q 984 4106 628 3988 
L 628 4550 
Q 988 4650 1302 4700 
Q 1616 4750 1894 4750 
Q 2613 4750 3031 4423 
Q 3450 4097 3450 3541 
Q 3450 3153 3228 2886 
Q 3006 2619 2597 2516 
z
" transform="scale(0.015625)"/>
     </defs>
     <use xlink:href="#DejaVuSans-33"/>
    </g>
   </g>
   <g id="text_2">
    <!-- 2 -->
    <g style="fill: #0000ff" transform="translate(157.987981 175.559375)scale(0.1 -0.1)">
     <defs>
      <path id="DejaVuSans-32" d="M 1228 531 
L 3431 531 
L 3431 0 
L 469 0 
L 469 531 
Q 828 903 1448 1529 
Q 2069 2156 2228 2338 
Q 2531 2678 2651 2914 
Q 2772 3150 2772 3378 
Q 2772 3750 2511 3984 
Q 2250 4219 1831 4219 
Q 1534 4219 1204 4116 
Q 875 4013 500 3803 
L 500 4441 
Q 881 4594 1212 4672 
Q 1544 4750 1819 4750 
Q 2544 4750 2975 4387 
Q 3406 4025 3406 3419 
Q 3406 3131 3298 2873 
Q 3191 2616 2906 2266 
Q 2828 2175 2409 1742 
Q 1991 1309 1228 531 
z
" transform="scale(0.015625)"/>
     </defs>
     <use xlink:href="#DejaVuSans-32"/>
    </g>
   </g>
   <g id="text_3">
    <!-- 4 -->
    <g style="fill: #0000ff" transform="translate(434.911058 175.559375)scale(0.1 -0.1)">
     <defs>
      <path id="DejaVuSans-34" d="M 2419 4116 
L 825 1625 
L 2419 1625 
L 2419 4116 
z
M 2253 4666 
L 3047 4666 
L 3047 1625 
L 3713 1625 
L 3713 1100 
L 3047 1100 
L 3047 0 
L 2419 0 
L 2419 1100 
L 313 1100 
L 313 1709 
L 2253 4666 
z
" transform="scale(0.015625)"/>
     </defs>
     <use xlink:href="#DejaVuSans-34"/>
    </g>
   </g>
   <g id="text_4">
    <!-- 1 -->
    <g style="fill: #0000ff" transform="translate(19.526442 37.097837)scale(0.1 -0.1)">
     <defs>
      <path id="DejaVuSans-31" d="M 794 531 
L 1825 531 
L 1825 4091 
L 703 3866 
L 703 4441 
L 1819 4666 
L 2450 4666 
L 2450 531 
L 3481 531 
L 3481 0 
L 794 0 
L 794 531 
z
" transform="scale(0.015625)"/>
     </defs>
     <use xlink:href="#DejaVuSans-31"/>
    </g>
   </g>
   <g id="text_5">
    <!-- 3 -->
    <g style="fill: #0000ff" transform="translate(296.449519 37.097837)scale(0.1 -0.1)">
     <use xlink:href="#DejaVuSans-33"/>
    </g>
   </g>
  </g>
 </g>
 <defs>
  <clipPath id="p1fa0ceb2a8">
   <rect x="0" y="14.4" width="460.8" height="316.8"/>
  </clipPath>
 </defs>
</svg>
