<?xml version="1.0" encoding="utf-8" standalone="no"?>
<!DOCTYPE svg PUBLIC "-//W3C//DTD SVG 1.1//EN"
  "http://www.w3.org/Graphics/SVG/1.1/DTD/svg11.dtd">
<svg xmlns:xlink="http://www.w3.org/1999/xlink" width="460.8pt" height="345.6pt" viewBox="0 0 460.8 345.6" xmlns="http://www.w3.org/2000/svg" version="1.1">
 <metadata>
  <rdf:RDF xmlns:dc="http://purl.org/dc/elements/1.1/" xmlns:cc="http://creativecommons.org/ns#" xmlns:rdf="http://www.w3.org/1999/02/22-rdf-syntax-ns#">
   <cc:Work>
    <dc:type rdf:resource="http://purl.org/dc/dcmitype/StillImage"/>
    <dc:date>2022-05-16T19:23:31.473467</dc:date>
    <dc:format>image/svg+xml</dc:format>
    <dc:creator>
     <cc:Agent>
      <dc:title>Matplotlib v3.5.1, https://matplotlib.org/</dc:title>
     </cc:Agent>
    </dc:creator>
   </cc:Work>
  </rdf:RDF>
 </metadata>
 <defs>
  <style type="text/css">*{stroke-linejoin: round; stroke-linecap: butt}</style>
 </defs>
 <g id="figure_1">
  <g id="patch_1">
   <path d="M 0 345.6 
L 460.8 345.6 
L 460.8 0 
L 0 0 
z
" style="fill: #ffffff"/>
  </g>
  <g id="axes_1">
   <g id="patch_2">
    <path d="M 79.2 345.6 
L 381.6 345.6 
L 381.6 0 
L 79.2 0 
z
" style="fill: #ffffff"/>
   </g>
   <g id="line2d_1">
    <path d="M 188.861538 219.903597 
L 147.323077 219.903597 
" clip-path="url(#pf39a95c5e1)" style="fill: none; stroke: #000000; stroke-width: 2; stroke-linecap: square"/>
   </g>
   <g id="line2d_2">
    <path d="M 147.323077 219.903597 
L 168.092308 255.876923 
" clip-path="url(#pf39a95c5e1)" style="fill: none; stroke: #0000ff; stroke-linecap: square"/>
   </g>
   <g id="line2d_3">
    <path d="M 188.861538 219.903597 
L 168.092308 255.876923 
" clip-path="url(#pf39a95c5e1)" style="fill: none; stroke: #ff0000; stroke-linecap: square"/>
   </g>
   <g id="line2d_4">
    <path d="M 168.092308 183.930271 
L 147.323077 219.903597 
" clip-path="url(#pf39a95c5e1)" style="fill: none; stroke: #0000ff; stroke-linecap: square"/>
   </g>
   <g id="line2d_5">
    <path d="M 168.092308 183.930271 
L 188.861538 219.903597 
" clip-path="url(#pf39a95c5e1)" style="fill: none; stroke: #ff0000; stroke-linecap: square"/>
   </g>
   <g id="line2d_6">
    <path d="M 147.323077 219.903597 
L 126.553846 255.876923 
" clip-path="url(#pf39a95c5e1)" style="fill: none; stroke: #000000; stroke-width: 2; stroke-linecap: square"/>
   </g>
   <g id="line2d_7">
    <path d="M 168.092308 255.876923 
L 126.553846 255.876923 
" clip-path="url(#pf39a95c5e1)" style="fill: none; stroke: #ff0000; stroke-linecap: square"/>
   </g>
   <g id="line2d_8">
    <path d="M 188.861538 219.903597 
L 209.630769 255.876923 
" clip-path="url(#pf39a95c5e1)" style="fill: none; stroke: #000000; stroke-width: 2; stroke-linecap: square"/>
   </g>
   <g id="line2d_9">
    <path d="M 209.630769 255.876923 
L 168.092308 255.876923 
" clip-path="url(#pf39a95c5e1)" style="fill: none; stroke: #0000ff; stroke-linecap: square"/>
   </g>
   <g id="line2d_10">
    <path d="M 126.553846 183.930271 
L 147.323077 219.903597 
" clip-path="url(#pf39a95c5e1)" style="fill: none; stroke: #000000; stroke-width: 2; stroke-linecap: square"/>
   </g>
   <g id="line2d_11">
    <path d="M 168.092308 183.930271 
L 126.553846 183.930271 
" clip-path="url(#pf39a95c5e1)" style="fill: none; stroke: #ff0000; stroke-linecap: square"/>
   </g>
   <g id="line2d_12">
    <path d="M 209.630769 183.930271 
L 188.861538 219.903597 
" clip-path="url(#pf39a95c5e1)" style="fill: none; stroke: #000000; stroke-width: 2; stroke-linecap: square"/>
   </g>
   <g id="line2d_13">
    <path d="M 209.630769 183.930271 
L 168.092308 183.930271 
" clip-path="url(#pf39a95c5e1)" style="fill: none; stroke: #0000ff; stroke-linecap: square"/>
   </g>
   <g id="line2d_14">
    <path d="M 147.323077 219.903597 
L 105.784615 219.903597 
" clip-path="url(#pf39a95c5e1)" style="fill: none; stroke: #0000ff; stroke-linecap: square"/>
   </g>
   <g id="line2d_15">
    <path d="M 105.784615 219.903597 
L 126.553846 255.876923 
" clip-path="url(#pf39a95c5e1)" style="fill: none; stroke: #ff0000; stroke-linecap: square"/>
   </g>
   <g id="line2d_16">
    <path d="M 126.553846 255.876923 
L 147.323077 291.850249 
" clip-path="url(#pf39a95c5e1)" style="fill: none; stroke: #000000; stroke-width: 2; stroke-linecap: square"/>
   </g>
   <g id="line2d_17">
    <path d="M 168.092308 255.876923 
L 147.323077 291.850249 
" clip-path="url(#pf39a95c5e1)" style="fill: none; stroke: #0000ff; stroke-linecap: square"/>
   </g>
   <g id="line2d_18">
    <path d="M 230.4 219.903597 
L 209.630769 255.876923 
" clip-path="url(#pf39a95c5e1)" style="fill: none; stroke: #0000ff; stroke-linecap: square"/>
   </g>
   <g id="line2d_19">
    <path d="M 230.4 219.903597 
L 188.861538 219.903597 
" clip-path="url(#pf39a95c5e1)" style="fill: none; stroke: #ff0000; stroke-linecap: square"/>
   </g>
   <g id="line2d_20">
    <path d="M 209.630769 255.876923 
L 188.861538 291.850249 
" clip-path="url(#pf39a95c5e1)" style="fill: none; stroke: #000000; stroke-width: 2; stroke-linecap: square"/>
   </g>
   <g id="line2d_21">
    <path d="M 168.092308 255.876923 
L 188.861538 291.850249 
" clip-path="url(#pf39a95c5e1)" style="fill: none; stroke: #ff0000; stroke-linecap: square"/>
   </g>
   <g id="line2d_22">
    <path d="M 126.553846 183.930271 
L 105.784615 219.903597 
" clip-path="url(#pf39a95c5e1)" style="fill: none; stroke: #ff0000; stroke-linecap: square"/>
   </g>
   <g id="line2d_23">
    <path d="M 147.323077 147.956945 
L 126.553846 183.930271 
" clip-path="url(#pf39a95c5e1)" style="fill: none; stroke: #000000; stroke-width: 2; stroke-linecap: square"/>
   </g>
   <g id="line2d_24">
    <path d="M 147.323077 147.956945 
L 168.092308 183.930271 
" clip-path="url(#pf39a95c5e1)" style="fill: none; stroke: #0000ff; stroke-linecap: square"/>
   </g>
   <g id="line2d_25">
    <path d="M 209.630769 183.930271 
L 230.4 219.903597 
" clip-path="url(#pf39a95c5e1)" style="fill: none; stroke: #0000ff; stroke-linecap: square"/>
   </g>
   <g id="line2d_26">
    <path d="M 188.861538 147.956945 
L 209.630769 183.930271 
" clip-path="url(#pf39a95c5e1)" style="fill: none; stroke: #000000; stroke-width: 2; stroke-linecap: square"/>
   </g>
   <g id="line2d_27">
    <path d="M 188.861538 147.956945 
L 168.092308 183.930271 
" clip-path="url(#pf39a95c5e1)" style="fill: none; stroke: #ff0000; stroke-linecap: square"/>
   </g>
   <g id="line2d_28">
    <path d="M 126.553846 255.876923 
L 85.015385 255.876923 
" clip-path="url(#pf39a95c5e1)" style="fill: none; stroke: #000000; stroke-width: 2; stroke-linecap: square"/>
   </g>
   <g id="line2d_29">
    <path d="M 85.015385 255.876923 
L 105.784615 219.903597 
" clip-path="url(#pf39a95c5e1)" style="fill: none; stroke: #0000ff; stroke-linecap: square"/>
   </g>
   <g id="line2d_30">
    <path d="M 147.323077 291.850249 
L 105.784615 291.850249 
" clip-path="url(#pf39a95c5e1)" style="fill: none; stroke: #0000ff; stroke-linecap: square"/>
   </g>
   <g id="line2d_31">
    <path d="M 126.553846 255.876923 
L 105.784615 291.850249 
" clip-path="url(#pf39a95c5e1)" style="fill: none; stroke: #ff0000; stroke-linecap: square"/>
   </g>
   <g id="line2d_32">
    <path d="M 188.861538 291.850249 
L 147.323077 291.850249 
" clip-path="url(#pf39a95c5e1)" style="fill: none; stroke: #000000; stroke-width: 2; stroke-linecap: square"/>
   </g>
   <g id="line2d_33">
    <path d="M 251.169231 255.876923 
L 209.630769 255.876923 
" clip-path="url(#pf39a95c5e1)" style="fill: none; stroke: #000000; stroke-width: 2; stroke-linecap: square"/>
   </g>
   <g id="line2d_34">
    <path d="M 230.4 219.903597 
L 251.169231 255.876923 
" clip-path="url(#pf39a95c5e1)" style="fill: none; stroke: #ff0000; stroke-linecap: square"/>
   </g>
   <g id="line2d_35">
    <path d="M 209.630769 255.876923 
L 230.4 291.850249 
" clip-path="url(#pf39a95c5e1)" style="fill: none; stroke: #0000ff; stroke-linecap: square"/>
   </g>
   <g id="line2d_36">
    <path d="M 230.4 291.850249 
L 188.861538 291.850249 
" clip-path="url(#pf39a95c5e1)" style="fill: none; stroke: #ff0000; stroke-linecap: square"/>
   </g>
   <g id="line2d_37">
    <path d="M 126.553846 183.930271 
L 85.015385 183.930271 
" clip-path="url(#pf39a95c5e1)" style="fill: none; stroke: #000000; stroke-width: 2; stroke-linecap: square"/>
   </g>
   <g id="line2d_38">
    <path d="M 85.015385 183.930271 
L 105.784615 219.903597 
" clip-path="url(#pf39a95c5e1)" style="fill: none; stroke: #0000ff; stroke-linecap: square"/>
   </g>
   <g id="line2d_39">
    <path d="M 147.323077 147.956945 
L 105.784615 147.956945 
" clip-path="url(#pf39a95c5e1)" style="fill: none; stroke: #0000ff; stroke-linecap: square"/>
   </g>
   <g id="line2d_40">
    <path d="M 105.784615 147.956945 
L 126.553846 183.930271 
" clip-path="url(#pf39a95c5e1)" style="fill: none; stroke: #ff0000; stroke-linecap: square"/>
   </g>
   <g id="line2d_41">
    <path d="M 188.861538 147.956945 
L 147.323077 147.956945 
" clip-path="url(#pf39a95c5e1)" style="fill: none; stroke: #000000; stroke-width: 2; stroke-linecap: square"/>
   </g>
   <g id="line2d_42">
    <path d="M 251.169231 183.930271 
L 209.630769 183.930271 
" clip-path="url(#pf39a95c5e1)" style="fill: none; stroke: #000000; stroke-width: 2; stroke-linecap: square"/>
   </g>
   <g id="line2d_43">
    <path d="M 251.169231 183.930271 
L 230.4 219.903597 
" clip-path="url(#pf39a95c5e1)" style="fill: none; stroke: #ff0000; stroke-linecap: square"/>
   </g>
   <g id="line2d_44">
    <path d="M 230.4 147.956945 
L 209.630769 183.930271 
" clip-path="url(#pf39a95c5e1)" style="fill: none; stroke: #0000ff; stroke-linecap: square"/>
   </g>
   <g id="line2d_45">
    <path d="M 230.4 147.956945 
L 188.861538 147.956945 
" clip-path="url(#pf39a95c5e1)" style="fill: none; stroke: #ff0000; stroke-linecap: square"/>
   </g>
   <g id="line2d_46">
    <path d="M 85.015385 255.876923 
L 105.784615 291.850249 
" clip-path="url(#pf39a95c5e1)" style="fill: none; stroke: #0000ff; stroke-linecap: square"/>
   </g>
   <g id="line2d_47">
    <path d="M 105.784615 219.903597 
L 85.015385 219.903597 
" clip-path="url(#pf39a95c5e1)" style="fill: none; stroke: #ff0000; stroke-linecap: square"/>
   </g>
   <g id="line2d_48">
    <path d="M 147.323077 291.850249 
L 126.553846 327.823575 
" clip-path="url(#pf39a95c5e1)" style="fill: none; stroke: #000000; stroke-width: 2; stroke-linecap: square"/>
   </g>
   <g id="line2d_49">
    <path d="M 105.784615 291.850249 
L 126.553846 327.823575 
" clip-path="url(#pf39a95c5e1)" style="fill: none; stroke: #ff0000; stroke-linecap: square"/>
   </g>
   <g id="line2d_50">
    <path d="M 147.323077 291.850249 
L 168.092308 327.823575 
" clip-path="url(#pf39a95c5e1)" style="fill: none; stroke: #0000ff; stroke-linecap: square"/>
   </g>
   <g id="line2d_51">
    <path d="M 188.861538 291.850249 
L 168.092308 327.823575 
" clip-path="url(#pf39a95c5e1)" style="fill: none; stroke: #ff0000; stroke-linecap: square"/>
   </g>
   <g id="line2d_52">
    <path d="M 251.169231 255.876923 
L 230.4 291.850249 
" clip-path="url(#pf39a95c5e1)" style="fill: none; stroke: #ff0000; stroke-linecap: square"/>
   </g>
   <g id="line2d_53">
    <path d="M 271.938462 219.903597 
L 251.169231 255.876923 
" clip-path="url(#pf39a95c5e1)" style="fill: none; stroke: #000000; stroke-width: 2; stroke-linecap: square"/>
   </g>
   <g id="line2d_54">
    <path d="M 271.938462 219.903597 
L 230.4 219.903597 
" clip-path="url(#pf39a95c5e1)" style="fill: none; stroke: #0000ff; stroke-linecap: square"/>
   </g>
   <g id="line2d_55">
    <path d="M 188.861538 291.850249 
L 209.630769 327.823575 
" clip-path="url(#pf39a95c5e1)" style="fill: none; stroke: #000000; stroke-width: 2; stroke-linecap: square"/>
   </g>
   <g id="line2d_56">
    <path d="M 230.4 291.850249 
L 209.630769 327.823575 
" clip-path="url(#pf39a95c5e1)" style="fill: none; stroke: #0000ff; stroke-linecap: square"/>
   </g>
   <g id="line2d_57">
    <path d="M 85.015385 183.930271 
L 105.784615 147.956945 
" clip-path="url(#pf39a95c5e1)" style="fill: none; stroke: #0000ff; stroke-linecap: square"/>
   </g>
   <g id="line2d_58">
    <path d="M 126.553846 111.983618 
L 147.323077 147.956945 
" clip-path="url(#pf39a95c5e1)" style="fill: none; stroke: #000000; stroke-width: 2; stroke-linecap: square"/>
   </g>
   <g id="line2d_59">
    <path d="M 126.553846 111.983618 
L 105.784615 147.956945 
" clip-path="url(#pf39a95c5e1)" style="fill: none; stroke: #ff0000; stroke-linecap: square"/>
   </g>
   <g id="line2d_60">
    <path d="M 168.092308 111.983618 
L 147.323077 147.956945 
" clip-path="url(#pf39a95c5e1)" style="fill: none; stroke: #0000ff; stroke-linecap: square"/>
   </g>
   <g id="line2d_61">
    <path d="M 168.092308 111.983618 
L 188.861538 147.956945 
" clip-path="url(#pf39a95c5e1)" style="fill: none; stroke: #ff0000; stroke-linecap: square"/>
   </g>
   <g id="line2d_62">
    <path d="M 230.4 147.956945 
L 251.169231 183.930271 
" clip-path="url(#pf39a95c5e1)" style="fill: none; stroke: #ff0000; stroke-linecap: square"/>
   </g>
   <g id="line2d_63">
    <path d="M 209.630769 111.983618 
L 188.861538 147.956945 
" clip-path="url(#pf39a95c5e1)" style="fill: none; stroke: #000000; stroke-width: 2; stroke-linecap: square"/>
   </g>
   <g id="line2d_64">
    <path d="M 209.630769 111.983618 
L 230.4 147.956945 
" clip-path="url(#pf39a95c5e1)" style="fill: none; stroke: #0000ff; stroke-linecap: square"/>
   </g>
   <g id="line2d_65">
    <path d="M 105.784615 291.850249 
L 85.015385 291.850249 
" clip-path="url(#pf39a95c5e1)" style="fill: none; stroke: #ff0000; stroke-linecap: square"/>
   </g>
   <g id="line2d_66">
    <path d="M 168.092308 327.823575 
L 126.553846 327.823575 
" clip-path="url(#pf39a95c5e1)" style="fill: none; stroke: #ff0000; stroke-linecap: square"/>
   </g>
   <g id="line2d_67">
    <path d="M 126.553846 327.823575 
L 85.015385 327.823575 
" clip-path="url(#pf39a95c5e1)" style="fill: none; stroke: #000000; stroke-width: 2; stroke-linecap: square"/>
   </g>
   <g id="line2d_68">
    <path d="M 85.015385 327.823575 
L 105.784615 291.850249 
" clip-path="url(#pf39a95c5e1)" style="fill: none; stroke: #0000ff; stroke-linecap: square"/>
   </g>
   <g id="line2d_69">
    <path d="M 251.169231 255.876923 
L 271.938462 291.850249 
" clip-path="url(#pf39a95c5e1)" style="fill: none; stroke: #000000; stroke-width: 2; stroke-linecap: square"/>
   </g>
   <g id="line2d_70">
    <path d="M 271.938462 291.850249 
L 230.4 291.850249 
" clip-path="url(#pf39a95c5e1)" style="fill: none; stroke: #0000ff; stroke-linecap: square"/>
   </g>
   <g id="line2d_71">
    <path d="M 271.938462 219.903597 
L 292.707692 255.876923 
" clip-path="url(#pf39a95c5e1)" style="fill: none; stroke: #0000ff; stroke-linecap: square"/>
   </g>
   <g id="line2d_72">
    <path d="M 292.707692 255.876923 
L 251.169231 255.876923 
" clip-path="url(#pf39a95c5e1)" style="fill: none; stroke: #ff0000; stroke-linecap: square"/>
   </g>
   <g id="line2d_73">
    <path d="M 251.169231 183.930271 
L 271.938462 219.903597 
" clip-path="url(#pf39a95c5e1)" style="fill: none; stroke: #000000; stroke-width: 2; stroke-linecap: square"/>
   </g>
   <g id="line2d_74">
    <path d="M 209.630769 327.823575 
L 168.092308 327.823575 
" clip-path="url(#pf39a95c5e1)" style="fill: none; stroke: #0000ff; stroke-linecap: square"/>
   </g>
   <g id="line2d_75">
    <path d="M 251.169231 327.823575 
L 209.630769 327.823575 
" clip-path="url(#pf39a95c5e1)" style="fill: none; stroke: #000000; stroke-width: 2; stroke-linecap: square"/>
   </g>
   <g id="line2d_76">
    <path d="M 230.4 291.850249 
L 251.169231 327.823575 
" clip-path="url(#pf39a95c5e1)" style="fill: none; stroke: #ff0000; stroke-linecap: square"/>
   </g>
   <g id="line2d_77">
    <path d="M 105.784615 147.956945 
L 85.015385 147.956945 
" clip-path="url(#pf39a95c5e1)" style="fill: none; stroke: #ff0000; stroke-linecap: square"/>
   </g>
   <g id="line2d_78">
    <path d="M 168.092308 111.983618 
L 126.553846 111.983618 
" clip-path="url(#pf39a95c5e1)" style="fill: none; stroke: #ff0000; stroke-linecap: square"/>
   </g>
   <g id="line2d_79">
    <path d="M 126.553846 111.983618 
L 85.015385 111.983618 
" clip-path="url(#pf39a95c5e1)" style="fill: none; stroke: #000000; stroke-width: 2; stroke-linecap: square"/>
   </g>
   <g id="line2d_80">
    <path d="M 85.015385 111.983618 
L 105.784615 147.956945 
" clip-path="url(#pf39a95c5e1)" style="fill: none; stroke: #0000ff; stroke-linecap: square"/>
   </g>
   <g id="line2d_81">
    <path d="M 271.938462 147.956945 
L 251.169231 183.930271 
" clip-path="url(#pf39a95c5e1)" style="fill: none; stroke: #000000; stroke-width: 2; stroke-linecap: square"/>
   </g>
   <g id="line2d_82">
    <path d="M 271.938462 147.956945 
L 230.4 147.956945 
" clip-path="url(#pf39a95c5e1)" style="fill: none; stroke: #0000ff; stroke-linecap: square"/>
   </g>
   <g id="line2d_83">
    <path d="M 209.630769 111.983618 
L 168.092308 111.983618 
" clip-path="url(#pf39a95c5e1)" style="fill: none; stroke: #0000ff; stroke-linecap: square"/>
   </g>
   <g id="line2d_84">
    <path d="M 251.169231 111.983618 
L 209.630769 111.983618 
" clip-path="url(#pf39a95c5e1)" style="fill: none; stroke: #000000; stroke-width: 2; stroke-linecap: square"/>
   </g>
   <g id="line2d_85">
    <path d="M 251.169231 111.983618 
L 230.4 147.956945 
" clip-path="url(#pf39a95c5e1)" style="fill: none; stroke: #ff0000; stroke-linecap: square"/>
   </g>
   <g id="line2d_86">
    <path d="M 126.553846 327.823575 
L 132.979918 338.953846 
" clip-path="url(#pf39a95c5e1)" style="fill: none; stroke: #000000; stroke-width: 2; stroke-linecap: square"/>
   </g>
   <g id="line2d_87">
    <path d="M 168.092308 327.823575 
L 161.666236 338.953846 
" clip-path="url(#pf39a95c5e1)" style="fill: none; stroke: #0000ff; stroke-linecap: square"/>
   </g>
   <g id="line2d_88">
    <path d="M 85.015385 327.823575 
L 91.441456 338.953846 
" clip-path="url(#pf39a95c5e1)" style="fill: none; stroke: #0000ff; stroke-linecap: square"/>
   </g>
   <g id="line2d_89">
    <path d="M 126.553846 327.823575 
L 120.127775 338.953846 
" clip-path="url(#pf39a95c5e1)" style="fill: none; stroke: #ff0000; stroke-linecap: square"/>
   </g>
   <g id="line2d_90">
    <path d="M 292.707692 255.876923 
L 271.938462 291.850249 
" clip-path="url(#pf39a95c5e1)" style="fill: none; stroke: #0000ff; stroke-linecap: square"/>
   </g>
   <g id="line2d_91">
    <path d="M 271.938462 291.850249 
L 251.169231 327.823575 
" clip-path="url(#pf39a95c5e1)" style="fill: none; stroke: #000000; stroke-width: 2; stroke-linecap: square"/>
   </g>
   <g id="line2d_92">
    <path d="M 313.476923 219.903597 
L 271.938462 219.903597 
" clip-path="url(#pf39a95c5e1)" style="fill: none; stroke: #000000; stroke-width: 2; stroke-linecap: square"/>
   </g>
   <g id="line2d_93">
    <path d="M 313.476923 219.903597 
L 292.707692 255.876923 
" clip-path="url(#pf39a95c5e1)" style="fill: none; stroke: #ff0000; stroke-linecap: square"/>
   </g>
   <g id="line2d_94">
    <path d="M 292.707692 183.930271 
L 271.938462 219.903597 
" clip-path="url(#pf39a95c5e1)" style="fill: none; stroke: #0000ff; stroke-linecap: square"/>
   </g>
   <g id="line2d_95">
    <path d="M 292.707692 183.930271 
L 251.169231 183.930271 
" clip-path="url(#pf39a95c5e1)" style="fill: none; stroke: #ff0000; stroke-linecap: square"/>
   </g>
   <g id="line2d_96">
    <path d="M 209.630769 327.823575 
L 203.204698 338.953846 
" clip-path="url(#pf39a95c5e1)" style="fill: none; stroke: #000000; stroke-width: 2; stroke-linecap: square"/>
   </g>
   <g id="line2d_97">
    <path d="M 168.092308 327.823575 
L 174.518379 338.953846 
" clip-path="url(#pf39a95c5e1)" style="fill: none; stroke: #ff0000; stroke-linecap: square"/>
   </g>
   <g id="line2d_98">
    <path d="M 209.630769 327.823575 
L 216.056841 338.953846 
" clip-path="url(#pf39a95c5e1)" style="fill: none; stroke: #0000ff; stroke-linecap: square"/>
   </g>
   <g id="line2d_99">
    <path d="M 251.169231 327.823575 
L 244.743159 338.953846 
" clip-path="url(#pf39a95c5e1)" style="fill: none; stroke: #ff0000; stroke-linecap: square"/>
   </g>
   <g id="line2d_100">
    <path d="M 147.323077 76.010292 
L 126.553846 111.983618 
" clip-path="url(#pf39a95c5e1)" style="fill: none; stroke: #000000; stroke-width: 2; stroke-linecap: square"/>
   </g>
   <g id="line2d_101">
    <path d="M 147.323077 76.010292 
L 168.092308 111.983618 
" clip-path="url(#pf39a95c5e1)" style="fill: none; stroke: #0000ff; stroke-linecap: square"/>
   </g>
   <g id="line2d_102">
    <path d="M 85.015385 111.983618 
L 105.784615 76.010292 
" clip-path="url(#pf39a95c5e1)" style="fill: none; stroke: #0000ff; stroke-linecap: square"/>
   </g>
   <g id="line2d_103">
    <path d="M 105.784615 76.010292 
L 126.553846 111.983618 
" clip-path="url(#pf39a95c5e1)" style="fill: none; stroke: #ff0000; stroke-linecap: square"/>
   </g>
   <g id="line2d_104">
    <path d="M 271.938462 147.956945 
L 292.707692 183.930271 
" clip-path="url(#pf39a95c5e1)" style="fill: none; stroke: #0000ff; stroke-linecap: square"/>
   </g>
   <g id="line2d_105">
    <path d="M 251.169231 111.983618 
L 271.938462 147.956945 
" clip-path="url(#pf39a95c5e1)" style="fill: none; stroke: #000000; stroke-width: 2; stroke-linecap: square"/>
   </g>
   <g id="line2d_106">
    <path d="M 188.861538 76.010292 
L 209.630769 111.983618 
" clip-path="url(#pf39a95c5e1)" style="fill: none; stroke: #000000; stroke-width: 2; stroke-linecap: square"/>
   </g>
   <g id="line2d_107">
    <path d="M 188.861538 76.010292 
L 168.092308 111.983618 
" clip-path="url(#pf39a95c5e1)" style="fill: none; stroke: #ff0000; stroke-linecap: square"/>
   </g>
   <g id="line2d_108">
    <path d="M 230.4 76.010292 
L 209.630769 111.983618 
" clip-path="url(#pf39a95c5e1)" style="fill: none; stroke: #0000ff; stroke-linecap: square"/>
   </g>
   <g id="line2d_109">
    <path d="M 230.4 76.010292 
L 251.169231 111.983618 
" clip-path="url(#pf39a95c5e1)" style="fill: none; stroke: #ff0000; stroke-linecap: square"/>
   </g>
   <g id="line2d_110">
    <path d="M 313.476923 291.850249 
L 271.938462 291.850249 
" clip-path="url(#pf39a95c5e1)" style="fill: none; stroke: #000000; stroke-width: 2; stroke-linecap: square"/>
   </g>
   <g id="line2d_111">
    <path d="M 292.707692 255.876923 
L 313.476923 291.850249 
" clip-path="url(#pf39a95c5e1)" style="fill: none; stroke: #ff0000; stroke-linecap: square"/>
   </g>
   <g id="line2d_112">
    <path d="M 271.938462 291.850249 
L 292.707692 327.823575 
" clip-path="url(#pf39a95c5e1)" style="fill: none; stroke: #0000ff; stroke-linecap: square"/>
   </g>
   <g id="line2d_113">
    <path d="M 292.707692 327.823575 
L 251.169231 327.823575 
" clip-path="url(#pf39a95c5e1)" style="fill: none; stroke: #ff0000; stroke-linecap: square"/>
   </g>
   <g id="line2d_114">
    <path d="M 292.707692 183.930271 
L 313.476923 219.903597 
" clip-path="url(#pf39a95c5e1)" style="fill: none; stroke: #ff0000; stroke-linecap: square"/>
   </g>
   <g id="line2d_115">
    <path d="M 313.476923 219.903597 
L 334.246154 255.876923 
" clip-path="url(#pf39a95c5e1)" style="fill: none; stroke: #000000; stroke-width: 2; stroke-linecap: square"/>
   </g>
   <g id="line2d_116">
    <path d="M 334.246154 255.876923 
L 292.707692 255.876923 
" clip-path="url(#pf39a95c5e1)" style="fill: none; stroke: #0000ff; stroke-linecap: square"/>
   </g>
   <g id="line2d_117">
    <path d="M 251.169231 327.823575 
L 257.595302 338.953846 
" clip-path="url(#pf39a95c5e1)" style="fill: none; stroke: #000000; stroke-width: 2; stroke-linecap: square"/>
   </g>
   <g id="line2d_118">
    <path d="M 147.323077 76.010292 
L 105.784615 76.010292 
" clip-path="url(#pf39a95c5e1)" style="fill: none; stroke: #0000ff; stroke-linecap: square"/>
   </g>
   <g id="line2d_119">
    <path d="M 188.861538 76.010292 
L 147.323077 76.010292 
" clip-path="url(#pf39a95c5e1)" style="fill: none; stroke: #000000; stroke-width: 2; stroke-linecap: square"/>
   </g>
   <g id="line2d_120">
    <path d="M 105.784615 76.010292 
L 85.015385 76.010292 
" clip-path="url(#pf39a95c5e1)" style="fill: none; stroke: #ff0000; stroke-linecap: square"/>
   </g>
   <g id="line2d_121">
    <path d="M 313.476923 147.956945 
L 271.938462 147.956945 
" clip-path="url(#pf39a95c5e1)" style="fill: none; stroke: #000000; stroke-width: 2; stroke-linecap: square"/>
   </g>
   <g id="line2d_122">
    <path d="M 313.476923 147.956945 
L 292.707692 183.930271 
" clip-path="url(#pf39a95c5e1)" style="fill: none; stroke: #ff0000; stroke-linecap: square"/>
   </g>
   <g id="line2d_123">
    <path d="M 292.707692 111.983618 
L 271.938462 147.956945 
" clip-path="url(#pf39a95c5e1)" style="fill: none; stroke: #0000ff; stroke-linecap: square"/>
   </g>
   <g id="line2d_124">
    <path d="M 292.707692 111.983618 
L 251.169231 111.983618 
" clip-path="url(#pf39a95c5e1)" style="fill: none; stroke: #ff0000; stroke-linecap: square"/>
   </g>
   <g id="line2d_125">
    <path d="M 230.4 76.010292 
L 188.861538 76.010292 
" clip-path="url(#pf39a95c5e1)" style="fill: none; stroke: #ff0000; stroke-linecap: square"/>
   </g>
   <g id="line2d_126">
    <path d="M 271.938462 76.010292 
L 251.169231 111.983618 
" clip-path="url(#pf39a95c5e1)" style="fill: none; stroke: #000000; stroke-width: 2; stroke-linecap: square"/>
   </g>
   <g id="line2d_127">
    <path d="M 271.938462 76.010292 
L 230.4 76.010292 
" clip-path="url(#pf39a95c5e1)" style="fill: none; stroke: #0000ff; stroke-linecap: square"/>
   </g>
   <g id="line2d_128">
    <path d="M 313.476923 291.850249 
L 292.707692 327.823575 
" clip-path="url(#pf39a95c5e1)" style="fill: none; stroke: #ff0000; stroke-linecap: square"/>
   </g>
   <g id="line2d_129">
    <path d="M 334.246154 183.930271 
L 313.476923 219.903597 
" clip-path="url(#pf39a95c5e1)" style="fill: none; stroke: #000000; stroke-width: 2; stroke-linecap: square"/>
   </g>
   <g id="line2d_130">
    <path d="M 334.246154 183.930271 
L 292.707692 183.930271 
" clip-path="url(#pf39a95c5e1)" style="fill: none; stroke: #0000ff; stroke-linecap: square"/>
   </g>
   <g id="line2d_131">
    <path d="M 355.015385 219.903597 
L 334.246154 255.876923 
" clip-path="url(#pf39a95c5e1)" style="fill: none; stroke: #0000ff; stroke-linecap: square"/>
   </g>
   <g id="line2d_132">
    <path d="M 355.015385 219.903597 
L 313.476923 219.903597 
" clip-path="url(#pf39a95c5e1)" style="fill: none; stroke: #ff0000; stroke-linecap: square"/>
   </g>
   <g id="line2d_133">
    <path d="M 334.246154 255.876923 
L 313.476923 291.850249 
" clip-path="url(#pf39a95c5e1)" style="fill: none; stroke: #000000; stroke-width: 2; stroke-linecap: square"/>
   </g>
   <g id="line2d_134">
    <path d="M 292.707692 327.823575 
L 286.281621 338.953846 
" clip-path="url(#pf39a95c5e1)" style="fill: none; stroke: #0000ff; stroke-linecap: square"/>
   </g>
   <g id="line2d_135">
    <path d="M 126.553846 40.036966 
L 147.323077 76.010292 
" clip-path="url(#pf39a95c5e1)" style="fill: none; stroke: #000000; stroke-width: 2; stroke-linecap: square"/>
   </g>
   <g id="line2d_136">
    <path d="M 126.553846 40.036966 
L 105.784615 76.010292 
" clip-path="url(#pf39a95c5e1)" style="fill: none; stroke: #ff0000; stroke-linecap: square"/>
   </g>
   <g id="line2d_137">
    <path d="M 168.092308 40.036966 
L 147.323077 76.010292 
" clip-path="url(#pf39a95c5e1)" style="fill: none; stroke: #0000ff; stroke-linecap: square"/>
   </g>
   <g id="line2d_138">
    <path d="M 168.092308 40.036966 
L 188.861538 76.010292 
" clip-path="url(#pf39a95c5e1)" style="fill: none; stroke: #ff0000; stroke-linecap: square"/>
   </g>
   <g id="line2d_139">
    <path d="M 85.015385 40.036966 
L 105.784615 76.010292 
" clip-path="url(#pf39a95c5e1)" style="fill: none; stroke: #0000ff; stroke-linecap: square"/>
   </g>
   <g id="line2d_140">
    <path d="M 292.707692 111.983618 
L 313.476923 147.956945 
" clip-path="url(#pf39a95c5e1)" style="fill: none; stroke: #ff0000; stroke-linecap: square"/>
   </g>
   <g id="line2d_141">
    <path d="M 209.630769 40.036966 
L 188.861538 76.010292 
" clip-path="url(#pf39a95c5e1)" style="fill: none; stroke: #000000; stroke-width: 2; stroke-linecap: square"/>
   </g>
   <g id="line2d_142">
    <path d="M 209.630769 40.036966 
L 230.4 76.010292 
" clip-path="url(#pf39a95c5e1)" style="fill: none; stroke: #0000ff; stroke-linecap: square"/>
   </g>
   <g id="line2d_143">
    <path d="M 271.938462 76.010292 
L 292.707692 111.983618 
" clip-path="url(#pf39a95c5e1)" style="fill: none; stroke: #0000ff; stroke-linecap: square"/>
   </g>
   <g id="line2d_144">
    <path d="M 251.169231 40.036966 
L 271.938462 76.010292 
" clip-path="url(#pf39a95c5e1)" style="fill: none; stroke: #000000; stroke-width: 2; stroke-linecap: square"/>
   </g>
   <g id="line2d_145">
    <path d="M 251.169231 40.036966 
L 230.4 76.010292 
" clip-path="url(#pf39a95c5e1)" style="fill: none; stroke: #ff0000; stroke-linecap: square"/>
   </g>
   <g id="line2d_146">
    <path d="M 313.476923 291.850249 
L 334.246154 327.823575 
" clip-path="url(#pf39a95c5e1)" style="fill: none; stroke: #000000; stroke-width: 2; stroke-linecap: square"/>
   </g>
   <g id="line2d_147">
    <path d="M 334.246154 327.823575 
L 292.707692 327.823575 
" clip-path="url(#pf39a95c5e1)" style="fill: none; stroke: #0000ff; stroke-linecap: square"/>
   </g>
   <g id="line2d_148">
    <path d="M 334.246154 183.930271 
L 355.015385 219.903597 
" clip-path="url(#pf39a95c5e1)" style="fill: none; stroke: #0000ff; stroke-linecap: square"/>
   </g>
   <g id="line2d_149">
    <path d="M 313.476923 147.956945 
L 334.246154 183.930271 
" clip-path="url(#pf39a95c5e1)" style="fill: none; stroke: #000000; stroke-width: 2; stroke-linecap: square"/>
   </g>
   <g id="line2d_150">
    <path d="M 375.784615 255.876923 
L 334.246154 255.876923 
" clip-path="url(#pf39a95c5e1)" style="fill: none; stroke: #000000; stroke-width: 2; stroke-linecap: square"/>
   </g>
   <g id="line2d_151">
    <path d="M 375.784615 255.876923 
L 355.015385 219.903597 
" clip-path="url(#pf39a95c5e1)" style="fill: none; stroke: #ff0000; stroke-linecap: square"/>
   </g>
   <g id="line2d_152">
    <path d="M 334.246154 255.876923 
L 355.015385 291.850249 
" clip-path="url(#pf39a95c5e1)" style="fill: none; stroke: #0000ff; stroke-linecap: square"/>
   </g>
   <g id="line2d_153">
    <path d="M 355.015385 291.850249 
L 313.476923 291.850249 
" clip-path="url(#pf39a95c5e1)" style="fill: none; stroke: #ff0000; stroke-linecap: square"/>
   </g>
   <g id="line2d_154">
    <path d="M 292.707692 327.823575 
L 299.133764 338.953846 
" clip-path="url(#pf39a95c5e1)" style="fill: none; stroke: #ff0000; stroke-linecap: square"/>
   </g>
   <g id="line2d_155">
    <path d="M 168.092308 40.036966 
L 126.553846 40.036966 
" clip-path="url(#pf39a95c5e1)" style="fill: none; stroke: #ff0000; stroke-linecap: square"/>
   </g>
   <g id="line2d_156">
    <path d="M 126.553846 40.036966 
L 85.015385 40.036966 
" clip-path="url(#pf39a95c5e1)" style="fill: none; stroke: #000000; stroke-width: 2; stroke-linecap: square"/>
   </g>
   <g id="line2d_157">
    <path d="M 334.246154 111.983618 
L 313.476923 147.956945 
" clip-path="url(#pf39a95c5e1)" style="fill: none; stroke: #000000; stroke-width: 2; stroke-linecap: square"/>
   </g>
   <g id="line2d_158">
    <path d="M 334.246154 111.983618 
L 292.707692 111.983618 
" clip-path="url(#pf39a95c5e1)" style="fill: none; stroke: #0000ff; stroke-linecap: square"/>
   </g>
   <g id="line2d_159">
    <path d="M 209.630769 40.036966 
L 168.092308 40.036966 
" clip-path="url(#pf39a95c5e1)" style="fill: none; stroke: #0000ff; stroke-linecap: square"/>
   </g>
   <g id="line2d_160">
    <path d="M 251.169231 40.036966 
L 209.630769 40.036966 
" clip-path="url(#pf39a95c5e1)" style="fill: none; stroke: #000000; stroke-width: 2; stroke-linecap: square"/>
   </g>
   <g id="line2d_161">
    <path d="M 313.476923 76.010292 
L 271.938462 76.010292 
" clip-path="url(#pf39a95c5e1)" style="fill: none; stroke: #000000; stroke-width: 2; stroke-linecap: square"/>
   </g>
   <g id="line2d_162">
    <path d="M 313.476923 76.010292 
L 292.707692 111.983618 
" clip-path="url(#pf39a95c5e1)" style="fill: none; stroke: #ff0000; stroke-linecap: square"/>
   </g>
   <g id="line2d_163">
    <path d="M 292.707692 40.036966 
L 271.938462 76.010292 
" clip-path="url(#pf39a95c5e1)" style="fill: none; stroke: #0000ff; stroke-linecap: square"/>
   </g>
   <g id="line2d_164">
    <path d="M 292.707692 40.036966 
L 251.169231 40.036966 
" clip-path="url(#pf39a95c5e1)" style="fill: none; stroke: #ff0000; stroke-linecap: square"/>
   </g>
   <g id="line2d_165">
    <path d="M 355.015385 291.850249 
L 334.246154 327.823575 
" clip-path="url(#pf39a95c5e1)" style="fill: none; stroke: #0000ff; stroke-linecap: square"/>
   </g>
   <g id="line2d_166">
    <path d="M 334.246154 327.823575 
L 327.820082 338.953846 
" clip-path="url(#pf39a95c5e1)" style="fill: none; stroke: #000000; stroke-width: 2; stroke-linecap: square"/>
   </g>
   <g id="line2d_167">
    <path d="M 375.784615 183.930271 
L 334.246154 183.930271 
" clip-path="url(#pf39a95c5e1)" style="fill: none; stroke: #000000; stroke-width: 2; stroke-linecap: square"/>
   </g>
   <g id="line2d_168">
    <path d="M 375.784615 183.930271 
L 355.015385 219.903597 
" clip-path="url(#pf39a95c5e1)" style="fill: none; stroke: #ff0000; stroke-linecap: square"/>
   </g>
   <g id="line2d_169">
    <path d="M 355.015385 147.956945 
L 334.246154 183.930271 
" clip-path="url(#pf39a95c5e1)" style="fill: none; stroke: #0000ff; stroke-linecap: square"/>
   </g>
   <g id="line2d_170">
    <path d="M 355.015385 147.956945 
L 313.476923 147.956945 
" clip-path="url(#pf39a95c5e1)" style="fill: none; stroke: #ff0000; stroke-linecap: square"/>
   </g>
   <g id="line2d_171">
    <path d="M 375.784615 255.876923 
L 355.015385 291.850249 
" clip-path="url(#pf39a95c5e1)" style="fill: none; stroke: #ff0000; stroke-linecap: square"/>
   </g>
   <g id="line2d_172">
    <path d="M 375.784615 219.903597 
L 355.015385 219.903597 
" clip-path="url(#pf39a95c5e1)" style="fill: none; stroke: #0000ff; stroke-linecap: square"/>
   </g>
   <g id="line2d_173">
    <path d="M 145.83206 6.646154 
L 126.553846 40.036966 
" clip-path="url(#pf39a95c5e1)" style="fill: none; stroke: #000000; stroke-width: 2; stroke-linecap: square"/>
   </g>
   <g id="line2d_174">
    <path d="M 148.814093 6.646154 
L 168.092308 40.036966 
" clip-path="url(#pf39a95c5e1)" style="fill: none; stroke: #0000ff; stroke-linecap: square"/>
   </g>
   <g id="line2d_175">
    <path d="M 85.015385 40.036966 
L 104.293599 6.646154 
" clip-path="url(#pf39a95c5e1)" style="fill: none; stroke: #0000ff; stroke-linecap: square"/>
   </g>
   <g id="line2d_176">
    <path d="M 107.275632 6.646154 
L 126.553846 40.036966 
" clip-path="url(#pf39a95c5e1)" style="fill: none; stroke: #ff0000; stroke-linecap: square"/>
   </g>
   <g id="line2d_177">
    <path d="M 334.246154 111.983618 
L 355.015385 147.956945 
" clip-path="url(#pf39a95c5e1)" style="fill: none; stroke: #0000ff; stroke-linecap: square"/>
   </g>
   <g id="line2d_178">
    <path d="M 313.476923 76.010292 
L 334.246154 111.983618 
" clip-path="url(#pf39a95c5e1)" style="fill: none; stroke: #000000; stroke-width: 2; stroke-linecap: square"/>
   </g>
   <g id="line2d_179">
    <path d="M 190.352555 6.646154 
L 209.630769 40.036966 
" clip-path="url(#pf39a95c5e1)" style="fill: none; stroke: #000000; stroke-width: 2; stroke-linecap: square"/>
   </g>
   <g id="line2d_180">
    <path d="M 187.370522 6.646154 
L 168.092308 40.036966 
" clip-path="url(#pf39a95c5e1)" style="fill: none; stroke: #ff0000; stroke-linecap: square"/>
   </g>
   <g id="line2d_181">
    <path d="M 228.908983 6.646154 
L 209.630769 40.036966 
" clip-path="url(#pf39a95c5e1)" style="fill: none; stroke: #0000ff; stroke-linecap: square"/>
   </g>
   <g id="line2d_182">
    <path d="M 231.891017 6.646154 
L 251.169231 40.036966 
" clip-path="url(#pf39a95c5e1)" style="fill: none; stroke: #ff0000; stroke-linecap: square"/>
   </g>
   <g id="line2d_183">
    <path d="M 292.707692 40.036966 
L 313.476923 76.010292 
" clip-path="url(#pf39a95c5e1)" style="fill: none; stroke: #ff0000; stroke-linecap: square"/>
   </g>
   <g id="line2d_184">
    <path d="M 270.447445 6.646154 
L 251.169231 40.036966 
" clip-path="url(#pf39a95c5e1)" style="fill: none; stroke: #000000; stroke-width: 2; stroke-linecap: square"/>
   </g>
   <g id="line2d_185">
    <path d="M 273.429478 6.646154 
L 292.707692 40.036966 
" clip-path="url(#pf39a95c5e1)" style="fill: none; stroke: #0000ff; stroke-linecap: square"/>
   </g>
   <g id="line2d_186">
    <path d="M 375.784615 327.823575 
L 334.246154 327.823575 
" clip-path="url(#pf39a95c5e1)" style="fill: none; stroke: #000000; stroke-width: 2; stroke-linecap: square"/>
   </g>
   <g id="line2d_187">
    <path d="M 375.784615 327.823575 
L 355.015385 291.850249 
" clip-path="url(#pf39a95c5e1)" style="fill: none; stroke: #ff0000; stroke-linecap: square"/>
   </g>
   <g id="line2d_188">
    <path d="M 334.246154 327.823575 
L 340.672225 338.953846 
" clip-path="url(#pf39a95c5e1)" style="fill: none; stroke: #0000ff; stroke-linecap: square"/>
   </g>
   <g id="line2d_189">
    <path d="M 375.784615 183.930271 
L 355.015385 147.956945 
" clip-path="url(#pf39a95c5e1)" style="fill: none; stroke: #ff0000; stroke-linecap: square"/>
   </g>
   <g id="line2d_190">
    <path d="M 375.784615 291.850249 
L 355.015385 291.850249 
" clip-path="url(#pf39a95c5e1)" style="fill: none; stroke: #0000ff; stroke-linecap: square"/>
   </g>
   <g id="line2d_191">
    <path d="M 375.784615 111.983618 
L 334.246154 111.983618 
" clip-path="url(#pf39a95c5e1)" style="fill: none; stroke: #000000; stroke-width: 2; stroke-linecap: square"/>
   </g>
   <g id="line2d_192">
    <path d="M 375.784615 111.983618 
L 355.015385 147.956945 
" clip-path="url(#pf39a95c5e1)" style="fill: none; stroke: #ff0000; stroke-linecap: square"/>
   </g>
   <g id="line2d_193">
    <path d="M 355.015385 76.010292 
L 334.246154 111.983618 
" clip-path="url(#pf39a95c5e1)" style="fill: none; stroke: #0000ff; stroke-linecap: square"/>
   </g>
   <g id="line2d_194">
    <path d="M 355.015385 76.010292 
L 313.476923 76.010292 
" clip-path="url(#pf39a95c5e1)" style="fill: none; stroke: #ff0000; stroke-linecap: square"/>
   </g>
   <g id="line2d_195">
    <path d="M 334.246154 40.036966 
L 313.476923 76.010292 
" clip-path="url(#pf39a95c5e1)" style="fill: none; stroke: #000000; stroke-width: 2; stroke-linecap: square"/>
   </g>
   <g id="line2d_196">
    <path d="M 334.246154 40.036966 
L 292.707692 40.036966 
" clip-path="url(#pf39a95c5e1)" style="fill: none; stroke: #0000ff; stroke-linecap: square"/>
   </g>
   <g id="line2d_197">
    <path d="M 311.985907 6.646154 
L 292.707692 40.036966 
" clip-path="url(#pf39a95c5e1)" style="fill: none; stroke: #ff0000; stroke-linecap: square"/>
   </g>
   <g id="line2d_198">
    <path d="M 375.784615 327.823575 
L 369.358544 338.953846 
" clip-path="url(#pf39a95c5e1)" style="fill: none; stroke: #ff0000; stroke-linecap: square"/>
   </g>
   <g id="line2d_199">
    <path d="M 375.784615 147.956945 
L 355.015385 147.956945 
" clip-path="url(#pf39a95c5e1)" style="fill: none; stroke: #0000ff; stroke-linecap: square"/>
   </g>
   <g id="line2d_200">
    <path d="M 375.784615 111.983618 
L 355.015385 76.010292 
" clip-path="url(#pf39a95c5e1)" style="fill: none; stroke: #ff0000; stroke-linecap: square"/>
   </g>
   <g id="line2d_201">
    <path d="M 334.246154 40.036966 
L 355.015385 76.010292 
" clip-path="url(#pf39a95c5e1)" style="fill: none; stroke: #0000ff; stroke-linecap: square"/>
   </g>
   <g id="line2d_202">
    <path d="M 314.96794 6.646154 
L 334.246154 40.036966 
" clip-path="url(#pf39a95c5e1)" style="fill: none; stroke: #000000; stroke-width: 2; stroke-linecap: square"/>
   </g>
   <g id="line2d_203">
    <path d="M 375.784615 76.010292 
L 355.015385 76.010292 
" clip-path="url(#pf39a95c5e1)" style="fill: none; stroke: #0000ff; stroke-linecap: square"/>
   </g>
   <g id="line2d_204">
    <path d="M 375.784615 40.036966 
L 334.246154 40.036966 
" clip-path="url(#pf39a95c5e1)" style="fill: none; stroke: #000000; stroke-width: 2; stroke-linecap: square"/>
   </g>
   <g id="line2d_205">
    <path d="M 375.784615 40.036966 
L 355.015385 76.010292 
" clip-path="url(#pf39a95c5e1)" style="fill: none; stroke: #ff0000; stroke-linecap: square"/>
   </g>
   <g id="line2d_206">
    <path d="M 353.524368 6.646154 
L 334.246154 40.036966 
" clip-path="url(#pf39a95c5e1)" style="fill: none; stroke: #0000ff; stroke-linecap: square"/>
   </g>
   <g id="line2d_207">
    <path d="M 375.784615 40.036966 
L 356.506401 6.646154 
" clip-path="url(#pf39a95c5e1)" style="fill: none; stroke: #ff0000; stroke-linecap: square"/>
   </g>
   <g id="matplotlib.axis_1"/>
   <g id="matplotlib.axis_2"/>
   <g id="patch_3">
    <path d="M 168.092308 231.894706 
Q 168.092308 219.903597 168.092308 210.148556 
" clip-path="url(#pf39a95c5e1)" style="fill: none; stroke: #008000; stroke-width: 2; stroke-linecap: round"/>
    <path d="M 163.092308 220.148556 
L 168.092308 210.148556 
L 173.092308 220.148556 
L 163.092308 220.148556 
z
" clip-path="url(#pf39a95c5e1)" style="fill: #008000; stroke: #008000; stroke-width: 2; stroke-linecap: round"/>
   </g>
   <g id="patch_4">
    <path d="M 168.092308 207.912488 
Q 178.476923 201.916934 186.925046 197.039413 
" clip-path="url(#pf39a95c5e1)" style="fill: none; stroke: #008000; stroke-width: 2; stroke-linecap: round"/>
    <path d="M 175.764792 197.709281 
L 186.925046 197.039413 
L 180.764788 206.369537 
L 175.764792 197.709281 
z
" clip-path="url(#pf39a95c5e1)" style="fill: #008000; stroke: #008000; stroke-width: 2; stroke-linecap: round"/>
   </g>
   <g id="patch_5">
    <path d="M 188.861538 195.921379 
Q 188.861538 183.930271 188.861538 174.17523 
" clip-path="url(#pf39a95c5e1)" style="fill: none; stroke: #008000; stroke-width: 2; stroke-linecap: round"/>
    <path d="M 183.861538 184.17523 
L 188.861538 174.17523 
L 193.861538 184.17523 
L 183.861538 184.17523 
z
" clip-path="url(#pf39a95c5e1)" style="fill: #008000; stroke: #008000; stroke-width: 2; stroke-linecap: round"/>
   </g>
   <g id="patch_6">
    <path d="M 188.861538 171.939162 
Q 178.476923 165.943608 170.0288 161.066086 
" clip-path="url(#pf39a95c5e1)" style="fill: none; stroke: #008000; stroke-width: 2; stroke-linecap: round"/>
    <path d="M 176.189058 170.396211 
L 170.0288 161.066086 
L 181.189054 161.735955 
L 176.189058 170.396211 
z
" clip-path="url(#pf39a95c5e1)" style="fill: #008000; stroke: #008000; stroke-width: 2; stroke-linecap: round"/>
   </g>
   <g id="patch_7">
    <path d="M 168.092308 159.948053 
Q 168.092308 147.956945 168.092308 138.201904 
" clip-path="url(#pf39a95c5e1)" style="fill: none; stroke: #008000; stroke-width: 2; stroke-linecap: round"/>
    <path d="M 163.092308 148.201904 
L 168.092308 138.201904 
L 173.092308 148.201904 
L 163.092308 148.201904 
z
" clip-path="url(#pf39a95c5e1)" style="fill: #008000; stroke: #008000; stroke-width: 2; stroke-linecap: round"/>
   </g>
   <g id="patch_8">
    <path d="M 168.092308 135.965836 
Q 178.476923 129.970282 186.925046 125.09276 
" clip-path="url(#pf39a95c5e1)" style="fill: none; stroke: #008000; stroke-width: 2; stroke-linecap: round"/>
    <path d="M 175.764792 125.762628 
L 186.925046 125.09276 
L 180.764788 134.422885 
L 175.764792 125.762628 
z
" clip-path="url(#pf39a95c5e1)" style="fill: #008000; stroke: #008000; stroke-width: 2; stroke-linecap: round"/>
   </g>
   <g id="patch_9">
    <path d="M 188.861538 123.974727 
Q 188.861538 111.983618 188.861538 102.228578 
" clip-path="url(#pf39a95c5e1)" style="fill: none; stroke: #008000; stroke-width: 2; stroke-linecap: round"/>
    <path d="M 183.861538 112.228578 
L 188.861538 102.228578 
L 193.861538 112.228578 
L 183.861538 112.228578 
z
" clip-path="url(#pf39a95c5e1)" style="fill: #008000; stroke: #008000; stroke-width: 2; stroke-linecap: round"/>
   </g>
   <g id="patch_10">
    <path d="M 188.861538 99.99251 
Q 199.246154 93.996955 207.694277 89.119434 
" clip-path="url(#pf39a95c5e1)" style="fill: none; stroke: #008000; stroke-width: 2; stroke-linecap: round"/>
    <path d="M 196.534023 89.789302 
L 207.694277 89.119434 
L 201.534019 98.449558 
L 196.534023 89.789302 
z
" clip-path="url(#pf39a95c5e1)" style="fill: #008000; stroke: #008000; stroke-width: 2; stroke-linecap: round"/>
   </g>
   <g id="patch_11">
    <path d="M 209.630769 88.001401 
Q 209.630769 76.010292 209.630769 66.255252 
" clip-path="url(#pf39a95c5e1)" style="fill: none; stroke: #008000; stroke-width: 2; stroke-linecap: round"/>
    <path d="M 204.630769 76.255252 
L 209.630769 66.255252 
L 214.630769 76.255252 
L 204.630769 76.255252 
z
" clip-path="url(#pf39a95c5e1)" style="fill: #008000; stroke: #008000; stroke-width: 2; stroke-linecap: round"/>
   </g>
   <g id="patch_12">
    <path d="M 209.630769 64.019184 
Q 220.015385 58.023629 228.463508 53.146108 
" clip-path="url(#pf39a95c5e1)" style="fill: none; stroke: #008000; stroke-width: 2; stroke-linecap: round"/>
    <path d="M 217.303253 53.815976 
L 228.463508 53.146108 
L 222.30325 62.476232 
L 217.303253 53.815976 
z
" clip-path="url(#pf39a95c5e1)" style="fill: #008000; stroke: #008000; stroke-width: 2; stroke-linecap: round"/>
   </g>
   <g id="patch_13">
    <path d="M 230.4 52.028075 
Q 240.784615 58.023629 249.232739 62.90115 
" clip-path="url(#pf39a95c5e1)" style="fill: none; stroke: #008000; stroke-width: 2; stroke-linecap: round"/>
    <path d="M 243.07248 53.571026 
L 249.232739 62.90115 
L 238.072484 62.231282 
L 243.07248 53.571026 
z
" clip-path="url(#pf39a95c5e1)" style="fill: #008000; stroke: #008000; stroke-width: 2; stroke-linecap: round"/>
   </g>
   <g id="patch_14">
    <path d="M 251.169231 64.019184 
Q 251.169231 76.010292 251.169231 85.765333 
" clip-path="url(#pf39a95c5e1)" style="fill: none; stroke: #008000; stroke-width: 2; stroke-linecap: round"/>
    <path d="M 256.169231 75.765333 
L 251.169231 85.765333 
L 246.169231 75.765333 
L 256.169231 75.765333 
z
" clip-path="url(#pf39a95c5e1)" style="fill: #008000; stroke: #008000; stroke-width: 2; stroke-linecap: round"/>
   </g>
   <g id="patch_15">
    <path d="M 251.169231 88.001401 
Q 240.784615 93.996955 232.336492 98.874477 
" clip-path="url(#pf39a95c5e1)" style="fill: none; stroke: #008000; stroke-width: 2; stroke-linecap: round"/>
    <path d="M 243.496747 98.204609 
L 232.336492 98.874477 
L 238.49675 89.544352 
L 243.496747 98.204609 
z
" clip-path="url(#pf39a95c5e1)" style="fill: #008000; stroke: #008000; stroke-width: 2; stroke-linecap: round"/>
   </g>
   <g id="patch_16">
    <path d="M 230.4 99.99251 
Q 230.4 111.983618 230.4 121.738659 
" clip-path="url(#pf39a95c5e1)" style="fill: none; stroke: #008000; stroke-width: 2; stroke-linecap: round"/>
    <path d="M 235.4 111.738659 
L 230.4 121.738659 
L 225.4 111.738659 
L 235.4 111.738659 
z
" clip-path="url(#pf39a95c5e1)" style="fill: #008000; stroke: #008000; stroke-width: 2; stroke-linecap: round"/>
   </g>
   <g id="patch_17">
    <path d="M 230.4 123.974727 
Q 240.784615 129.970282 249.232739 134.847803 
" clip-path="url(#pf39a95c5e1)" style="fill: none; stroke: #008000; stroke-width: 2; stroke-linecap: round"/>
    <path d="M 243.07248 125.517678 
L 249.232739 134.847803 
L 238.072484 134.177935 
L 243.07248 125.517678 
z
" clip-path="url(#pf39a95c5e1)" style="fill: #008000; stroke: #008000; stroke-width: 2; stroke-linecap: round"/>
   </g>
   <g id="patch_18">
    <path d="M 251.169231 135.965836 
Q 261.553846 129.970282 270.001969 125.09276 
" clip-path="url(#pf39a95c5e1)" style="fill: none; stroke: #008000; stroke-width: 2; stroke-linecap: round"/>
    <path d="M 258.841715 125.762628 
L 270.001969 125.09276 
L 263.841711 134.422885 
L 258.841715 125.762628 
z
" clip-path="url(#pf39a95c5e1)" style="fill: #008000; stroke: #008000; stroke-width: 2; stroke-linecap: round"/>
   </g>
   <g id="patch_19">
    <path d="M 271.938462 123.974727 
Q 282.323077 129.970282 290.7712 134.847803 
" clip-path="url(#pf39a95c5e1)" style="fill: none; stroke: #008000; stroke-width: 2; stroke-linecap: round"/>
    <path d="M 284.610942 125.517678 
L 290.7712 134.847803 
L 279.610946 134.177935 
L 284.610942 125.517678 
z
" clip-path="url(#pf39a95c5e1)" style="fill: #008000; stroke: #008000; stroke-width: 2; stroke-linecap: round"/>
   </g>
   <g id="patch_20">
    <path d="M 292.707692 135.965836 
Q 303.092308 129.970282 311.540431 125.09276 
" clip-path="url(#pf39a95c5e1)" style="fill: none; stroke: #008000; stroke-width: 2; stroke-linecap: round"/>
    <path d="M 300.380177 125.762628 
L 311.540431 125.09276 
L 305.380173 134.422885 
L 300.380177 125.762628 
z
" clip-path="url(#pf39a95c5e1)" style="fill: #008000; stroke: #008000; stroke-width: 2; stroke-linecap: round"/>
   </g>
   <g id="patch_21">
    <path d="M 313.476923 123.974727 
Q 323.861538 129.970282 332.309662 134.847803 
" clip-path="url(#pf39a95c5e1)" style="fill: none; stroke: #008000; stroke-width: 2; stroke-linecap: round"/>
    <path d="M 326.149404 125.517678 
L 332.309662 134.847803 
L 321.149407 134.177935 
L 326.149404 125.517678 
z
" clip-path="url(#pf39a95c5e1)" style="fill: #008000; stroke: #008000; stroke-width: 2; stroke-linecap: round"/>
   </g>
   <g id="patch_22">
    <path d="M 168.092308 231.894706 
Q 178.476923 237.89026 186.925046 242.767781 
" clip-path="url(#pf39a95c5e1)" style="fill: none; stroke: #ffa500; stroke-width: 2; stroke-linecap: round"/>
    <path d="M 180.764788 233.437657 
L 186.925046 242.767781 
L 175.764792 242.097913 
L 180.764788 233.437657 
z
" clip-path="url(#pf39a95c5e1)" style="fill: #ffa500; stroke: #ffa500; stroke-width: 2; stroke-linecap: round"/>
   </g>
   <g id="patch_23">
    <path d="M 188.861538 243.885814 
Q 188.861538 255.876923 188.861538 265.631964 
" clip-path="url(#pf39a95c5e1)" style="fill: none; stroke: #ffa500; stroke-width: 2; stroke-linecap: round"/>
    <path d="M 193.861538 255.631964 
L 188.861538 265.631964 
L 183.861538 255.631964 
L 193.861538 255.631964 
z
" clip-path="url(#pf39a95c5e1)" style="fill: #ffa500; stroke: #ffa500; stroke-width: 2; stroke-linecap: round"/>
   </g>
   <g id="patch_24">
    <path d="M 188.861538 267.868032 
Q 178.476923 273.863586 170.0288 278.741107 
" clip-path="url(#pf39a95c5e1)" style="fill: none; stroke: #ffa500; stroke-width: 2; stroke-linecap: round"/>
    <path d="M 181.189054 278.071239 
L 170.0288 278.741107 
L 176.189058 269.410983 
L 181.189054 278.071239 
z
" clip-path="url(#pf39a95c5e1)" style="fill: #ffa500; stroke: #ffa500; stroke-width: 2; stroke-linecap: round"/>
   </g>
   <g id="patch_25">
    <path d="M 168.092308 279.859141 
Q 168.092308 291.850249 168.092308 301.60529 
" clip-path="url(#pf39a95c5e1)" style="fill: none; stroke: #ffa500; stroke-width: 2; stroke-linecap: round"/>
    <path d="M 173.092308 291.60529 
L 168.092308 301.60529 
L 163.092308 291.60529 
L 173.092308 291.60529 
z
" clip-path="url(#pf39a95c5e1)" style="fill: #ffa500; stroke: #ffa500; stroke-width: 2; stroke-linecap: round"/>
   </g>
   <g id="patch_26">
    <path d="M 168.092308 303.841358 
Q 178.476923 309.836912 186.925046 314.714434 
" clip-path="url(#pf39a95c5e1)" style="fill: none; stroke: #ffa500; stroke-width: 2; stroke-linecap: round"/>
    <path d="M 180.764788 305.384309 
L 186.925046 314.714434 
L 175.764792 314.044565 
L 180.764788 305.384309 
z
" clip-path="url(#pf39a95c5e1)" style="fill: #ffa500; stroke: #ffa500; stroke-width: 2; stroke-linecap: round"/>
   </g>
   <g id="patch_27">
    <path d="M 188.861538 315.832467 
Q 199.246154 309.836912 207.694277 304.959391 
" clip-path="url(#pf39a95c5e1)" style="fill: none; stroke: #ffa500; stroke-width: 2; stroke-linecap: round"/>
    <path d="M 196.534023 305.629259 
L 207.694277 304.959391 
L 201.534019 314.289515 
L 196.534023 305.629259 
z
" clip-path="url(#pf39a95c5e1)" style="fill: #ffa500; stroke: #ffa500; stroke-width: 2; stroke-linecap: round"/>
   </g>
   <g id="patch_28">
    <path d="M 209.630769 303.841358 
Q 209.630769 291.850249 209.630769 282.095208 
" clip-path="url(#pf39a95c5e1)" style="fill: none; stroke: #ffa500; stroke-width: 2; stroke-linecap: round"/>
    <path d="M 204.630769 292.095208 
L 209.630769 282.095208 
L 214.630769 292.095208 
L 204.630769 292.095208 
z
" clip-path="url(#pf39a95c5e1)" style="fill: #ffa500; stroke: #ffa500; stroke-width: 2; stroke-linecap: round"/>
   </g>
   <g id="patch_29">
    <path d="M 209.630769 279.859141 
Q 220.015385 273.863586 228.463508 268.986065 
" clip-path="url(#pf39a95c5e1)" style="fill: none; stroke: #ffa500; stroke-width: 2; stroke-linecap: round"/>
    <path d="M 217.303253 269.655933 
L 228.463508 268.986065 
L 222.30325 278.316189 
L 217.303253 269.655933 
z
" clip-path="url(#pf39a95c5e1)" style="fill: #ffa500; stroke: #ffa500; stroke-width: 2; stroke-linecap: round"/>
   </g>
   <g id="patch_30">
    <path d="M 230.4 267.868032 
Q 240.784615 273.863586 249.232739 278.741107 
" clip-path="url(#pf39a95c5e1)" style="fill: none; stroke: #ffa500; stroke-width: 2; stroke-linecap: round"/>
    <path d="M 243.07248 269.410983 
L 249.232739 278.741107 
L 238.072484 278.071239 
L 243.07248 269.410983 
z
" clip-path="url(#pf39a95c5e1)" style="fill: #ffa500; stroke: #ffa500; stroke-width: 2; stroke-linecap: round"/>
   </g>
   <g id="patch_31">
    <path d="M 251.169231 279.859141 
Q 261.553846 273.863586 270.001969 268.986065 
" clip-path="url(#pf39a95c5e1)" style="fill: none; stroke: #ffa500; stroke-width: 2; stroke-linecap: round"/>
    <path d="M 258.841715 269.655933 
L 270.001969 268.986065 
L 263.841711 278.316189 
L 258.841715 269.655933 
z
" clip-path="url(#pf39a95c5e1)" style="fill: #ffa500; stroke: #ffa500; stroke-width: 2; stroke-linecap: round"/>
   </g>
   <g id="patch_32">
    <path d="M 271.938462 267.868032 
Q 282.323077 273.863586 290.7712 278.741107 
" clip-path="url(#pf39a95c5e1)" style="fill: none; stroke: #ffa500; stroke-width: 2; stroke-linecap: round"/>
    <path d="M 284.610942 269.410983 
L 290.7712 278.741107 
L 279.610946 278.071239 
L 284.610942 269.410983 
z
" clip-path="url(#pf39a95c5e1)" style="fill: #ffa500; stroke: #ffa500; stroke-width: 2; stroke-linecap: round"/>
   </g>
   <g id="patch_33">
    <path d="M 292.707692 279.859141 
Q 303.092308 273.863586 311.540431 268.986065 
" clip-path="url(#pf39a95c5e1)" style="fill: none; stroke: #ffa500; stroke-width: 2; stroke-linecap: round"/>
    <path d="M 300.380177 269.655933 
L 311.540431 268.986065 
L 305.380173 278.316189 
L 300.380177 269.655933 
z
" clip-path="url(#pf39a95c5e1)" style="fill: #ffa500; stroke: #ffa500; stroke-width: 2; stroke-linecap: round"/>
   </g>
   <g id="patch_34">
    <path d="M 313.476923 267.868032 
Q 313.476923 255.876923 313.476923 246.121882 
" clip-path="url(#pf39a95c5e1)" style="fill: none; stroke: #ffa500; stroke-width: 2; stroke-linecap: round"/>
    <path d="M 308.476923 256.121882 
L 313.476923 246.121882 
L 318.476923 256.121882 
L 308.476923 256.121882 
z
" clip-path="url(#pf39a95c5e1)" style="fill: #ffa500; stroke: #ffa500; stroke-width: 2; stroke-linecap: round"/>
   </g>
   <g id="patch_35">
    <path d="M 313.476923 243.885814 
Q 303.092308 237.89026 294.644184 233.012739 
" clip-path="url(#pf39a95c5e1)" style="fill: none; stroke: #ffa500; stroke-width: 2; stroke-linecap: round"/>
    <path d="M 300.804443 242.342863 
L 294.644184 233.012739 
L 305.804439 233.682607 
L 300.804443 242.342863 
z
" clip-path="url(#pf39a95c5e1)" style="fill: #ffa500; stroke: #ffa500; stroke-width: 2; stroke-linecap: round"/>
   </g>
   <g id="patch_36">
    <path d="M 292.707692 231.894706 
Q 282.323077 237.89026 273.874954 242.767781 
" clip-path="url(#pf39a95c5e1)" style="fill: none; stroke: #ffa500; stroke-width: 2; stroke-linecap: round"/>
    <path d="M 285.035208 242.097913 
L 273.874954 242.767781 
L 280.035212 233.437657 
L 285.035208 242.097913 
z
" clip-path="url(#pf39a95c5e1)" style="fill: #ffa500; stroke: #ffa500; stroke-width: 2; stroke-linecap: round"/>
   </g>
   <g id="patch_37">
    <path d="M 271.938462 243.885814 
Q 261.553846 237.89026 253.105723 233.012739 
" clip-path="url(#pf39a95c5e1)" style="fill: none; stroke: #ffa500; stroke-width: 2; stroke-linecap: round"/>
    <path d="M 259.265981 242.342863 
L 253.105723 233.012739 
L 264.265977 233.682607 
L 259.265981 242.342863 
z
" clip-path="url(#pf39a95c5e1)" style="fill: #ffa500; stroke: #ffa500; stroke-width: 2; stroke-linecap: round"/>
   </g>
   <g id="patch_38">
    <path d="M 251.169231 231.894706 
Q 251.169231 219.903597 251.169231 210.148556 
" clip-path="url(#pf39a95c5e1)" style="fill: none; stroke: #ffa500; stroke-width: 2; stroke-linecap: round"/>
    <path d="M 246.169231 220.148556 
L 251.169231 210.148556 
L 256.169231 220.148556 
L 246.169231 220.148556 
z
" clip-path="url(#pf39a95c5e1)" style="fill: #ffa500; stroke: #ffa500; stroke-width: 2; stroke-linecap: round"/>
   </g>
   <g id="patch_39">
    <path d="M 251.169231 207.912488 
Q 240.784615 201.916934 232.336492 197.039413 
" clip-path="url(#pf39a95c5e1)" style="fill: none; stroke: #ffa500; stroke-width: 2; stroke-linecap: round"/>
    <path d="M 238.49675 206.369537 
L 232.336492 197.039413 
L 243.496747 197.709281 
L 238.49675 206.369537 
z
" clip-path="url(#pf39a95c5e1)" style="fill: #ffa500; stroke: #ffa500; stroke-width: 2; stroke-linecap: round"/>
   </g>
   <g id="patch_40">
    <path d="M 230.4 195.921379 
Q 230.4 183.930271 230.4 174.17523 
" clip-path="url(#pf39a95c5e1)" style="fill: none; stroke: #ffa500; stroke-width: 2; stroke-linecap: round"/>
    <path d="M 225.4 184.17523 
L 230.4 174.17523 
L 235.4 184.17523 
L 225.4 184.17523 
z
" clip-path="url(#pf39a95c5e1)" style="fill: #ffa500; stroke: #ffa500; stroke-width: 2; stroke-linecap: round"/>
   </g>
   <g id="patch_41">
    <path d="M 230.4 171.939162 
Q 240.784615 165.943608 249.232739 161.066086 
" clip-path="url(#pf39a95c5e1)" style="fill: none; stroke: #ffa500; stroke-width: 2; stroke-linecap: round"/>
    <path d="M 238.072484 161.735955 
L 249.232739 161.066086 
L 243.07248 170.396211 
L 238.072484 161.735955 
z
" clip-path="url(#pf39a95c5e1)" style="fill: #ffa500; stroke: #ffa500; stroke-width: 2; stroke-linecap: round"/>
   </g>
   <g id="patch_42">
    <path d="M 251.169231 159.948053 
Q 261.553846 165.943608 270.001969 170.821129 
" clip-path="url(#pf39a95c5e1)" style="fill: none; stroke: #ffa500; stroke-width: 2; stroke-linecap: round"/>
    <path d="M 263.841711 161.491005 
L 270.001969 170.821129 
L 258.841715 170.151261 
L 263.841711 161.491005 
z
" clip-path="url(#pf39a95c5e1)" style="fill: #ffa500; stroke: #ffa500; stroke-width: 2; stroke-linecap: round"/>
   </g>
   <g id="patch_43">
    <path d="M 271.938462 171.939162 
Q 282.323077 165.943608 290.7712 161.066086 
" clip-path="url(#pf39a95c5e1)" style="fill: none; stroke: #ffa500; stroke-width: 2; stroke-linecap: round"/>
    <path d="M 279.610946 161.735955 
L 290.7712 161.066086 
L 284.610942 170.396211 
L 279.610946 161.735955 
z
" clip-path="url(#pf39a95c5e1)" style="fill: #ffa500; stroke: #ffa500; stroke-width: 2; stroke-linecap: round"/>
   </g>
   <g id="patch_44">
    <path d="M 292.707692 159.948053 
Q 303.092308 165.943608 311.540431 170.821129 
" clip-path="url(#pf39a95c5e1)" style="fill: none; stroke: #ffa500; stroke-width: 2; stroke-linecap: round"/>
    <path d="M 305.380173 161.491005 
L 311.540431 170.821129 
L 300.380177 170.151261 
L 305.380173 161.491005 
z
" clip-path="url(#pf39a95c5e1)" style="fill: #ffa500; stroke: #ffa500; stroke-width: 2; stroke-linecap: round"/>
   </g>
   <g id="patch_45">
    <path d="M 313.476923 171.939162 
Q 323.861538 165.943608 332.309662 161.066086 
" clip-path="url(#pf39a95c5e1)" style="fill: none; stroke: #ffa500; stroke-width: 2; stroke-linecap: round"/>
    <path d="M 321.149407 161.735955 
L 332.309662 161.066086 
L 326.149404 170.396211 
L 321.149407 161.735955 
z
" clip-path="url(#pf39a95c5e1)" style="fill: #ffa500; stroke: #ffa500; stroke-width: 2; stroke-linecap: round"/>
   </g>
   <g id="patch_46">
    <path d="M 334.246154 159.948053 
Q 334.246154 147.956945 334.246154 138.201904 
" clip-path="url(#pf39a95c5e1)" style="fill: none; stroke: #ffa500; stroke-width: 2; stroke-linecap: round"/>
    <path d="M 329.246154 148.201904 
L 334.246154 138.201904 
L 339.246154 148.201904 
L 329.246154 148.201904 
z
" clip-path="url(#pf39a95c5e1)" style="fill: #ffa500; stroke: #ffa500; stroke-width: 2; stroke-linecap: round"/>
   </g>
   <g id="patch_47">
    <path d="M 168.092308 231.894706 
Q 168.092308 219.903597 168.092308 210.148556 
" clip-path="url(#pf39a95c5e1)" style="fill: none; stroke: #800080; stroke-width: 2; stroke-linecap: round"/>
    <path d="M 163.092308 220.148556 
L 168.092308 210.148556 
L 173.092308 220.148556 
L 163.092308 220.148556 
z
" clip-path="url(#pf39a95c5e1)" style="fill: #800080; stroke: #800080; stroke-width: 2; stroke-linecap: round"/>
   </g>
   <g id="patch_48">
    <path d="M 168.092308 207.912488 
Q 157.707692 201.916934 149.259569 197.039413 
" clip-path="url(#pf39a95c5e1)" style="fill: none; stroke: #800080; stroke-width: 2; stroke-linecap: round"/>
    <path d="M 155.419827 206.369537 
L 149.259569 197.039413 
L 160.419823 197.709281 
L 155.419827 206.369537 
z
" clip-path="url(#pf39a95c5e1)" style="fill: #800080; stroke: #800080; stroke-width: 2; stroke-linecap: round"/>
   </g>
   <g id="line2d_208">
    <path d="M 147.323077 195.921379 
L 147.323077 183.930271 
" clip-path="url(#pf39a95c5e1)" style="fill: none; stroke: #800080; stroke-linecap: square"/>
   </g>
   <g id="patch_49">
    <path d="M 147.323077 183.930271 
Q 147.323077 189.925825 147.323077 193.685312 
" clip-path="url(#pf39a95c5e1)" style="fill: none; stroke: #800080; stroke-width: 2; stroke-linecap: round"/>
    <path d="M 152.323077 183.685312 
L 147.323077 193.685312 
L 142.323077 183.685312 
L 152.323077 183.685312 
z
" clip-path="url(#pf39a95c5e1)" style="fill: #800080; stroke: #800080; stroke-width: 2; stroke-linecap: round"/>
   </g>
   <g id="patch_50">
    <path d="M 147.323077 195.921379 
Q 136.938462 201.916934 128.490338 206.794455 
" clip-path="url(#pf39a95c5e1)" style="fill: none; stroke: #800080; stroke-width: 2; stroke-linecap: round"/>
    <path d="M 139.650593 206.124587 
L 128.490338 206.794455 
L 134.650596 197.464331 
L 139.650593 206.124587 
z
" clip-path="url(#pf39a95c5e1)" style="fill: #800080; stroke: #800080; stroke-width: 2; stroke-linecap: round"/>
   </g>
   <g id="patch_51">
    <path d="M 126.553846 207.912488 
Q 116.169231 201.916934 107.721108 197.039413 
" clip-path="url(#pf39a95c5e1)" style="fill: none; stroke: #800080; stroke-width: 2; stroke-linecap: round"/>
    <path d="M 113.881366 206.369537 
L 107.721108 197.039413 
L 118.881362 197.709281 
L 113.881366 206.369537 
z
" clip-path="url(#pf39a95c5e1)" style="fill: #800080; stroke: #800080; stroke-width: 2; stroke-linecap: round"/>
   </g>
   <g id="patch_52">
    <path d="M 105.784615 195.921379 
Q 105.784615 183.930271 105.784615 174.17523 
" clip-path="url(#pf39a95c5e1)" style="fill: none; stroke: #800080; stroke-width: 2; stroke-linecap: round"/>
    <path d="M 100.784615 184.17523 
L 105.784615 174.17523 
L 110.784615 184.17523 
L 100.784615 184.17523 
z
" clip-path="url(#pf39a95c5e1)" style="fill: #800080; stroke: #800080; stroke-width: 2; stroke-linecap: round"/>
   </g>
   <g id="line2d_209">
    <path d="M 105.784615 171.939162 
L 95.4 165.943608 
" clip-path="url(#pf39a95c5e1)" style="fill: none; stroke: #800080; stroke-linecap: square"/>
   </g>
   <g id="patch_53">
    <path d="M 95.4 165.943608 
Q 100.592308 168.941385 103.848123 170.821129 
" clip-path="url(#pf39a95c5e1)" style="fill: none; stroke: #800080; stroke-width: 2; stroke-linecap: round"/>
    <path d="M 97.687865 161.491005 
L 103.848123 170.821129 
L 92.687869 170.151261 
L 97.687865 161.491005 
z
" clip-path="url(#pf39a95c5e1)" style="fill: #800080; stroke: #800080; stroke-width: 2; stroke-linecap: round"/>
   </g>
   <g id="patch_54">
    <path d="M 105.784615 171.939162 
Q 116.169231 165.943608 124.617354 161.066086 
" clip-path="url(#pf39a95c5e1)" style="fill: none; stroke: #800080; stroke-width: 2; stroke-linecap: round"/>
    <path d="M 113.4571 161.735955 
L 124.617354 161.066086 
L 118.457096 170.396211 
L 113.4571 161.735955 
z
" clip-path="url(#pf39a95c5e1)" style="fill: #800080; stroke: #800080; stroke-width: 2; stroke-linecap: round"/>
   </g>
   <g id="line2d_210">
    <path d="M 126.553846 159.948053 
L 136.938462 165.943608 
" clip-path="url(#pf39a95c5e1)" style="fill: none; stroke: #800080; stroke-linecap: square"/>
   </g>
   <g id="patch_55">
    <path d="M 136.938462 165.943608 
Q 131.746154 162.945831 128.490338 161.066086 
" clip-path="url(#pf39a95c5e1)" style="fill: none; stroke: #800080; stroke-width: 2; stroke-linecap: round"/>
    <path d="M 134.650596 170.396211 
L 128.490338 161.066086 
L 139.650593 161.735955 
L 134.650596 170.396211 
z
" clip-path="url(#pf39a95c5e1)" style="fill: #800080; stroke: #800080; stroke-width: 2; stroke-linecap: round"/>
   </g>
   <g id="patch_56">
    <path d="M 126.553846 159.948053 
Q 126.553846 147.956945 126.553846 138.201904 
" clip-path="url(#pf39a95c5e1)" style="fill: none; stroke: #800080; stroke-width: 2; stroke-linecap: round"/>
    <path d="M 121.553846 148.201904 
L 126.553846 138.201904 
L 131.553846 148.201904 
L 121.553846 148.201904 
z
" clip-path="url(#pf39a95c5e1)" style="fill: #800080; stroke: #800080; stroke-width: 2; stroke-linecap: round"/>
   </g>
  </g>
 </g>
 <defs>
  <clipPath id="pf39a95c5e1">
   <rect x="79.2" y="0" width="302.4" height="345.6"/>
  </clipPath>
 </defs>
</svg>
